0,2,4,5
0,3,1,2
0,3,4,6
0,3,7,3
0,5,1,5
0,5,4,9
0,5,7,8
0,6,4,1
1,1,0,5
1,1,2,8
1,1,6,3
1,1,8,9
1,3,4,2
1,4,1,8
1,4,7,9
1,5,4,5
1,7,0,8
1,7,2,7
1,7,6,9
1,7,8,2
2,1,2,6
2,1,6,7
2,3,1,9
2,3,4,8
2,3,7,2
2,5,1,7
2,5,4,1
2,5,7,5
2,7,2,2
2,7,6,5
3,0,3,3
3,0,5,4
3,2,0,1
3,2,2,6
3,2,4,9
3,2,6,3
3,2,8,2
3,3,4,5
3,4,2,3
3,4,6,9
3,5,4,7
3,6,0,7
3,6,2,9
3,6,4,3
3,6,6,6
3,6,8,4
3,8,3,7
3,8,5,9
4,1,0,7
4,1,4,3
4,1,8,5
4,4,1,9
4,4,4,8
4,4,7,2
4,7,0,9
4,7,4,2
4,7,8,1
5,0,3,2
5,0,5,1
5,2,0,9
5,2,2,2
5,2,4,4
5,2,6,5
5,2,8,1
5,3,4,1
5,4,2,5
5,4,6,4
5,5,4,3
5,6,0,3
5,6,2,4
5,6,4,5
5,6,6,2
5,6,8,7
5,8,3,3
5,8,5,2
6,1,2,3
6,1,6,1
6,3,1,8
6,3,4,4
6,3,7,9
6,5,1,1
6,5,4,2
6,5,7,7
6,7,2,9
6,7,6,6
7,1,0,6
7,1,2,4
7,1,6,2
7,1,8,8
7,3,4,7
7,4,1,5
7,4,7,8
7,5,4,6
7,7,0,2
7,7,2,1
7,7,6,8
7,7,8,7
8,2,4,7
8,3,1,6
8,3,4,3
8,3,7,4
8,5,1,9
8,5,4,8
8,5,7,2
8,6,4,4
