0,1,2,3
0,1,6,2
0,2,0,4
0,2,8,8
0,6,0,7
0,6,8,5
0,7,2,6
0,7,6,7
1,4,4,1
2,0,0,7
2,0,1,4
2,0,4,3
2,0,7,1
2,0,8,9
2,1,1,8
2,1,2,6
2,1,6,7
2,1,7,5
2,3,2,4
2,3,3,1
2,3,4,5
2,3,5,3
2,3,6,9
2,4,4,2
2,5,2,7
2,5,3,8
2,5,4,6
2,5,5,9
2,5,6,1
2,7,1,7
2,7,2,9
2,7,6,5
2,7,7,3
2,8,0,6
2,8,1,5
2,8,4,8
2,8,7,7
2,8,8,4
3,0,0,1
3,0,8,4
3,3,3,3
3,3,4,1
3,3,5,8
3,5,3,2
3,5,4,7
3,5,5,4
3,8,0,3
3,8,8,7
4,1,0,3
4,1,2,8
4,1,3,7
4,1,5,5
4,1,6,4
4,1,8,6
4,3,1,9
4,3,7,6
4,5,1,8
4,5,7,1
4,7,0,9
4,7,2,7
4,7,3,2
4,7,5,4
4,7,6,1
4,7,8,3
5,0,0,9
5,0,8,3
5,3,3,6
5,3,4,9
5,3,5,5
5,5,3,1
5,5,4,8
5,5,5,3
5,8,0,7
5,8,8,8
6,0,0,6
6,0,1,9
6,0,4,2
6,0,7,7
6,0,8,5
6,1,1,3
6,1,2,1
6,1,6,6
6,1,7,4
6,3,2,9
6,3,3,7
6,3,4,4
6,3,5,2
6,3,6,5
6,4,4,8
6,5,2,6
6,5,3,3
6,5,4,1
6,5,5,5
6,5,6,7
6,7,1,6
6,7,2,5
6,7,6,4
6,7,7,2
6,8,0,1
6,8,1,4
6,8,4,3
6,8,7,6
6,8,8,9
7,4,4,7
8,1,2,2
8,1,6,8
8,2,0,9
8,2,8,3
8,6,0,6
8,6,8,4
8,7,2,1
8,7,6,6
