0,0,0,9
0,0,1,7
0,0,4,2
0,0,7,5
0,0,8,8
0,1,2,2
0,1,4,3
0,1,6,1
0,2,1,8
0,2,7,9
0,3,3,3
0,3,5,8
0,4,0,8
0,4,1,3
0,4,7,6
0,4,8,2
0,5,3,2
0,5,5,6
0,6,1,4
0,6,7,2
0,7,2,7
0,7,4,6
0,7,6,8
0,8,0,2
0,8,1,5
0,8,4,8
0,8,7,1
0,8,8,4
1,1,0,8
1,1,8,2
1,3,0,3
1,3,4,7
1,3,8,9
1,4,1,9
1,4,7,3
1,5,0,2
1,5,4,8
1,5,8,4
1,7,0,5
1,7,8,7
2,1,4,6
2,2,0,2
2,2,1,5
2,2,2,6
2,2,6,7
2,2,7,1
2,2,8,4
2,3,3,6
2,3,4,2
2,3,5,4
2,5,3,7
2,5,4,1
2,5,5,5
2,6,0,6
2,6,1,2
2,6,2,5
2,6,6,4
2,6,7,7
2,6,8,1
2,7,4,5
3,0,2,4
3,0,6,9
3,1,0,7
3,1,4,4
3,1,8,6
3,2,2,5
3,2,6,4
3,6,2,7
3,6,6,1
3,7,0,2
3,7,4,1
3,7,8,4
3,8,2,1
3,8,6,3
4,0,3,4
4,0,5,2
4,1,0,2
4,1,2,3
4,1,6,7
4,1,8,4
4,3,2,4
4,3,6,9
4,5,2,5
4,5,6,4
4,7,0,4
4,7,2,6
4,7,6,2
4,7,8,3
4,8,3,3
4,8,5,4
5,0,2,2
5,0,6,8
5,1,0,4
5,1,4,8
5,1,8,3
5,2,2,8
5,2,6,6
5,6,2,4
5,6,6,9
5,7,0,7
5,7,4,4
5,7,8,6
5,8,2,5
5,8,6,4
6,1,4,2
6,2,0,5
6,2,1,6
6,2,2,2
6,2,6,1
6,2,7,4
6,2,8,7
6,3,3,2
6,3,4,4
6,3,5,6
6,5,3,1
6,5,4,5
6,5,5,7
6,6,0,2
6,6,1,5
6,6,2,6
6,6,6,7
6,6,7,1
6,6,8,4
6,7,4,7
7,1,0,6
7,1,8,1
7,3,0,2
7,3,4,8
7,3,8,4
7,4,1,4
7,4,7,2
7,5,0,1
7,5,4,6
7,5,8,5
7,7,0,9
7,7,8,8
8,0,0,2
8,0,1,5
8,0,4,8
8,0,7,1
8,0,8,4
8,1,2,8
8,1,4,7
8,1,6,6
8,2,1,9
8,2,7,3
8,3,3,7
8,3,5,5
8,4,0,9
8,4,1,7
8,4,7,5
8,4,8,8
8,5,3,8
8,5,5,9
8,6,1,1
8,6,7,8
8,7,2,5
8,7,4,9
8,7,6,4
8,8,0,8
8,8,1,3
8,8,4,5
8,8,7,6
8,8,8,2
