0,0,3,7
0,0,5,9
0,1,0,9
0,1,1,7
0,1,3,6
0,1,5,4
0,1,7,5
0,1,8,2
0,2,3,2
0,2,5,5
0,6,3,4
0,6,5,8
0,7,0,3
0,7,1,4
0,7,3,5
0,7,5,1
0,7,7,8
0,7,8,9
0,8,3,9
0,8,5,3
1,1,2,2
1,1,4,7
1,1,6,6
1,2,1,9
1,2,7,3
1,3,1,6
1,3,3,2
1,3,5,4
1,3,7,5
1,4,2,3
1,4,6,8
1,5,1,7
1,5,3,6
1,5,5,9
1,5,7,4
1,6,1,8
1,6,7,7
1,7,2,9
1,7,4,4
1,7,6,5
2,0,2,9
2,0,3,8
2,0,5,6
2,0,6,5
2,2,1,8
2,2,4,9
2,2,7,6
2,4,2,6
2,4,6,7
2,6,1,7
2,6,4,1
2,6,7,9
2,8,2,1
2,8,3,7
2,8,5,4
2,8,6,3
3,0,1,9
3,0,7,6
3,2,2,2
3,2,6,3
3,3,2,9
3,3,3,8
3,3,5,1
3,3,6,6
3,5,2,6
3,5,3,4
3,5,5,5
3,5,6,8
3,6,2,4
3,6,6,7
3,8,1,6
3,8,7,8
4,1,1,2
4,1,3,5
4,1,5,9
4,1,7,8
4,3,1,1
4,3,2,8
4,3,6,5
4,3,7,4
4,5,1,9
4,5,2,5
4,5,6,7
4,5,7,2
4,7,1,7
4,7,3,4
4,7,5,5
4,7,7,3
5,0,1,6
5,0,7,3
5,2,2,1
5,2,6,9
5,3,2,2
5,3,3,5
5,3,5,9
5,3,6,1
5,5,2,3
5,5,3,7
5,5,5,6
5,5,6,4
5,6,2,6
5,6,6,3
5,8,1,1
5,8,7,4
6,0,2,2
6,0,3,9
6,0,5,3
6,0,6,6
6,2,1,4
6,2,4,2
6,2,7,8
6,4,2,8
6,4,6,1
6,6,1,1
6,6,4,4
6,6,7,6
6,8,2,5
6,8,3,3
6,8,5,2
6,8,6,4
7,1,2,3
7,1,4,1
7,1,6,8
7,2,1,2
7,2,7,4
7,3,1,8
7,3,3,3
7,3,5,6
7,3,7,2
7,4,2,9
7,4,6,5
7,5,1,3
7,5,3,1
7,5,5,7
7,5,7,6
7,6,1,4
7,6,7,8
7,7,2,6
7,7,4,2
7,7,6,7
8,0,3,1
8,0,5,2
8,1,0,2
8,1,1,8
8,1,3,3
8,1,5,7
8,1,7,6
8,1,8,1
8,2,3,8
8,2,5,6
8,6,3,2
8,6,5,9
8,7,0,9
8,7,1,2
8,7,3,7
8,7,5,4
8,7,7,5
8,7,8,6
8,8,3,6
8,8,5,5
