0,0,4,5
0,1,4,6
0,3,0,3
0,3,3,1
0,3,4,2
0,3,5,5
0,3,8,4
0,4,4,3
0,5,0,2
0,5,3,6
0,5,4,9
0,5,5,8
0,5,8,3
0,7,4,4
0,8,4,7
1,0,4,4
1,1,3,8
1,1,5,9
1,2,3,5
1,2,5,6
1,3,4,6
1,4,3,9
1,4,4,8
1,4,5,2
1,5,4,5
1,6,3,4
1,6,5,7
1,7,3,6
1,7,5,8
1,8,4,2
2,1,1,7
2,1,4,2
2,1,7,6
2,4,2,2
2,4,3,5
2,4,4,1
2,4,5,6
2,4,6,4
2,7,1,9
2,7,4,5
2,7,7,4
3,0,3,3
3,0,5,4
3,1,0,4
3,1,4,8
3,1,8,6
3,7,0,1
3,7,4,7
3,7,8,5
3,8,3,5
3,8,5,6
4,0,4,7
4,1,4,1
4,3,4,8
4,4,0,7
4,4,1,5
4,4,3,6
4,4,5,1
4,4,7,9
4,4,8,8
4,5,4,2
4,7,4,6
4,8,4,3
5,0,3,1
5,0,5,9
5,1,0,9
5,1,4,3
5,1,8,7
5,7,0,8
5,7,4,2
5,7,8,4
5,8,3,4
5,8,5,7
6,1,1,5
6,1,4,4
6,1,7,9
6,4,2,5
6,4,3,3
6,4,4,2
6,4,5,4
6,4,6,1
6,7,1,8
6,7,4,3
6,7,7,1
7,0,4,8
7,1,3,6
7,1,5,1
7,2,3,3
7,2,5,4
7,3,4,9
7,4,3,1
7,4,4,7
7,4,5,5
7,5,4,3
7,6,3,8
7,6,5,9
7,7,3,5
7,7,5,2
7,8,4,4
8,0,4,3
8,1,4,9
8,3,0,6
8,3,3,7
8,3,4,4
8,3,5,3
8,3,8,1
8,4,4,6
8,5,0,9
8,5,3,5
8,5,4,1
8,5,5,2
8,5,8,6
8,7,4,8
8,8,4,5
