0,0,1,4
0,0,3,9
0,0,5,6
0,0,7,7
0,1,1,2
0,1,7,6
0,4,2,7
0,4,3,3
0,4,5,4
0,4,6,6
0,7,1,7
0,7,7,3
0,8,1,6
0,8,3,7
0,8,5,3
0,8,7,8
1,2,0,4
1,2,2,5
1,2,6,7
1,2,8,8
1,4,0,3
1,4,4,2
1,4,8,5
1,6,0,7
1,6,2,8
1,6,6,3
1,6,8,9
2,1,1,5
2,1,7,8
2,2,0,3
2,2,2,2
2,2,6,9
2,2,8,6
2,4,0,5
2,4,8,2
2,6,0,9
2,6,2,6
2,6,6,5
2,6,8,8
2,7,1,3
2,7,7,2
3,0,1,1
3,0,7,5
3,1,0,5
3,1,8,1
3,2,2,6
3,2,3,1
3,2,5,5
3,2,6,2
3,3,2,4
3,3,6,5
3,5,2,7
3,5,6,4
3,6,2,3
3,6,3,7
3,6,5,6
3,6,6,1
3,7,0,9
3,7,8,7
3,8,1,7
3,8,7,2
4,2,2,3
4,2,3,4
4,2,5,2
4,2,6,1
4,4,4,6
4,6,2,7
4,6,3,9
4,6,5,3
4,6,6,4
5,0,1,9
5,0,7,1
5,1,0,8
5,1,8,2
5,2,2,4
5,2,3,6
5,2,5,3
5,2,6,5
5,3,2,1
5,3,6,8
5,5,2,8
5,5,6,3
5,6,2,9
5,6,3,1
5,6,5,4
5,6,6,6
5,7,0,7
5,7,8,8
5,8,1,3
5,8,7,5
6,1,1,7
6,1,7,1
6,2,0,8
6,2,2,9
6,2,6,4
6,2,8,5
6,4,0,7
6,4,8,9
6,6,0,4
6,6,2,5
6,6,6,7
6,6,8,1
6,7,1,8
6,7,7,9
7,2,0,5
7,2,2,1
7,2,6,8
7,2,8,2
7,4,0,9
7,4,4,7
7,4,8,1
7,6,0,8
7,6,2,2
7,6,6,9
7,6,8,6
8,0,1,8
8,0,3,1
8,0,5,2
8,0,7,4
8,1,1,1
8,1,7,2
8,4,2,4
8,4,3,6
8,4,5,1
8,4,6,2
8,7,1,4
8,7,7,7
8,8,1,2
8,8,3,4
8,8,5,5
8,8,7,6
