0,1,1,8
0,1,4,5
0,1,7,6
0,2,4,8
0,3,4,4
0,5,4,7
0,6,4,1
0,7,1,9
0,7,4,3
0,7,7,1
1,1,1,9
1,1,7,2
1,2,1,2
1,2,7,3
1,3,1,5
1,3,7,1
1,5,1,6
1,5,7,5
1,6,1,8
1,6,7,7
1,7,1,7
1,7,7,4
2,0,4,4
2,1,0,2
2,1,3,9
2,1,5,6
2,1,8,8
2,2,3,2
2,2,5,5
2,3,3,5
2,3,4,8
2,3,5,7
2,4,3,1
2,4,5,4
2,5,3,6
2,5,4,9
2,5,5,2
2,6,3,8
2,6,5,9
2,7,0,4
2,7,3,7
2,7,5,1
2,7,8,9
2,8,4,2
3,0,0,6
3,0,8,9
3,3,2,2
3,3,6,3
3,4,2,1
3,4,3,8
3,4,4,7
3,4,5,3
3,4,6,9
3,5,2,8
3,5,6,6
3,8,0,2
3,8,8,8
4,0,3,9
4,0,5,4
4,1,2,9
4,1,4,8
4,1,6,7
4,2,0,8
4,2,3,3
4,2,5,7
4,2,8,1
4,3,4,3
4,4,1,8
4,4,3,4
4,4,5,2
4,4,7,5
4,5,4,6
4,6,0,4
4,6,3,2
4,6,5,6
4,6,8,7
4,7,2,2
4,7,4,7
4,7,6,9
4,8,3,8
4,8,5,9
5,0,0,4
5,0,8,7
5,3,2,3
5,3,6,5
5,4,2,9
5,4,3,6
5,4,4,1
5,4,5,5
5,4,6,7
5,5,2,6
5,5,6,4
5,8,0,9
5,8,8,3
6,0,4,9
6,1,0,8
6,1,3,5
6,1,5,7
6,1,8,1
6,2,3,8
6,2,5,4
6,3,3,4
6,3,4,1
6,3,5,3
6,4,3,2
6,4,5,9
6,5,3,7
6,5,4,5
6,5,5,8
6,6,3,1
6,6,5,5
6,7,0,9
6,7,3,3
6,7,5,2
6,7,8,5
6,8,4,8
7,1,1,5
7,1,7,8
7,2,1,8
7,2,7,6
7,3,1,4
7,3,7,2
7,5,1,7
7,5,7,4
7,6,1,1
7,6,7,3
7,7,1,3
7,7,7,9
8,1,1,1
8,1,4,4
8,1,7,7
8,2,4,1
8,3,4,9
8,5,4,3
8,6,4,2
8,7,1,5
8,7,4,6
8,7,7,2
