0,0,3,3
0,0,5,1
0,1,0,6
0,1,3,9
0,1,4,4
0,1,5,2
0,1,8,3
0,2,4,6
0,3,1,9
0,3,4,1
0,3,7,6
0,4,1,7
0,4,2,6
0,4,6,1
0,4,7,3
0,5,1,8
0,5,4,5
0,5,7,4
0,6,4,3
0,7,0,7
0,7,3,2
0,7,4,9
0,7,5,4
0,7,8,1
0,8,3,5
0,8,5,6
1,0,1,1
1,0,7,2
1,3,2,8
1,3,6,2
1,5,2,7
1,5,6,8
1,8,1,7
1,8,7,3
2,0,3,4
2,0,5,9
2,1,3,6
2,1,4,5
2,1,5,7
2,3,1,6
2,3,7,8
2,4,1,1
2,4,7,2
2,5,1,4
2,5,7,5
2,7,3,7
2,7,4,6
2,7,5,5
2,8,3,3
2,8,5,1
3,2,0,9
3,2,2,7
3,2,6,8
3,2,8,3
3,4,2,4
3,4,3,2
3,4,4,6
3,4,5,5
3,4,6,3
3,6,0,4
3,6,2,9
3,6,6,1
3,6,8,8
4,0,2,5
4,0,6,7
4,1,1,7
4,1,3,5
4,1,5,6
4,1,7,3
4,2,2,1
4,2,4,4
4,2,6,6
4,3,2,7
4,3,4,5
4,3,6,8
4,4,2,8
4,4,3,7
4,4,4,9
4,4,5,4
4,4,6,2
4,5,2,6
4,5,4,8
4,5,6,4
4,6,2,3
4,6,4,7
4,6,6,5
4,7,1,5
4,7,3,1
4,7,5,8
4,7,7,4
4,8,2,4
4,8,6,3
5,2,0,6
5,2,2,2
5,2,6,9
5,2,8,7
5,4,2,5
5,4,3,8
5,4,4,1
5,4,5,3
5,4,6,7
5,6,0,5
5,6,2,6
5,6,6,4
5,6,8,9
6,0,3,1
6,0,5,8
6,1,3,2
6,1,4,9
6,1,5,4
6,3,1,2
6,3,7,7
6,4,1,5
6,4,7,1
6,5,1,3
6,5,7,9
6,7,3,4
6,7,4,2
6,7,5,9
6,8,3,6
6,8,5,7
7,0,1,5
7,0,7,1
7,3,2,6
7,3,6,1
7,5,2,4
7,5,6,7
7,8,1,4
7,8,7,5
8,0,3,6
8,0,5,7
8,1,0,2
8,1,3,8
8,1,4,1
8,1,5,3
8,1,8,5
8,2,4,2
8,3,1,1
8,3,4,7
8,3,7,2
8,4,1,4
8,4,2,2
8,4,6,6
8,4,7,5
8,5,1,6
8,5,4,9
8,5,7,8
8,6,4,6
8,7,0,4
8,7,3,3
8,7,4,8
8,7,5,1
8,7,8,6
8,8,3,9
8,8,5,2
