0,0,3,7
0,0,5,1
0,1,1,4
0,1,3,8
0,1,5,5
0,1,7,1
0,4,3,2
0,4,5,8
0,7,1,3
0,7,3,5
0,7,5,2
0,7,7,9
0,8,3,3
0,8,5,6
1,0,0,4
1,0,1,1
1,0,7,7
1,0,8,9
1,2,1,2
1,2,3,4
1,2,5,7
1,2,7,5
1,3,0,1
1,3,8,8
1,4,2,7
1,4,3,3
1,4,5,1
1,4,6,6
1,5,0,2
1,5,8,3
1,6,1,4
1,6,3,6
1,6,5,5
1,6,7,8
1,8,0,9
1,8,1,6
1,8,7,3
1,8,8,5
2,0,0,5
2,0,2,7
2,0,6,1
2,0,8,4
2,1,3,6
2,1,5,4
2,2,0,8
2,2,4,1
2,2,8,6
2,6,0,7
2,6,4,3
2,6,8,2
2,7,3,4
2,7,5,7
2,8,0,4
2,8,2,3
2,8,6,6
2,8,8,9
3,0,0,3
3,0,8,2
3,2,0,5
3,2,3,2
3,2,5,6
3,2,8,4
3,3,1,8
3,3,7,2
3,4,0,2
3,4,8,7
3,5,1,7
3,5,7,4
3,6,0,8
3,6,3,5
3,6,5,7
3,6,8,6
3,8,0,7
3,8,8,3
4,3,2,7
4,3,4,9
4,3,6,1
4,4,3,6
4,4,5,5
4,5,2,9
4,5,4,1
4,5,6,7
5,0,0,2
5,0,8,7
5,2,0,4
5,2,3,7
5,2,5,8
5,2,8,9
5,3,1,1
5,3,7,7
5,4,0,7
5,4,8,3
5,5,1,3
5,5,7,9
5,6,0,1
5,6,3,4
5,6,5,3
5,6,8,8
5,8,0,3
5,8,8,2
6,0,0,1
6,0,2,5
6,0,6,2
6,0,8,8
6,1,3,7
6,1,5,1
6,2,0,3
6,2,4,2
6,2,8,7
6,6,0,5
6,6,4,9
6,6,8,4
6,7,3,1
6,7,5,4
6,8,0,6
6,8,2,4
6,8,6,7
6,8,8,1
7,0,0,8
7,0,1,2
7,0,7,5
7,0,8,6
7,2,1,5
7,2,3,6
7,2,5,9
7,2,7,8
7,3,0,2
7,3,8,3
7,4,2,4
7,4,3,5
7,4,5,2
7,4,6,7
7,5,0,5
7,5,8,4
7,6,1,8
7,6,3,7
7,6,5,1
7,6,7,3
7,8,0,1
7,8,1,7
7,8,7,4
7,8,8,8
8,0,3,5
8,0,5,2
8,1,1,1
8,1,3,3
8,1,5,6
8,1,7,2
8,4,3,9
8,4,5,3
8,7,1,5
8,7,3,6
8,7,5,9
8,7,7,8
8,8,3,4
8,8,5,7
