0,0,1,4
0,0,4,8
0,0,7,6
0,1,4,6
0,2,2,8
0,2,6,2
0,3,3,1
0,3,5,8
0,4,0,9
0,4,1,7
0,4,7,8
0,4,8,1
0,5,3,6
0,5,5,9
0,6,2,3
0,6,6,7
0,7,4,3
0,8,1,8
0,8,4,2
0,8,7,4
1,0,0,5
1,0,4,3
1,0,8,8
1,1,4,7
1,3,0,7
1,3,8,6
1,4,1,2
1,4,3,5
1,4,5,6
1,4,7,3
1,5,0,3
1,5,8,5
1,7,4,5
1,8,0,2
1,8,4,6
1,8,8,7
2,0,4,5
2,1,3,9
2,1,5,8
2,7,3,6
2,7,5,9
2,8,4,7
3,0,0,2
3,0,4,7
3,0,8,6
3,1,3,5
3,1,5,2
3,2,1,1
3,2,3,6
3,2,5,9
3,2,7,2
3,3,1,2
3,3,7,3
3,4,2,6
3,4,3,2
3,4,5,4
3,4,6,1
3,5,1,3
3,5,7,9
3,6,1,4
3,6,3,7
3,6,5,1
3,6,7,6
3,7,3,9
3,7,5,8
3,8,0,9
3,8,4,4
3,8,8,1
4,0,1,3
4,0,7,4
4,2,1,4
4,2,7,6
4,3,1,6
4,3,7,5
4,5,1,5
4,5,7,1
4,6,1,9
4,6,7,7
4,8,1,2
4,8,7,8
5,0,0,7
5,0,4,6
5,0,8,2
5,1,3,3
5,1,5,7
5,2,1,9
5,2,3,2
5,2,5,4
5,2,7,7
5,3,1,7
5,3,7,8
5,4,2,2
5,4,3,7
5,4,5,1
5,4,6,9
5,5,1,8
5,5,7,4
5,6,1,1
5,6,3,6
5,6,5,9
5,6,7,2
5,7,3,4
5,7,5,5
5,8,0,4
5,8,4,1
5,8,8,9
6,0,4,1
6,1,3,6
6,1,5,4
6,7,3,8
6,7,5,7
6,8,4,3
7,0,0,1
7,0,4,9
7,0,8,4
7,1,4,3
7,3,0,3
7,3,8,5
7,4,1,5
7,4,3,1
7,4,5,3
7,4,7,9
7,5,0,9
7,5,8,1
7,7,4,1
7,8,0,8
7,8,4,5
7,8,8,3
8,0,1,2
8,0,4,4
8,0,7,8
8,1,4,5
8,2,2,4
8,2,6,5
8,3,3,2
8,3,5,4
8,4,0,2
8,4,1,8
8,4,7,4
8,4,8,7
8,5,3,8
8,5,5,7
8,6,2,9
8,6,6,8
8,7,4,9
8,8,1,4
8,8,4,8
8,8,7,7
