0,1,0,7
0,1,8,9
0,3,1,6
0,3,3,4
0,3,5,2
0,3,7,1
0,4,2,1
0,4,3,9
0,4,5,5
0,4,6,4
0,5,1,7
0,5,3,1
0,5,5,8
0,5,7,6
0,7,0,5
0,7,8,8
1,1,2,3
1,1,6,4
1,7,2,4
1,7,6,6
2,0,0,2
2,0,1,4
2,0,7,9
2,0,8,6
2,1,1,9
2,1,3,2
2,1,5,7
2,1,7,1
2,2,0,3
2,2,8,7
2,4,0,7
2,4,8,9
2,6,0,9
2,6,8,1
2,7,1,3
2,7,3,9
2,7,5,5
2,7,7,7
2,8,0,4
2,8,1,7
2,8,7,6
2,8,8,5
3,4,1,3
3,4,7,6
4,2,4,3
4,3,0,7
4,3,1,2
4,3,7,5
4,3,8,9
4,4,2,9
4,4,6,1
4,5,0,8
4,5,1,1
4,5,7,2
4,5,8,6
4,6,4,4
5,4,1,7
5,4,7,4
6,0,0,6
6,0,1,5
6,0,7,8
6,0,8,1
6,1,1,3
6,1,3,6
6,1,5,9
6,1,7,2
6,2,0,7
6,2,8,9
6,4,0,9
6,4,8,3
6,6,0,8
6,6,8,7
6,7,1,4
6,7,3,3
6,7,5,1
6,7,7,9
6,8,0,5
6,8,1,9
6,8,7,3
6,8,8,8
7,1,2,7
7,1,6,5
7,7,2,5
7,7,6,3
8,1,0,9
8,1,8,8
8,3,1,3
8,3,3,5
8,3,5,6
8,3,7,4
8,4,2,7
8,4,3,8
8,4,5,3
8,4,6,5
8,5,1,9
8,5,3,2
8,5,5,7
8,5,7,8
8,7,0,3
8,7,8,4
