0,0,1,9
0,0,4,7
0,0,7,1
0,1,2,2
0,1,6,3
0,2,1,7
0,2,7,9
0,3,0,2
0,3,8,7
0,4,3,2
0,4,5,8
0,5,0,8
0,5,8,3
0,6,1,4
0,6,7,3
0,7,2,6
0,7,6,8
0,8,1,2
0,8,4,8
0,8,7,4
1,4,1,2
1,4,7,4
2,0,0,8
2,0,8,3
2,2,2,6
2,2,4,4
2,2,6,1
2,3,0,3
2,3,8,1
2,4,4,7
2,5,0,5
2,5,8,4
2,6,2,9
2,6,4,3
2,6,6,2
2,8,0,4
2,8,8,9
3,0,0,2
3,0,8,4
3,1,0,9
3,1,3,1
3,1,4,4
3,1,5,6
3,1,8,2
3,2,4,2
3,4,2,6
3,4,6,9
3,6,4,7
3,7,0,7
3,7,3,9
3,7,4,5
3,7,5,1
3,7,8,6
3,8,0,5
3,8,8,7
4,1,0,1
4,1,4,3
4,1,8,8
4,2,1,9
4,2,2,5
4,2,6,2
4,2,7,7
4,4,1,1
4,4,7,2
4,6,1,5
4,6,2,3
4,6,6,7
4,6,7,1
4,7,0,4
4,7,4,2
4,7,8,9
5,0,0,5
5,0,8,7
5,1,0,6
5,1,3,2
5,1,4,7
5,1,5,8
5,1,8,5
5,2,4,5
5,4,2,3
5,4,6,6
5,6,4,1
5,7,0,3
5,7,3,6
5,7,4,8
5,7,5,4
5,7,8,1
5,8,0,1
5,8,8,8
6,0,0,9
6,0,8,5
6,2,2,1
6,2,4,7
6,2,6,9
6,3,0,5
6,3,8,4
6,4,4,8
6,5,0,2
6,5,8,7
6,6,2,6
6,6,4,5
6,6,6,3
6,8,0,7
6,8,8,6
7,4,1,5
7,4,7,8
8,0,1,5
8,0,4,2
8,0,7,3
8,1,2,6
8,1,6,8
8,2,1,2
8,2,7,5
8,3,0,6
8,3,8,2
8,4,3,6
8,4,5,1
8,5,0,1
8,5,8,8
8,6,1,9
8,6,7,8
8,7,2,7
8,7,6,1
8,8,1,6
8,8,4,1
8,8,7,9
