0,0,0,8
0,0,3,9
0,0,5,2
0,0,8,5
0,3,4,3
0,4,0,5
0,4,1,8
0,4,7,3
0,4,8,7
0,5,4,8
0,8,0,4
0,8,3,1
0,8,5,9
0,8,8,3
1,1,0,6
1,1,8,7
1,2,2,7
1,2,4,8
1,2,6,2
1,6,2,2
1,6,4,1
1,6,6,3
1,7,0,3
1,7,8,5
2,3,1,4
2,3,2,5
2,3,3,9
2,3,5,6
2,3,6,3
2,3,7,7
2,5,1,1
2,5,2,6
2,5,3,3
2,5,5,2
2,5,6,8
2,5,7,4
3,3,2,2
3,3,3,8
3,3,5,5
3,3,6,9
3,5,2,5
3,5,3,9
3,5,5,6
3,5,6,1
4,1,2,2
4,1,6,8
4,2,3,9
4,2,5,2
4,6,3,5
4,6,5,3
4,7,2,7
4,7,6,5
5,3,2,4
5,3,3,6
5,3,5,3
5,3,6,2
5,5,2,3
5,5,3,2
5,5,5,7
5,5,6,5
6,3,1,1
6,3,2,6
6,3,3,3
6,3,5,2
6,3,6,8
6,3,7,4
6,5,1,7
6,5,2,2
6,5,3,8
6,5,5,5
6,5,6,9
6,5,7,1
7,1,0,8
7,1,8,5
7,2,2,5
7,2,4,4
7,2,6,9
7,6,2,8
7,6,4,5
7,6,6,7
7,7,0,7
7,7,8,9
8,0,0,5
8,0,3,6
8,0,5,4
8,0,8,1
8,3,4,6
8,4,0,7
8,4,1,2
8,4,7,6
8,4,8,9
8,5,4,2
8,8,0,3
8,8,3,8
8,8,5,2
8,8,8,5
