0,0,2,6
0,0,3,2
0,0,5,9
0,0,6,5
0,1,3,5
0,1,5,3
0,2,1,2
0,2,7,1
0,3,4,7
0,4,4,5
0,5,4,3
0,6,1,7
0,6,7,8
0,7,3,7
0,7,5,5
0,8,2,5
0,8,3,4
0,8,5,1
0,8,6,3
1,0,1,5
1,0,7,6
1,1,0,6
1,1,1,8
1,1,7,5
1,1,8,7
1,2,3,3
1,2,4,5
1,2,5,6
1,3,2,5
1,3,6,8
1,4,2,3
1,4,6,6
1,5,2,6
1,5,6,4
1,6,3,1
1,6,4,4
1,6,5,2
1,7,0,1
1,7,1,4
1,7,7,2
1,7,8,8
1,8,1,3
1,8,7,4
2,0,3,6
2,0,5,5
2,1,2,5
2,1,6,1
2,3,4,2
2,4,2,1
2,4,6,2
2,5,4,8
2,7,2,6
2,7,6,9
2,8,3,9
2,8,5,3
3,0,0,5
3,0,8,9
3,1,0,1
3,1,8,8
3,2,1,8
3,2,4,6
3,2,7,4
3,3,3,2
3,3,5,4
3,4,2,4
3,4,6,8
3,5,3,1
3,5,5,6
3,6,1,3
3,6,4,2
3,6,7,9
3,7,0,4
3,7,8,5
3,8,0,8
3,8,8,3
4,0,2,8
4,0,6,2
4,2,3,4
4,2,5,3
4,6,3,9
4,6,5,1
4,8,2,7
4,8,6,9
5,0,0,9
5,0,8,4
5,1,0,8
5,1,8,3
5,2,1,3
5,2,4,7
5,2,7,5
5,3,3,6
5,3,5,5
5,4,2,5
5,4,6,3
5,5,3,8
5,5,5,7
5,6,1,1
5,6,4,6
5,6,7,4
5,7,0,5
5,7,8,9
5,8,0,3
5,8,8,1
6,0,3,9
6,0,5,3
6,1,2,3
6,1,6,6
6,3,4,9
6,4,2,7
6,4,6,4
6,5,4,7
6,7,2,9
6,7,6,3
6,8,3,3
6,8,5,6
7,0,1,8
7,0,7,4
7,1,0,5
7,1,1,7
7,1,7,8
7,1,8,9
7,2,3,7
7,2,4,8
7,2,5,9
7,3,2,3
7,3,6,6
7,4,2,6
7,4,6,9
7,5,2,4
7,5,6,8
7,6,3,6
7,6,4,3
7,6,5,5
7,7,0,2
7,7,1,3
7,7,7,9
7,7,8,6
7,8,1,6
7,8,7,3
8,0,2,5
8,0,3,4
8,0,5,8
8,0,6,1
8,1,3,1
8,1,5,2
8,2,1,9
8,2,7,2
8,3,4,4
8,4,4,8
8,5,4,2
8,6,1,5
8,6,7,7
8,7,3,9
8,7,5,3
8,8,2,3
8,8,3,8
8,8,5,7
8,8,6,6
