0,0,1,6
0,0,4,5
0,0,7,1
0,1,3,9
0,1,5,2
0,4,3,3
0,4,5,9
0,7,3,6
0,7,5,3
0,8,1,9
0,8,4,1
0,8,7,2
1,0,4,1
1,2,2,5
1,2,3,2
1,2,5,3
1,2,6,4
1,4,0,3
1,4,8,7
1,6,2,9
1,6,3,7
1,6,5,1
1,6,6,5
1,8,4,6
2,0,0,5
2,0,2,7
2,0,6,6
2,0,8,8
2,1,2,9
2,1,4,4
2,1,6,5
2,2,2,3
2,2,6,1
2,4,0,7
2,4,8,5
2,6,2,1
2,6,6,8
2,7,2,6
2,7,4,7
2,7,6,2
2,8,0,3
2,8,2,4
2,8,6,9
2,8,8,6
3,1,4,6
3,3,0,4
3,3,8,7
3,4,2,1
3,4,3,2
3,4,5,4
3,4,6,8
3,5,0,5
3,5,8,2
3,7,4,4
4,1,1,7
4,1,7,4
4,3,4,4
4,4,3,8
4,4,4,9
4,4,5,7
4,5,4,5
4,7,1,5
4,7,7,1
5,1,4,5
5,3,0,3
5,3,8,4
5,4,2,2
5,4,3,5
5,4,5,1
5,4,6,7
5,5,0,1
5,5,8,5
5,7,4,1
6,0,0,6
6,0,2,3
6,0,6,1
6,0,8,4
6,1,2,7
6,1,4,2
6,1,6,6
6,2,2,4
6,2,6,9
6,4,0,1
6,4,8,2
6,6,2,5
6,6,6,4
6,7,2,1
6,7,4,3
6,7,6,8
6,8,0,4
6,8,2,6
6,8,6,2
6,8,8,3
7,0,4,6
7,2,2,1
7,2,3,4
7,2,5,2
7,2,6,8
7,4,0,2
7,4,8,4
7,6,2,8
7,6,3,5
7,6,5,7
7,6,6,3
7,8,4,4
8,0,1,7
8,0,4,4
8,0,7,8
8,1,3,5
8,1,5,6
8,4,3,1
8,4,5,5
8,7,3,7
8,7,5,1
8,8,1,5
8,8,4,8
8,8,7,6
