0,1,2,7
0,1,3,5
0,1,5,2
0,1,6,6
0,4,3,8
0,4,5,5
0,7,2,2
0,7,3,6
0,7,5,8
0,7,6,4
1,2,0,7
1,2,8,3
1,4,3,3
1,4,4,4
1,4,5,2
1,6,0,9
1,6,8,6
2,0,1,7
2,0,2,1
2,0,4,2
2,0,6,3
2,0,7,4
2,1,0,6
2,1,8,2
2,4,2,2
2,4,3,6
2,4,4,7
2,4,5,1
2,4,6,8
2,7,0,4
2,7,8,8
2,8,1,6
2,8,2,5
2,8,4,4
2,8,6,2
2,8,7,7
3,0,0,1
3,0,8,7
3,3,0,3
3,3,8,5
3,5,0,7
3,5,8,8
3,8,0,5
3,8,8,4
4,0,1,9
4,0,3,1
4,0,5,2
4,0,7,8
4,1,2,3
4,1,6,7
4,3,2,5
4,3,6,8
4,5,2,8
4,5,6,9
4,7,2,1
4,7,6,2
4,8,1,8
4,8,3,5
4,8,5,7
4,8,7,3
5,0,0,6
5,0,8,2
5,3,0,8
5,3,8,1
5,5,0,9
5,5,8,6
5,8,0,1
5,8,8,7
6,0,1,6
6,0,2,3
6,0,4,1
6,0,6,2
6,0,7,5
6,1,0,8
6,1,8,1
6,4,2,8
6,4,3,4
6,4,4,2
6,4,5,3
6,4,6,7
6,7,0,5
6,7,8,7
6,8,1,1
6,8,2,2
6,8,4,5
6,8,6,4
6,8,7,9
7,2,0,6
7,2,8,2
7,4,3,9
7,4,4,5
7,4,5,8
7,6,0,8
7,6,8,1
8,1,2,6
8,1,3,9
8,1,5,1
8,1,6,8
8,4,3,7
8,4,5,6
8,7,2,4
8,7,3,1
8,7,5,7
8,7,6,5
