0,1,1,7
0,1,2,4
0,1,6,9
0,1,7,3
0,7,1,6
0,7,2,9
0,7,6,5
0,7,7,8
1,2,0,4
1,2,4,7
1,2,8,8
1,3,0,2
1,3,8,9
1,5,0,5
1,5,8,3
1,6,0,6
1,6,4,3
1,6,8,4
2,1,1,6
2,1,7,8
2,3,0,6
2,3,1,5
2,3,4,3
2,3,7,2
2,3,8,4
2,4,2,4
2,4,3,2
2,4,5,1
2,4,6,9
2,5,0,9
2,5,1,3
2,5,4,6
2,5,7,5
2,5,8,1
2,7,1,2
2,7,7,1
3,0,4,6
3,3,2,6
3,3,4,7
3,3,6,2
3,4,0,2
3,4,2,1
3,4,4,8
3,4,6,3
3,4,8,9
3,5,2,5
3,5,4,9
3,5,6,4
3,8,4,5
4,0,0,9
4,0,8,3
4,1,0,2
4,1,8,9
4,2,0,3
4,2,8,6
4,3,4,2
4,4,3,4
4,4,5,7
4,5,4,5
4,6,0,4
4,6,8,8
4,7,0,7
4,7,8,4
4,8,0,8
4,8,8,2
5,0,4,2
5,3,2,2
5,3,4,6
5,3,6,7
5,4,0,7
5,4,2,8
5,4,4,3
5,4,6,1
5,4,8,4
5,5,2,9
5,5,4,4
5,5,6,5
5,8,4,9
6,1,1,8
6,1,7,5
6,3,0,8
6,3,1,2
6,3,4,9
6,3,7,3
6,3,8,7
6,4,2,6
6,4,3,8
6,4,5,5
6,4,6,2
6,5,0,7
6,5,1,9
6,5,4,3
6,5,7,6
6,5,8,5
6,7,1,1
6,7,7,4
7,2,0,2
7,2,4,3
7,2,8,5
7,3,0,3
7,3,8,6
7,5,0,6
7,5,8,9
7,6,0,1
7,6,4,5
7,6,8,7
8,1,1,1
8,1,2,6
8,1,6,2
8,1,7,4
8,7,1,3
8,7,2,2
8,7,6,7
8,7,7,9
