0,0,1,1
0,0,7,2
0,2,2,2
0,2,3,7
0,2,5,6
0,2,6,1
0,4,2,5
0,4,6,3
0,6,2,1
0,6,3,8
0,6,5,5
0,6,6,4
0,8,1,4
0,8,7,1
1,1,3,8
1,1,4,3
1,1,5,5
1,3,3,3
1,3,5,6
1,4,0,9
1,4,8,4
1,5,3,7
1,5,5,1
1,7,3,5
1,7,4,8
1,7,5,7
2,4,3,6
2,4,4,3
2,4,5,9
3,0,1,8
3,0,3,7
3,0,5,6
3,0,7,3
3,1,3,3
3,1,5,8
3,2,0,5
3,2,8,9
3,6,0,3
3,6,8,7
3,7,3,8
3,7,5,5
3,8,1,5
3,8,3,1
3,8,5,4
3,8,7,8
4,0,4,2
4,1,3,6
4,1,5,9
4,2,4,3
4,3,0,5
4,3,1,6
4,3,2,2
4,3,6,8
4,3,7,3
4,3,8,9
4,4,0,4
4,4,2,7
4,4,6,1
4,4,8,5
4,5,0,9
4,5,1,1
4,5,2,3
4,5,6,6
4,5,7,7
4,5,8,4
4,6,4,1
4,7,3,9
4,7,5,2
4,8,4,8
5,0,1,7
5,0,3,5
5,0,5,3
5,0,7,4
5,1,3,4
5,1,5,2
5,2,0,8
5,2,8,1
5,6,0,9
5,6,8,4
5,7,3,3
5,7,5,1
5,8,1,8
5,8,3,2
5,8,5,6
5,8,7,7
6,4,3,7
6,4,4,4
6,4,5,1
7,1,3,7
7,1,4,9
7,1,5,6
7,3,3,4
7,3,5,7
7,4,0,8
7,4,8,1
7,5,3,5
7,5,5,2
7,7,3,6
7,7,4,2
7,7,5,9
8,0,1,2
8,0,7,5
8,2,2,5
8,2,3,4
8,2,5,2
8,2,6,7
8,4,2,1
8,4,6,4
8,6,2,3
8,6,3,2
8,6,5,6
8,6,6,1
8,8,1,6
8,8,7,2
