0,0,2,8
0,0,6,3
0,1,0,3
0,1,8,9
0,7,0,8
0,7,8,7
0,8,2,7
0,8,6,5
1,1,3,7
1,1,5,3
1,3,1,5
1,3,7,1
1,4,0,8
1,4,8,7
1,5,1,3
1,5,7,5
1,7,3,1
1,7,5,8
2,0,1,4
2,0,2,5
2,0,6,8
2,0,7,1
2,2,2,7
2,2,6,9
2,4,2,2
2,4,6,5
2,6,2,3
2,6,6,4
2,8,1,8
2,8,2,1
2,8,6,7
2,8,7,2
3,0,2,4
3,0,6,2
3,1,3,5
3,1,5,2
3,3,3,1
3,3,5,3
3,5,3,2
3,5,5,7
3,7,3,3
3,7,5,9
3,8,2,3
3,8,6,4
4,2,1,4
4,2,4,8
4,2,7,7
4,3,0,3
4,3,8,7
4,4,2,4
4,4,6,1
4,5,0,7
4,5,8,6
4,6,1,7
4,6,4,9
4,6,7,8
5,0,2,2
5,0,6,6
5,1,3,8
5,1,5,6
5,3,3,7
5,3,5,9
5,5,3,6
5,5,5,4
5,7,3,4
5,7,5,2
5,8,2,4
5,8,6,8
6,0,1,8
6,0,2,1
6,0,6,7
6,0,7,2
6,2,2,4
6,2,6,6
6,4,2,9
6,4,6,8
6,6,2,5
6,6,6,1
6,8,1,7
6,8,2,2
6,8,6,9
6,8,7,4
7,1,3,4
7,1,5,9
7,3,1,8
7,3,7,2
7,4,0,7
7,4,8,5
7,5,1,4
7,5,7,8
7,7,3,2
7,7,5,7
8,0,2,7
8,0,6,9
8,1,0,9
8,1,8,6
8,7,0,7
8,7,8,9
8,8,2,9
8,8,6,6
