0,0,3,4
0,0,5,6
0,1,2,6
0,1,4,2
0,1,6,7
0,2,0,5
0,2,8,6
0,3,3,8
0,3,4,6
0,3,5,3
0,4,2,3
0,4,3,2
0,4,5,1
0,4,6,9
0,5,3,9
0,5,4,5
0,5,5,7
0,6,0,1
0,6,8,2
0,7,2,5
0,7,4,8
0,7,6,1
0,8,3,1
0,8,5,4
1,0,2,4
1,0,3,2
1,0,4,9
1,0,5,5
1,0,6,3
1,1,1,9
1,1,2,5
1,1,4,8
1,1,6,1
1,1,7,6
1,2,1,8
1,2,4,6
1,2,7,9
1,4,0,4
1,4,8,8
1,6,1,5
1,6,4,2
1,6,7,4
1,7,1,2
1,7,2,3
1,7,4,4
1,7,6,9
1,7,7,5
1,8,2,1
1,8,3,9
1,8,4,5
1,8,5,6
1,8,6,8
2,1,0,8
2,1,8,2
2,2,3,9
2,2,4,5
2,2,5,2
2,3,2,4
2,3,4,9
2,3,6,3
2,5,2,6
2,5,4,2
2,5,6,7
2,6,3,4
2,6,4,1
2,6,5,7
2,7,0,4
2,7,8,8
3,0,0,5
3,0,4,4
3,0,8,6
3,1,1,4
3,1,4,3
3,1,7,9
3,4,1,5
3,4,7,8
3,7,1,7
3,7,4,2
3,7,7,6
3,8,0,9
3,8,4,6
3,8,8,8
4,0,0,4
4,0,8,5
4,2,0,9
4,2,8,8
4,3,1,9
4,3,2,6
4,3,6,8
4,3,7,3
4,5,1,3
4,5,2,2
4,5,6,1
4,5,7,4
4,6,0,7
4,6,8,4
4,8,0,6
4,8,8,9
5,0,0,6
5,0,4,5
5,0,8,4
5,1,1,5
5,1,4,1
5,1,7,8
5,4,1,2
5,4,7,7
5,7,1,4
5,7,4,3
5,7,7,9
5,8,0,8
5,8,4,9
5,8,8,6
6,1,0,6
6,1,8,9
6,2,3,8
6,2,4,7
6,2,5,9
6,3,2,5
6,3,4,8
6,3,6,1
6,5,2,3
6,5,4,4
6,5,6,9
6,6,3,5
6,6,4,6
6,6,5,4
6,7,0,5
6,7,8,7
7,0,2,6
7,0,3,5
7,0,4,2
7,0,5,4
7,0,6,7
7,1,1,2
7,1,2,4
7,1,4,9
7,1,6,3
7,1,7,1
7,2,1,9
7,2,4,1
7,2,7,2
7,4,0,2
7,4,8,9
7,6,1,4
7,6,4,8
7,6,7,7
7,7,1,8
7,7,2,2
7,7,4,7
7,7,6,6
7,7,7,4
7,8,2,3
7,8,3,6
7,8,4,4
7,8,5,5
7,8,6,9
8,0,3,9
8,0,5,7
8,1,2,7
8,1,4,6
8,1,6,2
8,2,0,1
8,2,8,7
8,3,3,5
8,3,4,7
8,3,5,4
8,4,2,4
8,4,3,6
8,4,5,8
8,4,6,3
8,5,3,3
8,5,4,1
8,5,5,2
8,6,0,8
8,6,8,6
8,7,2,1
8,7,4,5
8,7,6,8
8,8,3,8
8,8,5,9
