0,0,2,2
0,0,6,7
0,1,2,6
0,1,6,9
0,2,0,7
0,2,8,6
0,3,0,4
0,3,4,5
0,3,8,9
0,5,0,8
0,5,4,6
0,5,8,7
0,6,0,9
0,6,8,5
0,7,2,8
0,7,6,4
0,8,2,4
0,8,6,2
1,0,2,3
1,0,6,6
1,2,0,6
1,2,4,7
1,2,8,8
1,3,3,1
1,3,5,6
1,4,1,4
1,4,4,3
1,4,7,8
1,5,3,4
1,5,5,2
1,6,0,4
1,6,4,5
1,6,8,9
1,8,2,5
1,8,6,3
2,2,1,2
2,2,7,4
2,6,1,8
2,6,7,3
3,0,0,6
3,0,8,7
3,1,3,3
3,1,5,6
3,2,1,9
3,2,7,6
3,3,3,9
3,3,5,3
3,5,3,6
3,5,5,5
3,6,1,3
3,6,7,5
3,7,3,2
3,7,5,7
3,8,0,2
3,8,8,1
4,2,4,3
4,4,2,2
4,4,6,6
4,6,4,8
5,0,0,7
5,0,8,8
5,1,3,1
5,1,5,7
5,2,1,5
5,2,7,7
5,3,3,5
5,3,5,1
5,5,3,7
5,5,5,4
5,6,1,1
5,6,7,4
5,7,3,3
5,7,5,8
5,8,0,3
5,8,8,2
6,2,1,8
6,2,7,1
6,6,1,9
6,6,7,7
7,0,2,8
7,0,6,9
7,2,0,5
7,2,4,9
7,2,8,4
7,3,3,7
7,3,5,4
7,4,1,2
7,4,4,8
7,4,7,4
7,5,3,3
7,5,5,6
7,6,0,2
7,6,4,1
7,6,8,3
7,8,2,3
7,8,6,8
8,0,2,7
8,0,6,5
8,1,2,5
8,1,6,3
8,2,0,4
8,2,8,9
8,3,0,2
8,3,4,1
8,3,8,3
8,5,0,9
8,5,4,4
8,5,8,5
8,6,0,1
8,6,8,2
8,7,2,9
8,7,6,1
8,8,2,2
8,8,6,7
