0,1,0,8
0,1,4,6
0,1,8,9
0,4,2,8
0,4,6,1
0,7,0,2
0,7,4,5
0,7,8,1
1,0,4,4
1,1,4,7
1,2,1,1
1,2,3,8
1,2,5,6
1,2,7,2
1,4,3,6
1,4,4,1
1,4,5,3
1,6,1,5
1,6,3,9
1,6,5,4
1,6,7,1
1,7,4,3
1,8,4,8
2,2,1,8
2,2,7,6
2,3,0,6
2,3,8,8
2,4,3,7
2,4,4,8
2,4,5,9
2,5,0,8
2,5,8,5
2,6,1,3
2,6,7,8
3,0,1,5
3,0,7,1
3,2,0,9
3,2,1,7
3,2,2,1
3,2,6,8
3,2,7,5
3,2,8,2
3,3,2,4
3,3,3,2
3,3,4,8
3,3,5,5
3,3,6,1
3,4,0,8
3,4,2,2
3,4,6,6
3,4,8,5
3,5,2,5
3,5,3,4
3,5,4,9
3,5,5,6
3,5,6,3
3,6,0,6
3,6,1,4
3,6,2,9
3,6,6,5
3,6,7,7
3,6,8,1
3,8,1,3
3,8,7,8
4,0,1,9
4,0,3,3
4,0,5,1
4,0,7,4
4,1,1,1
4,1,7,7
4,3,3,6
4,3,5,9
4,5,3,8
4,5,5,7
4,7,1,6
4,7,7,5
4,8,1,5
4,8,3,9
4,8,5,8
4,8,7,1
5,0,1,3
5,0,7,8
5,2,0,5
5,2,1,6
5,2,2,8
5,2,6,4
5,2,7,3
5,2,8,7
5,3,2,1
5,3,3,7
5,3,4,4
5,3,5,3
5,3,6,8
5,4,0,4
5,4,2,7
5,4,6,2
5,4,8,3
5,5,2,3
5,5,3,1
5,5,4,5
5,5,5,2
5,5,6,9
5,6,0,2
5,6,1,1
5,6,2,5
5,6,6,3
5,6,7,6
5,6,8,8
5,8,1,9
5,8,7,4
6,2,1,3
6,2,7,8
6,3,0,1
6,3,8,3
6,4,3,4
6,4,4,3
6,4,5,2
6,5,0,3
6,5,8,6
6,6,1,6
6,6,7,3
7,0,4,3
7,1,4,8
7,2,1,5
7,2,3,9
7,2,5,4
7,2,7,1
7,4,3,8
7,4,4,5
7,4,5,6
7,6,1,7
7,6,3,6
7,6,5,3
7,6,7,5
7,7,4,2
7,8,4,9
8,1,0,5
8,1,4,1
8,1,8,7
8,4,2,5
8,4,6,3
8,7,0,4
8,7,4,6
8,7,8,3
