0,0,0,5
0,0,2,8
0,0,6,3
0,0,8,2
0,1,0,9
0,1,3,2
0,1,5,4
0,1,8,6
0,3,1,5
0,3,2,2
0,3,6,7
0,3,7,3
0,5,1,4
0,5,2,7
0,5,6,6
0,5,7,8
0,7,0,2
0,7,3,8
0,7,5,6
0,7,8,1
0,8,0,6
0,8,2,4
0,8,6,9
0,8,8,8
1,0,2,2
1,0,4,6
1,0,6,7
1,1,0,8
1,1,8,4
1,2,3,4
1,2,5,8
1,3,0,7
1,3,3,3
1,3,5,2
1,3,8,8
1,4,2,5
1,4,4,9
1,4,6,4
1,5,0,6
1,5,3,8
1,5,5,7
1,5,8,1
1,6,3,7
1,6,5,5
1,7,0,5
1,7,8,6
1,8,2,3
1,8,4,8
1,8,6,1
2,4,4,3
3,1,4,2
3,2,0,1
3,2,2,9
3,2,3,7
3,2,5,3
3,2,6,5
3,2,8,2
3,3,4,9
3,4,2,8
3,4,6,3
3,5,4,6
3,6,0,5
3,6,2,6
3,6,3,8
3,6,5,9
3,6,6,2
3,6,8,1
3,7,4,5
4,0,4,7
4,2,3,5
4,2,5,2
4,3,1,9
4,3,7,7
4,4,0,5
4,4,8,1
4,5,1,6
4,5,7,3
4,6,3,2
4,6,5,3
4,8,4,6
5,1,4,3
5,2,0,5
5,2,2,2
5,2,3,8
5,2,5,9
5,2,6,7
5,2,8,1
5,3,4,7
5,4,2,9
5,4,6,5
5,5,4,8
5,6,0,2
5,6,2,8
5,6,3,5
5,6,5,6
5,6,6,3
5,6,8,9
5,7,4,2
6,4,4,8
7,0,2,1
7,0,4,3
7,0,6,8
7,1,0,5
7,1,8,2
7,2,3,2
7,2,5,4
7,3,0,1
7,3,3,5
7,3,5,3
7,3,8,9
7,4,2,2
7,4,4,6
7,4,6,7
7,5,0,3
7,5,3,4
7,5,5,8
7,5,8,5
7,6,3,3
7,6,5,7
7,7,0,7
7,7,8,3
7,8,2,9
7,8,4,4
7,8,6,5
8,0,0,3
8,0,2,7
8,0,6,6
8,0,8,5
8,1,0,1
8,1,3,5
8,1,5,3
8,1,8,9
8,3,1,3
8,3,2,9
8,3,6,5
8,3,7,2
8,5,1,8
8,5,2,5
8,5,6,4
8,5,7,7
8,7,0,4
8,7,3,7
8,7,5,5
8,7,8,2
8,8,0,5
8,8,2,8
8,8,6,3
8,8,8,6
