0,0,1,7
0,0,4,1
0,0,7,4
0,2,2,1
0,2,6,6
0,3,1,2
0,3,3,1
0,3,5,5
0,3,7,8
0,5,1,1
0,5,3,3
0,5,5,8
0,5,7,2
0,6,2,7
0,6,6,8
0,8,1,9
0,8,4,8
0,8,7,6
1,0,2,4
1,0,6,9
1,1,2,9
1,1,6,7
1,3,3,2
1,3,4,6
1,3,5,7
1,4,0,1
1,4,1,9
1,4,2,5
1,4,4,8
1,4,6,2
1,4,7,6
1,4,8,7
1,5,3,9
1,5,4,5
1,5,5,1
1,7,2,1
1,7,6,6
1,8,2,2
1,8,6,3
2,1,4,5
2,4,3,5
2,4,5,9
2,7,4,9
3,0,0,9
3,0,8,3
3,1,1,7
3,1,3,4
3,1,5,3
3,1,7,5
3,2,1,1
3,2,4,5
3,2,7,2
3,3,2,9
3,3,6,1
3,5,2,4
3,5,6,2
3,6,1,9
3,6,4,2
3,6,7,4
3,7,1,6
3,7,3,3
3,7,5,1
3,7,7,9
3,8,0,3
3,8,8,2
4,0,1,2
4,0,4,3
4,0,7,8
4,2,0,5
4,2,8,4
4,3,1,6
4,3,4,4
4,3,7,9
4,4,0,3
4,4,3,8
4,4,5,5
4,4,8,2
4,5,1,9
4,5,4,2
4,5,7,4
4,6,0,6
4,6,8,8
4,8,1,5
4,8,4,6
4,8,7,1
5,0,0,3
5,0,8,2
5,1,1,9
5,1,3,7
5,1,5,6
5,1,7,4
5,2,1,6
5,2,4,4
5,2,7,9
5,3,2,3
5,3,6,7
5,5,2,2
5,5,6,9
5,6,1,3
5,6,4,8
5,6,7,6
5,7,1,8
5,7,3,6
5,7,5,2
5,7,7,3
5,8,0,7
5,8,8,9
6,1,4,6
6,4,3,6
6,4,5,2
6,7,4,2
7,0,2,3
7,0,6,1
7,1,2,1
7,1,6,6
7,3,3,7
7,3,4,2
7,3,5,6
7,4,0,5
7,4,1,1
7,4,2,9
7,4,4,4
7,4,6,7
7,4,7,2
7,4,8,6
7,5,3,1
7,5,4,9
7,5,5,5
7,7,2,5
7,7,6,2
7,8,2,7
7,8,6,8
8,0,1,1
8,0,4,4
8,0,7,2
8,2,2,4
8,2,6,9
8,3,1,9
8,3,3,4
8,3,5,3
8,3,7,6
8,5,1,4
8,5,3,2
8,5,5,7
8,5,7,1
8,6,2,1
8,6,6,6
8,8,1,8
8,8,4,7
8,8,7,9
