0,0,4,9
0,1,3,6
0,1,4,2
0,1,5,7
0,2,0,5
0,2,8,6
0,6,0,6
0,6,8,8
0,7,3,2
0,7,4,7
0,7,5,6
0,8,4,3
1,2,3,9
1,2,4,1
1,2,5,5
1,4,3,8
1,4,5,3
1,6,3,7
1,6,4,6
1,6,5,2
2,0,2,9
2,0,6,6
2,1,0,2
2,1,2,6
2,1,6,3
2,1,8,4
2,3,4,3
2,4,0,6
2,4,3,9
2,4,4,1
2,4,5,5
2,4,8,8
2,5,4,7
2,7,0,7
2,7,2,2
2,7,6,8
2,7,8,3
2,8,2,3
2,8,6,5
3,1,1,5
3,1,3,3
3,1,5,4
3,1,7,2
3,2,0,8
3,2,1,4
3,2,2,3
3,2,6,5
3,2,7,9
3,2,8,1
3,3,0,7
3,3,8,3
3,5,0,3
3,5,8,9
3,6,0,2
3,6,1,7
3,6,2,6
3,6,6,3
3,6,7,8
3,6,8,4
3,7,1,9
3,7,3,8
3,7,5,3
3,7,7,7
4,1,2,2
4,1,6,8
4,2,0,9
4,2,8,2
4,3,1,3
4,3,7,1
4,4,4,5
4,5,1,9
4,5,7,7
4,6,0,8
4,6,8,1
4,7,2,7
4,7,6,4
5,1,1,3
5,1,3,2
5,1,5,6
5,1,7,1
5,2,0,2
5,2,1,7
5,2,2,6
5,2,6,3
5,2,7,8
5,2,8,4
5,3,0,1
5,3,8,7
5,5,0,6
5,5,8,8
5,6,0,9
5,6,1,1
5,6,2,5
5,6,6,7
5,6,7,6
5,6,8,2
5,7,1,8
5,7,3,7
5,7,5,2
5,7,7,5
6,0,2,6
6,0,6,3
6,1,0,3
6,1,2,4
6,1,6,1
6,1,8,9
6,3,4,1
6,4,0,4
6,4,3,2
6,4,4,7
6,4,5,6
6,4,8,5
6,5,4,3
6,7,0,8
6,7,2,3
6,7,6,5
6,7,8,1
6,8,2,1
6,8,6,2
7,2,3,5
7,2,4,9
7,2,5,1
7,4,3,3
7,4,5,4
7,6,3,2
7,6,4,7
7,6,5,6
8,0,4,3
8,1,3,9
8,1,4,1
8,1,5,5
8,2,0,4
8,2,8,5
8,6,0,1
8,6,8,7
8,7,3,1
8,7,4,5
8,7,5,9
8,8,4,6
