0,0,1,9
0,0,4,5
0,0,7,3
0,3,0,3
0,3,3,9
0,3,5,2
0,3,8,6
0,5,0,5
0,5,3,3
0,5,5,7
0,5,8,2
0,8,1,7
0,8,4,2
0,8,7,6
1,0,2,7
1,0,4,8
1,0,6,9
1,1,4,4
1,3,4,6
1,4,1,6
1,4,7,2
1,5,4,2
1,7,4,5
1,8,2,1
1,8,4,3
1,8,6,7
2,0,1,2
2,0,7,7
2,4,1,3
2,4,7,5
2,8,1,8
2,8,7,1
3,1,2,4
3,1,3,7
3,1,5,9
3,1,6,1
3,7,2,8
3,7,3,5
3,7,5,2
3,7,6,3
4,1,2,7
4,1,3,3
4,1,5,1
4,1,6,2
4,2,0,3
4,2,1,6
4,2,7,9
4,2,8,7
4,4,4,3
4,6,0,4
4,6,1,8
4,6,7,1
4,6,8,3
4,7,2,5
4,7,3,7
4,7,5,3
4,7,6,4
5,1,2,3
5,1,3,4
5,1,5,2
5,1,6,9
5,7,2,7
5,7,3,8
5,7,5,4
5,7,6,2
6,0,1,6
6,0,7,2
6,4,1,9
6,4,7,3
6,8,1,4
6,8,7,8
7,0,2,1
7,0,4,3
7,0,6,6
7,1,4,9
7,3,4,1
7,4,1,1
7,4,7,4
7,5,4,4
7,7,4,2
7,8,2,5
7,8,4,6
7,8,6,4
8,0,1,8
8,0,4,4
8,0,7,1
8,3,0,1
8,3,3,8
8,3,5,3
8,3,8,9
8,5,0,4
8,5,3,1
8,5,5,5
8,5,8,3
8,8,1,3
8,8,4,9
8,8,7,5
