0,0,0,5
0,0,3,7
0,0,5,6
0,0,8,3
0,1,1,7
0,1,2,1
0,1,4,8
0,1,6,2
0,1,7,6
0,2,0,6
0,2,8,7
0,4,0,7
0,4,8,2
0,6,0,2
0,6,8,6
0,7,1,6
0,7,2,7
0,7,4,3
0,7,6,4
0,7,7,2
0,8,0,8
0,8,3,6
0,8,5,2
0,8,8,9
1,3,3,6
1,3,4,3
1,3,5,8
1,4,1,9
1,4,3,5
1,4,5,2
1,4,7,1
1,5,3,9
1,5,4,7
1,5,5,1
2,0,4,4
2,1,3,6
2,1,5,1
2,2,2,7
2,2,6,4
2,6,2,5
2,6,6,9
2,7,3,1
2,7,5,7
2,8,4,9
3,0,1,5
3,0,7,7
3,1,2,8
3,1,3,5
3,1,5,7
3,1,6,4
3,2,4,4
3,3,2,5
3,3,6,9
3,4,1,7
3,4,7,8
3,5,2,6
3,5,6,5
3,6,4,3
3,7,2,3
3,7,3,8
3,7,5,5
3,7,6,7
3,8,1,8
3,8,7,5
4,0,0,9
4,0,1,8
4,0,3,2
4,0,5,5
4,0,7,6
4,0,8,4
4,1,2,7
4,1,6,1
4,2,1,4
4,2,7,9
4,3,2,2
4,3,6,8
4,5,2,8
4,5,6,4
4,6,1,3
4,6,7,2
4,7,2,6
4,7,6,5
4,8,0,2
4,8,1,7
4,8,3,3
4,8,5,4
4,8,7,8
4,8,8,1
5,0,1,7
5,0,7,8
5,1,2,5
5,1,3,1
5,1,5,8
5,1,6,9
5,2,4,5
5,3,2,3
5,3,6,7
5,4,1,8
5,4,7,9
5,5,2,7
5,5,6,1
5,6,4,2
5,7,2,2
5,7,3,6
5,7,5,3
5,7,6,8
5,8,1,9
5,8,7,7
6,0,4,2
6,1,3,7
6,1,5,6
6,2,2,1
6,2,6,2
6,6,2,3
6,6,6,7
6,7,3,5
6,7,5,1
6,8,4,3
7,3,3,9
7,3,4,7
7,3,5,1
7,4,1,5
7,4,3,6
7,4,5,8
7,4,7,2
7,5,3,5
7,5,4,4
7,5,5,2
8,0,0,1
8,0,3,5
8,0,5,8
8,0,8,6
8,1,1,6
8,1,2,3
8,1,4,4
8,1,6,7
8,1,7,1
8,2,0,2
8,2,8,9
8,4,0,9
8,4,8,7
8,6,0,7
8,6,8,2
8,7,1,8
8,7,2,5
8,7,4,6
8,7,6,9
8,7,7,7
8,8,0,4
8,8,3,1
8,8,5,7
8,8,8,8
