0,2,3,6
0,2,5,1
0,3,2,9
0,3,6,5
0,4,0,5
0,4,8,8
0,5,2,8
0,5,6,1
0,6,3,4
0,6,5,6
1,0,0,5
1,0,1,3
1,0,7,4
1,0,8,8
1,2,1,6
1,2,4,4
1,2,7,3
1,3,3,6
1,3,5,3
1,5,3,4
1,5,5,7
1,6,1,5
1,6,4,8
1,6,7,7
1,8,0,9
1,8,1,8
1,8,7,5
1,8,8,1
2,1,1,9
2,1,3,4
2,1,5,2
2,1,7,7
2,3,1,6
2,3,4,5
2,3,7,8
2,5,1,5
2,5,4,8
2,5,7,2
2,7,1,7
2,7,3,6
2,7,5,8
2,7,7,3
3,1,1,6
3,1,2,4
3,1,3,2
3,1,4,9
3,1,5,1
3,1,6,5
3,1,7,8
3,2,3,8
3,2,5,5
3,4,2,3
3,4,4,1
3,4,6,8
3,6,3,6
3,6,5,3
3,7,1,3
3,7,2,2
3,7,3,1
3,7,4,7
3,7,5,9
3,7,6,6
3,7,7,5
4,1,2,9
4,1,4,5
4,1,6,4
4,2,4,2
4,3,4,7
4,4,1,9
4,4,2,8
4,4,3,5
4,4,5,2
4,4,6,1
4,4,7,7
4,5,4,4
4,6,4,9
4,7,2,7
4,7,4,6
4,7,6,2
5,1,1,7
5,1,2,5
5,1,3,6
5,1,4,4
5,1,5,8
5,1,6,9
5,1,7,3
5,2,3,3
5,2,5,9
5,4,2,1
5,4,4,8
5,4,6,3
5,6,3,7
5,6,5,1
5,7,1,1
5,7,2,6
5,7,3,8
5,7,4,2
5,7,5,4
5,7,6,7
5,7,7,9
6,1,1,8
6,1,3,3
6,1,5,4
6,1,7,5
6,3,1,4
6,3,4,3
6,3,7,6
6,5,1,3
6,5,4,2
6,5,7,4
6,7,1,9
6,7,3,4
6,7,5,2
6,7,7,7
7,0,0,8
7,0,1,7
7,0,7,1
7,0,8,2
7,2,1,4
7,2,4,1
7,2,7,6
7,3,3,4
7,3,5,2
7,5,3,3
7,5,5,5
7,6,1,3
7,6,4,7
7,6,7,5
7,8,0,1
7,8,1,6
7,8,7,3
7,8,8,7
8,2,3,4
8,2,5,2
8,3,2,3
8,3,6,8
8,4,0,8
8,4,8,7
8,5,2,2
8,5,6,6
8,6,3,3
8,6,5,9
