0,0,2,3
0,0,4,1
0,0,6,8
0,2,2,9
0,2,6,6
0,3,1,9
0,3,7,7
0,5,1,7
0,5,7,3
0,6,2,1
0,6,6,3
0,8,2,6
0,8,4,9
0,8,6,5
1,2,1,3
1,2,4,7
1,2,7,5
1,6,1,4
1,6,4,5
1,6,7,1
2,0,2,4
2,0,6,7
2,1,3,7
2,1,5,1
2,2,1,5
2,2,7,2
2,3,0,5
2,3,3,8
2,3,5,6
2,3,8,3
2,4,3,2
2,4,5,3
2,5,0,2
2,5,3,9
2,5,5,7
2,5,8,5
2,6,1,3
2,6,7,5
2,7,3,4
2,7,5,8
2,8,2,8
2,8,6,1
3,0,0,6
3,0,8,3
3,1,1,4
3,1,2,1
3,1,3,2
3,1,4,7
3,1,5,3
3,1,6,9
3,1,7,6
3,3,0,7
3,3,3,9
3,3,5,5
3,3,8,8
3,4,0,5
3,4,4,1
3,4,8,2
3,5,0,4
3,5,3,7
3,5,5,2
3,5,8,9
3,7,1,2
3,7,2,7
3,7,3,6
3,7,4,5
3,7,5,9
3,7,6,1
3,7,7,8
3,8,0,9
3,8,8,7
4,0,4,5
4,1,0,9
4,1,8,7
4,2,0,1
4,2,2,4
4,2,4,2
4,2,6,5
4,2,8,6
4,4,0,2
4,4,2,3
4,4,6,8
4,4,8,1
4,6,0,5
4,6,2,6
4,6,4,1
4,6,6,7
4,6,8,2
4,7,0,4
4,7,8,9
4,8,4,6
5,0,0,4
5,0,8,9
5,1,1,3
5,1,2,2
5,1,3,9
5,1,4,6
5,1,5,5
5,1,6,4
5,1,7,1
5,3,0,9
5,3,3,1
5,3,5,4
5,3,8,7
5,4,0,1
5,4,4,2
5,4,8,6
5,5,0,3
5,5,3,6
5,5,5,9
5,5,8,4
5,7,1,5
5,7,2,9
5,7,3,8
5,7,4,4
5,7,5,1
5,7,6,2
5,7,7,7
5,8,0,8
5,8,8,5
6,0,2,2
6,0,6,4
6,1,3,4
6,1,5,8
6,2,1,6
6,2,7,7
6,3,0,6
6,3,3,3
6,3,5,9
6,3,8,1
6,4,3,7
6,4,5,1
6,5,0,7
6,5,3,5
6,5,5,4
6,5,8,6
6,6,1,1
6,6,7,6
6,7,3,2
6,7,5,3
6,8,2,3
6,8,6,8
7,2,1,1
7,2,4,4
7,2,7,6
7,6,1,2
7,6,4,6
7,6,7,8
8,0,2,1
8,0,4,8
8,0,6,3
8,2,2,5
8,2,6,9
8,3,1,5
8,3,7,4
8,5,1,4
8,5,7,1
8,6,2,8
8,6,6,1
8,8,2,9
8,8,4,5
8,8,6,6
