0,1,2,9
0,1,4,2
0,1,6,4
0,7,2,1
0,7,4,5
0,7,6,7
1,0,4,7
1,1,3,1
1,1,5,4
1,7,3,7
1,7,5,2
1,8,4,1
2,0,4,4
2,3,0,4
2,3,8,2
2,4,4,7
2,5,0,6
2,5,8,9
2,8,4,9
3,0,3,4
3,0,5,2
3,2,0,6
3,2,8,5
3,3,1,2
3,3,3,6
3,3,4,1
3,3,5,3
3,3,7,8
3,4,1,6
3,4,7,3
3,5,1,7
3,5,3,2
3,5,4,5
3,5,5,8
3,5,7,9
3,6,0,1
3,6,8,9
3,8,3,9
3,8,5,4
4,0,0,1
4,0,8,9
4,1,2,6
4,1,4,7
4,1,6,2
4,3,4,9
4,4,1,1
4,4,3,5
4,4,5,2
4,4,7,6
4,5,4,3
4,7,2,5
4,7,4,4
4,7,6,1
4,8,0,3
4,8,8,2
5,0,3,7
5,0,5,3
5,2,0,3
5,2,8,7
5,3,1,3
5,3,3,8
5,3,4,2
5,3,5,5
5,3,7,4
5,4,1,9
5,4,7,5
5,5,1,8
5,5,3,9
5,5,4,7
5,5,5,4
5,5,7,1
5,6,0,2
5,6,8,1
5,8,3,1
5,8,5,2
6,0,4,2
6,3,0,2
6,3,8,5
6,4,4,9
6,5,0,8
6,5,8,4
6,8,4,4
7,0,4,5
7,1,3,7
7,1,5,2
7,7,3,8
7,7,5,5
7,8,4,2
8,1,2,4
8,1,4,9
8,1,6,7
8,7,2,6
8,7,4,1
8,7,6,5
