0,0,0,1
0,0,8,9
0,2,2,3
0,2,6,1
0,3,0,3
0,3,1,2
0,3,4,6
0,3,7,9
0,3,8,5
0,4,4,2
0,5,0,7
0,5,1,6
0,5,4,9
0,5,7,2
0,5,8,1
0,6,2,6
0,6,6,9
0,8,0,5
0,8,8,6
1,0,0,4
1,0,3,5
1,0,5,1
1,0,8,8
1,1,3,4
1,1,4,9
1,1,5,6
1,2,0,5
1,2,8,6
1,4,1,8
1,4,3,9
1,4,5,4
1,4,7,1
1,6,0,3
1,6,8,5
1,7,3,3
1,7,4,4
1,7,5,9
1,8,0,1
1,8,3,8
1,8,5,5
1,8,8,9
2,0,2,7
2,0,6,2
2,2,3,2
2,2,5,5
2,3,1,7
2,3,4,4
2,3,7,3
2,5,1,4
2,5,4,3
2,5,7,7
2,6,3,4
2,6,5,3
2,8,2,3
2,8,6,7
3,3,3,6
3,3,5,4
3,5,3,3
3,5,5,9
4,1,3,5
4,1,5,9
4,2,0,6
4,2,1,8
4,2,7,1
4,2,8,9
4,3,3,8
4,3,4,7
4,3,5,5
4,4,3,1
4,4,5,3
4,5,3,2
4,5,4,4
4,5,5,6
4,6,0,9
4,6,1,6
4,6,7,5
4,6,8,2
4,7,3,9
4,7,5,1
5,3,3,9
5,3,5,1
5,5,3,7
5,5,5,8
6,0,2,5
6,0,6,1
6,2,3,1
6,2,5,2
6,3,1,3
6,3,4,9
6,3,7,2
6,5,1,9
6,5,4,2
6,5,7,3
6,6,3,9
6,6,5,4
6,8,2,4
6,8,6,6
7,0,0,6
7,0,3,7
7,0,5,8
7,0,8,3
7,1,3,6
7,1,4,2
7,1,5,1
7,2,0,7
7,2,8,1
7,4,1,6
7,4,3,2
7,4,5,5
7,4,7,8
7,6,0,1
7,6,8,9
7,7,3,1
7,7,4,3
7,7,5,2
7,8,0,8
7,8,3,5
7,8,5,9
7,8,8,2
8,0,0,9
8,0,8,7
8,2,2,6
8,2,6,9
8,3,0,6
8,3,1,4
8,3,4,5
8,3,7,7
8,3,8,3
8,4,4,4
8,5,0,1
8,5,1,5
8,5,4,7
8,5,7,4
8,5,8,9
8,6,2,5
8,6,6,7
8,8,0,3
8,8,8,5
