0,1,0,8
0,1,8,5
0,2,2,4
0,2,6,2
0,3,3,7
0,3,5,5
0,5,3,1
0,5,5,3
0,6,2,6
0,6,6,5
0,7,0,1
0,7,8,8
1,0,3,6
1,0,5,3
1,1,1,4
1,1,7,6
1,2,1,7
1,2,7,3
1,3,0,7
1,3,1,1
1,3,7,4
1,3,8,5
1,5,0,6
1,5,1,5
1,5,7,9
1,5,8,8
1,6,1,3
1,6,7,8
1,7,1,2
1,7,7,5
1,8,3,3
1,8,5,5
2,0,0,4
2,0,8,8
2,1,0,7
2,1,8,2
2,2,0,5
2,2,1,8
2,2,3,2
2,2,5,6
2,2,7,7
2,2,8,4
2,3,2,5
2,3,6,7
2,4,3,9
2,4,5,4
2,5,2,7
2,5,6,4
2,6,0,9
2,6,1,7
2,6,3,5
2,6,5,1
2,6,7,3
2,6,8,6
2,7,0,6
2,7,8,7
2,8,0,3
2,8,8,5
3,0,1,4
3,0,3,3
3,0,5,2
3,0,7,1
3,3,3,5
3,3,4,7
3,3,5,6
3,4,2,8
3,4,6,4
3,5,3,8
3,5,4,4
3,5,5,9
3,8,1,8
3,8,3,2
3,8,5,4
3,8,7,7
4,1,0,5
4,1,8,6
4,2,1,2
4,2,7,5
4,3,4,8
4,4,3,4
4,4,5,7
4,5,4,6
4,6,1,5
4,6,7,9
4,7,0,7
4,7,8,5
5,0,1,1
5,0,3,8
5,0,5,9
5,0,7,6
5,3,3,2
5,3,4,3
5,3,5,4
5,4,2,7
5,4,6,1
5,5,3,7
5,5,4,1
5,5,5,5
5,8,1,7
5,8,3,9
5,8,5,1
5,8,7,3
6,0,0,5
6,0,8,1
6,1,0,1
6,1,8,7
6,2,0,3
6,2,1,4
6,2,3,7
6,2,5,5
6,2,7,6
6,2,8,2
6,3,2,3
6,3,6,1
6,4,3,8
6,4,5,2
6,5,2,4
6,5,6,5
6,6,0,8
6,6,1,6
6,6,3,3
6,6,5,9
6,6,7,1
6,6,8,5
6,7,0,9
6,7,8,4
6,8,0,4
6,8,8,3
7,0,3,5
7,0,5,1
7,1,1,5
7,1,7,9
7,2,1,1
7,2,7,4
7,3,0,4
7,3,1,2
7,3,7,5
7,3,8,7
7,5,0,5
7,5,1,7
7,5,7,3
7,5,8,4
7,6,1,4
7,6,7,6
7,7,1,8
7,7,7,7
7,8,3,6
7,8,5,7
8,1,0,4
8,1,8,8
8,2,2,5
8,2,6,3
8,3,3,6
8,3,5,8
8,5,3,5
8,5,5,4
8,6,2,9
8,6,6,8
8,7,0,5
8,7,8,6
