0,0,3,9
0,0,4,6
0,0,5,3
0,3,1,2
0,3,2,7
0,3,3,6
0,3,5,5
0,3,6,8
0,3,7,4
0,4,4,9
0,5,1,5
0,5,2,1
0,5,3,4
0,5,5,7
0,5,6,6
0,5,7,3
0,8,3,2
0,8,4,7
0,8,5,9
1,0,2,8
1,0,6,3
1,2,1,5
1,2,2,6
1,2,6,2
1,2,7,7
1,3,1,8
1,3,7,6
1,4,3,5
1,4,5,3
1,5,1,6
1,5,7,5
1,6,1,4
1,6,2,1
1,6,6,6
1,6,7,3
1,8,2,9
1,8,6,4
2,0,2,5
2,0,4,4
2,0,6,9
2,1,4,2
2,2,2,7
2,2,6,8
2,3,2,6
2,3,3,9
2,3,5,8
2,3,6,2
2,5,2,9
2,5,3,3
2,5,5,6
2,5,6,4
2,6,2,3
2,6,6,7
2,7,4,9
2,8,2,2
2,8,4,6
2,8,6,1
3,1,1,1
3,1,3,2
3,1,4,4
3,1,5,8
3,1,7,7
3,2,3,1
3,2,5,6
3,4,2,6
3,4,6,7
3,6,3,7
3,6,5,9
3,7,1,6
3,7,3,8
3,7,4,2
3,7,5,5
3,7,7,4
4,1,2,7
4,1,3,9
4,1,5,1
4,1,6,8
4,3,4,2
4,4,3,6
4,4,5,5
4,5,4,3
4,7,2,5
4,7,3,1
4,7,5,6
4,7,6,9
5,1,1,8
5,1,3,7
5,1,4,3
5,1,5,5
5,1,7,4
5,2,3,8
5,2,5,4
5,4,2,5
5,4,6,9
5,6,3,4
5,6,5,1
5,7,1,4
5,7,3,9
5,7,4,7
5,7,5,3
5,7,7,1
6,0,2,4
6,0,4,9
6,0,6,5
6,1,4,1
6,2,2,3
6,2,6,7
6,3,2,2
6,3,3,5
6,3,5,7
6,3,6,1
6,5,2,5
6,5,3,8
6,5,5,2
6,5,6,9
6,6,2,8
6,6,6,3
6,7,4,5
6,8,2,1
6,8,4,2
6,8,6,6
7,0,2,7
7,0,6,8
7,2,1,4
7,2,2,2
7,2,6,1
7,2,7,3
7,3,1,7
7,3,7,2
7,4,3,4
7,4,5,8
7,5,1,2
7,5,7,4
7,6,1,9
7,6,2,6
7,6,6,2
7,6,7,8
7,8,2,5
7,8,6,9
8,0,3,5
8,0,4,2
8,0,5,8
8,3,1,1
8,3,2,3
8,3,3,2
8,3,5,4
8,3,6,7
8,3,7,9
8,4,4,5
8,5,1,4
8,5,2,6
8,5,3,9
8,5,5,3
8,5,6,2
8,5,7,8
8,8,3,1
8,8,4,3
8,8,5,5
