0,1,4,7
0,2,3,8
0,2,5,5
0,4,1,3
0,4,7,1
0,6,3,7
0,6,5,8
0,7,4,4
1,0,1,4
1,0,7,5
1,1,4,5
1,7,4,1
1,8,1,3
1,8,7,1
2,0,3,5
2,0,5,6
2,1,0,5
2,1,8,7
2,3,0,2
2,3,2,1
2,3,4,4
2,3,6,6
2,3,8,8
2,4,1,4
2,4,7,5
2,5,0,6
2,5,2,3
2,5,4,5
2,5,6,7
2,5,8,1
2,7,0,3
2,7,8,4
2,8,3,3
2,8,5,4
3,0,3,6
3,0,5,2
3,3,2,5
3,3,6,2
3,4,3,4
3,4,5,9
3,5,2,1
3,5,6,5
3,8,3,1
3,8,5,8
4,0,2,6
4,0,6,3
4,2,2,5
4,2,4,8
4,2,6,6
4,4,2,4
4,4,6,7
4,6,2,9
4,6,4,1
4,6,6,2
4,8,2,3
4,8,6,9
5,0,3,1
5,0,5,8
5,3,2,6
5,3,6,8
5,4,3,2
5,4,5,7
5,5,2,9
5,5,6,6
5,8,3,4
5,8,5,9
6,0,3,2
6,0,5,3
6,1,0,2
6,1,8,3
6,3,0,8
6,3,2,4
6,3,4,6
6,3,6,3
6,3,8,5
6,4,1,6
6,4,7,7
6,5,0,1
6,5,2,5
6,5,4,7
6,5,6,8
6,5,8,9
6,7,0,5
6,7,8,2
6,8,3,9
6,8,5,2
7,0,1,7
7,0,7,2
7,1,4,2
7,7,4,5
7,8,1,5
7,8,7,9
8,1,4,8
8,2,3,4
8,2,5,2
8,4,1,5
8,4,7,9
8,6,3,3
8,6,5,4
8,7,4,2
