0,0,0,1
0,0,8,6
0,2,2,8
0,2,6,1
0,4,4,2
0,6,2,7
0,6,6,3
0,8,0,4
0,8,8,7
1,0,0,8
1,0,8,3
1,2,1,7
1,2,2,4
1,2,6,8
1,2,7,2
1,3,0,3
1,3,8,2
1,4,1,8
1,4,7,5
1,5,0,9
1,5,8,7
1,6,1,4
1,6,2,5
1,6,6,7
1,6,7,9
1,8,0,2
1,8,8,5
2,0,0,4
2,0,8,2
2,2,1,5
2,2,7,6
2,4,1,3
2,4,7,4
2,6,1,2
2,6,7,1
2,8,0,6
2,8,8,3
3,1,0,2
3,1,4,8
3,1,8,9
3,2,1,6
3,2,7,1
3,3,1,1
3,3,7,4
3,5,1,9
3,5,7,8
3,6,1,8
3,6,7,7
3,7,0,4
3,7,4,1
3,7,8,5
4,1,0,3
4,1,8,5
4,3,4,2
4,4,3,5
4,4,4,8
4,4,5,6
4,5,4,4
4,7,0,6
4,7,8,7
5,1,0,6
5,1,4,4
5,1,8,7
5,2,1,3
5,2,7,8
5,3,1,8
5,3,7,7
5,5,1,2
5,5,7,3
5,6,1,9
5,6,7,5
5,7,0,2
5,7,4,8
5,7,8,3
6,0,0,2
6,0,8,5
6,2,1,4
6,2,7,9
6,4,1,2
6,4,7,1
6,6,1,5
6,6,7,6
6,8,0,3
6,8,8,1
7,0,0,3
7,0,8,7
7,2,1,8
7,2,2,2
7,2,6,3
7,2,7,5
7,3,0,2
7,3,8,5
7,4,1,9
7,4,7,3
7,5,0,7
7,5,8,8
7,6,1,7
7,6,2,9
7,6,6,8
7,6,7,2
7,8,0,5
7,8,8,9
8,0,0,6
8,0,8,9
8,2,2,3
8,2,6,6
8,4,4,5
8,6,2,8
8,6,6,1
8,8,0,7
8,8,8,8
