0,1,1,9
0,1,7,6
0,3,2,1
0,3,6,6
0,4,1,8
0,4,7,2
0,5,2,9
0,5,6,1
0,7,1,3
0,7,7,7
1,0,0,3
1,0,4,9
1,0,8,8
1,1,3,7
1,1,5,3
1,2,0,2
1,2,2,9
1,2,6,4
1,2,8,7
1,3,1,6
1,3,7,4
1,5,1,1
1,5,7,9
1,6,0,8
1,6,2,1
1,6,6,7
1,6,8,9
1,7,3,2
1,7,5,8
1,8,0,6
1,8,4,7
1,8,8,2
2,1,4,1
2,2,0,7
2,2,8,6
2,4,2,7
2,4,4,4
2,4,6,3
2,6,0,3
2,6,8,8
2,7,4,5
3,0,2,6
3,0,6,9
3,1,2,9
3,1,6,1
3,2,0,8
3,2,1,2
3,2,7,5
3,2,8,3
3,3,3,2
3,3,5,9
3,4,3,8
3,4,5,4
3,5,3,1
3,5,5,7
3,6,0,1
3,6,1,9
3,6,7,7
3,6,8,5
3,7,2,8
3,7,6,4
3,8,2,4
3,8,6,6
4,2,1,6
4,2,7,1
4,6,1,8
4,6,7,2
5,0,2,2
5,0,6,3
5,1,2,3
5,1,6,5
5,2,0,9
5,2,1,7
5,2,7,4
5,2,8,8
5,3,3,7
5,3,5,3
5,4,3,9
5,4,5,1
5,5,3,5
5,5,5,6
5,6,0,5
5,6,1,3
5,6,7,6
5,6,8,4
5,7,2,9
5,7,6,1
5,8,2,1
5,8,6,2
6,1,4,8
6,2,0,4
6,2,8,1
6,4,2,1
6,4,4,3
6,4,6,2
6,6,0,6
6,6,8,2
6,7,4,9
7,0,0,6
7,0,4,7
7,0,8,2
7,1,3,5
7,1,5,6
7,2,0,1
7,2,2,7
7,2,6,3
7,2,8,5
7,3,1,1
7,3,7,3
7,5,1,8
7,5,7,2
7,6,0,7
7,6,2,8
7,6,6,1
7,6,8,6
7,7,3,4
7,7,5,7
7,8,0,5
7,8,4,1
7,8,8,4
8,1,1,6
8,1,7,5
8,3,2,8
8,3,6,4
8,4,1,2
8,4,7,1
8,5,2,7
8,5,6,8
8,7,1,7
8,7,7,4
