0,0,2,3
0,0,4,8
0,0,6,1
0,1,0,8
0,1,8,4
0,2,3,3
0,2,5,5
0,3,4,1
0,4,2,6
0,4,6,5
0,5,4,7
0,6,3,6
0,6,5,7
0,7,0,3
0,7,8,7
0,8,2,7
0,8,4,4
0,8,6,2
1,0,3,5
1,0,5,2
1,2,2,2
1,2,6,4
1,3,0,2
1,3,8,9
1,4,4,5
1,5,0,6
1,5,8,3
1,6,2,3
1,6,6,1
1,8,3,3
1,8,5,5
2,1,3,2
2,1,5,8
2,2,4,4
2,3,3,9
2,3,5,4
2,4,1,2
2,4,7,3
2,5,3,3
2,5,5,5
2,6,4,1
2,7,3,4
2,7,5,3
3,1,3,5
3,1,5,7
3,2,0,1
3,2,4,6
3,2,8,7
3,6,0,9
3,6,4,7
3,6,8,3
3,7,3,6
3,7,5,4
4,0,0,5
4,0,2,4
4,0,6,2
4,0,8,1
4,1,0,2
4,1,8,5
4,3,0,9
4,3,8,3
4,5,0,8
4,5,8,7
4,7,0,7
4,7,8,6
4,8,0,1
4,8,2,5
4,8,6,9
4,8,8,2
5,1,3,6
5,1,5,2
5,2,0,8
5,2,4,9
5,2,8,2
5,6,0,5
5,6,4,2
5,6,8,1
5,7,3,9
5,7,5,7
6,1,3,1
6,1,5,6
6,2,4,3
6,3,3,4
6,3,5,1
6,4,1,1
6,4,7,5
6,5,3,6
6,5,5,2
6,6,4,6
6,7,3,8
6,7,5,5
7,0,3,4
7,0,5,1
7,2,2,3
7,2,6,1
7,3,0,1
7,3,8,7
7,4,4,4
7,5,0,2
7,5,8,6
7,6,2,9
7,6,6,6
7,8,3,6
7,8,5,4
8,0,2,9
8,0,4,5
8,0,6,6
8,1,0,6
8,1,8,1
8,2,3,6
8,2,5,7
8,3,4,6
8,4,2,4
8,4,6,7
8,5,4,3
8,6,3,4
8,6,5,1
8,7,0,5
8,7,8,8
8,8,2,3
8,8,4,8
8,8,6,1
