0,0,0,4
0,0,8,2
0,1,0,3
0,1,1,9
0,1,7,1
0,1,8,4
0,2,2,5
0,2,6,9
0,3,0,7
0,3,1,8
0,3,7,2
0,3,8,3
0,4,1,6
0,4,4,8
0,4,7,9
0,5,0,1
0,5,1,4
0,5,7,8
0,5,8,5
0,6,2,7
0,6,6,2
0,7,0,6
0,7,1,3
0,7,7,7
0,7,8,1
0,8,0,9
0,8,8,6
1,0,1,6
1,0,2,1
1,0,4,3
1,0,6,8
1,0,7,9
1,1,4,7
1,2,2,9
1,2,6,4
1,3,1,1
1,3,7,7
1,4,0,9
1,4,8,6
1,5,1,5
1,5,7,1
1,6,2,6
1,6,6,7
1,7,4,4
1,8,1,7
1,8,2,3
1,8,4,8
1,8,6,1
1,8,7,5
2,0,2,3
2,0,6,1
2,3,3,8
2,3,5,7
2,4,1,7
2,4,7,5
2,5,3,5
2,5,5,1
2,8,2,8
2,8,6,3
3,2,0,9
3,2,4,3
3,2,8,7
3,3,3,2
3,3,5,9
3,4,1,4
3,4,7,3
3,5,3,3
3,5,5,6
3,6,0,7
3,6,4,9
3,6,8,8
4,0,3,5
4,0,4,6
4,0,5,3
4,2,0,5
4,2,1,6
4,2,7,4
4,2,8,2
4,4,0,3
4,4,8,5
4,6,0,2
4,6,1,8
4,6,7,7
4,6,8,1
4,8,3,9
4,8,4,7
4,8,5,8
5,2,0,4
5,2,4,1
5,2,8,6
5,3,3,7
5,3,5,4
5,4,1,5
5,4,7,1
5,5,3,1
5,5,5,2
5,6,0,6
5,6,4,4
5,6,8,3
6,0,2,4
6,0,6,5
6,3,3,5
6,3,5,3
6,4,1,8
6,4,7,2
6,5,3,2
6,5,5,9
6,8,2,9
6,8,6,4
7,0,1,8
7,0,2,5
7,0,4,4
7,0,6,9
7,0,7,2
7,1,4,8
7,2,2,2
7,2,6,6
7,3,1,4
7,3,7,3
7,4,0,6
7,4,8,1
7,5,1,2
7,5,7,9
7,6,2,8
7,6,6,3
7,7,4,2
7,8,1,1
7,8,2,4
7,8,4,9
7,8,6,5
7,8,7,6
8,0,0,6
8,0,8,1
8,1,0,5
8,1,1,2
8,1,7,9
8,1,8,6
8,2,2,7
8,2,6,2
8,3,0,3
8,3,1,5
8,3,7,1
8,3,8,9
8,4,1,1
8,4,4,9
8,4,7,6
8,5,0,9
8,5,1,7
8,5,7,4
8,5,8,2
8,6,2,3
8,6,6,1
8,7,0,1
8,7,1,9
8,7,7,8
8,7,8,4
8,8,0,7
8,8,8,3
