0,1,2,8
0,1,6,1
0,2,1,1
0,2,4,4
0,2,7,2
0,4,4,9
0,6,1,8
0,6,4,5
0,6,7,6
0,7,2,7
0,7,6,2
1,0,4,8
1,2,2,2
1,2,6,6
1,4,3,5
1,4,5,8
1,6,2,6
1,6,6,7
1,8,4,9
2,0,2,4
2,0,3,3
2,0,5,7
2,0,6,5
2,1,1,5
2,1,7,3
2,2,3,2
2,2,5,5
2,4,0,5
2,4,1,2
2,4,7,9
2,4,8,6
2,6,3,6
2,6,5,9
2,7,1,3
2,7,7,7
2,8,2,2
2,8,3,5
2,8,5,3
2,8,6,6
3,1,2,1
3,1,6,3
3,2,0,6
3,2,2,8
3,2,6,1
3,2,8,9
3,4,4,4
3,6,0,5
3,6,2,2
3,6,6,6
3,6,8,3
3,7,2,6
3,7,6,7
4,1,2,4
4,1,6,5
4,3,2,2
4,3,6,6
4,4,4,2
4,5,2,7
4,5,6,2
4,7,2,1
4,7,6,3
5,1,2,6
5,1,6,7
5,2,0,4
5,2,2,7
5,2,6,2
5,2,8,8
5,4,4,8
5,6,0,8
5,6,2,4
5,6,6,5
5,6,8,7
5,7,2,9
5,7,6,4
6,0,2,8
6,0,3,7
6,0,5,9
6,0,6,1
6,1,1,1
6,1,7,2
6,2,3,5
6,2,5,1
6,4,0,8
6,4,1,5
6,4,7,1
6,4,8,9
6,6,3,9
6,6,5,8
6,7,1,6
6,7,7,9
6,8,2,9
6,8,3,3
6,8,5,7
6,8,6,4
7,0,4,5
7,2,2,1
7,2,6,3
7,4,3,2
7,4,5,9
7,6,2,8
7,6,6,1
7,8,4,2
8,1,2,3
8,1,6,8
8,2,1,8
8,2,4,9
8,2,7,6
8,4,4,5
8,6,1,3
8,6,4,4
8,6,7,7
8,7,2,2
8,7,6,6
