0,1,1,6
0,1,4,4
0,1,7,2
0,2,2,2
0,2,6,3
0,3,1,2
0,3,3,1
0,3,5,4
0,3,7,9
0,4,1,7
0,4,4,5
0,4,7,1
0,5,1,4
0,5,3,9
0,5,5,7
0,5,7,8
0,6,2,6
0,6,6,8
0,7,1,8
0,7,4,9
0,7,7,3
1,0,2,9
1,0,3,6
1,0,4,5
1,0,5,1
1,0,6,4
1,1,2,3
1,1,6,1
1,4,0,8
1,4,1,5
1,4,3,4
1,4,5,6
1,4,7,7
1,4,8,9
1,7,2,1
1,7,6,2
1,8,2,8
1,8,3,1
1,8,4,6
1,8,5,9
1,8,6,7
2,1,1,2
2,1,2,8
2,1,6,7
2,1,7,4
2,7,1,3
2,7,2,7
2,7,6,6
2,7,7,9
3,1,4,8
3,3,4,5
3,5,4,9
3,7,4,7
4,0,4,4
4,2,0,4
4,2,2,8
4,2,6,7
4,2,8,9
4,3,0,2
4,3,8,7
4,4,0,7
4,4,8,3
4,5,0,3
4,5,8,2
4,6,0,1
4,6,2,3
4,6,6,5
4,6,8,8
4,8,4,8
5,1,4,3
5,3,4,8
5,5,4,1
5,7,4,5
6,1,1,5
6,1,2,2
6,1,6,3
6,1,7,7
6,7,1,4
6,7,2,3
6,7,6,1
6,7,7,6
7,0,2,3
7,0,3,5
7,0,4,2
7,0,5,8
7,0,6,1
7,1,2,6
7,1,6,8
7,4,0,5
7,4,1,3
7,4,3,2
7,4,5,4
7,4,7,9
7,4,8,1
7,7,2,8
7,7,6,7
7,8,2,4
7,8,3,8
7,8,4,9
7,8,5,2
7,8,6,5
8,1,1,7
8,1,4,5
8,1,7,1
8,2,2,1
8,2,6,2
8,3,1,1
8,3,3,3
8,3,5,5
8,3,7,4
8,4,1,8
8,4,4,9
8,4,7,3
8,5,1,5
8,5,3,4
8,5,5,8
8,5,7,6
8,6,2,7
8,6,6,6
8,7,1,6
8,7,4,4
8,7,7,2
