0,1,4,6
0,4,1,6
0,4,2,3
0,4,6,8
0,4,7,5
0,7,4,1
1,0,1,8
1,0,2,5
1,0,6,9
1,0,7,7
1,1,3,4
1,1,5,7
1,2,0,7
1,2,4,5
1,2,8,3
1,3,2,2
1,3,6,6
1,4,3,1
1,4,5,3
1,5,2,6
1,5,6,7
1,6,0,1
1,6,4,4
1,6,8,2
1,7,3,2
1,7,5,5
1,8,1,2
1,8,2,8
1,8,6,4
1,8,7,9
2,0,4,8
2,1,0,5
2,1,3,2
2,1,5,1
2,1,8,7
2,3,2,1
2,3,6,5
2,5,2,5
2,5,6,9
2,7,0,3
2,7,3,9
2,7,5,4
2,7,8,5
2,8,4,2
3,0,1,9
3,0,7,3
3,1,4,2
3,3,4,4
3,5,4,3
3,7,4,9
3,8,1,4
3,8,7,7
4,0,2,8
4,0,6,2
4,1,0,1
4,1,4,4
4,1,8,3
4,2,0,3
4,2,3,9
4,2,5,2
4,2,8,4
4,3,2,7
4,3,6,1
4,4,1,1
4,4,7,2
4,5,2,2
4,5,6,4
4,6,0,2
4,6,3,3
4,6,5,5
4,6,8,7
4,7,0,7
4,7,4,2
4,7,8,6
4,8,2,3
4,8,6,8
5,0,1,3
5,0,7,6
5,1,4,5
5,3,4,6
5,5,4,7
5,7,4,3
5,8,1,7
5,8,7,5
6,0,4,2
6,1,0,3
6,1,3,9
6,1,5,4
6,1,8,5
6,3,2,4
6,3,6,3
6,5,2,3
6,5,6,8
6,7,0,6
6,7,3,8
6,7,5,2
6,7,8,3
6,8,4,1
7,0,1,2
7,0,2,3
7,0,6,8
7,0,7,5
7,1,3,6
7,1,5,5
7,2,0,5
7,2,4,3
7,2,8,7
7,3,2,5
7,3,6,9
7,4,3,4
7,4,5,2
7,5,2,9
7,5,6,1
7,6,0,4
7,6,4,2
7,6,8,1
7,7,3,1
7,7,5,3
7,8,1,1
7,8,2,7
7,8,6,2
7,8,7,8
8,1,4,1
8,4,1,9
8,4,2,2
8,4,6,6
8,4,7,3
8,7,4,4
