0,0,1,1
0,0,2,5
0,0,6,2
0,0,7,4
0,1,2,7
0,1,6,8
0,2,0,2
0,2,3,8
0,2,4,1
0,2,5,5
0,2,8,7
0,3,1,7
0,3,2,3
0,3,6,4
0,3,7,5
0,4,2,2
0,4,6,1
0,5,1,5
0,5,2,8
0,5,6,6
0,5,7,9
0,6,0,9
0,6,3,5
0,6,4,8
0,6,5,6
0,6,8,4
0,7,2,6
0,7,6,9
0,8,1,3
0,8,2,4
0,8,6,5
0,8,7,8
1,0,0,9
1,0,8,6
1,2,3,9
1,2,5,4
1,4,0,3
1,4,3,2
1,4,5,9
1,4,8,5
1,6,3,1
1,6,5,2
1,8,0,6
1,8,8,2
2,3,0,9
2,3,8,1
2,4,4,3
2,5,0,7
2,5,8,4
3,0,1,3
3,0,7,9
3,1,0,9
3,1,1,7
3,1,3,3
3,1,5,2
3,1,7,5
3,1,8,8
3,3,3,1
3,3,5,3
3,5,3,4
3,5,5,8
3,7,0,4
3,7,1,2
3,7,3,5
3,7,5,6
3,7,7,1
3,7,8,9
3,8,1,9
3,8,7,6
4,0,4,2
4,1,0,8
4,1,8,6
4,2,1,6
4,2,7,7
4,4,0,1
4,4,8,9
4,6,1,3
4,6,7,9
4,7,0,9
4,7,8,8
4,8,4,1
5,0,1,5
5,0,7,6
5,1,0,6
5,1,1,2
5,1,3,5
5,1,5,1
5,1,7,4
5,1,8,9
5,3,3,8
5,3,5,5
5,5,3,7
5,5,5,9
5,7,0,8
5,7,1,6
5,7,3,1
5,7,5,7
5,7,7,3
5,7,8,4
5,8,1,4
5,8,7,7
6,3,0,3
6,3,8,5
6,4,4,4
6,5,0,8
6,5,8,9
7,0,0,3
7,0,8,5
7,2,3,3
7,2,5,7
7,4,0,4
7,4,3,1
7,4,5,3
7,4,8,2
7,6,3,7
7,6,5,4
7,8,0,9
7,8,8,4
8,0,1,9
8,0,2,2
8,0,6,6
8,0,7,7
8,1,2,8
8,1,6,4
8,2,0,6
8,2,3,4
8,2,4,9
8,2,5,2
8,2,8,8
8,3,1,8
8,3,2,4
8,3,6,9
8,3,7,2
8,4,2,1
8,4,6,5
8,5,1,2
8,5,2,6
8,5,6,7
8,5,7,3
8,6,0,3
8,6,3,2
8,6,4,1
8,6,5,9
8,6,8,5
8,7,2,9
8,7,6,3
8,8,1,6
8,8,2,5
8,8,6,2
8,8,7,1
