0,3,0,6
0,3,2,3
0,3,6,5
0,3,8,2
0,4,2,5
0,4,6,6
0,5,0,9
0,5,2,2
0,5,6,3
0,5,8,4
1,0,3,7
1,0,5,8
1,1,4,2
1,7,4,5
1,8,3,3
1,8,5,9
2,3,0,7
2,3,8,6
2,5,0,4
2,5,8,5
3,0,1,9
3,0,7,1
3,1,0,3
3,1,8,8
3,2,2,6
3,2,6,3
3,3,1,7
3,3,2,4
3,3,4,8
3,3,6,6
3,3,7,9
3,4,2,2
3,4,4,4
3,4,6,1
3,5,1,5
3,5,2,3
3,5,4,7
3,5,6,4
3,5,7,8
3,6,2,7
3,6,6,8
3,7,0,2
3,7,8,7
3,8,1,6
3,8,7,5
4,0,1,5
4,0,7,8
4,2,0,9
4,2,8,5
4,6,0,4
4,6,8,9
4,8,1,2
4,8,7,4
5,0,1,4
5,0,7,3
5,1,0,8
5,1,8,1
5,2,2,7
5,2,6,8
5,3,1,2
5,3,2,5
5,3,4,1
5,3,6,7
5,3,7,4
5,4,2,6
5,4,4,5
5,4,6,3
5,5,1,9
5,5,2,8
5,5,4,2
5,5,6,5
5,5,7,1
5,6,2,2
5,6,6,1
5,7,0,6
5,7,8,2
5,8,1,7
5,8,7,9
6,3,0,9
6,3,8,4
6,5,0,1
6,5,8,3
7,0,3,4
7,0,5,2
7,1,4,5
7,7,4,1
7,8,3,2
7,8,5,3
8,3,0,5
8,3,2,7
8,3,6,1
8,3,8,9
8,4,2,1
8,4,6,4
8,5,0,3
8,5,2,4
8,5,6,2
8,5,8,8
