0,0,1,8
0,0,7,4
0,2,3,5
0,2,5,4
0,4,0,8
0,4,8,4
0,6,3,8
0,6,5,3
0,8,1,3
0,8,7,5
1,0,1,9
1,0,7,6
1,3,2,8
1,3,6,9
1,4,3,8
1,4,5,3
1,5,2,6
1,5,6,3
1,8,1,4
1,8,7,7
2,3,0,5
2,3,8,6
2,4,1,6
2,4,4,4
2,4,7,1
2,5,0,3
2,5,8,9
3,0,1,4
3,0,2,3
3,0,6,8
3,0,7,2
3,2,1,5
3,2,7,7
3,3,1,7
3,3,7,8
3,4,1,2
3,4,7,3
3,5,1,6
3,5,7,1
3,6,1,3
3,6,7,5
3,8,1,8
3,8,2,6
3,8,6,7
3,8,7,9
4,0,0,9
4,0,8,3
4,1,2,6
4,1,4,2
4,1,6,7
4,2,4,6
4,4,1,9
4,4,2,8
4,4,6,1
4,4,7,7
4,6,4,9
4,7,2,4
4,7,4,5
4,7,6,9
4,8,0,3
4,8,8,2
5,0,1,6
5,0,2,5
5,0,6,4
5,0,7,1
5,2,1,2
5,2,7,3
5,3,1,8
5,3,7,5
5,4,1,3
5,4,7,4
5,5,1,1
5,5,7,9
5,6,1,4
5,6,7,7
5,8,1,5
5,8,2,1
5,8,6,3
5,8,7,6
6,3,0,8
6,3,8,4
6,4,1,4
6,4,4,8
6,4,7,6
6,5,0,6
6,5,8,8
7,0,1,3
7,0,7,9
7,3,2,2
7,3,6,8
7,4,3,6
7,4,5,7
7,5,2,4
7,5,6,2
7,8,1,1
7,8,7,4
8,0,1,2
8,0,7,3
8,2,3,3
8,2,5,1
8,4,0,2
8,4,8,1
8,6,3,6
8,6,5,7
8,8,1,6
8,8,7,1
