0,1,1,2
0,1,4,8
0,1,7,4
0,2,3,2
0,2,5,4
0,4,0,7
0,4,2,9
0,4,6,5
0,4,8,3
0,6,3,4
0,6,5,3
0,7,1,4
0,7,4,7
0,7,7,3
1,0,1,9
1,0,2,7
1,0,6,6
1,0,7,8
1,1,0,8
1,1,4,7
1,1,8,9
1,2,0,1
1,2,8,4
1,3,1,6
1,3,7,9
1,4,4,3
1,5,1,7
1,5,7,5
1,6,0,2
1,6,8,8
1,7,0,7
1,7,4,4
1,7,8,1
1,8,1,1
1,8,2,4
1,8,6,9
1,8,7,2
2,0,4,9
2,8,4,3
3,0,0,1
3,0,1,7
3,0,4,5
3,0,7,3
3,0,8,6
3,1,1,9
3,1,3,4
3,1,5,6
3,1,7,7
3,3,0,6
3,3,8,4
3,5,0,3
3,5,8,7
3,7,1,6
3,7,3,7
3,7,5,3
3,7,7,1
3,8,0,7
3,8,1,4
3,8,4,1
3,8,7,6
3,8,8,9
4,4,4,1
5,0,0,6
5,0,1,5
5,0,4,1
5,0,7,2
5,0,8,4
5,1,1,1
5,1,3,8
5,1,5,5
5,1,7,9
5,3,0,9
5,3,8,8
5,5,0,7
5,5,8,9
5,7,1,9
5,7,3,4
5,7,5,6
5,7,7,7
5,8,0,5
5,8,1,8
5,8,4,7
5,8,7,4
5,8,8,1
6,0,4,8
6,8,4,2
7,0,1,4
7,0,2,6
7,0,6,2
7,0,7,1
7,1,0,1
7,1,4,6
7,1,8,4
7,2,0,3
7,2,8,5
7,3,1,2
7,3,7,4
7,4,4,8
7,5,1,6
7,5,7,9
7,6,0,7
7,6,8,1
7,7,0,6
7,7,4,5
7,7,8,3
7,8,1,3
7,8,2,5
7,8,6,4
7,8,7,7
8,1,1,8
8,1,4,5
8,1,7,2
8,2,3,8
8,2,5,6
8,4,0,8
8,4,2,2
8,4,6,7
8,4,8,4
8,6,3,6
8,6,5,9
8,7,1,7
8,7,4,3
8,7,7,5
