0,0,0,2
0,0,4,5
0,0,8,1
0,1,3,2
0,1,5,6
0,2,4,4
0,4,0,6
0,4,1,2
0,4,4,9
0,4,7,1
0,4,8,3
0,6,4,6
0,7,3,1
0,7,5,4
0,8,0,7
0,8,4,8
0,8,8,4
1,0,3,1
1,0,5,4
1,1,1,2
1,1,7,3
1,2,4,2
1,3,2,1
1,3,6,8
1,4,1,5
1,4,7,6
1,5,2,2
1,5,6,3
1,6,4,9
1,7,1,1
1,7,7,9
1,8,3,4
1,8,5,3
2,1,3,4
2,1,5,3
2,4,3,2
2,4,4,7
2,4,5,6
2,7,3,8
2,7,5,9
3,0,1,6
3,0,7,1
3,1,1,7
3,1,7,4
3,2,4,8
3,4,1,9
3,4,7,2
3,6,4,2
3,7,1,5
3,7,7,8
3,8,1,1
3,8,7,9
4,1,2,3
4,1,6,5
4,7,2,6
4,7,6,9
5,0,1,3
5,0,7,7
5,1,1,8
5,1,7,2
5,2,4,1
5,4,1,4
5,4,7,3
5,6,4,8
5,7,1,7
5,7,7,1
5,8,1,2
5,8,7,4
6,1,3,6
6,1,5,7
6,4,3,8
6,4,4,5
6,4,5,9
6,7,3,4
6,7,5,3
7,0,3,2
7,0,5,6
7,1,1,5
7,1,7,7
7,2,4,5
7,3,2,7
7,3,6,4
7,4,1,1
7,4,7,9
7,5,2,8
7,5,6,6
7,6,4,3
7,7,1,6
7,7,7,3
7,8,3,7
7,8,5,2
8,0,0,5
8,0,4,1
8,0,8,2
8,1,3,5
8,1,5,8
8,2,4,6
8,4,0,9
8,4,1,8
8,4,4,3
8,4,7,7
8,4,8,6
8,6,4,5
8,7,3,6
8,7,5,7
8,8,0,8
8,8,4,4
8,8,8,7
