0,0,1,1
0,0,7,2
0,1,2,6
0,1,6,9
0,4,4,3
0,7,2,4
0,7,6,2
0,8,1,7
0,8,7,8
1,2,0,1
1,2,1,9
1,2,7,6
1,2,8,8
1,3,0,2
1,3,3,3
1,3,5,4
1,3,8,5
1,5,0,3
1,5,3,6
1,5,5,2
1,5,8,1
1,6,0,9
1,6,1,4
1,6,7,1
1,6,8,2
2,0,0,3
2,0,1,2
2,0,7,7
2,0,8,1
2,1,4,5
2,3,2,6
2,3,6,2
2,4,1,4
2,4,7,1
2,5,2,2
2,5,6,8
2,7,4,9
2,8,0,4
2,8,1,3
2,8,7,2
2,8,8,7
3,0,1,8
3,0,2,3
3,0,6,6
3,0,7,1
3,1,0,6
3,1,8,9
3,4,4,4
3,7,0,1
3,7,8,2
3,8,1,9
3,8,2,5
3,8,6,8
3,8,7,3
4,0,2,5
4,0,3,7
4,0,5,1
4,0,6,3
4,3,1,5
4,3,7,3
4,5,1,7
4,5,7,2
4,8,2,7
4,8,3,4
4,8,5,3
4,8,6,2
5,0,1,7
5,0,2,6
5,0,6,2
5,0,7,9
5,1,0,5
5,1,8,4
5,4,4,1
5,7,0,9
5,7,8,8
5,8,1,4
5,8,2,8
5,8,6,7
5,8,7,6
6,0,0,9
6,0,1,4
6,0,7,8
6,0,8,2
6,1,4,4
6,3,2,3
6,3,6,4
6,4,1,1
6,4,7,5
6,5,2,7
6,5,6,2
6,7,4,7
6,8,0,1
6,8,1,5
6,8,7,7
6,8,8,8
7,2,0,4
7,2,1,1
7,2,7,2
7,2,8,7
7,3,0,1
7,3,3,6
7,3,5,9
7,3,8,8
7,5,0,6
7,5,3,2
7,5,5,8
7,5,8,4
7,6,0,3
7,6,1,9
7,6,7,4
7,6,8,1
8,0,1,3
8,0,7,5
8,1,2,4
8,1,6,2
8,4,4,8
8,7,2,7
8,7,6,5
8,8,1,6
8,8,7,1
