0,0,0,3
0,0,8,4
0,2,1,5
0,2,3,4
0,2,5,8
0,2,7,3
0,3,0,7
0,3,8,8
0,5,0,2
0,5,8,3
0,6,1,7
0,6,3,6
0,6,5,4
0,6,7,9
0,8,0,4
0,8,8,6
1,0,0,2
1,0,8,3
1,4,2,3
1,4,6,8
1,8,0,8
1,8,8,4
2,0,2,8
2,0,6,1
2,1,1,2
2,1,7,9
2,3,3,4
2,3,5,3
2,4,0,1
2,4,8,4
2,5,3,9
2,5,5,1
2,7,1,1
2,7,7,6
2,8,2,5
2,8,6,9
3,0,0,9
3,0,3,3
3,0,5,5
3,0,8,1
3,1,3,8
3,1,4,6
3,1,5,9
3,2,4,2
3,3,0,3
3,3,1,6
3,3,7,8
3,3,8,7
3,4,3,7
3,4,5,3
3,5,0,1
3,5,1,7
3,5,7,3
3,5,8,2
3,6,4,8
3,7,3,9
3,7,4,1
3,7,5,2
3,8,0,2
3,8,3,4
3,8,5,7
3,8,8,9
4,1,1,9
4,1,7,6
4,2,1,4
4,2,7,2
4,6,1,2
4,6,7,1
4,7,1,7
4,7,7,3
5,0,0,1
5,0,3,6
5,0,5,8
5,0,8,2
5,1,3,2
5,1,4,4
5,1,5,1
5,2,4,5
5,3,0,2
5,3,1,4
5,3,7,6
5,3,8,5
5,4,3,4
5,4,5,6
5,5,0,6
5,5,1,9
5,5,7,7
5,5,8,4
5,6,4,2
5,7,3,3
5,7,4,7
5,7,5,4
5,8,0,9
5,8,3,8
5,8,5,5
5,8,8,3
6,0,2,9
6,0,6,4
6,1,1,8
6,1,7,7
6,3,3,6
6,3,5,9
6,4,0,5
6,4,8,7
6,5,3,7
6,5,5,5
6,7,1,9
6,7,7,1
6,8,2,2
6,8,6,6
7,0,0,8
7,0,8,5
7,4,2,9
7,4,6,4
7,8,0,5
7,8,8,2
8,0,0,5
8,0,8,6
8,2,1,6
8,2,3,2
8,2,5,9
8,2,7,5
8,3,0,1
8,3,8,4
8,5,0,8
8,5,8,9
8,6,1,1
8,6,3,8
8,6,5,7
8,6,7,6
8,8,0,6
8,8,8,1
