0,1,4,5
0,2,2,5
0,2,4,3
0,2,6,9
0,6,2,4
0,6,4,1
0,6,6,8
0,7,4,4
1,0,4,1
1,2,3,2
1,2,5,5
1,4,2,9
1,4,6,3
1,6,3,5
1,6,5,8
1,8,4,2
2,0,4,2
2,1,1,5
2,1,7,8
2,2,1,3
2,2,3,9
2,2,5,4
2,2,7,1
2,4,0,3
2,4,8,6
2,6,1,8
2,6,3,4
2,6,5,2
2,6,7,7
2,7,1,1
2,7,7,6
2,8,4,3
3,2,2,2
3,2,6,6
3,3,0,6
3,3,8,8
3,4,0,1
3,4,3,5
3,4,5,8
3,4,8,3
3,5,0,3
3,5,8,6
3,6,2,6
3,6,6,7
4,0,2,7
4,0,6,2
4,1,1,2
4,1,7,9
4,3,1,7
4,3,7,3
4,5,1,5
4,5,7,8
4,7,1,9
4,7,7,4
4,8,2,8
4,8,6,1
5,2,2,8
5,2,6,1
5,3,0,8
5,3,8,5
5,4,0,5
5,4,3,2
5,4,5,3
5,4,8,7
5,5,0,7
5,5,8,4
5,6,2,1
5,6,6,4
6,0,4,5
6,1,1,4
6,1,7,6
6,2,1,8
6,2,3,4
6,2,5,6
6,2,7,2
6,4,0,8
6,4,8,5
6,6,1,6
6,6,3,2
6,6,5,9
6,6,7,5
6,7,1,2
6,7,7,3
6,8,4,1
7,0,4,4
7,2,3,7
7,2,5,3
7,4,2,5
7,4,6,9
7,6,3,3
7,6,5,1
7,8,4,7
8,1,4,6
8,2,2,6
8,2,4,2
8,2,6,7
8,6,2,9
8,6,4,5
8,6,6,3
8,7,4,3
