0,0,0,8
0,0,1,4
0,0,2,2
0,0,6,6
0,0,7,5
0,0,8,9
0,1,3,4
0,1,5,8
0,2,1,3
0,2,7,8
0,4,1,6
0,4,7,3
0,6,1,8
0,6,7,7
0,7,3,8
0,7,5,7
0,8,0,7
0,8,1,1
0,8,2,3
0,8,6,4
0,8,7,2
0,8,8,8
1,0,3,5
1,0,5,2
1,1,1,8
1,1,3,1
1,1,5,7
1,1,7,6
1,4,2,7
1,4,6,2
1,7,1,6
1,7,3,2
1,7,5,3
1,7,7,9
1,8,3,7
1,8,5,4
2,1,4,5
2,3,3,8
2,3,5,2
2,4,0,2
2,4,8,8
2,5,3,1
2,5,5,6
2,7,4,6
3,4,1,7
3,4,7,9
4,0,0,1
4,0,4,4
4,0,8,6
4,2,1,6
4,2,7,1
4,3,1,8
4,3,7,2
4,4,0,6
4,4,8,4
4,5,1,4
4,5,7,6
4,6,1,1
4,6,7,5
4,8,0,4
4,8,4,6
4,8,8,1
5,4,1,3
5,4,7,8
6,1,4,4
6,3,3,3
6,3,5,1
6,4,0,5
6,4,8,3
6,5,3,9
6,5,5,5
6,7,4,8
7,0,3,4
7,0,5,8
7,1,1,3
7,1,3,9
7,1,5,5
7,1,7,8
7,4,2,1
7,4,6,8
7,7,1,1
7,7,3,5
7,7,5,6
7,7,7,2
7,8,3,1
7,8,5,2
8,0,0,3
8,0,1,6
8,0,2,1
8,0,6,8
8,0,7,4
8,0,8,7
8,1,3,7
8,1,5,3
8,2,1,7
8,2,7,3
8,4,1,8
8,4,7,2
8,6,1,3
8,6,7,8
8,7,3,3
8,7,5,1
8,8,0,5
8,8,1,9
8,8,2,2
8,8,6,6
8,8,7,1
8,8,8,3
