0,0,0,9
0,0,8,2
0,1,1,8
0,1,7,6
0,4,0,5
0,4,4,8
0,4,8,7
0,7,1,5
0,7,7,8
0,8,0,4
0,8,8,6
1,0,1,1
1,0,2,4
1,0,6,5
1,0,7,7
1,2,2,8
1,2,6,1
1,4,2,9
1,4,6,4
1,6,2,2
1,6,6,6
1,8,1,3
1,8,2,5
1,8,6,9
1,8,7,2
2,0,1,5
2,0,3,4
2,0,5,3
2,0,7,1
2,2,3,1
2,2,5,6
2,3,2,5
2,3,3,8
2,3,4,4
2,3,5,2
2,3,6,9
2,5,2,8
2,5,3,7
2,5,4,3
2,5,5,5
2,5,6,1
2,6,3,6
2,6,5,4
2,8,1,9
2,8,3,5
2,8,5,8
2,8,7,3
3,0,4,5
3,1,0,6
3,1,8,9
3,2,2,7
3,2,6,2
3,3,0,9
3,3,3,3
3,3,5,5
3,3,8,1
3,4,2,5
3,4,6,9
3,5,0,2
3,5,3,9
3,5,5,7
3,5,8,5
3,6,2,1
3,6,6,3
3,7,0,5
3,7,8,8
3,8,4,9
4,0,1,8
4,0,3,3
4,0,5,4
4,0,7,9
4,1,4,9
4,2,0,2
4,2,2,3
4,2,6,8
4,2,8,4
4,3,1,5
4,3,3,4
4,3,5,6
4,3,7,2
4,4,1,3
4,4,7,5
4,5,1,6
4,5,3,2
4,5,5,3
4,5,7,1
4,6,0,3
4,6,2,5
4,6,6,9
4,6,8,6
4,7,4,3
4,8,1,1
4,8,3,8
4,8,5,5
4,8,7,4
5,0,4,8
5,1,0,9
5,1,8,8
5,2,2,5
5,2,6,9
5,3,0,3
5,3,3,7
5,3,5,1
5,3,8,6
5,4,2,8
5,4,6,1
5,5,0,5
5,5,3,8
5,5,5,4
5,5,8,3
5,6,2,6
5,6,6,7
5,7,0,1
5,7,8,2
5,8,4,1
6,0,1,9
6,0,3,5
6,0,5,8
6,0,7,3
6,2,3,3
6,2,5,2
6,3,2,9
6,3,3,1
6,3,4,5
6,3,5,7
6,3,6,4
6,5,2,1
6,5,3,6
6,5,4,8
6,5,5,9
6,5,6,3
6,6,3,2
6,6,5,5
6,8,1,4
6,8,3,9
6,8,5,1
6,8,7,8
7,0,1,3
7,0,2,5
7,0,6,9
7,0,7,6
7,2,2,1
7,2,6,3
7,4,2,4
7,4,6,5
7,6,2,7
7,6,6,2
7,8,1,8
7,8,2,9
7,8,6,4
7,8,7,7
8,0,0,4
8,0,8,7
8,1,1,1
8,1,7,2
8,4,0,9
8,4,4,1
8,4,8,6
8,7,1,9
8,7,7,1
8,8,0,5
8,8,8,2
