0,0,3,1
0,0,5,6
0,8,3,6
0,8,5,4
1,0,3,2
1,0,4,3
1,0,5,4
1,1,2,4
1,1,3,8
1,1,5,7
1,1,6,5
1,3,1,2
1,3,7,5
1,5,1,5
1,5,7,3
1,7,2,5
1,7,3,1
1,7,5,6
1,7,6,9
1,8,3,9
1,8,4,2
1,8,5,3
2,1,1,2
2,1,7,4
2,2,1,8
2,2,3,3
2,2,5,2
2,2,7,6
2,6,1,5
2,6,3,4
2,6,5,1
2,6,7,8
2,7,1,7
2,7,7,5
3,2,2,3
3,2,6,8
3,4,2,5
3,4,6,9
3,6,2,7
3,6,6,6
4,0,1,8
4,0,3,3
4,0,5,2
4,0,7,6
4,2,4,9
4,3,1,5
4,3,2,6
4,3,4,7
4,3,6,2
4,3,7,3
4,4,2,7
4,4,3,5
4,4,5,3
4,4,6,6
4,5,1,4
4,5,2,2
4,5,4,6
4,5,6,7
4,5,7,8
4,6,4,1
4,8,1,7
4,8,3,2
4,8,5,9
4,8,7,5
5,2,2,7
5,2,6,6
5,4,2,3
5,4,6,8
5,6,2,9
5,6,6,4
6,1,1,8
6,1,7,6
6,2,1,4
6,2,3,9
6,2,5,8
6,2,7,3
6,6,1,7
6,6,3,2
6,6,5,9
6,6,7,5
6,7,1,1
6,7,7,2
7,0,3,4
7,0,4,2
7,0,5,3
7,1,2,1
7,1,3,7
7,1,5,9
7,1,6,3
7,3,1,4
7,3,7,8
7,5,1,1
7,5,7,2
7,7,2,3
7,7,3,6
7,7,5,4
7,7,6,8
7,8,3,3
7,8,4,9
7,8,5,2
8,0,3,8
8,0,5,7
8,8,3,7
8,8,5,5
