0,2,3,8
0,2,5,4
0,3,4,7
0,4,1,4
0,4,7,6
0,5,4,4
0,6,3,7
0,6,5,2
1,0,1,7
1,0,7,1
1,2,0,4
1,2,3,9
1,2,5,5
1,2,8,7
1,3,4,3
1,4,4,2
1,5,4,5
1,6,0,6
1,6,3,3
1,6,5,8
1,6,8,1
1,8,1,4
1,8,7,6
2,0,1,4
2,0,2,8
2,0,6,7
2,0,7,6
2,1,3,3
2,1,5,8
2,7,3,8
2,7,5,4
2,8,1,5
2,8,2,9
2,8,6,8
2,8,7,3
3,0,3,3
3,0,5,9
3,1,3,2
3,1,5,4
3,2,3,5
3,2,5,7
3,4,2,7
3,4,6,5
3,6,3,9
3,6,5,6
3,7,3,4
3,7,5,1
3,8,3,7
3,8,5,8
4,0,3,7
4,0,5,8
4,2,0,3
4,2,2,9
4,2,6,8
4,2,8,5
4,3,0,1
4,3,8,2
4,5,0,7
4,5,8,8
4,6,0,4
4,6,2,1
4,6,6,3
4,6,8,9
4,8,3,1
4,8,5,2
5,0,3,1
5,0,5,2
5,1,3,8
5,1,5,5
5,2,3,6
5,2,5,3
5,4,2,4
5,4,6,2
5,6,3,2
5,6,5,4
5,7,3,5
5,7,5,7
5,8,3,3
5,8,5,9
6,0,1,9
6,0,2,1
6,0,6,3
6,0,7,4
6,1,3,5
6,1,5,1
6,7,3,1
6,7,5,9
6,8,1,6
6,8,2,2
6,8,6,1
6,8,7,5
7,0,1,6
7,0,7,5
7,2,0,8
7,2,3,1
7,2,5,9
7,2,8,6
7,3,4,4
7,4,4,7
7,5,4,9
7,6,0,2
7,6,3,4
7,6,5,3
7,6,8,5
7,8,1,8
7,8,7,2
8,2,3,7
8,2,5,2
8,3,4,5
8,4,1,6
8,4,7,5
8,5,4,2
8,6,3,5
8,6,5,1
