0,1,0,6
0,1,8,1
0,3,2,7
0,3,3,9
0,3,5,4
0,3,6,5
0,5,2,3
0,5,3,6
0,5,5,2
0,5,6,9
0,7,0,1
0,7,8,9
1,0,3,9
1,0,4,8
1,0,5,4
1,1,3,5
1,1,5,3
1,4,3,7
1,4,4,2
1,4,5,6
1,7,3,4
1,7,5,8
1,8,3,3
1,8,4,5
1,8,5,1
2,1,1,3
2,1,3,6
2,1,5,2
2,1,7,4
2,3,1,5
2,3,7,9
2,5,1,9
2,5,7,7
2,7,1,8
2,7,3,5
2,7,5,3
2,7,7,6
3,0,0,9
3,0,2,2
3,0,6,6
3,0,8,1
3,1,0,4
3,1,8,5
3,2,3,1
3,2,5,4
3,3,0,1
3,3,8,6
3,4,4,4
3,5,0,8
3,5,8,7
3,6,3,4
3,6,5,7
3,7,0,7
3,7,8,4
3,8,0,6
3,8,2,1
3,8,6,5
3,8,8,3
4,0,3,6
4,0,5,8
4,1,1,6
4,1,7,8
4,7,1,1
4,7,7,3
4,8,3,1
4,8,5,4
5,0,0,6
5,0,2,5
5,0,6,8
5,0,8,9
5,1,0,2
5,1,8,4
5,2,3,9
5,2,5,6
5,3,0,9
5,3,8,1
5,4,4,7
5,5,0,3
5,5,8,8
5,6,3,2
5,6,5,8
5,7,0,5
5,7,8,6
5,8,0,8
5,8,2,9
5,8,6,4
5,8,8,2
6,1,1,5
6,1,3,7
6,1,5,6
6,1,7,9
6,3,1,1
6,3,7,8
6,5,1,8
6,5,7,2
6,7,1,4
6,7,3,1
6,7,5,5
6,7,7,7
7,0,3,2
7,0,4,6
7,0,5,7
7,1,3,9
7,1,5,4
7,4,3,1
7,4,4,3
7,4,5,5
7,7,3,6
7,7,5,2
7,8,3,4
7,8,4,9
7,8,5,8
8,1,0,8
8,1,8,6
8,3,2,8
8,3,3,3
8,3,5,1
8,3,6,6
8,5,2,6
8,5,3,4
8,5,5,8
8,5,6,3
8,7,0,6
8,7,8,3
