0,2,2,9
0,2,4,8
0,2,6,2
0,4,3,9
0,4,5,2
0,6,2,5
0,6,4,7
0,6,6,3
1,0,2,1
1,0,6,7
1,2,2,7
1,2,6,9
1,3,0,6
1,3,1,1
1,3,7,9
1,3,8,7
1,4,1,9
1,4,7,6
1,5,0,4
1,5,1,7
1,5,7,1
1,5,8,5
1,6,2,6
1,6,6,5
1,8,2,9
1,8,6,1
2,1,2,6
2,1,3,8
2,1,5,5
2,1,6,4
2,4,4,4
2,7,2,4
2,7,3,9
2,7,5,3
2,7,6,2
3,0,0,3
3,0,8,1
3,1,4,6
3,2,0,9
3,2,8,4
3,3,1,9
3,3,7,1
3,4,0,4
3,4,1,1
3,4,7,8
3,4,8,5
3,5,1,6
3,5,7,9
3,6,0,5
3,6,8,9
3,7,4,3
3,8,0,6
3,8,8,7
4,0,0,5
4,0,1,1
4,0,7,8
4,0,8,9
4,1,1,6
4,1,3,5
4,1,5,8
4,1,7,4
4,2,4,7
4,4,2,2
4,4,6,9
4,6,4,6
4,7,1,2
4,7,3,8
4,7,5,1
4,7,7,7
4,8,0,3
4,8,1,8
4,8,7,9
4,8,8,1
5,0,0,6
5,0,8,7
5,1,4,9
5,2,0,1
5,2,8,2
5,3,1,2
5,3,7,7
5,4,0,3
5,4,1,8
5,4,7,4
5,4,8,1
5,5,1,4
5,5,7,2
5,6,0,2
5,6,8,3
5,7,4,7
5,8,0,9
5,8,8,4
6,1,2,7
6,1,3,6
6,1,5,9
6,1,6,5
6,4,4,5
6,7,2,5
6,7,3,4
6,7,5,2
6,7,6,1
7,0,2,3
7,0,6,8
7,2,2,8
7,2,6,4
7,3,0,7
7,3,1,3
7,3,7,4
7,3,8,8
7,4,1,4
7,4,7,7
7,5,0,5
7,5,1,8
7,5,7,3
7,5,8,9
7,6,2,7
7,6,6,9
7,8,2,4
7,8,6,3
8,2,2,4
8,2,4,6
8,2,6,1
8,4,3,4
8,4,5,1
8,6,2,9
8,6,4,8
8,6,6,2
