0,0,1,2
0,0,7,6
0,1,2,1
0,1,6,5
0,2,0,4
0,2,2,8
0,2,6,9
0,2,8,1
0,3,2,4
0,3,6,7
0,4,0,7
0,4,8,4
0,5,2,9
0,5,6,6
0,6,0,8
0,6,2,7
0,6,6,1
0,6,8,2
0,7,2,2
0,7,6,8
0,8,1,5
0,8,7,4
1,0,0,8
1,0,8,2
1,1,0,3
1,1,2,2
1,1,6,8
1,1,8,6
1,2,1,9
1,2,7,5
1,6,1,1
1,6,7,3
1,7,0,7
1,7,2,9
1,7,6,2
1,7,8,5
1,8,0,2
1,8,8,9
2,0,4,8
2,1,0,7
2,1,8,9
2,2,1,3
2,2,4,1
2,2,7,8
2,3,2,7
2,3,6,1
2,4,1,9
2,4,7,5
2,5,2,6
2,5,6,3
2,6,1,2
2,6,4,7
2,6,7,6
2,7,0,5
2,7,8,3
2,8,4,6
3,2,4,5
3,3,3,6
3,3,5,9
3,5,3,2
3,5,5,5
3,6,4,2
4,1,3,5
4,1,5,3
4,3,3,1
4,3,5,7
4,4,4,5
4,5,3,3
4,5,5,6
4,7,3,7
4,7,5,5
5,2,4,8
5,3,3,5
5,3,5,8
5,5,3,4
5,5,5,1
5,6,4,5
6,0,4,1
6,1,0,6
6,1,8,5
6,2,1,8
6,2,4,3
6,2,7,1
6,3,2,6
6,3,6,3
6,4,1,5
6,4,7,4
6,5,2,2
6,5,6,8
6,6,1,7
6,6,4,6
6,6,7,2
6,7,0,4
6,7,8,8
6,8,4,2
7,0,0,4
7,0,8,1
7,1,0,5
7,1,2,3
7,1,6,4
7,1,8,8
7,2,1,6
7,2,7,7
7,6,1,5
7,6,7,4
7,7,0,8
7,7,2,7
7,7,6,1
7,7,8,2
7,8,0,3
7,8,8,6
8,0,1,9
8,0,7,5
8,1,2,7
8,1,6,1
8,2,0,3
8,2,2,2
8,2,6,8
8,2,8,6
8,3,2,8
8,3,6,4
8,4,0,9
8,4,8,8
8,5,2,1
8,5,6,9
8,6,0,2
8,6,2,4
8,6,6,6
8,6,8,9
8,7,2,5
8,7,6,7
8,8,1,8
8,8,7,1
