0,1,0,3
0,1,8,2
0,2,2,9
0,2,6,7
0,4,1,3
0,4,3,7
0,4,5,9
0,4,7,1
0,6,2,5
0,6,6,6
0,7,0,9
0,7,8,1
1,0,3,4
1,0,5,1
1,8,3,8
1,8,5,7
2,0,0,9
2,0,8,1
2,1,1,4
2,1,7,5
2,2,2,5
2,2,4,3
2,2,6,6
2,3,1,5
2,3,3,8
2,3,5,7
2,3,7,9
2,5,1,7
2,5,3,9
2,5,5,3
2,5,7,6
2,6,2,4
2,6,4,8
2,6,6,2
2,7,1,2
2,7,7,7
2,8,0,1
2,8,8,6
3,0,1,4
3,0,2,2
3,0,6,1
3,0,7,9
3,1,4,1
3,3,0,2
3,3,1,8
3,3,7,1
3,3,8,5
3,5,0,1
3,5,1,5
3,5,7,4
3,5,8,7
3,7,4,4
3,8,1,1
3,8,2,4
3,8,6,7
3,8,7,3
4,0,0,1
4,0,3,8
4,0,5,2
4,0,8,7
4,1,3,7
4,1,5,4
4,2,0,4
4,2,1,7
4,2,3,5
4,2,5,1
4,2,7,2
4,2,8,8
4,3,2,4
4,3,6,7
4,5,2,7
4,5,6,8
4,6,0,9
4,6,1,6
4,6,3,4
4,6,5,8
4,6,7,7
4,6,8,3
4,7,3,3
4,7,5,7
4,8,0,7
4,8,3,6
4,8,5,9
4,8,8,4
5,0,1,9
5,0,2,7
5,0,6,8
5,0,7,5
5,1,4,8
5,3,0,7
5,3,1,3
5,3,7,8
5,3,8,4
5,5,0,8
5,5,1,4
5,5,7,9
5,5,8,6
5,7,4,9
5,8,1,8
5,8,2,9
5,8,6,6
5,8,7,1
6,0,0,2
6,0,8,4
6,1,1,7
6,1,7,6
6,2,2,6
6,2,4,4
6,2,6,3
6,3,1,2
6,3,3,4
6,3,5,3
6,3,7,7
6,5,1,8
6,5,3,7
6,5,5,9
6,5,7,3
6,6,2,2
6,6,4,9
6,6,6,8
6,7,1,3
6,7,7,1
6,8,0,9
6,8,8,3
7,0,3,2
7,0,5,9
7,8,3,9
7,8,5,8
8,1,0,9
8,1,8,3
8,2,2,7
8,2,6,8
8,4,1,5
8,4,3,1
8,4,5,6
8,4,7,9
8,6,2,6
8,6,6,1
8,7,0,2
8,7,8,5
