0,1,1,3
0,1,7,5
0,2,0,2
0,2,3,9
0,2,5,1
0,2,8,4
0,3,0,8
0,3,8,6
0,4,3,8
0,4,5,5
0,5,0,1
0,5,8,5
0,6,0,3
0,6,3,6
0,6,5,2
0,6,8,9
0,7,1,8
0,7,7,4
1,0,1,2
1,0,7,7
1,1,2,6
1,1,4,7
1,1,6,1
1,7,2,1
1,7,4,6
1,7,6,9
1,8,1,5
1,8,7,6
2,0,1,1
2,0,3,6
2,0,5,2
2,0,7,8
2,2,4,8
2,3,3,7
2,3,5,8
2,4,1,3
2,4,2,1
2,4,6,9
2,4,7,5
2,5,3,9
2,5,5,1
2,6,4,9
2,8,1,7
2,8,3,4
2,8,5,6
2,8,7,9
3,0,2,9
3,0,6,3
3,1,0,3
3,1,8,9
3,2,0,4
3,2,8,7
3,6,0,2
3,6,8,5
3,7,0,9
3,7,8,1
3,8,2,1
3,8,6,9
4,0,0,1
4,0,3,5
4,0,4,2
4,0,5,6
4,0,8,4
4,1,0,8
4,1,2,4
4,1,6,5
4,1,8,6
4,2,2,6
4,2,6,1
4,3,2,8
4,3,4,3
4,3,6,7
4,4,0,9
4,4,3,7
4,4,5,8
4,4,8,1
4,5,2,1
4,5,4,6
4,5,6,9
4,6,2,9
4,6,6,3
4,7,0,3
4,7,2,7
4,7,6,4
4,7,8,9
4,8,0,4
4,8,3,3
4,8,4,1
4,8,5,9
4,8,8,7
5,0,2,8
5,0,6,7
5,1,0,9
5,1,8,1
5,2,0,7
5,2,8,8
5,6,0,1
5,6,8,4
5,7,0,8
5,7,8,6
5,8,2,6
5,8,6,1
6,0,1,9
6,0,3,8
6,0,5,5
6,0,7,2
6,2,4,9
6,3,3,3
6,3,5,9
6,4,1,4
6,4,2,9
6,4,6,3
6,4,7,1
6,5,3,6
6,5,5,2
6,6,4,6
6,8,1,6
6,8,3,7
6,8,5,8
6,8,7,3
7,0,1,3
7,0,7,5
7,1,2,8
7,1,4,3
7,1,6,7
7,7,2,9
7,7,4,8
7,7,6,3
7,8,1,1
7,8,7,8
8,1,1,4
8,1,7,1
8,2,0,3
8,2,3,6
8,2,5,2
8,2,8,9
8,3,0,7
8,3,8,8
8,4,3,9
8,4,5,1
8,5,0,9
8,5,8,1
8,6,0,4
8,6,3,8
8,6,5,5
8,6,8,3
8,7,1,7
8,7,7,9
