0,0,1,7
0,0,4,3
0,0,7,5
0,1,1,5
0,1,7,4
0,2,3,2
0,2,4,5
0,2,5,4
0,3,0,7
0,3,4,6
0,3,8,2
0,4,4,9
0,5,0,8
0,5,4,4
0,5,8,3
0,6,3,6
0,6,4,1
0,6,5,3
0,7,1,2
0,7,7,1
0,8,1,1
0,8,4,2
0,8,7,3
1,0,1,3
1,0,7,6
1,3,2,5
1,3,6,6
1,5,2,7
1,5,6,8
1,8,1,7
1,8,7,5
2,0,0,6
2,0,8,7
2,1,0,9
2,1,1,4
2,1,4,1
2,1,7,2
2,1,8,5
2,2,1,2
2,2,7,1
2,4,3,1
2,4,5,6
2,6,1,6
2,6,7,9
2,7,0,7
2,7,1,9
2,7,4,6
2,7,7,8
2,7,8,2
2,8,0,5
2,8,8,1
3,1,1,9
3,1,7,3
3,2,2,3
3,2,3,1
3,2,5,5
3,2,6,2
3,3,1,7
3,3,7,5
3,5,1,3
3,5,7,7
3,6,2,6
3,6,3,4
3,6,5,8
3,6,6,5
3,7,1,1
3,7,7,4
4,0,1,8
4,0,2,4
4,0,6,7
4,0,7,2
4,1,1,2
4,1,7,1
4,2,0,5
4,2,2,9
4,2,6,8
4,2,8,3
4,6,0,4
4,6,2,8
4,6,6,6
4,6,8,2
4,7,1,7
4,7,7,5
4,8,1,5
4,8,2,1
4,8,6,3
4,8,7,8
5,1,1,3
5,1,7,7
5,2,2,2
5,2,3,8
5,2,5,3
5,2,6,9
5,3,1,1
5,3,7,4
5,5,1,2
5,5,7,1
5,6,2,5
5,6,3,2
5,6,5,7
5,6,6,4
5,7,1,4
5,7,7,6
6,0,0,7
6,0,8,2
6,1,0,5
6,1,1,8
6,1,4,9
6,1,7,6
6,1,8,1
6,2,1,6
6,2,7,9
6,4,3,9
6,4,5,7
6,6,1,7
6,6,7,5
6,7,0,2
6,7,1,5
6,7,4,7
6,7,7,3
6,7,8,6
6,8,0,1
6,8,8,9
7,0,1,4
7,0,7,7
7,3,2,1
7,3,6,7
7,5,2,2
7,5,6,3
7,8,1,2
7,8,7,1
8,0,1,2
8,0,4,4
8,0,7,1
8,1,1,1
8,1,7,8
8,2,3,6
8,2,4,1
8,2,5,8
8,3,0,2
8,3,4,7
8,3,8,6
8,4,4,5
8,5,0,3
8,5,4,8
8,5,8,4
8,6,3,7
8,6,4,9
8,6,5,4
8,7,1,6
8,7,7,9
8,8,1,9
8,8,4,6
8,8,7,4
