0,1,4,7
0,2,0,5
0,2,8,9
0,4,1,5
0,4,7,2
0,6,0,7
0,6,8,2
0,7,4,8
1,1,1,1
1,1,2,3
1,1,6,4
1,1,7,5
1,3,2,1
1,3,6,7
1,5,2,5
1,5,6,6
1,7,1,7
1,7,2,8
1,7,6,2
1,7,7,6
2,1,2,5
2,1,3,3
2,1,5,1
2,1,6,6
2,2,1,9
2,2,7,4
2,4,2,9
2,4,6,5
2,6,1,1
2,6,7,5
2,7,2,6
2,7,3,9
2,7,5,7
2,7,6,8
3,0,4,5
3,2,2,5
3,2,4,4
3,2,6,6
3,4,0,5
3,4,2,8
3,4,6,2
3,4,8,9
3,6,2,7
3,6,4,1
3,6,6,9
3,8,4,8
4,2,3,8
4,2,5,6
4,6,3,2
4,6,5,8
5,0,4,8
5,2,2,4
5,2,4,7
5,2,6,1
5,4,0,4
5,4,2,6
5,4,6,8
5,4,8,3
5,6,2,2
5,6,4,9
5,6,6,3
5,8,4,3
6,1,2,6
6,1,3,9
6,1,5,7
6,1,6,8
6,2,1,5
6,2,7,2
6,4,2,5
6,4,6,6
6,6,1,7
6,6,7,6
6,7,2,9
6,7,3,2
6,7,5,8
6,7,6,5
7,1,1,7
7,1,2,8
7,1,6,2
7,1,7,6
7,3,2,7
7,3,6,9
7,5,2,6
7,5,6,8
7,7,1,4
7,7,2,2
7,7,6,3
7,7,7,8
8,1,4,8
8,2,0,6
8,2,8,1
8,4,1,6
8,4,7,3
8,6,0,4
8,6,8,3
8,7,4,1
