0,1,1,1
0,1,7,2
0,2,0,3
0,2,2,7
0,2,4,2
0,2,6,6
0,2,8,5
0,4,1,6
0,4,7,5
0,6,0,2
0,6,2,4
0,6,4,9
0,6,6,5
0,6,8,1
0,7,1,5
0,7,7,3
1,0,1,9
1,0,4,7
1,0,7,8
1,1,4,8
1,2,0,2
1,2,1,8
1,2,7,7
1,2,8,3
1,3,0,6
1,3,8,1
1,5,0,9
1,5,8,7
1,6,0,5
1,6,1,6
1,6,7,9
1,6,8,2
1,7,4,5
1,8,1,4
1,8,4,6
1,8,7,1
2,1,4,6
2,4,0,2
2,4,8,8
2,7,4,8
3,1,1,3
3,1,4,7
3,1,7,4
3,2,0,5
3,2,4,6
3,2,8,8
3,6,0,3
3,6,4,5
3,6,8,6
3,7,1,6
3,7,4,4
3,7,7,8
4,0,0,3
4,0,4,5
4,0,8,2
4,2,2,4
4,2,3,2
4,2,5,1
4,2,6,5
4,3,3,1
4,3,5,9
4,4,0,9
4,4,4,6
4,4,8,1
4,5,3,3
4,5,5,4
4,6,2,1
4,6,3,4
4,6,5,7
4,6,6,8
4,8,0,7
4,8,4,8
4,8,8,4
5,1,1,4
5,1,4,1
5,1,7,6
5,2,0,6
5,2,4,8
5,2,8,4
5,6,0,4
5,6,4,6
5,6,8,3
5,7,1,3
5,7,4,2
5,7,7,4
6,1,4,2
6,4,0,7
6,4,8,3
6,7,4,3
7,0,1,4
7,0,4,6
7,0,7,3
7,1,4,3
7,2,0,7
7,2,1,3
7,2,7,6
7,2,8,1
7,3,0,2
7,3,8,8
7,5,0,4
7,5,8,6
7,6,0,9
7,6,1,2
7,6,7,4
7,6,8,7
7,7,4,9
7,8,1,5
7,8,4,2
7,8,7,8
8,1,1,8
8,1,7,7
8,2,0,1
8,2,2,6
8,2,4,7
8,2,6,2
8,2,8,9
8,4,1,2
8,4,7,9
8,6,0,7
8,6,2,5
8,6,4,4
8,6,6,9
8,6,8,8
8,7,1,9
8,7,7,1
