0,1,4,5
0,2,2,4
0,2,4,6
0,2,6,3
0,3,1,4
0,3,7,2
0,5,1,3
0,5,7,4
0,6,2,2
0,6,4,8
0,6,6,4
0,7,4,9
1,3,3,4
1,3,5,8
1,5,3,3
1,5,5,7
2,0,3,8
2,0,5,6
2,2,4,3
2,6,4,4
2,8,3,2
2,8,5,9
3,0,1,1
3,0,2,2
3,0,6,3
3,0,7,7
3,2,1,5
3,2,7,1
3,4,0,8
3,4,8,1
3,6,1,8
3,6,7,2
3,8,1,9
3,8,2,3
3,8,6,4
3,8,7,8
4,0,4,3
4,1,0,2
4,1,2,1
4,1,6,4
4,1,8,7
4,2,3,2
4,2,5,1
4,3,0,1
4,3,1,2
4,3,3,9
4,3,4,8
4,3,5,6
4,3,7,5
4,3,8,3
4,4,0,7
4,4,3,1
4,4,5,4
4,4,8,6
4,5,0,9
4,5,1,8
4,5,3,7
4,5,4,5
4,5,5,3
4,5,7,2
4,5,8,4
4,6,3,5
4,6,5,2
4,7,0,6
4,7,2,8
4,7,6,5
4,7,8,2
4,8,4,4
5,0,1,4
5,0,2,3
5,0,6,5
5,0,7,8
5,2,1,2
5,2,7,4
5,4,0,4
5,4,8,5
5,6,1,5
5,6,7,3
5,8,1,6
5,8,2,4
5,8,6,2
5,8,7,5
6,0,3,3
6,0,5,2
6,2,4,1
6,6,4,5
6,8,3,7
6,8,5,4
7,3,3,5
7,3,5,3
7,5,3,1
7,5,5,6
8,1,4,9
8,2,2,5
8,2,4,2
8,2,6,1
8,3,1,5
8,3,7,7
8,5,1,1
8,5,7,5
8,6,2,7
8,6,4,3
8,6,6,5
8,7,4,4
