0,1,0,8
0,1,8,4
0,2,1,3
0,2,7,9
0,4,0,1
0,4,8,2
0,6,1,5
0,6,7,2
0,7,0,3
0,7,8,6
1,1,3,4
1,1,5,8
1,2,2,4
1,2,6,6
1,3,0,6
1,3,8,5
1,4,3,2
1,4,4,5
1,4,5,1
1,5,0,5
1,5,8,3
1,6,2,1
1,6,6,3
1,7,3,6
1,7,5,3
2,0,1,9
2,0,3,5
2,0,4,3
2,0,5,4
2,0,7,2
2,1,0,3
2,1,8,6
2,2,0,7
2,2,3,8
2,2,5,9
2,2,8,3
2,3,3,7
2,3,5,2
2,4,2,7
2,4,3,6
2,4,5,3
2,4,6,5
2,5,3,1
2,5,5,5
2,6,0,2
2,6,3,9
2,6,5,6
2,6,8,5
2,7,0,1
2,7,8,2
2,8,1,8
2,8,3,3
2,8,4,2
2,8,5,7
2,8,7,9
3,0,2,4
3,0,6,6
3,3,4,6
3,4,2,3
3,4,6,1
3,5,4,9
3,8,2,9
3,8,6,5
4,0,1,3
4,0,7,5
4,1,4,1
4,2,0,1
4,2,1,4
4,2,7,8
4,2,8,6
4,4,1,5
4,4,7,2
4,6,0,5
4,6,1,1
4,6,7,7
4,6,8,8
4,7,4,8
4,8,1,6
4,8,7,3
5,0,2,2
5,0,6,4
5,3,4,4
5,4,2,8
5,4,6,3
5,5,4,5
5,8,2,5
5,8,6,7
6,0,1,4
6,0,3,2
6,0,4,5
6,0,5,3
6,0,7,1
6,1,0,5
6,1,8,8
6,2,0,6
6,2,3,9
6,2,5,4
6,2,8,5
6,3,3,6
6,3,5,8
6,4,2,6
6,4,3,3
6,4,5,9
6,4,6,2
6,5,3,5
6,5,5,2
6,6,0,3
6,6,3,4
6,6,5,1
6,6,8,2
6,7,0,9
6,7,8,3
6,8,1,5
6,8,3,7
6,8,4,3
6,8,5,6
6,8,7,4
7,1,3,3
7,1,5,5
7,2,2,3
7,2,6,8
7,3,0,3
7,3,8,2
7,4,3,8
7,4,4,2
7,4,5,7
7,5,0,2
7,5,8,5
7,6,2,5
7,6,6,9
7,7,3,1
7,7,5,9
8,1,0,7
8,1,8,3
8,2,1,9
8,2,7,4
8,4,0,9
8,4,8,8
8,6,1,2
8,6,7,3
8,7,0,5
8,7,8,1
