0,1,4,7
0,3,4,2
0,5,4,4
0,7,4,5
1,0,0,2
1,0,3,6
1,0,4,5
1,0,5,3
1,0,8,1
1,1,0,1
1,1,8,9
1,3,3,1
1,3,5,5
1,4,2,7
1,4,3,4
1,4,5,2
1,4,6,9
1,5,3,7
1,5,5,8
1,7,0,7
1,7,8,8
1,8,0,8
1,8,3,3
1,8,4,7
1,8,5,9
1,8,8,5
2,2,1,8
2,2,7,1
2,3,0,8
2,3,8,9
2,4,0,4
2,4,8,7
2,5,0,7
2,5,8,8
2,6,1,3
2,6,7,8
3,0,0,1
3,0,3,3
3,0,5,9
3,0,8,4
3,1,0,9
3,1,8,2
3,2,2,3
3,2,3,7
3,2,5,8
3,2,6,6
3,3,1,3
3,3,7,1
3,5,1,7
3,5,7,2
3,6,2,8
3,6,3,6
3,6,5,1
3,6,6,2
3,7,0,3
3,7,8,5
3,8,0,4
3,8,3,5
3,8,5,2
3,8,8,7
4,1,4,8
4,2,1,5
4,2,7,4
4,4,1,4
4,4,4,5
4,4,7,9
4,6,1,9
4,6,7,5
4,7,4,6
5,0,0,3
5,0,3,8
5,0,5,5
5,0,8,9
5,1,0,5
5,1,8,6
5,2,2,8
5,2,3,2
5,2,5,1
5,2,6,7
5,3,1,8
5,3,7,3
5,5,1,2
5,5,7,6
5,6,2,1
5,6,3,7
5,6,5,3
5,6,6,6
5,7,0,8
5,7,8,4
5,8,0,9
5,8,3,4
5,8,5,6
5,8,8,2
6,2,1,2
6,2,7,7
6,3,0,7
6,3,8,1
6,4,0,1
6,4,8,5
6,5,0,9
6,5,8,7
6,6,1,7
6,6,7,6
7,0,0,4
7,0,3,9
7,0,4,1
7,0,5,6
7,0,8,7
7,1,0,7
7,1,8,1
7,3,3,6
7,3,5,8
7,4,2,9
7,4,3,1
7,4,5,5
7,4,6,8
7,5,3,4
7,5,5,7
7,7,0,9
7,7,8,6
7,8,0,6
7,8,3,7
7,8,4,4
7,8,5,1
7,8,8,8
8,1,4,4
8,3,4,5
8,5,4,8
8,7,4,1
