0,1,3,7
0,1,4,5
0,1,5,8
0,2,2,2
0,2,6,5
0,3,1,5
0,3,7,9
0,4,1,6
0,4,2,7
0,4,3,5
0,4,5,2
0,4,6,4
0,4,7,1
0,5,1,3
0,5,7,2
0,6,2,3
0,6,6,9
0,7,3,8
0,7,4,3
0,7,5,5
1,0,0,9
1,0,1,6
1,0,3,5
1,0,5,7
1,0,7,1
1,0,8,2
1,2,1,5
1,2,7,9
1,4,1,4
1,4,4,9
1,4,7,5
1,6,1,9
1,6,7,4
1,8,0,8
1,8,1,3
1,8,3,1
1,8,5,4
1,8,7,2
1,8,8,9
2,1,2,7
2,1,6,9
2,2,2,9
2,2,6,1
2,4,0,8
2,4,1,2
2,4,3,1
2,4,5,4
2,4,7,7
2,4,8,9
2,6,2,4
2,6,6,8
2,7,2,8
2,7,6,2
3,0,1,1
3,0,7,7
3,1,3,5
3,1,5,4
3,3,2,7
3,3,6,2
3,4,0,6
3,4,8,7
3,5,2,5
3,5,6,6
3,7,3,4
3,7,5,3
3,8,1,5
3,8,7,9
4,0,3,8
4,0,5,1
4,1,0,8
4,1,4,9
4,1,8,7
4,3,1,2
4,3,3,7
4,3,5,8
4,3,7,6
4,4,1,1
4,4,4,6
4,4,7,2
4,5,1,6
4,5,3,5
4,5,5,4
4,5,7,1
4,7,0,1
4,7,4,7
4,7,8,5
4,8,3,3
4,8,5,5
5,0,1,2
5,0,7,8
5,1,3,1
5,1,5,3
5,3,2,6
5,3,6,8
5,4,0,4
5,4,8,6
5,5,2,1
5,5,6,4
5,7,3,2
5,7,5,8
5,8,1,1
5,8,7,3
6,1,2,9
6,1,6,1
6,2,2,1
6,2,6,2
6,4,0,2
6,4,1,9
6,4,3,3
6,4,5,8
6,4,7,4
6,4,8,1
6,6,2,8
6,6,6,3
6,7,2,3
6,7,6,4
7,0,0,7
7,0,1,9
7,0,3,2
7,0,5,8
7,0,7,4
7,0,8,1
7,2,1,2
7,2,7,7
7,4,1,7
7,4,4,2
7,4,7,3
7,6,1,3
7,6,7,2
7,8,0,5
7,8,1,8
7,8,3,4
7,8,5,2
7,8,7,6
7,8,8,3
8,1,3,3
8,1,4,4
8,1,5,1
8,2,2,7
8,2,6,4
8,3,1,4
8,3,7,5
8,4,1,8
8,4,2,3
8,4,3,4
8,4,5,7
8,4,6,9
8,4,7,6
8,5,1,2
8,5,7,7
8,6,2,2
8,6,6,5
8,7,3,1
8,7,4,2
8,7,5,4
