0,3,2,3
0,3,6,7
0,4,1,8
0,4,7,3
0,5,2,9
0,5,6,8
1,0,1,2
1,0,2,9
1,0,3,3
1,0,5,4
1,0,6,8
1,0,7,6
1,2,4,1
1,3,2,2
1,3,3,4
1,3,5,7
1,3,6,5
1,4,4,2
1,5,2,8
1,5,3,6
1,5,5,1
1,5,6,2
1,6,4,4
1,8,1,7
1,8,2,5
1,8,3,1
1,8,5,9
1,8,6,3
1,8,7,2
2,1,0,9
2,1,8,6
2,2,4,2
2,3,1,7
2,3,7,2
2,5,1,3
2,5,7,1
2,6,4,1
2,7,0,1
2,7,8,5
3,0,1,9
3,0,7,5
3,3,1,5
3,3,7,4
3,4,0,9
3,4,4,8
3,4,8,6
3,5,1,6
3,5,7,7
3,8,1,2
3,8,7,6
4,0,2,7
4,0,3,9
4,0,5,6
4,0,6,4
4,2,3,2
4,2,5,1
4,3,0,4
4,3,1,8
4,3,2,6
4,3,6,9
4,3,7,3
4,3,8,7
4,4,4,6
4,5,0,2
4,5,1,9
4,5,2,3
4,5,6,6
4,5,7,5
4,5,8,1
4,6,3,4
4,6,5,7
4,8,2,1
4,8,3,6
4,8,5,3
4,8,6,2
5,0,1,6
5,0,7,7
5,3,1,2
5,3,7,6
5,4,0,6
5,4,4,5
5,4,8,3
5,5,1,1
5,5,7,8
5,8,1,8
5,8,7,3
6,1,0,2
6,1,8,3
6,2,4,3
6,3,1,3
6,3,7,1
6,5,1,4
6,5,7,9
6,6,4,9
6,7,0,9
6,7,8,6
7,0,1,4
7,0,2,1
7,0,3,2
7,0,5,3
7,0,6,7
7,0,7,9
7,2,4,7
7,3,2,4
7,3,3,3
7,3,5,5
7,3,6,8
7,4,4,9
7,5,2,2
7,5,3,4
7,5,5,7
7,5,6,5
7,6,4,3
7,8,1,9
7,8,2,8
7,8,3,7
7,8,5,1
7,8,6,6
7,8,7,5
8,3,2,8
8,3,6,6
8,4,1,1
8,4,7,8
8,5,2,5
8,5,6,1
