0,1,2,4
0,1,4,6
0,1,6,1
0,3,0,9
0,3,2,5
0,3,4,2
0,3,6,8
0,3,8,1
0,5,0,3
0,5,2,2
0,5,4,8
0,5,6,9
0,5,8,5
0,7,2,3
0,7,4,7
0,7,6,4
1,0,1,8
1,0,7,6
1,2,2,9
1,2,4,3
1,2,6,7
1,6,2,5
1,6,4,2
1,6,6,8
1,8,1,6
1,8,7,4
2,1,2,8
2,1,3,9
2,1,4,4
2,1,5,5
2,1,6,2
2,2,3,1
2,2,5,7
2,3,3,4
2,3,5,9
2,4,4,7
2,5,3,2
2,5,5,6
2,6,3,7
2,6,5,8
2,7,2,4
2,7,3,3
2,7,4,6
2,7,5,2
2,7,6,1
3,0,1,1
3,0,3,8
3,0,5,5
3,0,7,3
3,2,4,2
3,3,0,5
3,3,1,2
3,3,7,8
3,3,8,6
3,4,3,2
3,4,5,4
3,5,0,1
3,5,1,4
3,5,7,9
3,5,8,2
3,6,4,4
3,8,1,3
3,8,3,7
3,8,5,9
3,8,7,6
4,0,2,8
4,0,4,4
4,0,6,1
4,1,0,4
4,1,2,1
4,1,6,9
4,1,8,3
4,2,2,5
4,2,6,8
4,3,2,4
4,3,6,2
4,4,0,3
4,4,8,8
4,5,2,6
4,5,6,5
4,6,2,3
4,6,6,4
4,7,0,8
4,7,2,9
4,7,6,7
4,7,8,5
4,8,2,7
4,8,4,5
4,8,6,3
5,0,1,2
5,0,3,9
5,0,5,1
5,0,7,8
5,2,4,5
5,3,0,6
5,3,1,9
5,3,7,5
5,3,8,7
5,4,3,5
5,4,5,6
5,5,0,2
5,5,1,3
5,5,7,6
5,5,8,4
5,6,4,6
5,8,1,8
5,8,3,4
5,8,5,3
5,8,7,7
6,1,2,5
6,1,3,6
6,1,4,2
6,1,5,3
6,1,6,8
6,2,3,9
6,2,5,5
6,3,3,2
6,3,5,6
6,4,4,5
6,5,3,8
6,5,5,1
6,6,3,5
6,6,5,4
6,7,2,6
6,7,3,7
6,7,4,1
6,7,5,8
6,7,6,5
7,0,1,7
7,0,7,2
7,2,2,4
7,2,4,6
7,2,6,1
7,6,2,9
7,6,4,3
7,6,6,7
7,8,1,2
7,8,7,5
8,1,2,7
8,1,4,5
8,1,6,3
8,3,0,8
8,3,2,1
8,3,4,9
8,3,6,6
8,3,8,3
8,5,0,5
8,5,2,4
8,5,4,6
8,5,6,1
8,5,8,7
8,7,2,5
8,7,4,2
8,7,6,8
