0,1,0,2
0,1,8,7
0,2,2,9
0,2,6,1
0,4,1,6
0,4,2,3
0,4,6,2
0,4,7,1
0,6,2,6
0,6,6,9
0,7,0,8
0,7,8,3
1,0,0,9
1,0,8,5
1,1,3,1
1,1,5,2
1,3,0,8
1,3,8,3
1,4,2,2
1,4,6,9
1,5,0,3
1,5,8,1
1,7,3,5
1,7,5,8
1,8,0,7
1,8,8,6
2,1,2,6
2,1,4,8
2,1,6,5
2,2,3,2
2,2,4,1
2,2,5,5
2,4,2,9
2,4,6,3
2,6,3,1
2,6,4,9
2,6,5,2
2,7,2,1
2,7,4,4
2,7,6,7
3,1,1,6
3,1,7,7
3,3,3,5
3,3,5,2
3,4,0,4
3,4,8,2
3,5,3,4
3,5,5,7
3,7,1,4
3,7,7,5
4,0,4,1
4,1,3,5
4,1,5,7
4,4,0,6
4,4,8,3
4,7,3,1
4,7,5,5
4,8,4,7
5,1,1,5
5,1,7,9
5,3,3,1
5,3,5,9
5,4,0,8
5,4,8,9
5,5,3,8
5,5,5,5
5,7,1,1
5,7,7,3
6,1,2,9
6,1,4,7
6,1,6,1
6,2,3,5
6,2,4,2
6,2,5,1
6,4,2,8
6,4,6,6
6,6,3,2
6,6,4,1
6,6,5,9
6,7,2,2
6,7,4,3
6,7,6,5
7,0,0,4
7,0,8,9
7,1,3,3
7,1,5,6
7,3,0,1
7,3,8,8
7,4,2,6
7,4,6,4
7,5,0,8
7,5,8,3
7,7,3,9
7,7,5,1
7,8,0,2
7,8,8,7
8,1,0,8
8,1,8,3
8,2,2,2
8,2,6,4
8,4,1,1
8,4,2,4
8,4,6,8
8,4,7,9
8,6,2,1
8,6,6,7
8,7,0,4
8,7,8,9
