0,2,2,8
0,2,6,7
0,3,2,7
0,3,6,9
0,4,0,1
0,4,8,4
0,5,2,3
0,5,6,2
0,6,2,2
0,6,6,4
1,0,1,2
1,0,7,7
1,1,2,1
1,1,6,2
1,3,3,1
1,3,5,4
1,5,3,9
1,5,5,6
1,7,2,3
1,7,6,7
1,8,1,8
1,8,7,1
2,0,3,2
2,0,5,1
2,1,0,5
2,1,8,7
2,2,0,1
2,2,8,5
2,3,1,5
2,3,7,4
2,4,3,4
2,4,5,7
2,5,1,7
2,5,7,6
2,6,0,6
2,6,8,1
2,7,0,4
2,7,8,6
2,8,3,1
2,8,5,9
3,2,1,7
3,2,7,9
3,6,1,1
3,6,7,3
4,0,4,7
4,2,1,4
4,2,2,5
4,2,3,3
4,2,5,9
4,2,6,1
4,2,7,6
4,3,1,7
4,3,7,9
4,4,0,5
4,4,8,6
4,5,1,2
4,5,7,4
4,6,1,5
4,6,2,3
4,6,3,2
4,6,5,1
4,6,6,6
4,6,7,7
4,8,4,4
5,2,1,1
5,2,7,3
5,6,1,2
5,6,7,4
6,0,3,7
6,0,5,3
6,1,0,9
6,1,8,6
6,2,0,3
6,2,8,9
6,3,1,9
6,3,7,5
6,4,3,5
6,4,5,6
6,5,1,6
6,5,7,2
6,6,0,2
6,6,8,3
6,7,0,5
6,7,8,2
6,8,3,3
6,8,5,4
7,0,1,7
7,0,7,6
7,1,2,3
7,1,6,7
7,3,3,3
7,3,5,5
7,5,3,4
7,5,5,2
7,7,2,8
7,7,6,6
7,8,1,1
7,8,7,3
8,2,2,1
8,2,6,6
8,3,2,6
8,3,6,4
8,4,0,3
8,4,8,5
8,5,2,8
8,5,6,7
8,6,2,7
8,6,6,5
