0,2,3,4
0,2,5,1
0,3,4,8
0,4,4,1
0,5,4,7
0,6,3,1
0,6,5,9
1,0,0,9
1,0,8,6
1,1,4,1
1,2,1,8
1,2,7,1
1,4,4,2
1,6,1,3
1,6,7,9
1,7,4,3
1,8,0,7
1,8,8,8
2,0,1,2
2,0,4,4
2,0,7,5
2,1,4,7
2,2,1,4
2,2,7,6
2,3,0,5
2,3,2,8
2,3,4,6
2,3,6,4
2,3,8,1
2,5,0,6
2,5,2,2
2,5,4,9
2,5,6,5
2,5,8,8
2,6,1,1
2,6,7,7
2,7,4,1
2,8,1,8
2,8,4,2
2,8,7,1
3,1,2,6
3,1,6,8
3,2,3,9
3,2,4,1
3,2,5,2
3,3,0,3
3,3,2,2
3,3,4,9
3,3,6,5
3,3,8,4
3,4,1,6
3,4,3,3
3,4,4,8
3,4,5,7
3,4,7,9
3,5,0,7
3,5,2,1
3,5,4,2
3,5,6,3
3,5,8,6
3,6,3,4
3,6,4,5
3,6,5,6
3,7,2,8
3,7,6,4
4,1,0,7
4,1,8,6
4,2,3,6
4,2,5,8
4,6,3,7
4,6,5,1
4,7,0,5
4,7,8,1
5,1,2,4
5,1,6,7
5,2,3,5
5,2,4,7
5,2,5,4
5,3,0,1
5,3,2,9
5,3,4,5
5,3,6,6
5,3,8,8
5,4,1,3
5,4,3,1
5,4,4,6
5,4,5,9
5,4,7,5
5,5,0,4
5,5,2,6
5,5,4,3
5,5,6,1
5,5,8,9
5,6,3,8
5,6,4,2
5,6,5,3
5,7,2,2
5,7,6,8
6,0,1,9
6,0,4,3
6,0,7,7
6,1,4,9
6,2,1,3
6,2,7,9
6,3,0,7
6,3,2,6
6,3,4,1
6,3,6,3
6,3,8,5
6,5,0,9
6,5,2,4
6,5,4,8
6,5,6,2
6,5,8,7
6,6,1,5
6,6,7,4
6,7,4,5
6,8,1,7
6,8,4,4
6,8,7,5
7,0,0,8
7,0,8,9
7,1,4,5
7,2,1,2
7,2,7,5
7,4,4,9
7,6,1,6
7,6,7,8
7,7,4,2
7,8,0,9
7,8,8,2
8,2,3,3
8,2,5,5
8,3,4,2
8,4,4,5
8,5,4,4
8,6,3,5
8,6,5,8
