0,0,1,1
0,0,7,7
0,1,2,8
0,1,4,7
0,1,6,3
0,7,2,3
0,7,4,5
0,7,6,6
0,8,1,5
0,8,7,2
1,0,2,4
1,0,4,2
1,0,6,1
1,1,0,7
1,1,2,9
1,1,6,6
1,1,8,4
1,2,1,5
1,2,7,2
1,6,1,3
1,6,7,9
1,7,0,5
1,7,2,1
1,7,6,2
1,7,8,7
1,8,2,6
1,8,4,3
1,8,6,5
2,1,1,3
2,1,2,1
2,1,4,4
2,1,6,2
2,1,7,9
2,3,0,6
2,3,8,9
2,5,0,1
2,5,8,4
2,7,1,6
2,7,2,8
2,7,4,7
2,7,6,4
2,7,7,1
3,0,2,3
3,0,6,7
3,1,0,2
3,1,8,3
3,2,0,7
3,2,2,1
3,2,3,9
3,2,5,3
3,2,6,2
3,2,8,5
3,3,0,8
3,3,8,4
3,4,1,1
3,4,7,5
3,5,0,3
3,5,8,7
3,6,0,1
3,6,2,6
3,6,3,4
3,6,5,9
3,6,6,5
3,6,8,8
3,7,0,4
3,7,8,6
3,8,2,8
3,8,6,4
4,2,0,4
4,2,8,7
4,6,0,3
4,6,8,1
5,0,2,6
5,0,6,5
5,1,0,3
5,1,8,6
5,2,0,5
5,2,2,8
5,2,3,1
5,2,5,6
5,2,6,3
5,2,8,4
5,3,0,4
5,3,8,1
5,4,1,8
5,4,7,3
5,5,0,7
5,5,8,5
5,6,0,8
5,6,2,2
5,6,3,6
5,6,5,7
5,6,6,9
5,6,8,3
5,7,0,6
5,7,8,2
5,8,2,3
5,8,6,6
6,1,1,7
6,1,2,2
6,1,4,1
6,1,6,4
6,1,7,6
6,3,0,5
6,3,8,7
6,5,0,2
6,5,8,6
6,7,1,5
6,7,2,4
6,7,4,8
6,7,6,7
6,7,7,2
7,0,2,1
7,0,4,4
7,0,6,2
7,1,0,8
7,1,2,6
7,1,6,5
7,1,8,1
7,2,1,9
7,2,7,4
7,6,1,6
7,6,7,1
7,7,0,3
7,7,2,2
7,7,6,9
7,7,8,8
7,8,2,5
7,8,4,6
7,8,6,3
8,0,1,2
8,0,7,8
8,1,2,3
8,1,4,8
8,1,6,7
8,7,2,6
8,7,4,3
8,7,6,5
8,8,1,3
8,8,7,9
