0,0,1,2
0,0,4,6
0,0,7,3
0,1,1,3
0,1,7,6
0,3,2,2
0,3,4,9
0,3,6,8
0,4,4,7
0,5,2,6
0,5,4,4
0,5,6,1
0,7,1,1
0,7,7,8
0,8,1,8
0,8,4,1
0,8,7,5
1,0,4,8
1,1,2,7
1,1,6,2
1,2,1,8
1,2,3,6
1,2,5,7
1,2,7,5
1,3,4,2
1,5,4,6
1,6,1,7
1,6,3,5
1,6,5,2
1,6,7,4
1,7,2,6
1,7,6,5
1,8,4,4
2,0,4,9
2,1,1,4
2,1,2,2
2,1,3,1
2,1,4,7
2,1,5,6
2,1,6,5
2,1,7,9
2,3,4,8
2,4,2,7
2,4,4,5
2,4,6,3
2,5,4,1
2,7,1,2
2,7,2,5
2,7,3,4
2,7,4,6
2,7,5,8
2,7,6,7
2,7,7,3
2,8,4,2
3,1,0,1
3,1,2,8
3,1,6,6
3,1,8,2
3,2,1,3
3,2,3,1
3,2,5,8
3,2,7,9
3,4,0,4
3,4,8,7
3,6,1,8
3,6,3,9
3,6,5,5
3,6,7,6
3,7,0,2
3,7,2,3
3,7,6,9
3,7,8,5
4,1,2,9
4,1,6,8
4,2,2,7
4,2,6,2
4,3,1,8
4,3,4,4
4,3,7,3
4,4,3,7
4,4,5,1
4,5,1,4
4,5,4,3
4,5,7,8
4,6,2,4
4,6,6,1
4,7,2,8
4,7,6,3
5,1,0,3
5,1,2,6
5,1,6,9
5,1,8,5
5,2,1,4
5,2,3,3
5,2,5,6
5,2,7,8
5,4,0,1
5,4,8,3
5,6,1,3
5,6,3,8
5,6,5,7
5,6,7,5
5,7,0,4
5,7,2,9
5,7,6,8
5,7,8,7
6,0,4,2
6,1,1,6
6,1,2,1
6,1,3,9
6,1,4,3
6,1,5,5
6,1,6,4
6,1,7,2
6,3,4,7
6,4,2,6
6,4,4,4
6,4,6,1
6,5,4,9
6,7,1,8
6,7,2,4
6,7,3,3
6,7,4,1
6,7,5,7
6,7,6,2
6,7,7,5
6,8,4,8
7,0,4,7
7,1,2,3
7,1,6,1
7,2,1,7
7,2,3,5
7,2,5,3
7,2,7,4
7,3,4,5
7,5,4,8
7,6,1,2
7,6,3,4
7,6,5,8
7,6,7,3
7,7,2,1
7,7,6,4
7,8,4,3
8,0,1,1
8,0,4,5
8,0,7,8
8,1,1,8
8,1,7,5
8,3,2,5
8,3,4,3
8,3,6,7
8,4,4,6
8,5,2,8
8,5,4,2
8,5,6,9
8,7,1,9
8,7,7,7
8,8,1,7
8,8,4,9
8,8,7,4
