0,4,0,1
0,4,1,2
0,4,7,4
0,4,8,6
1,0,0,8
1,0,1,7
1,0,7,5
1,0,8,1
1,1,4,1
1,4,0,5
1,4,8,9
1,7,4,2
1,8,0,2
1,8,1,9
1,8,7,6
1,8,8,3
2,0,4,5
2,1,0,4
2,1,4,9
2,1,8,5
2,2,2,3
2,2,3,2
2,2,4,4
2,2,5,1
2,2,6,8
2,3,1,9
2,3,7,6
2,4,1,4
2,4,3,6
2,4,4,3
2,4,5,9
2,4,7,1
2,5,1,5
2,5,7,8
2,6,2,9
2,6,3,5
2,6,4,8
2,6,5,7
2,6,6,3
2,7,0,8
2,7,4,6
2,7,8,1
2,8,4,1
3,0,0,6
3,0,2,5
3,0,6,1
3,0,8,3
3,3,1,2
3,3,7,4
3,4,4,2
3,5,1,3
3,5,7,2
3,8,0,5
3,8,2,8
3,8,6,3
3,8,8,9
4,1,4,3
4,2,2,6
4,2,6,9
4,3,1,6
4,3,3,2
4,3,4,4
4,3,5,7
4,3,7,1
4,4,1,1
4,4,3,9
4,4,5,8
4,4,7,5
4,5,1,9
4,5,3,3
4,5,4,1
4,5,5,5
4,5,7,6
4,6,2,2
4,6,6,6
4,7,4,7
5,0,0,2
5,0,2,7
5,0,6,4
5,0,8,8
5,3,1,4
5,3,7,7
5,4,4,5
5,5,1,8
5,5,7,9
5,8,0,7
5,8,2,9
5,8,6,8
5,8,8,6
6,0,4,3
6,1,0,3
6,1,4,2
6,1,8,7
6,2,2,1
6,2,3,8
6,2,4,7
6,2,5,5
6,2,6,4
6,3,1,7
6,3,7,5
6,4,1,3
6,4,3,4
6,4,4,1
6,4,5,2
6,4,7,9
6,5,1,2
6,5,7,4
6,6,2,7
6,6,3,3
6,6,4,9
6,6,5,6
6,6,6,1
6,7,0,5
6,7,4,4
6,7,8,9
6,8,4,5
7,0,0,5
7,0,1,6
7,0,7,7
7,0,8,9
7,1,4,5
7,4,0,2
7,4,8,3
7,7,4,8
7,8,0,8
7,8,1,7
7,8,7,5
7,8,8,1
8,4,0,4
8,4,1,8
8,4,7,2
8,4,8,5
