0,1,3,4
0,1,5,8
0,2,2,9
0,2,6,6
0,4,4,2
0,6,2,3
0,6,6,4
0,7,3,5
0,7,5,9
1,1,4,9
1,3,2,3
1,3,6,2
1,4,0,8
1,4,4,7
1,4,8,6
1,5,2,5
1,5,6,4
1,7,4,1
2,1,2,1
2,1,6,4
2,2,3,3
2,2,5,9
2,3,2,9
2,3,6,8
2,5,2,2
2,5,6,6
2,6,3,7
2,6,5,5
2,7,2,7
2,7,6,1
3,0,1,3
3,0,4,4
3,0,7,7
3,1,2,8
3,1,3,7
3,1,5,6
3,1,6,3
3,2,1,6
3,2,4,9
3,2,7,8
3,6,1,2
3,6,4,5
3,6,7,1
3,7,2,3
3,7,3,1
3,7,5,2
3,7,6,4
3,8,1,4
3,8,4,7
3,8,7,3
4,0,2,9
4,0,3,2
4,0,5,7
4,0,6,5
4,1,4,3
4,2,2,2
4,2,6,7
4,3,2,6
4,3,4,5
4,3,6,4
4,4,1,4
4,4,3,1
4,4,5,9
4,4,7,6
4,5,2,1
4,5,4,7
4,5,6,9
4,6,2,5
4,6,6,6
4,7,4,9
4,8,2,7
4,8,3,5
4,8,5,3
4,8,6,1
5,0,1,4
5,0,4,5
5,0,7,1
5,1,2,3
5,1,3,1
5,1,5,4
5,1,6,9
5,2,1,9
5,2,4,7
5,2,7,3
5,6,1,8
5,6,4,6
5,6,7,2
5,7,2,2
5,7,3,4
5,7,5,5
5,7,6,8
5,8,1,5
5,8,4,1
5,8,7,4
6,1,2,6
6,1,6,5
6,2,3,7
6,2,5,5
6,3,2,1
6,3,6,9
6,5,2,3
6,5,6,2
6,6,3,2
6,6,5,8
6,7,2,4
6,7,6,6
7,1,4,5
7,3,2,7
7,3,6,1
7,4,0,4
7,4,4,9
7,4,8,2
7,5,2,8
7,5,6,3
7,7,4,6
8,1,3,3
8,1,5,9
8,2,2,3
8,2,6,9
8,4,4,5
8,6,2,7
8,6,6,1
8,7,3,8
8,7,5,1
