0,0,3,2
0,0,5,6
0,1,0,3
0,1,1,5
0,1,3,1
0,1,5,7
0,1,7,9
0,1,8,6
0,2,1,4
0,2,2,6
0,2,6,1
0,2,7,5
0,3,3,9
0,3,5,3
0,5,3,4
0,5,5,1
0,6,1,3
0,6,2,5
0,6,6,6
0,6,7,2
0,7,0,6
0,7,1,2
0,7,3,8
0,7,5,9
0,7,7,1
0,7,8,5
0,8,3,6
0,8,5,5
1,0,2,3
1,0,6,9
1,1,1,6
1,1,7,7
1,3,1,1
1,3,7,3
1,5,1,2
1,5,7,1
1,7,1,9
1,7,7,4
1,8,2,8
1,8,6,2
2,0,2,4
2,0,6,7
2,1,0,7
2,1,3,6
2,1,5,5
2,1,8,4
2,2,2,5
2,2,6,6
2,4,1,4
2,4,2,6
2,4,6,1
2,4,7,5
2,6,2,1
2,6,6,4
2,7,0,5
2,7,3,4
2,7,5,1
2,7,8,2
2,8,2,2
2,8,6,5
3,1,0,2
3,1,8,7
3,4,0,5
3,4,8,2
3,7,0,7
3,7,8,4
4,0,3,9
4,0,5,3
4,1,2,6
4,1,4,1
4,1,6,4
4,3,1,3
4,3,7,2
4,4,1,2
4,4,7,6
4,5,1,6
4,5,7,3
4,7,2,8
4,7,4,4
4,7,6,2
4,8,3,3
4,8,5,8
5,1,0,8
5,1,8,9
5,4,0,6
5,4,8,8
5,7,0,4
5,7,8,6
6,0,2,6
6,0,6,1
6,1,0,1
6,1,3,2
6,1,5,6
6,1,8,8
6,2,2,8
6,2,6,2
6,4,1,6
6,4,2,2
6,4,6,5
6,4,7,7
6,6,2,9
6,6,6,8
6,7,0,8
6,7,3,7
6,7,5,4
6,7,8,9
6,8,2,4
6,8,6,7
7,0,2,1
7,0,6,4
7,1,1,8
7,1,7,6
7,3,1,2
7,3,7,1
7,5,1,3
7,5,7,2
7,7,1,4
7,7,7,5
7,8,2,7
7,8,6,3
8,0,3,7
8,0,5,4
8,1,0,6
8,1,1,2
8,1,3,8
8,1,5,9
8,1,7,1
8,1,8,5
8,2,1,1
8,2,2,9
8,2,6,8
8,2,7,3
8,3,3,2
8,3,5,6
8,5,3,3
8,5,5,8
8,6,1,6
8,6,2,2
8,6,6,5
8,6,7,7
8,7,0,9
8,7,1,7
8,7,3,5
8,7,5,2
8,7,7,8
8,7,8,3
8,8,3,4
8,8,5,1
