0,0,1,4
0,0,7,2
0,1,0,8
0,1,8,7
0,2,0,5
0,2,2,7
0,2,4,2
0,2,6,6
0,2,8,3
0,4,2,1
0,4,6,3
0,6,0,1
0,6,2,5
0,6,4,4
0,6,6,9
0,6,8,2
0,7,0,4
0,7,8,8
0,8,1,9
0,8,7,6
1,0,0,2
1,0,8,9
1,1,1,7
1,1,7,8
1,7,1,1
1,7,7,9
1,8,0,6
1,8,8,5
2,2,0,4
2,2,8,8
2,3,3,8
2,3,5,4
2,4,1,4
2,4,3,9
2,4,5,7
2,4,7,2
2,5,3,6
2,5,5,3
2,6,0,3
2,6,8,6
3,2,0,3
3,2,8,7
3,3,3,6
3,3,5,3
3,5,3,5
3,5,5,7
3,6,0,6
3,6,8,4
4,0,1,3
4,0,7,9
4,2,1,2
4,2,2,9
4,2,6,5
4,2,7,3
4,4,4,7
4,6,1,4
4,6,2,3
4,6,6,1
4,6,7,6
4,8,1,8
4,8,7,5
5,2,0,1
5,2,8,2
5,3,3,7
5,3,5,1
5,5,3,9
5,5,5,2
5,6,0,7
5,6,8,5
6,2,0,6
6,2,8,5
6,3,3,4
6,3,5,6
6,4,1,7
6,4,3,2
6,4,5,8
6,4,7,3
6,5,3,1
6,5,5,5
6,6,0,4
6,6,8,3
7,0,0,8
7,0,8,2
7,1,1,1
7,1,7,4
7,7,1,4
7,7,7,7
7,8,0,1
7,8,8,6
8,0,1,7
8,0,7,3
8,1,0,4
8,1,8,8
8,2,0,2
8,2,2,8
8,2,4,3
8,2,6,1
8,2,8,4
8,4,2,9
8,4,6,4
8,6,0,9
8,6,2,7
8,6,4,2
8,6,6,6
8,6,8,1
8,7,0,6
8,7,8,9
8,8,1,2
8,8,7,8
