0,0,4,3
0,2,3,1
0,2,5,4
0,6,3,2
0,6,5,3
0,8,4,1
1,0,0,5
1,0,1,8
1,0,2,7
1,0,4,1
1,0,6,9
1,0,7,3
1,0,8,2
1,4,3,5
1,4,5,7
1,8,0,4
1,8,1,3
1,8,2,6
1,8,4,8
1,8,6,5
1,8,7,1
1,8,8,7
2,0,1,3
2,0,3,5
2,0,5,7
2,0,7,1
2,1,2,8
2,1,6,7
2,2,0,1
2,2,1,7
2,2,7,2
2,2,8,5
2,4,0,4
2,4,1,8
2,4,7,3
2,4,8,7
2,6,0,2
2,6,1,4
2,6,7,5
2,6,8,1
2,7,2,9
2,7,6,3
2,8,1,1
2,8,3,4
2,8,5,6
2,8,7,8
3,3,0,6
3,3,8,1
3,5,0,5
3,5,8,7
4,0,2,9
4,0,6,1
4,1,2,2
4,1,6,4
4,2,3,7
4,2,5,3
4,3,1,9
4,3,7,5
4,5,1,3
4,5,7,1
4,6,3,4
4,6,5,7
4,7,2,3
4,7,6,6
4,8,2,4
4,8,6,3
5,3,0,7
5,3,8,8
5,5,0,9
5,5,8,2
6,0,1,9
6,0,3,2
6,0,5,8
6,0,7,4
6,1,2,5
6,1,6,3
6,2,0,4
6,2,1,1
6,2,7,8
6,2,8,6
6,4,0,7
6,4,1,4
6,4,7,5
6,4,8,3
6,6,0,3
6,6,1,6
6,6,7,7
6,6,8,5
6,7,2,7
6,7,6,4
6,8,1,5
6,8,3,7
6,8,5,3
6,8,7,9
7,0,0,7
7,0,1,4
7,0,2,1
7,0,4,9
7,0,6,2
7,0,7,5
7,0,8,8
7,4,3,7
7,4,5,8
7,8,0,6
7,8,1,9
7,8,2,8
7,8,4,5
7,8,6,7
7,8,7,4
7,8,8,3
8,0,4,4
8,2,3,5
8,2,5,6
8,6,3,1
8,6,5,5
8,8,4,9
