0,0,2,7
0,0,6,4
0,2,0,3
0,2,3,7
0,2,5,5
0,2,8,6
0,3,0,7
0,3,1,2
0,3,7,9
0,3,8,1
0,4,4,1
0,5,0,1
0,5,1,3
0,5,7,5
0,5,8,8
0,6,0,9
0,6,3,6
0,6,5,8
0,6,8,5
0,8,2,3
0,8,6,8
1,0,1,8
1,0,4,4
1,0,7,2
1,1,1,1
1,1,3,2
1,1,5,7
1,1,7,6
1,2,3,6
1,2,5,8
1,4,1,9
1,4,7,8
1,6,3,5
1,6,5,3
1,7,1,3
1,7,3,9
1,7,5,2
1,7,7,4
1,8,1,2
1,8,4,8
1,8,7,5
2,0,1,3
2,0,2,4
2,0,6,6
2,0,7,9
2,1,3,9
2,1,5,6
2,4,0,4
2,4,8,9
2,7,3,8
2,7,5,4
2,8,1,4
2,8,2,8
2,8,6,9
2,8,7,7
3,0,1,7
3,0,4,1
3,0,7,3
3,2,3,9
3,2,5,7
3,3,0,5
3,3,2,7
3,3,6,9
3,3,8,3
3,4,3,2
3,4,5,9
3,5,0,3
3,5,2,2
3,5,6,1
3,5,8,6
3,6,3,1
3,6,5,6
3,8,1,3
3,8,4,7
3,8,7,1
4,1,0,9
4,1,2,7
4,1,6,4
4,1,8,3
4,2,4,3
4,4,2,8
4,4,6,3
4,6,4,8
4,7,0,8
4,7,2,4
4,7,6,2
4,7,8,5
5,0,1,6
5,0,4,2
5,0,7,8
5,2,3,1
5,2,5,6
5,3,0,1
5,3,2,6
5,3,6,7
5,3,8,8
5,4,3,5
5,4,5,7
5,5,0,8
5,5,2,5
5,5,6,2
5,5,8,9
5,6,3,2
5,6,5,5
5,8,1,8
5,8,4,6
5,8,7,2
6,0,1,9
6,0,2,8
6,0,6,5
6,0,7,7
6,1,3,7
6,1,5,5
6,4,0,1
6,4,8,8
6,7,3,2
6,7,5,7
6,8,1,7
6,8,2,2
6,8,6,1
6,8,7,3
7,0,1,2
7,0,4,8
7,0,7,4
7,1,1,6
7,1,3,4
7,1,5,3
7,1,7,5
7,2,3,5
7,2,5,2
7,4,1,8
7,4,7,2
7,6,3,8
7,6,5,4
7,7,1,4
7,7,3,1
7,7,5,5
7,7,7,7
7,8,1,5
7,8,4,2
7,8,7,8
8,0,2,3
8,0,6,8
8,2,0,9
8,2,3,3
8,2,5,1
8,2,8,5
8,3,0,3
8,3,1,9
8,3,7,8
8,3,8,6
8,4,4,6
8,5,0,6
8,5,1,5
8,5,7,7
8,5,8,2
8,6,0,1
8,6,3,9
8,6,5,2
8,6,8,8
8,8,2,4
8,8,6,2
