0,0,4,3
0,1,0,5
0,1,8,8
0,2,0,1
0,2,4,4
0,2,8,7
0,3,4,6
0,4,0,8
0,4,8,9
0,5,4,7
0,6,0,6
0,6,4,2
0,6,8,3
0,7,0,9
0,7,8,5
0,8,4,1
1,1,2,1
1,1,6,9
1,4,0,6
1,4,8,3
1,7,2,7
1,7,6,8
2,0,3,6
2,0,5,4
2,1,2,9
2,1,6,6
2,2,1,5
2,2,7,4
2,4,0,7
2,4,1,3
2,4,7,8
2,4,8,4
2,6,1,7
2,6,7,6
2,7,2,8
2,7,6,3
2,8,3,7
2,8,5,8
3,0,2,1
3,0,3,4
3,0,5,3
3,0,6,6
3,3,0,6
3,3,1,1
3,3,4,2
3,3,7,5
3,3,8,3
3,4,0,2
3,4,8,6
3,5,0,3
3,5,1,4
3,5,4,6
3,5,7,8
3,5,8,2
3,8,2,2
3,8,3,3
3,8,5,9
3,8,6,8
4,0,4,7
4,2,3,6
4,2,5,5
4,3,2,4
4,3,3,7
4,3,4,9
4,3,5,6
4,3,6,2
4,4,0,9
4,4,3,4
4,4,4,8
4,4,5,2
4,4,8,5
4,5,2,7
4,5,3,1
4,5,4,5
4,5,5,3
4,5,6,6
4,6,3,9
4,6,5,7
4,8,4,2
5,0,2,8
5,0,3,5
5,0,5,1
5,0,6,4
5,3,0,7
5,3,1,8
5,3,4,1
5,3,7,6
5,3,8,4
5,4,0,4
5,4,8,1
5,5,0,1
5,5,1,9
5,5,4,4
5,5,7,3
5,5,8,7
5,8,2,1
5,8,3,4
5,8,5,6
5,8,6,2
6,0,3,3
6,0,5,7
6,1,2,8
6,1,6,3
6,2,1,9
6,2,7,7
6,4,0,1
6,4,1,2
6,4,7,5
6,4,8,7
6,6,1,1
6,6,7,3
6,7,2,5
6,7,6,2
6,8,3,1
6,8,5,5
7,1,2,4
7,1,6,8
7,4,0,3
7,4,8,2
7,7,2,1
7,7,6,5
8,0,4,2
8,1,0,9
8,1,8,5
8,2,0,4
8,2,4,7
8,2,8,1
8,3,4,3
8,4,0,5
8,4,8,8
8,5,4,1
8,6,0,3
8,6,4,6
8,6,8,2
8,7,0,8
8,7,8,9
8,8,4,4
