0,0,0,9
0,0,8,5
0,1,3,9
0,1,5,8
0,2,2,6
0,2,4,1
0,2,6,9
0,3,0,1
0,3,4,3
0,3,8,8
0,4,1,6
0,4,7,1
0,5,0,2
0,5,4,6
0,5,8,7
0,6,2,9
0,6,4,7
0,6,6,8
0,7,3,6
0,7,5,9
0,8,0,4
0,8,8,9
1,2,4,6
1,6,4,9
2,1,2,2
2,1,4,3
2,1,6,5
2,2,1,7
2,2,4,9
2,2,7,1
2,3,2,8
2,3,3,1
2,3,5,6
2,3,6,7
2,4,2,9
2,4,4,2
2,4,6,8
2,5,2,6
2,5,3,7
2,5,5,9
2,5,6,4
2,6,1,4
2,6,4,1
2,6,7,6
2,7,2,1
2,7,4,4
2,7,6,2
3,0,1,9
3,0,3,7
3,0,5,4
3,0,7,2
3,2,2,2
3,2,6,4
3,3,1,7
3,3,2,1
3,3,6,6
3,3,7,8
3,4,0,9
3,4,2,8
3,4,4,4
3,4,6,7
3,4,8,5
3,5,1,6
3,5,2,3
3,5,6,2
3,5,7,1
3,6,2,4
3,6,6,1
3,8,1,8
3,8,3,4
3,8,5,1
3,8,7,5
4,0,1,1
4,0,7,4
4,8,1,6
4,8,7,8
5,0,1,7
5,0,3,8
5,0,5,2
5,0,7,1
5,2,2,8
5,2,6,2
5,3,1,8
5,3,2,9
5,3,6,3
5,3,7,5
5,4,0,6
5,4,2,4
5,4,4,7
5,4,6,1
5,4,8,2
5,5,1,1
5,5,2,5
5,5,6,8
5,5,7,4
5,6,2,6
5,6,6,4
5,8,1,4
5,8,3,6
5,8,5,5
5,8,7,7
6,1,2,3
6,1,4,4
6,1,6,6
6,2,1,8
6,2,4,7
6,2,7,4
6,3,2,4
6,3,3,5
6,3,5,3
6,3,6,8
6,4,2,6
6,4,4,8
6,4,6,5
6,5,2,8
6,5,3,1
6,5,5,6
6,5,6,7
6,6,1,6
6,6,4,5
6,6,7,8
6,7,2,9
6,7,4,6
6,7,6,1
7,2,4,5
7,6,4,8
8,0,0,5
8,0,8,4
8,1,3,5
8,1,5,3
8,2,2,7
8,2,4,8
8,2,6,5
8,3,0,8
8,3,4,1
8,3,8,3
8,4,1,7
8,4,7,8
8,5,0,6
8,5,4,7
8,5,8,2
8,6,2,5
8,6,4,2
8,6,6,3
8,7,3,7
8,7,5,5
8,8,0,9
8,8,8,5
