0,1,2,4
0,1,4,6
0,1,6,3
0,4,4,8
0,7,2,1
0,7,4,9
0,7,6,6
1,0,0,1
1,0,1,4
1,0,7,7
1,0,8,3
1,1,3,2
1,1,5,9
1,4,2,8
1,4,6,7
1,7,3,4
1,7,5,3
1,8,0,2
1,8,1,3
1,8,7,9
1,8,8,7
2,1,3,1
2,1,4,4
2,1,5,7
2,2,2,1
2,2,6,7
2,3,0,2
2,3,8,7
2,4,1,3
2,4,7,4
2,5,0,6
2,5,8,2
2,6,2,6
2,6,6,5
2,7,3,6
2,7,4,1
2,7,5,5
3,0,2,7
3,0,6,3
3,2,3,6
3,2,5,1
3,3,0,1
3,3,8,3
3,5,0,3
3,5,8,8
3,6,3,8
3,6,5,5
3,8,2,3
3,8,6,5
4,0,1,5
4,0,2,3
4,0,6,4
4,0,7,8
4,1,0,7
4,1,8,6
4,4,4,9
4,7,0,1
4,7,8,3
4,8,1,2
4,8,2,5
4,8,6,7
4,8,7,4
5,0,2,4
5,0,6,2
5,2,3,4
5,2,5,2
5,3,0,7
5,3,8,6
5,5,0,2
5,5,8,7
5,6,3,6
5,6,5,3
5,8,2,6
5,8,6,3
6,1,3,6
6,1,4,8
6,1,5,5
6,2,2,7
6,2,6,4
6,3,0,5
6,3,8,4
6,4,1,6
6,4,7,3
6,5,0,4
6,5,8,9
6,6,2,4
6,6,6,8
6,7,3,9
6,7,4,2
6,7,5,8
7,0,0,7
7,0,1,8
7,0,7,4
7,0,8,6
7,1,3,4
7,1,5,1
7,4,2,7
7,4,6,4
7,7,3,1
7,7,5,6
7,8,0,5
7,8,1,7
7,8,7,3
7,8,8,4
8,1,2,8
8,1,4,9
8,1,6,6
8,4,4,6
8,7,2,6
8,7,4,3
8,7,6,5
