0,1,1,2
0,1,7,7
0,3,2,1
0,3,6,6
0,4,2,4
0,4,6,2
0,5,2,9
0,5,6,7
0,7,1,9
0,7,7,4
1,1,4,1
1,3,1,2
1,3,3,1
1,3,5,5
1,3,7,7
1,4,1,7
1,4,7,6
1,5,1,6
1,5,3,9
1,5,5,8
1,5,7,2
1,7,4,8
2,0,3,6
2,0,5,4
2,1,4,8
2,3,0,3
2,3,2,6
2,3,6,5
2,3,8,2
2,4,4,1
2,5,0,5
2,5,2,7
2,5,6,8
2,5,8,6
2,7,4,7
2,8,3,9
2,8,5,8
3,0,2,4
3,0,6,9
3,3,4,1
3,4,1,1
3,4,3,6
3,4,5,8
3,4,7,3
3,5,4,3
3,8,2,2
3,8,6,4
4,0,2,6
4,0,6,3
4,1,1,8
4,1,4,5
4,1,7,9
4,2,1,5
4,2,3,1
4,2,5,2
4,2,7,8
4,3,0,8
4,3,2,4
4,3,6,9
4,3,8,1
4,4,1,6
4,4,7,2
4,5,0,9
4,5,2,1
4,5,6,5
4,5,8,3
4,6,1,3
4,6,3,6
4,6,5,9
4,6,7,4
4,7,1,1
4,7,4,4
4,7,7,3
4,8,2,8
4,8,6,2
5,0,2,5
5,0,6,6
5,3,4,8
5,4,1,8
5,4,3,3
5,4,5,2
5,4,7,9
5,5,4,9
5,8,2,1
5,8,6,5
6,0,3,7
6,0,5,1
6,1,4,3
6,3,0,5
6,3,2,7
6,3,6,8
6,3,8,6
6,4,4,9
6,5,0,8
6,5,2,2
6,5,6,3
6,5,8,7
6,7,4,2
6,8,3,4
6,8,5,3
7,1,4,7
7,3,1,8
7,3,3,6
7,3,5,1
7,3,7,3
7,4,1,5
7,4,7,8
7,5,1,3
7,5,3,7
7,5,5,9
7,5,7,5
7,7,4,9
8,1,1,4
8,1,7,1
8,3,2,3
8,3,6,1
8,4,2,8
8,4,6,4
8,5,2,5
8,5,6,9
8,7,1,5
8,7,7,8
