0,0,1,6
0,0,2,4
0,0,6,1
0,0,7,7
0,1,1,5
0,1,2,9
0,1,4,7
0,1,6,3
0,1,7,6
0,2,1,7
0,2,7,5
0,4,3,2
0,4,5,7
0,6,1,4
0,6,7,2
0,7,1,9
0,7,2,3
0,7,4,2
0,7,6,6
0,7,7,4
0,8,1,2
0,8,2,8
0,8,6,5
0,8,7,9
1,1,3,6
1,1,5,1
1,7,3,4
1,7,5,6
2,2,3,2
2,2,5,7
2,3,2,1
2,3,6,5
2,4,3,5
2,4,5,1
2,5,2,8
2,5,6,6
2,6,3,3
2,6,5,4
3,3,1,4
3,3,7,2
3,5,1,2
3,5,7,9
4,1,2,2
4,1,3,1
4,1,5,4
4,1,6,8
4,2,1,6
4,2,3,3
4,2,4,5
4,2,5,9
4,2,7,7
4,3,0,9
4,3,8,6
4,4,2,7
4,4,6,9
4,5,0,4
4,5,8,7
4,6,1,9
4,6,3,7
4,6,4,2
4,6,5,1
4,6,7,4
4,7,2,8
4,7,3,6
4,7,5,3
4,7,6,5
5,3,1,7
5,3,7,5
5,5,1,5
5,5,7,6
6,2,3,6
6,2,5,1
6,3,2,4
6,3,6,8
6,4,3,3
6,4,5,2
6,5,2,2
6,5,6,3
6,6,3,9
6,6,5,5
7,1,3,3
7,1,5,9
7,7,3,5
7,7,5,8
8,0,1,1
8,0,2,5
8,0,6,4
8,0,7,3
8,1,1,3
8,1,2,7
8,1,4,1
8,1,6,9
8,1,7,8
8,2,1,8
8,2,7,1
8,4,3,6
8,4,5,8
8,6,1,5
8,6,7,6
8,7,1,7
8,7,2,2
8,7,4,6
8,7,6,1
8,7,7,5
8,8,1,6
8,8,2,4
8,8,6,3
8,8,7,7
