0,0,2,3
0,0,3,5
0,0,5,9
0,0,6,1
0,1,0,9
0,1,4,3
0,1,8,7
0,4,2,6
0,4,6,5
0,7,0,7
0,7,4,9
0,7,8,8
0,8,2,9
0,8,3,1
0,8,5,6
0,8,6,4
1,0,3,4
1,0,5,1
1,1,0,3
1,1,1,4
1,1,3,9
1,1,5,8
1,1,7,1
1,1,8,2
1,3,4,9
1,4,0,5
1,4,8,1
1,5,4,4
1,7,0,2
1,7,1,6
1,7,3,7
1,7,5,4
1,7,7,9
1,7,8,5
1,8,3,5
1,8,5,9
2,1,4,4
2,2,1,3
2,2,7,6
2,3,1,6
2,3,7,9
2,5,1,5
2,5,7,4
2,6,1,4
2,6,7,8
2,7,4,6
3,0,4,1
3,1,1,1
3,1,4,2
3,1,7,7
3,2,2,7
3,2,6,6
3,3,0,9
3,3,1,4
3,3,7,5
3,3,8,7
3,4,1,8
3,4,7,6
3,5,0,1
3,5,1,2
3,5,7,8
3,5,8,9
3,6,2,1
3,6,6,8
3,7,1,3
3,7,4,5
3,7,7,4
3,8,4,6
4,0,0,7
4,0,1,3
4,0,2,5
4,0,6,2
4,0,7,6
4,0,8,1
4,1,2,6
4,1,3,5
4,1,5,1
4,1,6,4
4,2,0,9
4,2,8,7
4,3,0,6
4,3,4,5
4,3,8,8
4,4,3,2
4,4,4,6
4,4,5,8
4,5,0,5
4,5,4,1
4,5,8,6
4,6,0,4
4,6,8,3
4,7,2,7
4,7,3,9
4,7,5,3
4,7,6,6
4,8,0,2
4,8,1,6
4,8,2,3
4,8,6,1
4,8,7,9
4,8,8,4
5,0,4,6
5,1,1,7
5,1,4,8
5,1,7,2
5,2,2,2
5,2,6,9
5,3,0,8
5,3,1,5
5,3,7,3
5,3,8,2
5,4,1,6
5,4,7,9
5,5,0,4
5,5,1,3
5,5,7,7
5,5,8,1
5,6,2,6
5,6,6,4
5,7,1,4
5,7,4,1
5,7,7,5
5,8,4,9
6,1,4,1
6,2,1,7
6,2,7,2
6,3,1,2
6,3,7,8
6,5,1,9
6,5,7,1
6,6,1,1
6,6,7,6
6,7,4,2
7,0,3,9
7,0,5,8
7,1,0,1
7,1,1,9
7,1,3,2
7,1,5,3
7,1,7,8
7,1,8,4
7,3,4,2
7,4,0,6
7,4,8,8
7,5,4,9
7,7,0,4
7,7,1,7
7,7,3,5
7,7,5,9
7,7,7,2
7,7,8,6
7,8,3,6
7,8,5,2
8,0,2,2
8,0,3,1
8,0,5,7
8,0,6,9
8,1,0,7
8,1,4,9
8,1,8,1
8,4,2,3
8,4,6,1
8,7,0,3
8,7,4,7
8,7,8,9
8,8,2,7
8,8,3,9
8,8,5,3
8,8,6,6
