0,0,1,6
0,0,2,9
0,0,4,8
0,0,6,3
0,0,7,5
0,1,1,3
0,1,7,4
0,2,4,2
0,6,4,4
0,7,1,1
0,7,7,3
0,8,1,2
0,8,2,3
0,8,4,5
0,8,6,8
0,8,7,7
1,3,0,1
1,3,3,5
1,3,5,7
1,3,8,2
1,5,0,8
1,5,3,9
1,5,5,3
1,5,8,1
2,1,2,8
2,1,3,2
2,1,4,3
2,1,5,5
2,1,6,9
2,2,1,9
2,2,7,2
2,3,1,8
2,3,2,7
2,3,3,3
2,3,4,9
2,3,5,2
2,3,6,1
2,3,7,6
2,4,4,5
2,5,1,2
2,5,2,3
2,5,3,6
2,5,4,4
2,5,5,1
2,5,6,8
2,5,7,7
2,6,1,6
2,6,7,4
2,7,2,4
2,7,3,5
2,7,4,1
2,7,5,6
2,7,6,7
3,0,0,6
3,0,2,1
3,0,3,8
3,0,5,3
3,0,6,5
3,0,8,4
3,1,4,5
3,2,2,5
3,2,6,7
3,6,2,9
3,6,6,8
3,7,4,8
3,8,0,7
3,8,2,8
3,8,3,5
3,8,5,4
3,8,6,2
3,8,8,6
4,0,0,8
4,0,1,7
4,0,2,3
4,0,6,6
4,0,7,2
4,0,8,1
4,2,0,2
4,2,8,5
4,3,0,9
4,3,8,3
4,5,0,7
4,5,8,6
4,6,0,6
4,6,8,9
4,8,0,5
4,8,1,9
4,8,2,4
4,8,6,7
4,8,7,3
4,8,8,8
5,0,0,5
5,0,2,4
5,0,3,6
5,0,5,1
5,0,6,8
5,0,8,3
5,1,4,8
5,2,2,8
5,2,6,2
5,6,2,3
5,6,6,6
5,7,4,6
5,8,0,2
5,8,2,6
5,8,3,7
5,8,5,8
5,8,6,5
5,8,8,4
6,1,2,3
6,1,3,6
6,1,4,9
6,1,5,1
6,1,6,8
6,2,1,8
6,2,7,6
6,3,1,3
6,3,2,9
6,3,3,4
6,3,4,1
6,3,5,6
6,3,6,7
6,3,7,5
6,4,4,2
6,5,1,6
6,5,2,4
6,5,3,5
6,5,4,8
6,5,5,7
6,5,6,3
6,5,7,9
6,6,1,9
6,6,7,1
6,7,2,1
6,7,3,8
6,7,4,7
6,7,5,9
6,7,6,4
7,3,0,7
7,3,3,2
7,3,5,9
7,3,8,6
7,5,0,3
7,5,3,1
7,5,5,4
7,5,8,7
8,0,1,4
8,0,2,8
8,0,4,3
8,0,6,9
8,0,7,1
8,1,1,9
8,1,7,2
8,2,4,6
8,6,4,1
8,7,1,7
8,7,7,5
8,8,1,6
8,8,2,5
8,8,4,8
8,8,6,3
8,8,7,4
