0,2,4,9
0,3,0,7
0,3,3,8
0,3,5,4
0,3,8,6
0,5,0,6
0,5,3,3
0,5,5,9
0,5,8,1
0,6,4,8
1,2,4,7
1,3,0,8
1,3,8,2
1,4,0,2
1,4,8,3
1,5,0,3
1,5,8,8
1,6,4,9
2,0,1,6
2,0,7,9
2,1,2,5
2,1,6,6
2,2,2,9
2,2,3,4
2,2,5,6
2,2,6,7
2,3,2,1
2,3,6,8
2,4,3,7
2,4,4,9
2,4,5,3
2,5,2,7
2,5,6,3
2,6,2,3
2,6,3,2
2,6,5,5
2,6,6,9
2,7,2,8
2,7,6,4
2,8,1,9
2,8,7,3
3,0,1,4
3,0,7,6
3,3,0,9
3,3,8,5
3,5,0,5
3,5,8,4
3,8,1,2
3,8,7,9
4,0,0,6
4,0,8,1
4,1,2,4
4,1,6,3
4,2,0,1
4,2,8,7
4,6,0,4
4,6,8,9
4,7,2,3
4,7,6,1
4,8,0,9
4,8,8,5
5,0,1,1
5,0,7,8
5,3,0,6
5,3,8,1
5,5,0,1
5,5,8,7
5,8,1,5
5,8,7,1
6,0,1,9
6,0,7,3
6,1,2,3
6,1,6,9
6,2,2,8
6,2,3,3
6,2,5,9
6,2,6,4
6,3,2,9
6,3,6,6
6,4,3,5
6,4,4,2
6,4,5,6
6,5,2,5
6,5,6,1
6,6,2,6
6,6,3,7
6,6,5,8
6,6,6,3
6,7,2,7
6,7,6,8
6,8,1,8
6,8,7,7
7,2,4,4
7,3,0,1
7,3,8,7
7,4,0,6
7,4,8,1
7,5,0,7
7,5,8,6
7,6,4,2
8,2,4,2
8,3,0,5
8,3,3,7
8,3,5,3
8,3,8,4
8,5,0,4
8,5,3,6
8,5,5,2
8,5,8,9
8,6,4,6
