0,0,2,1
0,0,6,8
0,1,1,8
0,1,2,6
0,1,6,3
0,1,7,9
0,2,0,7
0,2,8,6
0,3,3,7
0,3,5,4
0,4,0,8
0,4,8,3
0,5,3,5
0,5,5,3
0,6,0,1
0,6,8,2
0,7,1,9
0,7,2,8
0,7,6,7
0,7,7,3
0,8,2,2
0,8,6,6
1,1,2,5
1,1,6,4
1,7,2,3
1,7,6,2
2,0,4,5
2,1,4,8
2,3,1,5
2,3,7,3
2,4,0,4
2,4,8,1
2,5,1,3
2,5,7,8
2,7,4,9
2,8,4,7
3,0,2,9
3,0,4,4
3,0,6,5
3,1,2,1
3,1,6,8
3,2,0,4
3,2,8,7
3,3,1,4
3,3,7,2
3,4,0,9
3,4,8,8
3,5,1,2
3,5,7,7
3,6,0,5
3,6,8,1
3,7,2,4
3,7,6,9
3,8,2,8
3,8,4,1
3,8,6,7
4,1,0,9
4,1,8,1
4,2,2,5
4,2,3,2
4,2,5,7
4,2,6,4
4,3,1,8
4,3,7,4
4,5,1,9
4,5,7,3
4,6,2,9
4,6,3,3
4,6,5,1
4,6,6,5
4,7,0,3
4,7,8,4
5,0,2,6
5,0,4,2
5,0,6,3
5,1,2,4
5,1,6,9
5,2,0,3
5,2,8,5
5,3,1,6
5,3,7,8
5,4,0,2
5,4,8,4
5,5,1,7
5,5,7,9
5,6,0,6
5,6,8,9
5,7,2,2
5,7,6,6
5,8,2,5
5,8,4,9
5,8,6,4
6,0,4,9
6,1,4,1
6,3,1,9
6,3,7,6
6,4,0,5
6,4,8,7
6,5,1,6
6,5,7,1
6,7,4,4
6,8,4,8
7,1,2,9
7,1,6,5
7,7,2,6
7,7,6,3
8,0,2,7
8,0,6,1
8,1,1,1
8,1,2,2
8,1,6,6
8,1,7,4
8,2,0,8
8,2,8,2
8,3,3,8
8,3,5,5
8,4,0,1
8,4,8,6
8,5,3,9
8,5,5,6
8,6,0,7
8,6,8,3
8,7,1,4
8,7,2,1
8,7,6,8
8,7,7,6
8,8,2,3
8,8,6,2
