0,4,2,8
0,4,3,2
0,4,4,6
0,4,5,1
0,4,6,9
1,1,1,8
1,1,7,4
1,2,0,9
1,2,8,2
1,3,2,4
1,3,6,2
1,5,2,7
1,5,6,5
1,6,0,3
1,6,8,9
1,7,1,5
1,7,7,2
2,0,0,5
2,0,8,1
2,2,1,7
2,2,3,1
2,2,5,6
2,2,7,9
2,3,2,3
2,3,6,4
2,4,0,4
2,4,1,5
2,4,4,3
2,4,7,2
2,4,8,6
2,5,2,1
2,5,6,3
2,6,1,2
2,6,3,9
2,6,5,5
2,6,7,8
2,8,0,9
2,8,8,2
3,1,0,3
3,1,8,4
3,2,0,8
3,2,2,4
3,2,6,3
3,2,8,9
3,4,0,9
3,4,3,4
3,4,5,6
3,4,8,2
3,6,0,6
3,6,2,7
3,6,6,1
3,6,8,8
3,7,0,2
3,7,8,7
4,0,0,4
4,0,8,6
4,1,2,1
4,1,3,4
4,1,4,3
4,1,5,6
4,1,6,5
4,2,4,8
4,3,4,9
4,4,1,4
4,4,2,7
4,4,3,1
4,4,5,3
4,4,6,6
4,4,7,9
4,5,4,4
4,6,4,6
4,7,2,5
4,7,3,3
4,7,4,2
4,7,5,9
4,7,6,8
4,8,0,3
4,8,8,9
5,1,0,2
5,1,8,3
5,2,0,1
5,2,2,7
5,2,6,2
5,2,8,8
5,4,0,8
5,4,3,7
5,4,5,9
5,4,8,4
5,6,0,4
5,6,2,2
5,6,6,9
5,6,8,6
5,7,0,9
5,7,8,2
6,0,0,2
6,0,8,3
6,2,1,5
6,2,3,3
6,2,5,8
6,2,7,2
6,3,2,5
6,3,6,6
6,4,0,1
6,4,1,2
6,4,4,4
6,4,7,3
6,4,8,7
6,5,2,8
6,5,6,9
6,6,1,8
6,6,3,1
6,6,5,6
6,6,7,9
6,8,0,6
6,8,8,8
7,1,1,9
7,1,7,6
7,2,0,6
7,2,8,7
7,3,2,1
7,3,6,3
7,5,2,9
7,5,6,1
7,6,0,9
7,6,8,2
7,7,1,2
7,7,7,8
8,4,2,4
8,4,3,3
8,4,4,7
8,4,5,8
8,4,6,2
