0,0,2,6
0,0,6,8
0,1,0,1
0,1,1,5
0,1,7,7
0,1,8,4
0,2,1,4
0,2,7,3
0,3,0,6
0,3,2,4
0,3,6,9
0,3,8,1
0,4,2,9
0,4,6,5
0,5,0,2
0,5,2,5
0,5,6,4
0,5,8,3
0,6,1,6
0,6,7,4
0,7,0,4
0,7,1,8
0,7,7,9
0,7,8,2
0,8,2,7
0,8,6,3
1,1,2,9
1,1,6,5
1,7,2,6
1,7,6,8
2,2,3,2
2,2,5,4
2,3,1,9
2,3,7,7
2,4,1,5
2,4,7,3
2,5,1,4
2,5,7,1
2,6,3,3
2,6,5,6
3,0,1,1
3,0,4,8
3,0,7,5
3,2,4,1
3,3,4,3
3,4,3,7
3,4,5,9
3,5,4,4
3,6,4,9
3,8,1,7
3,8,4,2
3,8,7,9
4,0,1,4
4,0,7,2
4,2,1,2
4,2,7,7
4,6,1,3
4,6,7,5
4,8,1,5
4,8,7,6
5,0,1,6
5,0,4,9
5,0,7,3
5,2,4,6
5,3,4,2
5,4,3,8
5,4,5,3
5,5,4,7
5,6,4,1
5,8,1,8
5,8,4,4
5,8,7,1
6,2,3,4
6,2,5,7
6,3,1,1
6,3,7,2
6,4,1,7
6,4,7,6
6,5,1,3
6,5,7,8
6,6,3,6
6,6,5,5
7,1,2,5
7,1,6,4
7,7,2,8
7,7,6,2
8,0,2,7
8,0,6,3
8,1,0,9
8,1,1,6
8,1,7,5
8,1,8,8
8,2,1,8
8,2,7,4
8,3,0,7
8,3,2,2
8,3,6,6
8,3,8,4
8,4,2,6
8,4,6,8
8,5,0,1
8,5,2,8
8,5,6,2
8,5,8,5
8,6,1,7
8,6,7,6
8,7,0,6
8,7,1,3
8,7,7,8
8,7,8,1
8,8,2,4
8,8,6,9
