0,1,0,9
0,1,8,5
0,2,2,6
0,2,6,4
0,3,2,4
0,3,6,9
0,4,2,8
0,4,3,4
0,4,5,1
0,4,6,5
0,5,2,3
0,5,6,1
0,6,2,1
0,6,6,7
0,7,0,8
0,7,8,3
1,0,2,3
1,0,6,1
1,1,2,4
1,1,4,6
1,1,6,9
1,3,1,7
1,3,7,1
1,4,4,3
1,5,1,6
1,5,7,5
1,7,2,6
1,7,4,5
1,7,6,8
1,8,2,7
1,8,6,3
2,0,1,2
2,0,7,5
2,3,2,6
2,3,6,3
2,4,4,9
2,5,2,2
2,5,6,8
2,8,1,1
2,8,7,8
3,1,0,8
3,1,8,3
3,3,0,1
3,3,4,4
3,3,8,2
3,4,1,7
3,4,7,1
3,5,0,5
3,5,4,9
3,5,8,7
3,7,0,7
3,7,8,8
4,0,0,2
4,0,4,3
4,0,8,8
4,2,0,7
4,2,8,4
4,3,1,5
4,3,7,4
4,4,0,9
4,4,4,7
4,4,8,5
4,5,1,3
4,5,7,9
4,6,0,3
4,6,8,7
4,8,0,1
4,8,4,4
4,8,8,6
5,1,0,1
5,1,8,7
5,3,0,7
5,3,4,5
5,3,8,9
5,4,1,8
5,4,7,7
5,5,0,6
5,5,4,3
5,5,8,8
5,7,0,4
5,7,8,1
6,0,1,8
6,0,7,6
6,3,2,8
6,3,6,5
6,4,4,6
6,5,2,4
6,5,6,9
6,8,1,6
6,8,7,9
7,0,2,4
7,0,6,9
7,1,2,8
7,1,4,7
7,1,6,5
7,3,1,2
7,3,7,9
7,4,4,4
7,5,1,7
7,5,7,1
7,7,2,7
7,7,4,1
7,7,6,3
7,8,2,2
7,8,6,4
8,1,0,4
8,1,8,8
8,2,2,9
8,2,6,6
8,3,2,7
8,3,6,4
8,4,2,2
8,4,3,7
8,4,5,3
8,4,6,8
8,5,2,6
8,5,6,3
8,6,2,3
8,6,6,1
8,7,0,6
8,7,8,7
