0,0,3,6
0,0,5,3
0,1,2,4
0,1,6,5
0,3,4,6
0,4,1,8
0,4,3,1
0,4,5,9
0,4,7,5
0,5,4,2
0,7,2,1
0,7,6,8
0,8,3,4
0,8,5,2
1,0,2,3
1,0,6,1
1,1,2,8
1,1,6,3
1,7,2,7
1,7,6,6
1,8,2,2
1,8,6,7
2,0,1,8
2,0,7,9
2,3,4,3
2,4,0,2
2,4,1,9
2,4,7,7
2,4,8,4
2,5,4,1
2,8,1,6
2,8,7,8
3,0,4,3
3,1,4,8
3,2,0,9
3,2,3,7
3,2,5,5
3,2,8,2
3,4,2,4
3,4,3,8
3,4,5,2
3,4,6,5
3,6,0,1
3,6,3,4
3,6,5,3
3,6,8,9
3,7,4,7
3,8,4,2
4,2,4,6
4,4,2,1
4,4,6,8
4,6,4,9
5,0,4,4
5,1,4,5
5,2,0,7
5,2,3,3
5,2,5,2
5,2,8,8
5,4,2,2
5,4,3,4
5,4,5,1
5,4,6,7
5,6,0,9
5,6,3,7
5,6,5,5
5,6,8,2
5,7,4,1
5,8,4,3
6,0,1,1
6,0,7,4
6,3,4,8
6,4,0,6
6,4,1,4
6,4,7,2
6,4,8,5
6,5,4,3
6,8,1,7
6,8,7,1
7,0,2,4
7,0,6,5
7,1,2,5
7,1,6,9
7,7,2,3
7,7,6,1
7,8,2,8
7,8,6,3
8,0,3,4
8,0,5,2
8,1,2,1
8,1,6,8
8,3,4,4
8,4,1,2
8,4,3,6
8,4,5,8
8,4,7,1
8,5,4,9
8,7,2,2
8,7,6,7
8,8,3,3
8,8,5,9
