0,0,2,9
0,0,6,4
0,3,3,1
0,3,5,8
0,4,0,4
0,4,2,6
0,4,6,7
0,4,8,1
0,5,3,3
0,5,5,4
0,8,2,1
0,8,6,5
1,0,2,3
1,0,4,5
1,0,6,1
1,3,2,4
1,3,4,9
1,3,6,8
1,4,2,8
1,4,6,9
1,5,2,9
1,5,4,8
1,5,6,4
1,8,2,6
1,8,4,2
1,8,6,7
2,0,4,2
2,1,2,7
2,1,4,6
2,1,6,2
2,3,4,3
2,4,1,9
2,4,7,6
2,5,4,5
2,7,2,9
2,7,4,8
2,7,6,4
2,8,4,9
3,0,1,3
3,0,7,5
3,1,4,5
3,2,2,4
3,2,6,2
3,3,4,6
3,5,4,2
3,6,2,6
3,6,6,5
3,7,4,4
3,8,1,4
3,8,7,9
5,0,1,9
5,0,7,8
5,1,4,8
5,2,2,7
5,2,6,5
5,3,4,5
5,5,4,1
5,6,2,1
5,6,6,8
5,7,4,6
5,8,1,6
5,8,7,2
6,0,4,6
6,1,2,2
6,1,4,7
6,1,6,6
6,3,4,1
6,4,1,4
6,4,7,7
6,5,4,3
6,7,2,4
6,7,4,9
6,7,6,8
6,8,4,4
7,0,2,4
7,0,4,9
7,0,6,8
7,3,2,6
7,3,4,2
7,3,6,7
7,4,2,7
7,4,6,2
7,5,2,2
7,5,4,7
7,5,6,6
7,8,2,5
7,8,4,1
7,8,6,3
8,0,2,1
8,0,6,5
8,3,3,6
8,3,5,3
8,4,0,5
8,4,2,9
8,4,6,4
8,4,8,6
8,5,3,2
8,5,5,5
8,8,2,7
8,8,6,2
