0,0,3,2
0,0,4,4
0,0,5,1
0,2,0,4
0,2,8,2
0,4,1,6
0,4,2,8
0,4,6,9
0,4,7,7
0,6,0,2
0,6,8,1
0,8,3,4
0,8,4,1
0,8,5,2
1,0,0,2
1,0,8,1
1,1,2,4
1,1,4,6
1,1,6,5
1,7,2,8
1,7,4,2
1,7,6,9
1,8,0,3
1,8,8,6
2,0,2,1
2,0,6,2
2,2,3,8
2,2,5,7
2,3,0,2
2,3,8,1
2,4,3,9
2,4,5,3
2,5,0,8
2,5,8,7
2,6,3,2
2,6,5,1
2,8,2,7
2,8,6,8
3,0,2,2
3,0,6,8
3,1,0,7
3,1,8,1
3,4,4,8
3,7,0,2
3,7,8,9
3,8,2,8
3,8,6,1
4,0,0,4
4,0,8,6
4,2,3,5
4,2,5,3
4,6,3,3
4,6,5,6
4,8,0,9
4,8,8,8
5,0,2,6
5,0,6,4
5,1,0,2
5,1,8,9
5,4,4,4
5,7,0,6
5,7,8,5
5,8,2,4
5,8,6,9
6,0,2,8
6,0,6,1
6,2,3,6
6,2,5,1
6,3,0,5
6,3,8,8
6,4,3,4
6,4,5,2
6,5,0,2
6,5,8,5
6,6,3,9
6,6,5,8
6,8,2,9
6,8,6,7
7,0,0,5
7,0,8,4
7,1,2,7
7,1,4,5
7,1,6,8
7,7,2,6
7,7,4,9
7,7,6,3
7,8,0,2
7,8,8,9
8,0,3,9
8,0,4,6
8,0,5,3
8,2,0,2
8,2,8,1
8,4,1,1
8,4,2,7
8,4,6,8
8,4,7,5
8,6,0,5
8,6,8,3
8,8,3,6
8,8,4,3
8,8,5,9
