0,0,2,7
0,0,3,2
0,0,4,5
0,0,5,3
0,0,6,1
0,3,1,4
0,3,3,1
0,3,5,9
0,3,7,8
0,4,2,9
0,4,6,7
0,5,1,1
0,5,3,7
0,5,5,8
0,5,7,2
0,8,2,8
0,8,3,3
0,8,4,7
0,8,5,5
0,8,6,4
1,0,0,5
1,0,1,3
1,0,7,2
1,0,8,9
1,2,0,1
1,2,8,3
1,4,0,3
1,4,8,8
1,6,0,8
1,6,8,1
1,8,0,2
1,8,1,5
1,8,7,8
1,8,8,7
2,1,1,9
2,1,2,3
2,1,6,4
2,1,7,8
2,3,3,3
2,3,5,4
2,4,4,8
2,5,3,2
2,5,5,1
2,7,1,8
2,7,2,6
2,7,6,1
2,7,7,2
3,1,0,9
3,1,8,4
3,2,0,7
3,2,8,2
3,3,3,6
3,3,4,4
3,3,5,1
3,4,1,4
3,4,4,7
3,4,7,3
3,5,3,5
3,5,4,3
3,5,5,2
3,6,0,6
3,6,8,7
3,7,0,3
3,7,8,8
4,0,2,5
4,0,6,7
4,1,1,3
4,1,3,6
4,1,4,9
4,1,5,1
4,1,7,2
4,3,1,1
4,3,4,5
4,3,7,6
4,4,1,5
4,4,3,3
4,4,5,4
4,4,7,1
4,5,1,7
4,5,4,1
4,5,7,5
4,7,1,2
4,7,3,5
4,7,4,8
4,7,5,7
4,7,7,4
4,8,2,6
4,8,6,1
5,1,0,5
5,1,8,9
5,2,0,6
5,2,8,7
5,3,3,2
5,3,4,9
5,3,5,3
5,4,1,9
5,4,4,6
5,4,7,8
5,5,3,4
5,5,4,8
5,5,5,7
5,6,0,2
5,6,8,6
5,7,0,8
5,7,8,1
6,1,1,2
6,1,2,4
6,1,6,7
6,1,7,5
6,3,3,5
6,3,5,2
6,4,4,4
6,5,3,1
6,5,5,9
6,7,1,9
6,7,2,8
6,7,6,4
6,7,7,1
7,0,0,2
7,0,1,9
7,0,7,1
7,0,8,7
7,2,0,4
7,2,8,5
7,4,0,9
7,4,8,4
7,6,0,5
7,6,8,9
7,8,0,8
7,8,1,7
7,8,7,4
7,8,8,1
8,0,2,3
8,0,3,1
8,0,4,7
8,0,5,9
8,0,6,5
8,3,1,6
8,3,3,4
8,3,5,7
8,3,7,9
8,4,2,7
8,4,6,8
8,5,1,9
8,5,3,3
8,5,5,5
8,5,7,1
8,8,2,4
8,8,3,9
8,8,4,1
8,8,5,6
8,8,6,7
