0,0,0,3
0,0,8,4
0,4,0,9
0,4,1,3
0,4,7,8
0,4,8,7
0,8,0,2
0,8,8,8
1,1,0,1
1,1,2,6
1,1,4,7
1,1,6,3
1,1,8,9
1,2,1,9
1,2,3,5
1,2,5,1
1,2,7,4
1,3,4,2
1,4,2,8
1,4,6,5
1,5,4,8
1,6,1,6
1,6,3,2
1,6,5,8
1,6,7,9
1,7,0,9
1,7,2,2
1,7,4,1
1,7,6,4
1,7,8,5
2,2,1,5
2,2,2,4
2,2,6,1
2,2,7,7
2,3,0,4
2,3,1,8
2,3,7,1
2,3,8,5
2,5,0,5
2,5,1,9
2,5,7,4
2,5,8,8
2,6,1,2
2,6,2,9
2,6,6,8
2,6,7,5
3,1,1,8
3,1,7,1
3,2,4,9
3,3,0,5
3,3,8,6
3,5,0,9
3,5,8,1
3,6,4,6
3,7,1,2
3,7,7,5
4,0,3,5
4,0,4,8
4,0,5,9
4,1,1,6
4,1,3,1
4,1,5,2
4,1,7,9
4,2,1,2
4,2,7,5
4,4,0,4
4,4,8,3
4,6,1,7
4,6,7,2
4,7,1,8
4,7,3,2
4,7,5,6
4,7,7,1
4,8,3,8
4,8,4,9
4,8,5,7
5,1,1,7
5,1,7,2
5,2,4,1
5,3,0,6
5,3,8,8
5,5,0,1
5,5,8,7
5,6,4,8
5,7,1,6
5,7,7,9
6,2,1,7
6,2,2,9
6,2,6,8
6,2,7,2
6,3,0,9
6,3,1,3
6,3,7,8
6,3,8,7
6,5,0,7
6,5,1,6
6,5,7,9
6,5,8,3
6,6,1,5
6,6,2,6
6,6,6,3
6,6,7,7
7,1,0,8
7,1,2,4
7,1,4,2
7,1,6,1
7,1,8,6
7,2,1,6
7,2,3,7
7,2,5,8
7,2,7,9
7,3,4,5
7,4,2,3
7,4,6,7
7,5,4,3
7,6,1,4
7,6,3,5
7,6,5,3
7,6,7,6
7,7,0,6
7,7,2,5
7,7,4,8
7,7,6,9
7,7,8,7
8,0,0,1
8,0,8,9
8,4,0,6
8,4,1,1
8,4,7,3
8,4,8,2
8,8,0,5
8,8,8,3
