0,0,2,6
0,0,6,2
0,2,0,1
0,2,8,6
0,6,0,5
0,6,8,8
0,8,2,9
0,8,6,4
1,1,3,5
1,1,5,7
1,3,2,2
1,3,6,7
1,4,2,8
1,4,3,9
1,4,4,1
1,4,5,2
1,4,6,3
1,5,2,9
1,5,6,4
1,7,3,4
1,7,5,6
2,2,1,6
2,2,4,5
2,2,7,1
2,3,3,1
2,3,4,7
2,3,5,5
2,4,0,2
2,4,1,5
2,4,4,8
2,4,7,7
2,4,8,9
2,5,3,2
2,5,4,9
2,5,5,3
2,6,1,3
2,6,4,2
2,6,7,5
3,2,1,3
3,2,7,5
3,3,3,4
3,3,4,3
3,3,5,7
3,4,2,4
3,4,6,5
3,5,3,1
3,5,4,2
3,5,5,5
3,6,1,4
3,6,7,7
4,0,0,6
4,0,8,9
4,1,0,8
4,1,1,2
4,1,4,9
4,1,7,3
4,1,8,6
4,2,0,9
4,2,8,8
4,4,1,6
4,4,7,8
4,6,0,2
4,6,8,4
4,7,0,3
4,7,1,7
4,7,4,4
4,7,7,1
4,7,8,2
4,8,0,4
4,8,8,3
5,2,1,8
5,2,7,9
5,3,3,5
5,3,4,8
5,3,5,2
5,4,2,5
5,4,6,9
5,5,3,3
5,5,4,6
5,5,5,9
5,6,1,5
5,6,7,2
6,2,1,5
6,2,4,3
6,2,7,6
6,3,3,2
6,3,4,4
6,3,5,8
6,4,0,4
6,4,1,1
6,4,4,7
6,4,7,5
6,4,8,8
6,5,3,5
6,5,4,1
6,5,5,6
6,6,1,2
6,6,4,5
6,6,7,8
7,1,3,1
7,1,5,4
7,3,2,4
7,3,6,5
7,4,2,7
7,4,3,8
7,4,4,2
7,4,5,5
7,4,6,6
7,5,2,1
7,5,6,8
7,7,3,3
7,7,5,9
8,0,2,5
8,0,6,9
8,2,0,6
8,2,8,4
8,6,0,8
8,6,8,6
8,8,2,1
8,8,6,8
