0,1,3,7
0,1,5,5
0,2,2,4
0,2,6,1
0,4,3,9
0,4,5,2
0,6,2,2
0,6,6,6
0,7,3,3
0,7,5,4
1,0,4,6
1,3,1,2
1,3,7,8
1,4,1,7
1,4,2,9
1,4,6,4
1,4,7,3
1,5,1,6
1,5,7,5
1,8,4,3
2,0,0,2
2,0,4,5
2,0,8,4
2,1,0,7
2,1,3,9
2,1,5,6
2,1,8,1
2,2,3,4
2,2,5,2
2,4,0,1
2,4,4,7
2,4,8,8
2,6,3,6
2,6,5,3
2,7,0,8
2,7,3,2
2,7,5,5
2,7,8,7
2,8,0,3
2,8,4,9
2,8,8,6
3,3,2,9
3,3,6,6
3,4,2,5
3,4,6,1
3,5,2,6
3,5,6,3
4,0,2,9
4,0,4,8
4,0,6,7
4,1,0,3
4,1,8,9
4,4,0,9
4,4,8,7
4,7,0,7
4,7,8,3
4,8,2,1
4,8,4,5
4,8,6,6
5,3,2,3
5,3,6,4
5,4,2,7
5,4,6,8
5,5,2,1
5,5,6,7
6,0,0,6
6,0,4,3
6,0,8,9
6,1,0,2
6,1,3,1
6,1,5,7
6,1,8,4
6,2,3,9
6,2,5,6
6,4,0,4
6,4,4,2
6,4,8,5
6,6,3,7
6,6,5,8
6,7,0,5
6,7,3,6
6,7,5,3
6,7,8,2
6,8,0,8
6,8,4,1
6,8,8,7
7,0,4,9
7,3,1,1
7,3,7,6
7,4,1,9
7,4,2,8
7,4,6,3
7,4,7,2
7,5,1,4
7,5,7,7
7,8,4,6
8,1,3,8
8,1,5,9
8,2,2,6
8,2,6,7
8,4,3,7
8,4,5,3
8,6,2,5
8,6,6,8
8,7,3,1
8,7,5,2
