0,0,2,2
0,0,4,9
0,0,6,6
0,1,1,4
0,1,3,3
0,1,5,5
0,1,7,7
0,2,3,8
0,2,5,7
0,3,0,6
0,3,1,7
0,3,7,9
0,3,8,5
0,5,0,9
0,5,1,5
0,5,7,2
0,5,8,1
0,6,3,6
0,6,5,3
0,7,1,6
0,7,3,2
0,7,5,8
0,7,7,4
0,8,2,5
0,8,4,7
0,8,6,1
1,0,3,7
1,0,5,2
1,3,1,9
1,3,7,8
1,4,4,1
1,5,1,2
1,5,7,3
1,8,3,8
1,8,5,5
2,1,2,5
2,1,4,7
2,1,6,1
2,2,0,8
2,2,1,2
2,2,3,9
2,2,4,1
2,2,5,4
2,2,7,3
2,2,8,6
2,3,4,9
2,5,4,2
2,6,0,6
2,6,1,1
2,6,3,5
2,6,4,8
2,6,5,2
2,6,7,9
2,6,8,7
2,7,2,8
2,7,4,4
2,7,6,3
3,0,0,5
3,0,8,6
3,1,2,2
3,1,3,6
3,1,5,1
3,1,6,4
3,2,0,1
3,2,8,8
3,3,3,7
3,3,5,4
3,5,3,5
3,5,5,9
3,6,0,8
3,6,8,4
3,7,2,7
3,7,3,4
3,7,5,3
3,7,6,5
3,8,0,3
3,8,8,9
4,0,2,7
4,0,6,5
4,1,4,5
4,4,1,8
4,4,7,7
4,7,4,8
4,8,2,8
4,8,6,3
5,0,0,9
5,0,8,7
5,1,2,3
5,1,3,7
5,1,5,2
5,1,6,6
5,2,0,2
5,2,8,5
5,3,3,9
5,3,5,6
5,5,3,2
5,5,5,8
5,6,0,1
5,6,8,6
5,7,2,2
5,7,3,6
5,7,5,7
5,7,6,4
5,8,0,7
5,8,8,8
6,1,2,6
6,1,4,2
6,1,6,9
6,2,0,7
6,2,1,8
6,2,3,4
6,2,4,9
6,2,5,1
6,2,7,5
6,2,8,3
6,3,4,4
6,5,4,8
6,6,0,3
6,6,1,6
6,6,3,2
6,6,4,5
6,6,5,8
6,6,7,4
6,6,8,9
6,7,2,5
6,7,4,7
6,7,6,1
7,0,3,1
7,0,5,9
7,3,1,6
7,3,7,4
7,4,4,5
7,5,1,9
7,5,7,8
7,8,3,4
7,8,5,7
8,0,2,5
8,0,4,7
8,0,6,1
8,1,1,2
8,1,3,9
8,1,5,4
8,1,7,3
8,2,3,6
8,2,5,3
8,3,0,5
8,3,1,4
8,3,7,1
8,3,8,8
8,5,0,1
8,5,1,8
8,5,7,7
8,5,8,3
8,6,3,7
8,6,5,9
8,7,1,7
8,7,3,1
8,7,5,6
8,7,7,2
8,8,2,3
8,8,4,8
8,8,6,4
