0,0,0,2
0,0,8,5
0,1,1,7
0,1,7,2
0,2,4,5
0,6,4,2
0,7,1,9
0,7,7,5
0,8,0,7
0,8,8,4
1,0,4,1
1,1,3,4
1,1,5,3
1,4,2,5
1,4,6,2
1,7,3,3
1,7,5,2
1,8,4,6
2,0,0,7
2,0,8,4
2,1,0,4
2,1,2,3
2,1,6,9
2,1,8,1
2,7,0,3
2,7,2,7
2,7,6,1
2,7,8,2
2,8,0,8
2,8,8,9
3,0,3,3
3,0,5,2
3,3,1,8
3,3,7,2
3,4,2,2
3,4,4,9
3,4,6,3
3,5,1,6
3,5,7,1
3,8,3,1
3,8,5,7
4,0,2,2
4,0,6,6
4,1,0,7
4,1,2,4
4,1,3,2
4,1,4,6
4,1,5,5
4,1,6,8
4,1,8,9
4,3,2,1
4,3,3,9
4,3,5,6
4,3,6,4
4,4,1,4
4,4,7,9
4,5,2,9
4,5,3,8
4,5,5,4
4,5,6,7
4,7,0,4
4,7,2,3
4,7,3,5
4,7,4,8
4,7,5,1
4,7,6,9
4,7,8,6
4,8,2,7
4,8,6,3
5,0,3,6
5,0,5,7
5,3,1,2
5,3,7,7
5,4,2,7
5,4,4,4
5,4,6,6
5,5,1,1
5,5,7,3
5,8,3,3
5,8,5,8
6,0,0,9
6,0,8,3
6,1,0,1
6,1,2,8
6,1,6,6
6,1,8,7
6,7,0,7
6,7,2,9
6,7,6,2
6,7,8,5
6,8,0,5
6,8,8,1
7,0,4,7
7,1,3,1
7,1,5,8
7,4,2,6
7,4,6,5
7,7,3,7
7,7,5,9
7,8,4,8
8,0,0,4
8,0,8,6
8,1,1,9
8,1,7,5
8,2,4,1
8,6,4,9
8,7,1,3
8,7,7,1
8,8,0,9
8,8,8,3
