0,2,1,1
0,2,7,7
0,6,1,3
0,6,7,4
1,0,2,1
1,0,6,9
1,1,2,6
1,1,3,4
1,1,4,7
1,1,5,9
1,1,6,8
1,3,3,7
1,3,4,9
1,3,5,4
1,4,4,1
1,5,3,2
1,5,4,5
1,5,5,6
1,7,2,3
1,7,3,5
1,7,4,6
1,7,5,2
1,7,6,7
1,8,2,5
1,8,6,1
2,0,0,4
2,0,2,9
2,0,4,1
2,0,6,2
2,0,8,6
2,4,2,6
2,4,6,1
2,8,0,3
2,8,2,1
2,8,4,5
2,8,6,4
2,8,8,9
3,0,0,7
3,0,8,2
3,2,2,8
3,2,6,7
3,6,2,1
3,6,6,4
3,8,0,2
3,8,8,1
4,1,1,8
4,1,7,4
4,2,0,9
4,2,8,5
4,3,0,1
4,3,1,3
4,3,4,5
4,3,7,7
4,3,8,9
4,4,3,1
4,4,5,8
4,5,0,2
4,5,1,5
4,5,4,7
4,5,7,3
4,5,8,8
4,6,0,7
4,6,8,2
4,7,1,6
4,7,7,1
5,0,0,8
5,0,8,9
5,2,2,6
5,2,6,8
5,6,2,5
5,6,6,1
5,8,0,9
5,8,8,5
6,0,0,2
6,0,2,6
6,0,4,7
6,0,6,8
6,0,8,3
6,4,2,8
6,4,6,4
6,8,0,4
6,8,2,9
6,8,4,8
6,8,6,2
6,8,8,6
7,0,2,7
7,0,6,6
7,1,2,3
7,1,3,2
7,1,4,5
7,1,5,6
7,1,6,4
7,3,3,5
7,3,4,6
7,3,5,2
7,4,4,4
7,5,3,1
7,5,4,3
7,5,5,8
7,7,2,4
7,7,3,8
7,7,4,1
7,7,5,3
7,7,6,5
7,8,2,8
7,8,6,9
8,2,1,7
8,2,7,5
8,6,1,4
8,6,7,2
