0,1,2,2
0,1,4,4
0,1,6,1
0,4,4,8
0,7,2,9
0,7,4,7
0,7,6,6
1,1,2,4
1,1,6,6
1,4,0,6
1,4,8,3
1,7,2,1
1,7,6,9
2,0,4,7
2,1,2,7
2,1,6,4
2,2,2,8
2,2,6,7
2,6,2,3
2,6,6,5
2,7,2,2
2,7,6,3
2,8,4,3
3,0,1,6
3,0,2,3
3,0,3,7
3,0,5,8
3,0,6,2
3,0,7,1
3,2,3,6
3,2,4,3
3,2,5,9
3,3,0,3
3,3,2,8
3,3,3,2
3,3,5,5
3,3,6,9
3,3,8,1
3,4,1,2
3,4,7,3
3,5,0,6
3,5,2,5
3,5,3,9
3,5,5,3
3,5,6,7
3,5,8,2
3,6,3,5
3,6,4,6
3,6,5,7
3,8,1,8
3,8,2,1
3,8,3,3
3,8,5,2
3,8,6,6
3,8,7,7
4,0,1,1
4,0,7,4
4,1,0,3
4,1,8,1
4,2,1,8
4,2,2,7
4,2,6,6
4,2,7,3
4,3,1,6
4,3,7,7
4,5,1,9
4,5,7,8
4,6,1,5
4,6,2,8
4,6,6,4
4,6,7,6
4,7,0,4
4,7,8,9
4,8,1,7
4,8,7,5
5,0,1,9
5,0,2,8
5,0,3,2
5,0,5,4
5,0,6,5
5,0,7,6
5,2,3,5
5,2,4,8
5,2,5,7
5,3,0,2
5,3,2,9
5,3,3,4
5,3,5,1
5,3,6,3
5,3,8,8
5,4,1,5
5,4,7,2
5,5,0,4
5,5,2,3
5,5,3,7
5,5,5,2
5,5,6,6
5,5,8,9
5,6,3,1
5,6,4,4
5,6,5,8
5,8,1,4
5,8,2,2
5,8,3,6
5,8,5,5
5,8,6,9
5,8,7,8
6,0,4,4
6,1,2,5
6,1,6,2
6,2,2,1
6,2,6,9
6,6,2,9
6,6,6,6
6,7,2,7
6,7,6,4
6,8,4,5
7,1,2,8
7,1,6,7
7,4,0,3
7,4,8,4
7,7,2,4
7,7,6,2
8,1,2,3
8,1,4,6
8,1,6,5
8,4,4,7
8,7,2,8
8,7,4,4
8,7,6,1
