0,0,0,3
0,0,8,6
0,1,4,5
0,2,4,1
0,6,4,8
0,7,4,3
0,8,0,2
0,8,8,5
1,3,1,9
1,3,7,4
1,4,0,4
1,4,3,1
1,4,5,2
1,4,8,9
1,5,1,1
1,5,7,2
2,2,2,3
2,2,6,7
2,3,0,7
2,3,8,2
2,4,1,2
2,4,7,3
2,5,0,3
2,5,8,6
2,6,2,6
2,6,6,2
3,0,0,2
3,0,8,7
3,1,3,9
3,1,5,7
3,2,2,7
3,2,6,8
3,3,4,8
3,4,2,5
3,4,6,9
3,5,4,2
3,6,2,2
3,6,6,4
3,7,3,4
3,7,5,5
3,8,0,4
3,8,8,8
4,0,2,4
4,0,6,3
4,2,1,8
4,2,7,2
4,3,0,4
4,3,3,6
4,3,5,2
4,3,8,8
4,5,0,5
4,5,3,4
4,5,5,1
4,5,8,2
4,6,1,4
4,6,7,5
4,8,2,3
4,8,6,2
5,0,0,1
5,0,8,2
5,1,3,6
5,1,5,2
5,2,2,2
5,2,6,4
5,3,4,4
5,4,2,7
5,4,6,8
5,5,4,9
5,6,2,9
5,6,6,1
5,7,3,9
5,7,5,6
5,8,0,5
5,8,8,4
6,2,2,8
6,2,6,3
6,3,0,3
6,3,8,6
6,4,1,6
6,4,7,8
6,5,0,8
6,5,8,4
6,6,2,4
6,6,6,6
7,3,1,8
7,3,7,1
7,4,0,5
7,4,3,8
7,4,5,1
7,4,8,7
7,5,1,7
7,5,7,5
8,0,0,9
8,0,8,8
8,1,4,6
8,2,4,2
8,6,4,1
8,7,4,9
8,8,0,3
8,8,8,6
