0,2,1,2
0,2,7,5
0,3,2,3
0,3,3,8
0,3,5,7
0,3,6,9
0,4,0,4
0,4,1,8
0,4,7,6
0,4,8,5
0,5,2,9
0,5,3,5
0,5,5,6
0,5,6,2
0,6,1,4
0,6,7,7
1,0,4,9
1,1,2,9
1,1,6,2
1,2,2,7
1,2,6,9
1,3,2,4
1,3,3,9
1,3,5,3
1,3,6,6
1,4,3,4
1,4,5,2
1,5,2,6
1,5,3,1
1,5,5,8
1,5,6,5
1,6,2,8
1,6,6,1
1,7,2,3
1,7,6,8
1,8,4,8
2,0,1,9
2,0,4,6
2,0,7,8
2,4,2,1
2,4,6,4
2,8,1,8
2,8,4,9
2,8,7,6
3,0,0,5
3,0,1,4
3,0,4,7
3,0,7,3
3,0,8,6
3,1,2,7
3,1,4,5
3,1,6,9
3,2,0,3
3,2,4,9
3,2,8,5
3,6,0,6
3,6,4,1
3,6,8,7
3,7,2,2
3,7,4,8
3,7,6,3
3,8,0,1
3,8,1,7
3,8,4,3
3,8,7,4
3,8,8,9
4,0,1,3
4,0,2,8
4,0,4,4
4,0,6,1
4,0,7,7
4,1,1,1
4,1,7,5
4,2,4,8
4,4,0,1
4,4,2,9
4,4,6,5
4,4,8,6
4,6,4,5
4,7,1,8
4,7,7,9
4,8,1,4
4,8,2,6
4,8,4,7
4,8,6,2
4,8,7,3
5,0,0,1
5,0,1,7
5,0,4,3
5,0,7,4
5,0,8,8
5,1,2,3
5,1,4,1
5,1,6,6
5,2,0,4
5,2,4,6
5,2,8,1
5,6,0,8
5,6,4,2
5,6,8,3
5,7,2,5
5,7,4,9
5,7,6,4
5,8,0,2
5,8,1,3
5,8,4,4
5,8,7,7
5,8,8,6
6,0,1,1
6,0,4,5
6,0,7,2
6,4,2,4
6,4,6,9
6,8,1,5
6,8,4,2
6,8,7,1
7,0,4,1
7,1,2,1
7,1,6,3
7,2,2,9
7,2,6,1
7,3,2,6
7,3,3,5
7,3,5,8
7,3,6,2
7,4,3,9
7,4,5,7
7,5,2,2
7,5,3,3
7,5,5,1
7,5,6,7
7,6,2,5
7,6,6,4
7,7,2,8
7,7,6,5
7,8,4,5
8,2,1,7
8,2,7,3
8,3,2,8
8,3,3,1
8,3,5,9
8,3,6,5
8,4,0,9
8,4,1,1
8,4,7,2
8,4,8,3
8,5,2,5
8,5,3,7
8,5,5,2
8,5,6,4
8,6,1,8
8,6,7,6
