0,0,1,2
0,0,3,9
0,0,5,1
0,0,7,5
0,4,4,1
0,8,1,8
0,8,3,1
0,8,5,3
0,8,7,4
1,1,2,2
1,1,6,7
1,2,4,6
1,3,2,4
1,3,6,1
1,5,2,6
1,5,6,4
1,6,4,1
1,7,2,5
1,7,6,9
2,0,0,7
2,0,8,1
2,2,2,8
2,2,4,1
2,2,6,5
2,6,2,9
2,6,4,4
2,6,6,2
2,8,0,5
2,8,8,3
3,0,1,8
3,0,3,6
3,0,5,2
3,0,7,9
3,1,1,6
3,1,4,4
3,1,7,1
3,2,2,5
3,2,4,7
3,2,6,4
3,3,1,1
3,3,4,6
3,3,7,7
3,5,1,9
3,5,4,8
3,5,7,4
3,6,2,1
3,6,4,2
3,6,6,9
3,7,1,7
3,7,4,9
3,7,7,8
3,8,1,5
3,8,3,7
3,8,5,8
3,8,7,6
4,0,3,4
4,0,4,9
4,0,5,3
4,3,1,6
4,3,2,7
4,3,3,3
4,3,4,4
4,3,5,9
4,3,6,5
4,3,7,1
4,4,0,9
4,4,3,8
4,4,5,1
4,4,8,6
4,5,1,8
4,5,2,4
4,5,3,6
4,5,4,5
4,5,5,2
4,5,6,7
4,5,7,9
4,8,3,2
4,8,4,6
4,8,5,5
5,0,1,9
5,0,3,1
5,0,5,7
5,0,7,4
5,1,1,1
5,1,4,6
5,1,7,7
5,2,2,6
5,2,4,3
5,2,6,8
5,3,1,5
5,3,4,1
5,3,7,6
5,5,1,7
5,5,4,9
5,5,7,8
5,6,2,5
5,6,4,7
5,6,6,4
5,7,1,8
5,7,4,5
5,7,7,9
5,8,1,6
5,8,3,3
5,8,5,9
5,8,7,1
6,0,0,3
6,0,8,8
6,2,2,4
6,2,4,8
6,2,6,1
6,6,2,2
6,6,4,9
6,6,6,7
6,8,0,9
6,8,8,6
7,1,2,5
7,1,6,9
7,2,4,5
7,3,2,1
7,3,6,8
7,5,2,7
7,5,6,3
7,6,4,8
7,7,2,9
7,7,6,2
8,0,1,5
8,0,3,2
8,0,5,8
8,0,7,1
8,4,4,8
8,8,1,4
8,8,3,8
8,8,5,6
8,8,7,3
