0,0,1,8
0,0,3,1
0,0,5,9
0,0,7,5
0,2,0,2
0,2,2,3
0,2,6,1
0,2,8,9
0,6,0,3
0,6,2,5
0,6,6,9
0,6,8,6
0,8,1,1
0,8,3,3
0,8,5,5
0,8,7,4
1,0,3,5
1,0,5,8
1,1,4,7
1,7,4,5
1,8,3,4
1,8,5,7
2,2,0,8
2,2,8,2
2,6,0,6
2,6,8,4
3,0,2,6
3,0,6,1
3,1,3,1
3,1,5,8
3,2,2,8
3,2,6,6
3,3,0,8
3,3,8,2
3,4,2,1
3,4,4,3
3,4,6,8
3,5,0,7
3,5,8,1
3,6,2,9
3,6,6,4
3,7,3,4
3,7,5,5
3,8,2,5
3,8,6,9
4,0,4,8
4,1,3,4
4,1,5,5
4,4,0,6
4,4,8,3
4,7,3,7
4,7,5,2
4,8,4,4
5,0,2,9
5,0,6,7
5,1,3,7
5,1,5,2
5,2,2,2
5,2,6,9
5,3,0,2
5,3,8,5
5,4,2,7
5,4,4,6
5,4,6,2
5,5,0,4
5,5,8,7
5,6,2,3
5,6,6,1
5,7,3,1
5,7,5,8
5,8,2,8
5,8,6,3
6,2,0,3
6,2,8,6
6,6,0,7
6,6,8,9
7,0,3,4
7,0,5,3
7,1,4,2
7,7,4,4
7,8,3,9
7,8,5,2
8,0,1,3
8,0,3,8
8,0,5,5
8,0,7,4
8,2,0,6
8,2,2,1
8,2,6,8
8,2,8,5
8,6,0,1
8,6,2,4
8,6,6,5
8,6,8,7
8,8,1,8
8,8,3,1
8,8,5,4
8,8,7,9
