0,1,2,1
0,1,4,8
0,1,6,3
0,2,4,2
0,4,3,7
0,4,5,9
0,6,4,5
0,7,2,3
0,7,4,1
0,7,6,8
1,0,3,8
1,0,4,5
1,0,5,2
1,1,1,2
1,1,7,5
1,2,2,7
1,2,6,2
1,3,2,5
1,3,6,4
1,5,2,2
1,5,6,6
1,6,2,9
1,6,6,5
1,7,1,7
1,7,7,4
1,8,3,5
1,8,4,2
1,8,5,3
2,1,0,5
2,1,8,7
2,4,4,8
2,7,0,4
2,7,8,6
3,1,2,4
3,1,6,9
3,4,0,2
3,4,8,1
3,7,2,9
3,7,6,5
4,0,3,5
4,0,5,1
4,1,0,2
4,1,3,8
4,1,5,7
4,1,8,1
4,2,0,5
4,2,8,7
4,3,3,9
4,3,5,8
4,5,3,7
4,5,5,4
4,6,0,1
4,6,8,5
4,7,0,6
4,7,3,1
4,7,5,2
4,7,8,3
4,8,3,6
4,8,5,5
5,1,2,5
5,1,6,4
5,4,0,6
5,4,8,3
5,7,2,4
5,7,6,9
6,1,0,1
6,1,8,9
6,4,4,6
6,7,0,3
6,7,8,5
7,0,3,7
7,0,4,8
7,0,5,5
7,1,1,9
7,1,7,1
7,2,2,5
7,2,6,4
7,3,2,8
7,3,6,1
7,5,2,9
7,5,6,5
7,6,2,3
7,6,6,8
7,7,1,5
7,7,7,3
7,8,3,3
7,8,4,5
7,8,5,7
8,1,2,2
8,1,4,7
8,1,6,6
8,2,4,5
8,4,3,4
8,4,5,8
8,6,4,8
8,7,2,7
8,7,4,6
8,7,6,2
