0,1,3,1
0,1,5,7
0,3,3,3
0,3,5,2
0,4,0,4
0,4,8,7
0,5,3,6
0,5,5,8
0,7,3,4
0,7,5,1
1,0,3,6
1,0,5,1
1,1,1,1
1,1,4,4
1,1,7,9
1,3,1,3
1,3,4,5
1,3,7,7
1,4,3,7
1,4,4,8
1,4,5,6
1,5,1,6
1,5,4,2
1,5,7,1
1,7,1,4
1,7,4,9
1,7,7,3
1,8,3,3
1,8,5,7
2,2,1,9
2,2,7,4
2,3,0,9
2,3,8,3
2,4,1,7
2,4,7,5
2,5,0,3
2,5,8,6
2,6,1,2
2,6,7,6
3,0,0,4
3,0,8,2
3,1,0,1
3,1,4,2
3,1,8,5
3,4,0,9
3,4,8,3
3,7,0,5
3,7,4,8
3,7,8,7
3,8,0,3
3,8,8,6
4,0,3,7
4,0,5,4
4,2,4,5
4,3,0,3
4,3,8,6
4,4,2,6
4,4,6,5
4,5,0,5
4,5,8,7
4,6,4,6
4,8,3,4
4,8,5,8
5,0,0,5
5,0,8,7
5,1,0,3
5,1,4,7
5,1,8,6
5,4,0,2
5,4,8,8
5,7,0,6
5,7,4,1
5,7,8,9
5,8,0,8
5,8,8,4
6,2,1,4
6,2,7,3
6,3,0,4
6,3,8,9
6,4,1,5
6,4,7,8
6,5,0,9
6,5,8,3
6,6,1,6
6,6,7,1
7,0,3,1
7,0,5,7
7,1,1,7
7,1,4,8
7,1,7,4
7,3,1,2
7,3,4,1
7,3,7,5
7,4,3,5
7,4,4,7
7,4,5,8
7,5,1,8
7,5,4,6
7,5,7,9
7,7,1,1
7,7,4,4
7,7,7,7
7,8,3,7
7,8,5,5
8,1,3,9
8,1,5,5
8,3,3,7
8,3,5,6
8,4,0,8
8,4,8,5
8,5,3,1
8,5,5,9
8,7,3,3
8,7,5,7
