0,0,2,7
0,0,6,9
0,1,2,8
0,1,6,4
0,2,1,5
0,2,2,3
0,2,3,9
0,2,5,8
0,2,6,7
0,2,7,2
0,4,1,9
0,4,7,4
0,6,1,7
0,6,2,2
0,6,3,5
0,6,5,4
0,6,6,1
0,6,7,8
0,7,2,9
0,7,6,5
0,8,2,4
0,8,6,2
1,1,0,5
1,1,3,1
1,1,5,9
1,1,8,7
1,2,2,2
1,2,6,1
1,3,0,9
1,3,3,6
1,3,5,2
1,3,8,3
1,5,0,2
1,5,3,4
1,5,5,3
1,5,8,8
1,6,2,1
1,6,6,3
1,7,0,3
1,7,3,8
1,7,5,1
1,7,8,2
2,2,2,1
2,2,6,3
2,3,1,3
2,3,3,1
2,3,5,9
2,3,7,6
2,4,4,3
2,5,1,8
2,5,3,7
2,5,5,6
2,5,7,3
2,6,2,3
2,6,6,7
3,0,1,7
3,0,2,1
3,0,6,3
3,0,7,2
3,1,0,2
3,1,1,4
3,1,7,1
3,1,8,8
3,7,0,4
3,7,1,5
3,7,7,8
3,7,8,6
3,8,1,6
3,8,2,9
3,8,6,5
3,8,7,7
4,1,3,4
4,1,5,6
4,2,3,3
4,2,5,9
4,3,2,9
4,3,3,8
4,3,5,1
4,3,6,5
4,5,2,2
4,5,3,9
4,5,5,7
4,5,6,1
4,6,3,1
4,6,5,2
4,7,3,5
4,7,5,4
5,0,1,5
5,0,2,2
5,0,6,1
5,0,7,8
5,1,0,3
5,1,1,6
5,1,7,7
5,1,8,4
5,7,0,6
5,7,1,9
5,7,7,4
5,7,8,5
5,8,1,8
5,8,2,7
5,8,6,9
5,8,7,3
6,2,2,5
6,2,6,6
6,3,1,7
6,3,3,5
6,3,5,4
6,3,7,8
6,4,4,2
6,5,1,3
6,5,3,1
6,5,5,9
6,5,7,6
6,6,2,7
6,6,6,9
7,1,0,4
7,1,3,9
7,1,5,8
7,1,8,6
7,2,2,7
7,2,6,9
7,3,0,8
7,3,3,2
7,3,5,7
7,3,8,5
7,5,0,7
7,5,3,3
7,5,5,5
7,5,8,1
7,6,2,9
7,6,6,5
7,7,0,5
7,7,3,1
7,7,5,9
7,7,8,7
8,0,2,4
8,0,6,2
8,1,2,2
8,1,6,1
8,2,1,8
8,2,2,9
8,2,3,7
8,2,5,6
8,2,6,5
8,2,7,3
8,4,1,6
8,4,7,1
8,6,1,4
8,6,2,5
8,6,3,8
8,6,5,1
8,6,6,6
8,6,7,7
8,7,2,6
8,7,6,8
8,8,2,1
8,8,6,3
