0,0,4,6
0,3,2,1
0,3,6,7
0,5,2,5
0,5,6,6
0,8,4,4
1,1,1,3
1,1,3,2
1,1,5,4
1,1,7,8
1,2,0,2
1,2,3,6
1,2,5,5
1,2,8,4
1,3,2,6
1,3,6,3
1,4,4,4
1,5,2,2
1,5,6,8
1,6,0,4
1,6,3,1
1,6,5,9
1,6,8,8
1,7,1,7
1,7,3,4
1,7,5,8
1,7,7,6
2,0,3,9
2,0,5,2
2,1,0,9
2,1,3,8
2,1,5,6
2,1,8,7
2,3,2,8
2,3,6,1
2,4,0,1
2,4,2,3
2,4,6,4
2,4,8,8
2,5,2,9
2,5,6,5
2,7,0,2
2,7,3,6
2,7,5,5
2,7,8,4
2,8,3,7
2,8,5,1
3,1,4,1
3,2,1,2
3,2,7,7
3,4,0,3
3,4,8,7
3,6,1,8
3,6,7,9
3,7,4,4
4,0,1,6
4,0,4,7
4,0,7,2
4,1,1,9
4,1,7,3
4,2,0,3
4,2,2,7
4,2,6,8
4,2,8,6
4,4,0,7
4,4,8,1
4,6,0,5
4,6,2,9
4,6,6,1
4,6,8,3
4,7,1,3
4,7,7,8
4,8,1,1
4,8,4,5
4,8,7,4
5,1,4,2
5,2,1,8
5,2,7,9
5,4,0,4
5,4,8,3
5,6,1,4
5,6,7,5
5,7,4,6
6,0,3,6
6,0,5,5
6,1,0,6
6,1,3,7
6,1,5,1
6,1,8,5
6,3,2,2
6,3,6,8
6,4,0,9
6,4,2,6
6,4,6,3
6,4,8,2
6,5,2,7
6,5,6,9
6,7,0,4
6,7,3,1
6,7,5,9
6,7,8,8
6,8,3,4
6,8,5,8
7,1,1,2
7,1,3,5
7,1,5,8
7,1,7,7
7,2,0,4
7,2,3,1
7,2,5,3
7,2,8,9
7,3,2,5
7,3,6,6
7,4,4,9
7,5,2,4
7,5,6,2
7,6,0,9
7,6,3,8
7,6,5,2
7,6,8,6
7,7,1,1
7,7,3,3
7,7,5,6
7,7,7,4
8,0,4,1
8,3,2,9
8,3,6,5
8,5,2,3
8,5,6,4
8,8,4,3
