0,1,0,2
0,1,1,4
0,1,7,9
0,1,8,3
0,4,2,6
0,4,3,9
0,4,5,2
0,4,6,4
0,7,0,7
0,7,1,8
0,7,7,2
0,7,8,5
1,0,1,1
1,0,3,5
1,0,5,8
1,0,7,3
1,2,2,6
1,2,6,4
1,3,3,1
1,3,5,9
1,5,3,3
1,5,5,4
1,6,2,7
1,6,6,2
1,8,1,4
1,8,3,8
1,8,5,7
1,8,7,9
2,0,2,9
2,0,6,1
2,3,1,4
2,3,7,9
2,4,2,7
2,4,4,4
2,4,6,2
2,5,1,5
2,5,7,4
2,8,2,8
2,8,6,5
3,1,0,1
3,1,8,8
3,2,4,7
3,3,0,5
3,3,2,4
3,3,3,7
3,3,5,2
3,3,6,3
3,3,8,1
3,4,0,7
3,4,1,8
3,4,7,4
3,4,8,5
3,5,0,3
3,5,2,1
3,5,3,4
3,5,5,9
3,5,6,7
3,5,8,2
3,6,4,9
3,7,0,9
3,7,8,3
4,1,1,2
4,1,2,7
4,1,6,4
4,1,7,5
4,2,3,5
4,2,4,9
4,2,5,4
4,3,2,6
4,3,6,2
4,4,2,9
4,4,6,1
4,5,2,8
4,5,6,5
4,6,3,3
4,6,4,6
4,6,5,1
4,7,1,6
4,7,2,1
4,7,6,7
4,7,7,8
5,1,0,5
5,1,8,1
5,2,4,6
5,3,0,8
5,3,2,7
5,3,3,6
5,3,5,3
5,3,6,4
5,3,8,9
5,4,0,6
5,4,1,1
5,4,7,2
5,4,8,7
5,5,0,9
5,5,2,5
5,5,3,8
5,5,5,7
5,5,6,6
5,5,8,3
5,6,4,7
5,7,0,2
5,7,8,4
6,0,2,7
6,0,6,2
6,3,1,1
6,3,7,3
6,4,2,8
6,4,4,3
6,4,6,5
6,5,1,3
6,5,7,7
6,8,2,9
6,8,6,1
7,0,1,3
7,0,3,9
7,0,5,2
7,0,7,7
7,2,2,8
7,2,6,5
7,3,3,3
7,3,5,4
7,5,3,7
7,5,5,5
7,6,2,1
7,6,6,6
7,8,1,5
7,8,3,2
7,8,5,1
7,8,7,4
8,1,0,7
8,1,1,8
8,1,7,2
8,1,8,5
8,4,2,1
8,4,3,8
8,4,5,7
8,4,6,6
8,7,0,5
8,7,1,3
8,7,7,7
8,7,8,8
