0,0,2,6
0,0,6,9
0,2,3,3
0,2,5,7
0,6,3,6
0,6,5,8
0,8,2,7
0,8,6,2
1,0,1,9
1,0,7,8
1,1,2,2
1,1,3,9
1,1,5,3
1,1,6,5
1,2,1,6
1,2,7,3
1,3,2,6
1,3,6,9
1,4,0,5
1,4,2,9
1,4,6,4
1,4,8,1
1,5,2,4
1,5,6,6
1,6,1,2
1,6,7,6
1,7,2,8
1,7,3,5
1,7,5,4
1,7,6,1
1,8,1,5
1,8,7,4
2,1,0,6
2,1,8,2
2,7,0,5
2,7,8,3
3,4,0,7
3,4,2,5
3,4,4,8
3,4,6,9
3,4,8,4
4,0,0,9
4,0,8,1
4,1,4,3
4,2,4,6
4,3,1,1
4,3,4,9
4,3,7,5
4,4,1,9
4,4,2,6
4,4,3,7
4,4,4,2
4,4,5,5
4,4,6,3
4,4,7,1
4,5,1,7
4,5,4,1
4,5,7,9
4,6,4,8
4,7,4,4
4,8,0,6
4,8,8,3
5,4,0,8
5,4,2,1
5,4,4,4
5,4,6,7
5,4,8,5
6,1,0,2
6,1,8,1
6,7,0,8
6,7,8,9
7,0,1,7
7,0,7,9
7,1,2,3
7,1,3,2
7,1,5,6
7,1,6,8
7,2,1,2
7,2,7,6
7,3,2,2
7,3,6,5
7,4,0,3
7,4,2,7
7,4,6,2
7,4,8,9
7,5,2,5
7,5,6,7
7,6,1,1
7,6,7,7
7,7,2,4
7,7,3,1
7,7,5,7
7,7,6,6
7,8,1,8
7,8,7,2
8,0,2,2
8,0,6,5
8,2,3,6
8,2,5,1
8,6,3,5
8,6,5,4
8,8,2,3
8,8,6,8
