0,2,0,5
0,2,8,8
0,3,3,7
0,3,5,1
0,5,3,6
0,5,5,3
0,6,0,2
0,6,8,5
1,0,3,4
1,0,4,9
1,0,5,5
1,1,3,3
1,1,5,2
1,7,3,6
1,7,5,3
1,8,3,7
1,8,4,8
1,8,5,1
2,0,0,9
2,0,8,7
2,3,1,9
2,3,7,8
2,4,0,2
2,4,1,3
2,4,7,9
2,4,8,5
2,5,1,1
2,5,7,2
2,8,0,7
2,8,8,2
3,0,1,3
3,0,7,7
3,2,0,7
3,2,8,1
3,4,3,5
3,4,5,1
3,6,0,4
3,6,8,2
3,8,1,2
3,8,7,4
4,0,0,1
4,0,3,9
4,0,5,8
4,0,8,5
4,1,1,5
4,1,7,1
4,2,1,9
4,2,2,2
4,2,6,7
4,2,7,8
4,3,0,9
4,3,8,7
4,5,0,5
4,5,8,6
4,6,1,8
4,6,2,5
4,6,6,9
4,6,7,6
4,7,1,3
4,7,7,7
4,8,0,6
4,8,3,8
4,8,5,7
4,8,8,3
5,0,1,7
5,0,7,9
5,2,0,4
5,2,8,2
5,4,3,3
5,4,5,2
5,6,0,3
5,6,8,4
5,8,1,5
5,8,7,1
6,0,0,7
6,0,8,2
6,3,1,7
6,3,7,3
6,4,0,9
6,4,1,5
6,4,7,1
6,4,8,7
6,5,1,6
6,5,7,5
6,8,0,2
6,8,8,5
7,0,3,7
7,0,4,8
7,0,5,1
7,1,3,9
7,1,5,4
7,7,3,5
7,7,5,9
7,8,3,2
7,8,4,3
7,8,5,6
8,2,0,8
8,2,8,3
8,3,3,2
8,3,5,6
8,5,3,5
8,5,5,9
8,6,0,9
8,6,8,7
