0,1,4,3
0,2,4,2
0,3,3,3
0,3,4,8
0,3,5,1
0,5,3,9
0,5,4,4
0,5,5,5
0,6,4,6
0,7,4,5
1,0,1,5
1,0,7,8
1,1,0,1
1,1,8,2
1,3,2,1
1,3,4,9
1,3,6,2
1,4,4,3
1,5,2,4
1,5,4,6
1,5,6,8
1,7,0,9
1,7,8,8
1,8,1,1
1,8,7,2
2,1,3,2
2,1,5,7
2,2,1,1
2,2,7,6
2,4,3,4
2,4,5,9
2,6,1,8
2,6,7,7
2,7,3,1
2,7,5,8
3,0,2,4
3,0,6,2
3,1,0,3
3,1,2,9
3,1,6,7
3,1,8,1
3,2,3,4
3,2,5,7
3,3,1,9
3,3,7,1
3,4,0,6
3,4,8,7
3,5,1,4
3,5,7,3
3,6,3,6
3,6,5,3
3,7,0,4
3,7,2,6
3,7,6,3
3,7,8,5
3,8,2,2
3,8,6,1
4,0,0,5
4,0,4,4
4,0,8,9
4,1,4,9
4,3,3,9
4,3,5,7
4,4,0,3
4,4,1,7
4,4,7,4
4,4,8,1
4,5,3,4
4,5,5,2
4,7,4,6
4,8,0,6
4,8,4,2
4,8,8,7
5,0,2,3
5,0,6,4
5,1,0,2
5,1,2,1
5,1,6,9
5,1,8,6
5,2,3,1
5,2,5,9
5,3,1,1
5,3,7,7
5,4,0,4
5,4,8,5
5,5,1,3
5,5,7,2
5,6,3,9
5,6,5,2
5,7,0,3
5,7,2,9
5,7,6,6
5,7,8,1
5,8,2,5
5,8,6,2
6,1,3,7
6,1,5,6
6,2,1,8
6,2,7,2
6,4,3,9
6,4,5,5
6,6,1,3
6,6,7,6
6,7,3,8
6,7,5,3
7,0,1,3
7,0,7,7
7,1,0,6
7,1,8,9
7,3,2,7
7,3,4,3
7,3,6,5
7,4,4,6
7,5,2,1
7,5,4,9
7,5,6,2
7,7,0,8
7,7,8,6
7,8,1,2
7,8,7,4
8,1,4,4
8,2,4,8
8,3,3,4
8,3,4,5
8,3,5,9
8,5,3,7
8,5,4,2
8,5,5,6
8,6,4,3
8,7,4,7
