0,0,3,4
0,0,5,3
0,1,4,9
0,3,2,7
0,3,6,8
0,4,3,5
0,4,5,9
0,5,2,8
0,5,6,4
0,7,4,5
0,8,3,2
0,8,5,6
1,1,4,4
1,2,0,1
1,2,8,6
1,4,2,2
1,4,3,1
1,4,5,4
1,4,6,5
1,6,0,5
1,6,8,4
1,7,4,1
2,0,3,9
2,0,4,5
2,0,5,8
2,3,3,8
2,3,5,5
2,5,3,4
2,5,5,3
2,8,3,3
2,8,4,4
2,8,5,1
3,0,0,7
3,0,1,3
3,0,4,2
3,0,7,8
3,0,8,6
3,1,3,4
3,1,4,6
3,1,5,3
3,2,1,9
3,2,7,4
3,3,2,6
3,3,4,5
3,3,6,4
3,4,4,9
3,5,2,2
3,5,4,3
3,5,6,1
3,6,1,2
3,6,7,9
3,7,3,5
3,7,4,8
3,7,5,7
3,8,0,4
3,8,1,7
3,8,4,1
3,8,7,5
3,8,8,8
4,1,1,1
4,1,2,6
4,1,6,4
4,1,7,2
4,2,0,3
4,2,8,5
4,3,4,1
4,4,3,3
4,4,5,6
4,5,4,8
4,6,0,6
4,6,8,2
4,7,1,3
4,7,2,4
4,7,6,5
4,7,7,8
5,0,0,1
5,0,1,6
5,0,4,8
5,0,7,3
5,0,8,4
5,1,3,9
5,1,4,1
5,1,5,2
5,2,1,2
5,2,7,9
5,3,2,8
5,3,4,6
5,3,6,9
5,4,4,7
5,5,2,4
5,5,4,2
5,5,6,5
5,6,1,4
5,6,7,6
5,7,3,6
5,7,4,3
5,7,5,4
5,8,0,9
5,8,1,1
5,8,4,5
5,8,7,2
5,8,8,3
6,0,3,8
6,0,4,9
6,0,5,5
6,3,3,5
6,3,5,9
6,5,3,3
6,5,5,1
6,8,3,1
6,8,4,3
6,8,5,4
7,1,4,8
7,2,0,9
7,2,8,3
7,4,2,3
7,4,3,9
7,4,5,8
7,4,6,6
7,6,0,2
7,6,8,8
7,7,4,9
8,0,3,2
8,0,5,6
8,1,4,3
8,3,2,9
8,3,6,1
8,4,3,4
8,4,5,3
8,5,2,1
8,5,6,7
8,7,4,4
8,8,3,5
8,8,5,9
