0,1,3,4
0,1,4,7
0,1,5,3
0,3,2,6
0,3,6,7
0,4,1,2
0,4,2,1
0,4,6,8
0,4,7,4
0,5,2,9
0,5,6,5
0,7,3,3
0,7,4,5
0,7,5,7
1,4,0,8
1,4,4,6
1,4,8,5
2,0,1,4
2,0,7,3
2,2,0,2
2,2,1,1
2,2,2,9
2,2,4,4
2,2,6,5
2,2,7,6
2,2,8,8
2,4,1,3
2,4,7,7
2,6,0,7
2,6,1,8
2,6,2,5
2,6,4,9
2,6,6,4
2,6,7,2
2,6,8,3
2,8,1,2
2,8,7,9
3,0,3,6
3,0,4,8
3,0,5,9
3,3,2,4
3,3,6,9
3,5,2,8
3,5,6,3
3,8,3,1
3,8,4,9
3,8,5,7
4,2,4,9
4,4,2,9
4,4,6,5
4,6,4,5
5,0,3,1
5,0,4,5
5,0,5,7
5,3,2,2
5,3,6,6
5,5,2,5
5,5,6,4
5,8,3,5
5,8,4,2
5,8,5,3
6,0,1,5
6,0,7,1
6,2,0,6
6,2,1,8
6,2,2,4
6,2,4,5
6,2,6,9
6,2,7,7
6,2,8,3
6,4,1,1
6,4,7,2
6,6,0,2
6,6,1,3
6,6,2,9
6,6,4,4
6,6,6,5
6,6,7,6
6,6,8,1
6,8,1,6
6,8,7,4
7,4,0,3
7,4,4,7
7,4,8,9
8,1,3,5
8,1,4,2
8,1,5,1
8,3,2,7
8,3,6,2
8,4,1,6
8,4,2,8
8,4,6,3
8,4,7,5
8,5,2,4
8,5,6,9
8,7,3,1
8,7,4,9
8,7,5,2
