0,2,0,4
0,2,8,3
0,3,0,7
0,3,8,6
0,4,1,4
0,4,2,8
0,4,6,3
0,4,7,9
0,5,0,2
0,5,8,7
0,6,0,8
0,6,8,9
1,2,1,6
1,2,7,1
1,3,0,4
1,3,8,3
1,4,3,6
1,4,5,8
1,5,0,1
1,5,8,4
1,6,1,3
1,6,7,5
2,0,1,4
2,0,7,9
2,1,4,7
2,2,3,9
2,2,5,3
2,3,4,8
2,5,4,5
2,6,3,7
2,6,5,9
2,7,4,1
2,8,1,9
2,8,7,6
3,0,4,8
3,3,0,8
3,3,4,3
3,3,8,7
3,4,1,2
3,4,7,8
3,5,0,5
3,5,4,4
3,5,8,2
3,8,4,7
4,0,4,6
4,2,2,2
4,2,6,6
4,3,2,9
4,3,3,1
4,3,5,7
4,3,6,8
4,4,0,7
4,4,8,3
4,5,2,8
4,5,3,3
4,5,5,2
4,5,6,5
4,6,2,1
4,6,6,3
4,8,4,1
5,0,4,1
5,3,0,1
5,3,4,6
5,3,8,9
5,4,1,8
5,4,7,1
5,5,0,3
5,5,4,7
5,5,8,8
5,8,4,8
6,0,1,3
6,0,7,5
6,1,4,6
6,2,3,5
6,2,5,1
6,3,4,9
6,5,4,8
6,6,3,6
6,6,5,5
6,7,4,4
6,8,1,5
6,8,7,2
7,2,1,9
7,2,7,2
7,3,0,6
7,3,8,2
7,4,3,8
7,4,5,4
7,5,0,7
7,5,8,6
7,6,1,7
7,6,7,1
8,2,0,5
8,2,8,8
8,3,0,3
8,3,8,1
8,4,1,5
8,4,2,7
8,4,6,8
8,4,7,6
8,5,0,4
8,5,8,3
8,6,0,6
8,6,8,2
