0,0,3,9
0,0,5,8
0,1,4,7
0,3,1,5
0,3,3,8
0,3,4,9
0,3,5,7
0,3,7,3
0,4,2,7
0,4,6,1
0,5,1,9
0,5,3,1
0,5,4,3
0,5,5,2
0,5,7,5
0,7,4,4
0,8,3,7
0,8,5,3
1,0,3,7
1,0,5,5
1,1,4,1
1,3,1,7
1,3,2,8
1,3,3,5
1,3,5,4
1,3,6,9
1,3,7,2
1,4,1,6
1,4,4,2
1,4,7,7
1,5,1,2
1,5,2,1
1,5,3,9
1,5,5,8
1,5,6,3
1,5,7,6
1,7,4,3
1,8,3,8
1,8,5,6
2,0,2,7
2,0,6,8
2,2,0,8
2,2,2,2
2,2,6,1
2,2,8,6
2,4,0,2
2,4,2,5
2,4,6,6
2,4,8,3
2,6,0,9
2,6,2,4
2,6,6,5
2,6,8,8
2,8,2,8
2,8,6,9
3,0,4,7
3,1,0,9
3,1,8,8
3,2,0,5
3,2,2,1
3,2,6,3
3,2,8,4
3,3,4,8
3,5,4,1
3,6,0,4
3,6,2,2
3,6,6,8
3,6,8,6
3,7,0,1
3,7,8,2
3,8,4,5
4,0,4,1
4,1,4,8
4,3,0,8
4,3,8,2
4,4,0,4
4,4,1,9
4,4,7,5
4,4,8,7
4,5,0,1
4,5,8,6
4,7,4,2
4,8,4,7
5,0,4,9
5,1,0,8
5,1,8,6
5,2,0,4
5,2,2,7
5,2,6,8
5,2,8,2
5,3,4,2
5,5,4,6
5,6,0,6
5,6,2,3
5,6,6,7
5,6,8,9
5,7,0,2
5,7,8,5
5,8,4,8
6,0,2,4
6,0,6,5
6,2,0,3
6,2,2,8
6,2,6,9
6,2,8,1
6,4,0,1
6,4,2,2
6,4,6,4
6,4,8,6
6,6,0,2
6,6,2,9
6,6,6,6
6,6,8,5
6,8,2,3
6,8,6,7
7,0,3,2
7,0,5,9
7,1,4,4
7,3,1,2
7,3,2,1
7,3,3,9
7,3,5,8
7,3,6,3
7,3,7,6
7,4,1,7
7,4,4,6
7,4,7,2
7,5,1,6
7,5,2,4
7,5,3,3
7,5,5,1
7,5,6,5
7,5,7,7
7,7,4,5
7,8,3,1
7,8,5,7
8,0,3,4
8,0,5,7
8,1,4,3
8,3,1,8
8,3,3,6
8,3,4,4
8,3,5,5
8,3,7,1
8,4,2,9
8,4,6,7
8,5,1,1
8,5,3,7
8,5,4,8
8,5,5,9
8,5,7,4
8,7,4,7
8,8,3,9
8,8,5,8
