0,1,2,4
0,1,6,9
0,2,1,3
0,2,3,1
0,2,5,2
0,2,7,7
0,3,1,2
0,3,3,7
0,3,5,4
0,3,7,5
0,5,1,6
0,5,3,2
0,5,5,5
0,5,7,9
0,6,1,4
0,6,3,5
0,6,5,3
0,6,7,1
0,7,2,7
0,7,6,2
2,1,1,2
2,1,2,8
2,1,6,1
2,1,7,4
2,3,2,6
2,3,3,5
2,3,5,1
2,3,6,7
2,4,0,8
2,4,3,4
2,4,5,3
2,4,8,5
2,5,2,7
2,5,3,9
2,5,5,8
2,5,6,2
2,7,1,8
2,7,2,4
2,7,6,9
2,7,7,6
3,1,1,6
3,1,7,3
3,4,2,6
3,4,3,8
3,4,5,4
3,4,6,7
3,7,1,4
3,7,7,7
4,1,2,3
4,1,3,5
4,1,4,1
4,1,5,7
4,1,6,8
4,2,0,5
4,2,8,3
4,3,3,3
4,3,5,5
4,4,1,2
4,4,7,8
4,5,3,4
4,5,5,2
4,6,0,7
4,6,8,4
4,7,2,2
4,7,3,1
4,7,4,7
4,7,5,4
4,7,6,6
5,1,1,8
5,1,7,5
5,4,2,8
5,4,3,5
5,4,5,6
5,4,6,1
5,7,1,7
5,7,7,1
6,1,1,7
6,1,2,1
6,1,6,3
6,1,7,9
6,3,2,2
6,3,3,4
6,3,5,3
6,3,6,6
6,4,0,1
6,4,3,9
6,4,5,8
6,4,8,4
6,5,2,6
6,5,3,5
6,5,5,1
6,5,6,7
6,7,1,1
6,7,2,9
6,7,6,5
6,7,7,2
8,1,2,2
8,1,6,6
8,2,1,4
8,2,3,5
8,2,5,8
8,2,7,3
8,3,1,3
8,3,3,1
8,3,5,2
8,3,7,7
8,5,1,1
8,5,3,8
8,5,5,6
8,5,7,2
8,6,1,6
8,6,3,2
8,6,5,9
8,6,7,4
8,7,2,8
8,7,6,1
