0,0,0,8
0,0,4,6
0,0,8,5
0,1,4,8
0,2,3,9
0,2,5,4
0,3,1,5
0,3,2,4
0,3,6,7
0,3,7,6
0,4,0,2
0,4,1,7
0,4,7,8
0,4,8,3
0,5,1,1
0,5,2,8
0,5,6,5
0,5,7,4
0,6,3,5
0,6,5,9
0,7,4,7
0,8,0,4
0,8,4,1
0,8,8,7
1,0,3,4
1,0,4,9
1,0,5,5
1,3,2,1
1,3,6,9
1,4,4,8
1,5,2,7
1,5,6,3
1,8,3,6
1,8,4,2
1,8,5,7
2,0,4,3
2,1,1,7
2,1,3,5
2,1,5,9
2,1,7,8
2,2,1,1
2,2,2,8
2,2,6,9
2,2,7,5
2,4,0,1
2,4,1,8
2,4,4,7
2,4,7,9
2,4,8,5
2,6,1,3
2,6,2,1
2,6,6,5
2,6,7,4
2,7,1,5
2,7,3,1
2,7,5,3
2,7,7,7
2,8,4,9
3,2,0,2
3,2,3,1
3,2,5,6
3,2,8,3
3,4,1,6
3,4,7,5
3,6,0,3
3,6,3,4
3,6,5,7
3,6,8,5
4,0,2,7
4,0,3,6
4,0,5,4
4,0,6,3
4,1,4,3
4,2,2,3
4,2,6,1
4,3,3,5
4,3,5,7
4,4,1,5
4,4,7,3
4,5,3,4
4,5,5,3
4,6,2,5
4,6,6,4
4,7,4,4
4,8,2,4
4,8,3,1
4,8,5,6
4,8,6,9
5,2,0,1
5,2,3,5
5,2,5,3
5,2,8,9
5,4,1,3
5,4,7,6
5,6,0,4
5,6,3,6
5,6,5,5
5,6,8,8
6,0,4,8
6,1,1,2
6,1,3,9
6,1,5,4
6,1,7,1
6,2,1,3
6,2,2,1
6,2,6,4
6,2,7,9
6,4,0,3
6,4,1,1
6,4,4,2
6,4,7,4
6,4,8,9
6,6,1,8
6,6,2,3
6,6,6,9
6,6,7,5
6,7,1,9
6,7,3,3
6,7,5,8
6,7,7,2
6,8,4,4
7,0,3,2
7,0,4,7
7,0,5,6
7,3,2,5
7,3,6,2
7,4,4,4
7,5,2,1
7,5,6,9
7,8,3,8
7,8,4,3
7,8,5,1
8,0,0,2
8,0,4,4
8,0,8,3
8,1,4,2
8,2,3,8
8,2,5,1
8,3,1,8
8,3,2,3
8,3,6,4
8,3,7,9
8,4,0,5
8,4,1,4
8,4,7,2
8,4,8,7
8,5,1,6
8,5,2,2
8,5,6,8
8,5,7,3
8,6,3,1
8,6,5,3
8,7,4,9
8,8,0,8
8,8,4,6
8,8,8,9
