0,0,3,3
0,0,4,4
0,0,5,1
0,2,3,7
0,2,5,9
0,3,1,8
0,3,3,6
0,3,4,2
0,3,5,5
0,3,7,3
0,4,2,1
0,4,6,2
0,5,1,6
0,5,3,4
0,5,4,1
0,5,5,3
0,5,7,7
0,6,3,9
0,6,5,8
0,8,3,2
0,8,4,5
0,8,5,6
1,1,0,6
1,1,4,3
1,1,8,5
1,2,2,7
1,2,6,3
1,3,4,4
1,4,3,5
1,4,4,6
1,4,5,2
1,5,4,8
1,6,2,4
1,6,6,1
1,7,0,3
1,7,4,9
1,7,8,6
2,0,0,7
2,0,1,8
2,0,7,3
2,0,8,9
2,1,2,1
2,1,6,2
2,7,2,8
2,7,6,9
2,8,0,1
2,8,1,3
2,8,7,2
2,8,8,4
3,0,0,3
3,0,8,1
3,2,0,2
3,2,3,1
3,2,4,6
3,2,5,4
3,2,8,5
3,3,3,4
3,3,5,6
3,4,0,7
3,4,8,9
3,5,3,3
3,5,5,7
3,6,0,1
3,6,3,7
3,6,4,3
3,6,5,9
3,6,8,4
3,8,0,4
3,8,8,6
4,0,0,1
4,0,3,7
4,0,4,3
4,0,5,9
4,0,8,4
4,2,0,4
4,2,4,2
4,2,8,6
4,4,0,5
4,4,2,6
4,4,6,4
4,4,8,8
4,6,0,9
4,6,4,1
4,6,8,3
4,8,0,6
4,8,3,3
4,8,4,9
4,8,5,7
4,8,8,2
5,0,0,9
5,0,8,3
5,2,0,6
5,2,3,3
5,2,4,9
5,2,5,7
5,2,8,2
5,3,3,7
5,3,5,9
5,4,0,8
5,4,8,7
5,5,3,5
5,5,5,8
5,6,0,3
5,6,3,8
5,6,4,5
5,6,5,2
5,6,8,1
5,8,0,2
5,8,8,5
6,0,0,6
6,0,1,3
6,0,7,2
6,0,8,5
6,1,2,7
6,1,6,8
6,7,2,3
6,7,6,5
6,8,0,7
6,8,1,2
6,8,7,8
6,8,8,9
7,1,0,1
7,1,4,2
7,1,8,4
7,2,2,6
7,2,6,2
7,3,4,9
7,4,3,4
7,4,4,1
7,4,5,8
7,5,4,3
7,6,2,9
7,6,6,7
7,7,0,2
7,7,4,5
7,7,8,1
8,0,3,2
8,0,4,9
8,0,5,7
8,2,3,6
8,2,5,5
8,3,1,3
8,3,3,1
8,3,4,8
8,3,5,4
8,3,7,2
8,4,2,7
8,4,6,8
8,5,1,1
8,5,3,9
8,5,4,7
8,5,5,2
8,5,7,6
8,6,3,5
8,6,5,3
8,8,3,8
8,8,4,4
8,8,5,1
