0,0,1,7
0,0,7,5
0,1,0,6
0,1,8,3
0,2,0,1
0,2,2,2
0,2,6,6
0,2,8,4
0,3,0,5
0,3,8,7
0,5,0,3
0,5,8,5
0,6,0,9
0,6,2,1
0,6,6,8
0,6,8,6
0,7,0,7
0,7,8,1
0,8,1,5
0,8,7,3
1,1,0,3
1,1,1,4
1,1,7,1
1,1,8,5
1,2,3,2
1,2,5,4
1,4,0,8
1,4,8,9
1,6,3,1
1,6,5,2
1,7,0,1
1,7,1,9
1,7,7,8
1,7,8,4
2,1,0,9
2,1,2,1
2,1,6,8
2,1,8,6
2,2,4,9
2,4,0,4
2,4,8,2
2,6,4,6
2,7,0,5
2,7,2,8
2,7,6,3
2,7,8,7
3,1,1,9
3,1,7,2
3,2,0,2
3,2,8,3
3,4,3,8
3,4,4,1
3,4,5,3
3,6,0,8
3,6,8,4
3,7,1,5
3,7,7,6
4,0,4,1
4,3,2,9
4,3,3,1
4,3,5,8
4,3,6,7
4,4,0,6
4,4,8,1
4,5,2,3
4,5,3,2
4,5,5,6
4,5,6,5
4,8,4,6
5,1,1,1
5,1,7,9
5,2,0,4
5,2,8,2
5,4,3,7
5,4,4,6
5,4,5,2
5,6,0,7
5,6,8,8
5,7,1,8
5,7,7,5
6,1,0,4
6,1,2,8
6,1,6,3
6,1,8,2
6,2,4,4
6,4,0,5
6,4,8,7
6,6,4,2
6,7,0,9
6,7,2,3
6,7,6,1
6,7,8,6
7,1,0,1
7,1,1,5
7,1,7,8
7,1,8,9
7,2,3,7
7,2,5,5
7,4,0,3
7,4,8,4
7,6,3,8
7,6,5,7
7,7,0,8
7,7,1,4
7,7,7,3
7,7,8,5
8,0,1,6
8,0,7,9
8,1,0,2
8,1,8,1
8,2,0,8
8,2,2,7
8,2,6,2
8,2,8,5
8,3,0,9
8,3,8,6
8,5,0,1
8,5,8,9
8,6,0,4
8,6,2,8
8,6,6,3
8,6,8,2
8,7,0,6
8,7,8,8
8,8,1,9
8,8,7,1
