0,0,2,4
0,0,3,2
0,0,4,1
0,0,5,9
0,0,6,6
0,1,1,8
0,1,7,1
0,2,0,6
0,2,8,9
0,3,0,4
0,3,1,7
0,3,7,6
0,3,8,8
0,4,0,9
0,4,8,1
0,5,0,5
0,5,1,6
0,5,7,2
0,5,8,3
0,6,0,3
0,6,8,6
0,7,1,9
0,7,7,4
0,8,2,6
0,8,3,8
0,8,4,4
0,8,5,7
0,8,6,3
1,0,0,5
1,0,3,4
1,0,5,8
1,0,8,3
1,3,2,6
1,3,6,3
1,5,2,2
1,5,6,1
1,8,0,2
1,8,3,6
1,8,5,5
1,8,8,4
2,0,0,8
2,0,1,9
2,0,7,4
2,0,8,7
2,2,4,9
2,4,0,6
2,4,3,7
2,4,5,4
2,4,8,9
2,6,4,6
2,8,0,4
2,8,1,7
2,8,7,6
2,8,8,8
3,0,0,9
3,0,8,1
3,1,4,1
3,2,4,4
3,3,0,8
3,3,8,7
3,4,0,4
3,4,1,5
3,4,7,1
3,4,8,8
3,5,0,6
3,5,8,9
3,6,4,3
3,7,4,9
3,8,0,5
3,8,8,3
4,0,0,3
4,0,8,6
4,2,4,3
4,3,0,7
4,3,1,6
4,3,3,3
4,3,5,8
4,3,7,4
4,3,8,5
4,4,2,3
4,4,6,7
4,5,0,9
4,5,1,4
4,5,3,7
4,5,5,2
4,5,7,3
4,5,8,1
4,6,4,2
4,8,0,8
4,8,8,7
5,0,0,6
5,0,8,9
5,1,4,5
5,2,4,2
5,3,0,5
5,3,8,3
5,4,0,2
5,4,1,7
5,4,7,9
5,4,8,4
5,5,0,3
5,5,8,6
5,6,4,4
5,7,4,6
5,8,0,7
5,8,8,5
6,0,0,4
6,0,1,7
6,0,7,6
6,0,8,8
6,2,4,7
6,4,0,8
6,4,3,3
6,4,5,6
6,4,8,7
6,6,4,1
6,8,0,6
6,8,1,1
6,8,7,3
6,8,8,9
7,0,0,2
7,0,3,6
7,0,5,5
7,0,8,4
7,3,2,8
7,3,6,4
7,5,2,3
7,5,6,5
7,8,0,3
7,8,3,1
7,8,5,2
7,8,8,6
8,0,2,6
8,0,3,8
8,0,4,4
8,0,5,7
8,0,6,3
8,1,1,4
8,1,7,5
8,2,0,8
8,2,8,7
8,3,0,6
8,3,1,1
8,3,7,3
8,3,8,9
8,4,0,7
8,4,8,5
8,5,0,2
8,5,1,8
8,5,7,1
8,5,8,4
8,6,0,5
8,6,8,3
8,7,1,7
8,7,7,6
8,8,2,8
8,8,3,5
8,8,4,6
8,8,5,3
8,8,6,4
