0,3,3,1
0,3,5,7
0,5,3,8
0,5,5,5
1,0,1,4
1,0,4,3
1,0,7,2
1,1,1,2
1,1,7,3
1,2,2,9
1,2,6,6
1,3,1,1
1,3,7,9
1,5,1,8
1,5,7,1
1,6,2,3
1,6,6,2
1,7,1,6
1,7,7,4
1,8,1,9
1,8,4,6
1,8,7,7
2,0,3,1
2,0,5,2
2,2,2,2
2,2,6,4
2,3,4,3
2,4,2,1
2,4,3,6
2,4,5,8
2,4,6,2
2,5,4,7
2,6,2,9
2,6,6,3
2,8,3,3
2,8,5,7
3,0,0,7
3,0,2,4
3,0,6,6
3,0,8,2
3,1,1,5
3,1,7,8
3,2,4,4
3,3,1,7
3,3,7,1
3,4,2,5
3,4,6,3
3,5,1,9
3,5,7,7
3,6,4,6
3,7,1,2
3,7,7,6
3,8,0,8
3,8,2,9
3,8,6,1
3,8,8,7
4,1,4,5
4,2,0,2
4,2,8,8
4,4,1,4
4,4,7,2
4,6,0,9
4,6,8,5
4,7,4,8
5,0,0,5
5,0,2,6
5,0,6,8
5,0,8,4
5,1,1,1
5,1,7,5
5,2,4,1
5,3,1,5
5,3,7,8
5,4,2,3
5,4,6,7
5,5,1,6
5,5,7,9
5,6,4,7
5,7,1,9
5,7,7,7
5,8,0,4
5,8,2,1
5,8,6,2
5,8,8,9
6,0,3,6
6,0,5,8
6,2,2,8
6,2,6,5
6,3,4,1
6,4,2,6
6,4,3,3
6,4,5,7
6,4,6,8
6,5,4,2
6,6,2,4
6,6,6,1
6,8,3,1
6,8,5,2
7,0,1,5
7,0,4,1
7,0,7,8
7,1,1,8
7,1,7,1
7,2,2,4
7,2,6,3
7,3,1,6
7,3,7,4
7,5,1,7
7,5,7,6
7,6,2,1
7,6,6,8
7,7,1,3
7,7,7,5
7,8,1,4
7,8,4,3
7,8,7,2
8,3,3,6
8,3,5,2
8,5,3,7
8,5,5,9
