0,2,0,9
0,2,4,5
0,2,8,3
0,3,1,4
0,3,4,2
0,3,7,8
0,4,4,1
0,5,1,3
0,5,4,4
0,5,7,2
0,6,0,8
0,6,4,9
0,6,8,4
1,0,0,6
1,0,1,1
1,0,3,3
1,0,5,9
1,0,7,2
1,0,8,8
1,1,0,8
1,1,8,4
1,2,3,6
1,2,5,4
1,4,1,5
1,4,7,1
1,6,3,8
1,6,5,2
1,7,0,1
1,7,8,5
1,8,0,7
1,8,1,6
1,8,3,9
1,8,5,5
1,8,7,4
1,8,8,2
2,0,1,9
2,0,7,4
2,4,4,7
2,8,1,5
2,8,7,1
3,0,0,1
3,0,8,2
3,1,1,2
3,1,2,4
3,1,3,6
3,1,4,7
3,1,5,8
3,1,6,5
3,1,7,1
3,4,2,2
3,4,6,9
3,7,1,7
3,7,2,1
3,7,3,5
3,7,4,3
3,7,5,6
3,7,6,8
3,7,7,9
3,8,0,9
3,8,8,5
4,0,4,8
4,1,2,8
4,1,6,3
4,2,2,1
4,2,3,5
4,2,5,9
4,2,6,8
4,4,0,1
4,4,8,6
4,6,2,2
4,6,3,3
4,6,5,5
4,6,6,9
4,7,2,9
4,7,6,6
4,8,4,9
5,0,0,5
5,0,8,3
5,1,1,1
5,1,2,6
5,1,3,3
5,1,4,9
5,1,5,5
5,1,6,2
5,1,7,4
5,4,2,3
5,4,6,1
5,7,1,6
5,7,2,5
5,7,3,9
5,7,4,4
5,7,5,1
5,7,6,7
5,7,7,3
5,8,0,1
5,8,8,9
6,0,1,2
6,0,7,5
6,4,4,4
6,8,1,7
6,8,7,3
7,0,0,9
7,0,1,3
7,0,3,8
7,0,5,2
7,0,7,6
7,0,8,1
7,1,0,1
7,1,8,5
7,2,3,9
7,2,5,5
7,4,1,7
7,4,7,3
7,6,3,1
7,6,5,6
7,7,0,3
7,7,8,7
7,8,0,4
7,8,1,9
7,8,3,2
7,8,5,7
7,8,7,5
7,8,8,6
8,2,0,2
8,2,4,7
8,2,8,8
8,3,1,5
8,3,4,6
8,3,7,1
8,4,4,3
8,5,1,8
8,5,4,5
8,5,7,6
8,6,0,1
8,6,4,2
8,6,8,5
