0,0,0,9
0,0,8,3
0,2,2,3
0,2,6,1
0,6,2,1
0,6,6,8
0,8,0,4
0,8,8,7
1,0,3,5
1,0,5,6
1,1,4,1
1,2,3,3
1,2,5,4
1,4,2,7
1,4,6,4
1,6,3,1
1,6,5,5
1,7,4,4
1,8,3,9
1,8,5,3
2,0,0,6
2,0,3,4
2,0,5,7
2,0,8,9
2,1,3,6
2,1,5,9
2,3,2,2
2,3,3,1
2,3,5,3
2,3,6,7
2,5,2,5
2,5,3,9
2,5,5,2
2,5,6,1
2,7,3,5
2,7,5,8
2,8,0,5
2,8,3,2
2,8,5,4
2,8,8,8
3,0,3,3
3,0,5,1
3,1,4,8
3,2,3,2
3,2,5,9
3,3,0,4
3,3,8,3
3,5,0,8
3,5,8,2
3,6,3,9
3,6,5,4
3,7,4,2
3,8,3,7
3,8,5,8
4,2,0,1
4,2,8,6
4,4,4,8
4,6,0,4
4,6,8,5
5,0,3,8
5,0,5,5
5,1,4,9
5,2,3,6
5,2,5,3
5,3,0,7
5,3,8,8
5,5,0,1
5,5,8,6
5,6,3,2
5,6,5,1
5,7,4,8
5,8,3,5
5,8,5,9
6,0,0,1
6,0,3,7
6,0,5,3
6,0,8,5
6,1,3,9
6,1,5,5
6,3,2,4
6,3,3,3
6,3,5,8
6,3,6,5
6,5,2,8
6,5,3,2
6,5,5,6
6,5,6,3
6,7,3,8
6,7,5,1
6,8,0,6
6,8,3,4
6,8,5,7
6,8,8,9
7,0,3,2
7,0,5,8
7,1,4,7
7,2,3,5
7,2,5,6
7,4,2,9
7,4,6,6
7,6,3,7
7,6,5,2
7,7,4,6
7,8,3,1
7,8,5,5
8,0,0,8
8,0,8,1
8,2,2,1
8,2,6,8
8,6,2,4
8,6,6,2
8,8,0,2
8,8,8,4
