0,0,1,2
0,0,7,6
0,1,3,3
0,1,5,2
0,2,2,8
0,2,6,2
0,4,1,9
0,4,4,3
0,4,7,1
0,6,2,4
0,6,6,7
0,7,3,4
0,7,5,3
0,8,1,8
0,8,7,4
1,0,2,1
1,0,6,4
1,4,4,1
1,8,2,6
1,8,6,1
2,0,1,7
2,0,2,9
2,0,6,8
2,0,7,2
2,1,4,5
2,2,3,2
2,2,5,8
2,3,0,9
2,3,8,7
2,4,4,9
2,5,0,4
2,5,8,9
2,6,3,7
2,6,5,4
2,7,4,2
2,8,1,4
2,8,2,7
2,8,6,9
2,8,7,5
3,0,0,9
3,0,3,1
3,0,5,6
3,0,8,2
3,1,0,2
3,1,8,4
3,2,3,5
3,2,4,2
3,2,5,9
3,6,3,4
3,6,4,6
3,6,5,1
3,7,0,1
3,7,8,6
3,8,0,6
3,8,3,2
3,8,5,5
3,8,8,8
4,1,3,2
4,1,5,5
4,2,0,8
4,2,1,7
4,2,7,2
4,2,8,9
4,3,1,3
4,3,3,7
4,3,5,8
4,3,7,1
4,5,1,8
4,5,3,3
4,5,5,6
4,5,7,5
4,6,0,5
4,6,1,2
4,6,7,6
4,6,8,1
4,7,3,1
4,7,5,2
5,0,0,1
5,0,3,3
5,0,5,2
5,0,8,7
5,1,0,7
5,1,8,5
5,2,3,8
5,2,4,7
5,2,5,1
5,6,3,5
5,6,4,2
5,6,5,3
5,7,0,3
5,7,8,2
5,8,0,2
5,8,3,7
5,8,5,8
5,8,8,4
6,0,1,3
6,0,2,8
6,0,6,2
6,0,7,9
6,1,4,7
6,2,3,9
6,2,5,2
6,3,0,8
6,3,8,9
6,4,4,8
6,5,0,2
6,5,8,8
6,6,3,1
6,6,5,7
6,7,4,3
6,8,1,7
6,8,2,1
6,8,6,8
6,8,7,2
7,0,2,4
7,0,6,6
7,4,4,4
7,8,2,9
7,8,6,4
8,0,1,9
8,0,7,1
8,1,3,5
8,1,5,9
8,2,2,2
8,2,6,9
8,4,1,8
8,4,4,5
8,4,7,4
8,6,2,7
8,6,6,1
8,7,3,7
8,7,5,5
8,8,1,6
8,8,7,7
