0,0,2,5
0,0,3,8
0,0,5,6
0,0,6,1
0,2,0,1
0,2,2,9
0,2,6,8
0,2,8,2
0,3,3,2
0,3,4,8
0,3,5,1
0,4,0,6
0,4,8,3
0,5,3,4
0,5,4,6
0,5,5,3
0,6,0,3
0,6,2,6
0,6,6,2
0,6,8,4
0,8,2,4
0,8,3,3
0,8,5,2
0,8,6,5
1,0,3,5
1,0,5,3
1,1,0,5
1,1,3,6
1,1,4,8
1,1,5,4
1,1,8,7
1,3,1,9
1,3,3,3
1,3,5,6
1,3,7,7
1,5,1,6
1,5,3,7
1,5,5,5
1,5,7,4
1,7,0,6
1,7,3,8
1,7,4,5
1,7,5,7
1,7,8,9
1,8,3,4
1,8,5,9
2,1,0,6
2,1,2,1
2,1,6,4
2,1,8,8
2,3,0,8
2,3,8,4
2,5,0,7
2,5,8,9
2,7,0,9
2,7,2,7
2,7,6,6
2,7,8,5
3,1,2,4
3,1,6,5
3,4,0,1
3,4,2,8
3,4,6,3
3,4,8,2
3,7,2,2
3,7,6,7
4,0,2,3
4,0,6,9
4,1,0,1
4,1,3,7
4,1,5,5
4,1,8,2
4,2,2,8
4,2,6,3
4,3,0,3
4,3,2,7
4,3,6,6
4,3,8,5
4,5,0,8
4,5,2,6
4,5,6,2
4,5,8,4
4,6,2,1
4,6,6,4
4,7,0,7
4,7,3,3
4,7,5,2
4,7,8,8
4,8,2,5
4,8,6,1
5,1,2,2
5,1,6,7
5,4,0,7
5,4,2,4
5,4,6,5
5,4,8,9
5,7,2,3
5,7,6,9
6,1,0,4
6,1,2,8
6,1,6,3
6,1,8,6
6,3,0,7
6,3,8,9
6,5,0,5
6,5,8,7
6,7,0,2
6,7,2,5
6,7,6,1
6,7,8,3
7,0,3,7
7,0,5,5
7,1,0,2
7,1,3,8
7,1,4,4
7,1,5,6
7,1,8,9
7,3,1,5
7,3,3,4
7,3,5,3
7,3,7,8
7,5,1,8
7,5,3,9
7,5,5,7
7,5,7,2
7,7,0,3
7,7,3,5
7,7,4,7
7,7,5,8
7,7,8,4
7,8,3,6
7,8,5,4
8,0,2,4
8,0,3,9
8,0,5,2
8,0,6,5
8,2,0,5
8,2,2,3
8,2,6,9
8,2,8,7
8,3,3,7
8,3,4,9
8,3,5,5
8,4,0,2
8,4,8,8
8,5,3,1
8,5,4,2
8,5,5,8
8,6,0,8
8,6,2,2
8,6,6,7
8,6,8,1
8,8,2,1
8,8,3,8
8,8,5,7
8,8,6,4
