0,2,2,8
0,2,3,1
0,2,4,6
0,2,5,4
0,2,6,5
0,4,1,3
0,4,4,1
0,4,7,5
0,6,2,3
0,6,3,7
0,6,4,4
0,6,5,1
0,6,6,2
1,2,0,1
1,2,2,4
1,2,4,2
1,2,6,3
1,2,8,8
1,3,3,3
1,3,5,8
1,4,0,4
1,4,2,6
1,4,6,8
1,4,8,2
1,5,3,2
1,5,5,1
1,6,0,2
1,6,2,1
1,6,4,9
1,6,6,7
1,6,8,3
2,0,0,4
2,0,8,6
2,1,4,4
2,2,3,3
2,2,5,8
2,3,1,7
2,3,7,6
2,5,1,4
2,5,7,8
2,6,3,2
2,6,5,3
2,7,4,6
2,8,0,8
2,8,8,2
3,0,0,1
3,0,8,9
3,2,0,2
3,2,8,3
3,3,1,4
3,3,7,9
3,5,1,5
3,5,7,3
3,6,0,4
3,6,8,7
3,8,0,5
3,8,8,4
4,0,4,6
4,1,4,3
4,2,4,8
4,4,0,1
4,4,1,6
4,4,2,8
4,4,6,5
4,4,7,2
4,4,8,4
4,6,4,1
4,7,4,9
4,8,4,2
5,0,0,3
5,0,8,4
5,2,0,7
5,2,8,5
5,3,1,8
5,3,7,4
5,5,1,1
5,5,7,5
5,6,0,8
5,6,8,6
5,8,0,1
5,8,8,8
6,0,0,6
6,0,8,3
6,1,4,2
6,2,3,4
6,2,5,6
6,3,1,3
6,3,7,5
6,5,1,2
6,5,7,7
6,6,3,3
6,6,5,4
6,7,4,5
6,8,0,2
6,8,8,5
7,2,0,9
7,2,2,6
7,2,4,1
7,2,6,4
7,2,8,2
7,3,3,4
7,3,5,2
7,4,0,2
7,4,2,3
7,4,6,7
7,4,8,5
7,5,3,3
7,5,5,9
7,6,0,3
7,6,2,9
7,6,4,2
7,6,6,5
7,6,8,4
8,2,2,7
8,2,3,9
8,2,4,5
8,2,5,2
8,2,6,8
8,4,1,4
8,4,4,9
8,4,7,8
8,6,2,4
8,6,3,5
8,6,4,6
8,6,5,9
8,6,6,3
