0,0,3,7
0,0,4,6
0,0,5,1
0,1,1,1
0,1,7,9
0,2,0,5
0,2,8,6
0,3,4,7
0,5,4,9
0,6,0,8
0,6,8,1
0,7,1,7
0,7,7,2
0,8,3,2
0,8,4,8
0,8,5,9
1,0,4,9
1,2,1,6
1,2,7,3
1,3,1,4
1,3,7,6
1,4,0,1
1,4,8,3
1,5,1,7
1,5,7,2
1,6,1,1
1,6,7,7
1,8,4,5
2,0,1,7
2,0,3,5
2,0,5,4
2,0,7,2
2,1,0,8
2,1,8,1
2,3,2,7
2,3,4,5
2,3,6,1
2,4,0,5
2,4,2,4
2,4,3,9
2,4,5,1
2,4,6,8
2,4,8,6
2,5,2,9
2,5,4,6
2,5,6,3
2,7,0,4
2,7,8,7
2,8,1,2
2,8,3,3
2,8,5,6
2,8,7,1
3,1,3,6
3,1,5,5
3,2,2,9
3,2,6,6
3,3,0,5
3,3,8,3
3,5,0,9
3,5,8,2
3,6,2,6
3,6,6,1
3,7,3,2
3,7,5,6
4,1,3,8
4,1,5,3
4,2,2,6
4,2,4,9
4,2,6,8
4,4,2,9
4,4,6,6
4,6,2,1
4,6,4,6
4,6,6,9
4,7,3,3
4,7,5,1
5,1,3,9
5,1,5,7
5,2,2,8
5,2,6,9
5,3,0,7
5,3,8,6
5,5,0,3
5,5,8,4
5,6,2,9
5,6,6,6
5,7,3,4
5,7,5,9
6,0,1,9
6,0,3,6
6,0,5,7
6,0,7,5
6,1,0,1
6,1,8,3
6,3,2,9
6,3,4,6
6,3,6,3
6,4,0,6
6,4,2,7
6,4,3,4
6,4,5,3
6,4,6,1
6,4,8,2
6,5,2,4
6,5,4,2
6,5,6,8
6,7,0,7
6,7,8,9
6,8,1,5
6,8,3,8
6,8,5,2
6,8,7,3
7,0,4,2
7,2,1,1
7,2,7,9
7,3,1,5
7,3,7,8
7,4,0,9
7,4,8,4
7,5,1,6
7,5,7,1
7,6,1,4
7,6,7,6
7,8,4,1
8,0,3,8
8,0,4,4
8,0,5,5
8,1,1,5
8,1,7,1
8,2,0,9
8,2,8,4
8,3,4,3
8,5,4,8
8,6,0,6
8,6,8,2
8,7,1,1
8,7,7,7
8,8,3,7
8,8,4,6
8,8,5,3
