0,1,1,3
0,1,2,9
0,1,3,8
0,1,4,5
0,1,5,6
0,1,6,4
0,1,7,7
0,4,2,8
0,4,3,2
0,4,4,1
0,4,5,5
0,4,6,3
0,7,1,9
0,7,2,6
0,7,3,5
0,7,4,7
0,7,5,3
0,7,6,2
0,7,7,8
1,0,0,1
1,0,8,9
1,1,0,6
1,1,2,4
1,1,6,5
1,1,8,3
1,2,4,8
1,4,1,2
1,4,3,6
1,4,5,9
1,4,7,5
1,6,4,1
1,7,0,3
1,7,2,7
1,7,6,6
1,7,8,5
1,8,0,2
1,8,8,8
2,2,3,6
2,2,5,9
2,3,2,9
2,3,3,1
2,3,5,6
2,3,6,4
2,4,0,5
2,4,1,6
2,4,7,9
2,4,8,2
2,5,2,7
2,5,3,9
2,5,5,3
2,5,6,6
2,6,3,2
2,6,5,5
3,1,1,6
3,1,7,5
3,4,1,4
3,4,7,3
3,7,1,1
3,7,7,7
4,0,3,3
4,0,4,4
4,0,5,6
4,1,0,5
4,1,8,6
4,2,0,3
4,2,8,9
4,4,0,1
4,4,8,5
4,6,0,8
4,6,8,4
4,7,0,2
4,7,8,1
4,8,3,2
4,8,4,3
4,8,5,4
5,1,1,7
5,1,7,9
5,4,1,5
5,4,7,1
5,7,1,8
5,7,7,2
6,2,3,3
6,2,5,6
6,3,2,2
6,3,3,4
6,3,5,3
6,3,6,7
6,4,0,6
6,4,1,8
6,4,7,2
6,4,8,3
6,5,2,3
6,5,3,2
6,5,5,5
6,5,6,1
6,6,3,8
6,6,5,2
7,0,0,4
7,0,8,6
7,1,0,8
7,1,2,2
7,1,6,7
7,1,8,4
7,2,4,4
7,4,1,1
7,4,3,3
7,4,5,2
7,4,7,6
7,6,4,9
7,7,0,9
7,7,2,3
7,7,6,1
7,7,8,2
7,8,0,1
7,8,8,9
8,1,1,5
8,1,2,6
8,1,3,4
8,1,4,7
8,1,5,3
8,1,6,2
8,1,7,8
8,4,2,5
8,4,3,8
8,4,4,4
8,4,5,6
8,4,6,9
8,7,1,7
8,7,2,8
8,7,3,2
8,7,4,1
8,7,5,4
8,7,6,3
8,7,7,9
