0,2,0,4
0,2,8,6
0,3,3,2
0,3,4,5
0,3,5,8
0,4,3,7
0,4,5,1
0,5,3,3
0,5,4,9
0,5,5,6
0,6,0,2
0,6,8,4
1,2,2,8
1,2,6,1
1,3,1,8
1,3,4,3
1,3,7,5
1,5,1,6
1,5,4,7
1,5,7,9
1,6,2,4
1,6,6,5
2,0,3,3
2,0,5,6
2,2,1,3
2,2,3,7
2,2,5,1
2,2,7,8
2,6,1,1
2,6,3,8
2,6,5,4
2,6,7,9
2,8,3,6
2,8,5,5
3,0,3,5
3,0,4,3
3,0,5,8
3,1,2,7
3,1,6,3
3,2,0,8
3,2,4,7
3,2,8,5
3,4,2,4
3,4,4,9
3,4,6,5
3,6,0,4
3,6,4,8
3,6,8,7
3,7,2,2
3,7,6,8
3,8,3,7
3,8,4,2
3,8,5,4
4,0,3,2
4,0,5,7
4,1,2,9
4,1,6,4
4,2,3,1
4,2,4,4
4,2,5,6
4,4,2,1
4,4,6,2
4,6,3,4
4,6,4,7
4,6,5,2
4,7,2,6
4,7,6,7
4,8,3,5
4,8,5,1
5,0,3,6
5,0,4,1
5,0,5,4
5,1,2,8
5,1,6,1
5,2,0,9
5,2,4,8
5,2,8,7
5,4,2,3
5,4,4,7
5,4,6,6
5,6,0,7
5,6,4,5
5,6,8,8
5,7,2,5
5,7,6,9
5,8,3,8
5,8,4,9
5,8,5,3
6,0,3,8
6,0,5,9
6,2,1,8
6,2,3,6
6,2,5,4
6,2,7,9
6,6,1,4
6,6,3,9
6,6,5,7
6,6,7,2
6,8,3,4
6,8,5,2
7,2,2,4
7,2,6,5
7,3,1,9
7,3,4,8
7,3,7,3
7,5,1,4
7,5,4,6
7,5,7,7
7,6,2,2
7,6,6,7
8,2,0,3
8,2,8,4
8,3,3,1
8,3,4,7
8,3,5,4
8,4,3,6
8,4,5,9
8,5,3,8
8,5,4,2
8,5,5,5
8,6,0,1
8,6,8,3
