0,1,3,1
0,1,5,6
0,2,3,4
0,2,5,3
0,4,1,6
0,4,2,3
0,4,6,4
0,4,7,9
0,6,3,5
0,6,5,1
0,7,3,9
0,7,5,4
1,0,4,6
1,3,2,5
1,3,6,9
1,5,2,1
1,5,6,5
1,8,4,1
2,0,0,1
2,0,1,2
2,0,7,5
2,0,8,6
2,2,0,9
2,2,8,2
2,4,1,1
2,4,2,2
2,4,6,6
2,4,7,8
2,6,0,6
2,6,8,4
2,8,0,2
2,8,1,7
2,8,7,6
2,8,8,8
3,0,2,3
3,0,6,6
3,1,3,6
3,1,5,3
3,7,3,5
3,7,5,7
3,8,2,7
3,8,6,9
4,0,2,4
4,0,6,5
4,1,1,8
4,1,7,3
4,2,1,3
4,2,7,1
4,3,3,4
4,3,5,8
4,5,3,7
4,5,5,1
4,6,1,6
4,6,7,4
4,7,1,7
4,7,7,6
4,8,2,2
4,8,6,8
5,0,2,9
5,0,6,3
5,1,3,8
5,1,5,2
5,7,3,6
5,7,5,3
5,8,2,8
5,8,6,4
6,0,0,3
6,0,1,4
6,0,7,2
6,0,8,9
6,2,0,7
6,2,8,4
6,4,1,3
6,4,2,4
6,4,6,9
6,4,7,1
6,6,0,9
6,6,8,5
6,8,0,4
6,8,1,6
6,8,7,9
6,8,8,1
7,0,4,9
7,3,2,2
7,3,6,7
7,5,2,3
7,5,6,2
7,8,4,3
8,1,3,3
8,1,5,9
8,2,3,5
8,2,5,8
8,4,1,9
8,4,2,8
8,4,6,5
8,4,7,7
8,6,3,2
8,6,5,3
8,7,3,7
8,7,5,5
