0,0,1,8
0,0,4,3
0,0,7,1
0,1,4,8
0,2,3,2
0,2,4,1
0,2,5,5
0,3,2,3
0,3,6,9
0,4,0,5
0,4,4,6
0,4,8,1
0,5,2,1
0,5,6,5
0,6,3,8
0,6,4,7
0,6,5,4
0,7,4,5
0,8,1,5
0,8,4,9
0,8,7,7
1,0,1,9
1,0,3,8
1,0,5,4
1,0,7,5
1,2,1,5
1,2,4,9
1,2,7,7
1,3,2,5
1,3,6,4
1,4,2,9
1,4,6,2
1,5,2,7
1,5,6,6
1,6,1,4
1,6,4,2
1,6,7,6
1,8,1,6
1,8,3,7
1,8,5,8
1,8,7,2
2,0,0,7
2,0,2,3
2,0,4,2
2,0,6,9
2,0,8,8
2,4,1,7
2,4,7,9
2,8,0,4
2,8,2,7
2,8,4,1
2,8,6,6
2,8,8,9
3,0,1,7
3,0,7,9
3,4,4,9
3,8,1,9
3,8,7,6
4,0,0,6
4,0,2,8
4,0,6,7
4,0,8,1
4,2,0,1
4,2,2,5
4,2,6,3
4,2,8,2
4,3,0,3
4,3,1,7
4,3,7,9
4,3,8,5
4,5,0,2
4,5,1,8
4,5,7,1
4,5,8,7
4,6,0,5
4,6,2,9
4,6,6,2
4,6,8,6
4,8,0,7
4,8,2,3
4,8,6,9
4,8,8,8
5,0,1,1
5,0,7,3
5,4,4,1
5,8,1,8
5,8,7,1
6,0,0,4
6,0,2,7
6,0,4,1
6,0,6,6
6,0,8,9
6,4,1,4
6,4,7,6
6,8,0,3
6,8,2,4
6,8,4,5
6,8,6,8
6,8,8,6
7,0,1,5
7,0,3,3
7,0,5,6
7,0,7,7
7,2,1,7
7,2,4,5
7,2,7,9
7,3,2,7
7,3,6,6
7,4,2,5
7,4,6,4
7,5,2,9
7,5,6,2
7,6,1,6
7,6,4,4
7,6,7,2
7,8,1,2
7,8,3,9
7,8,5,3
7,8,7,4
8,0,1,6
8,0,4,4
8,0,7,2
8,1,4,2
8,2,3,9
8,2,4,6
8,2,5,3
8,3,2,2
8,3,6,1
8,4,0,1
8,4,4,7
8,4,8,2
8,5,2,4
8,5,6,8
8,6,3,2
8,6,4,1
8,6,5,5
8,7,4,3
8,8,1,1
8,8,4,8
8,8,7,3
