0,0,4,2
0,1,4,5
0,2,0,1
0,2,8,3
0,3,4,8
0,4,1,8
0,4,7,4
0,5,4,4
0,6,0,3
0,6,8,2
0,7,4,7
0,8,4,9
1,0,3,5
1,0,4,4
1,0,5,7
1,4,1,1
1,4,3,4
1,4,5,5
1,4,7,7
1,8,3,1
1,8,4,5
1,8,5,4
2,0,3,8
2,0,5,6
2,1,3,3
2,1,5,2
2,2,1,9
2,2,7,1
2,3,1,6
2,3,7,2
2,4,0,7
2,4,2,4
2,4,6,9
2,4,8,3
2,5,1,5
2,5,7,6
2,6,1,8
2,6,7,4
2,7,3,5
2,7,5,1
2,8,3,6
2,8,5,7
3,0,2,6
3,0,4,3
3,0,6,7
3,1,1,5
3,1,7,6
3,2,0,2
3,2,3,6
3,2,5,4
3,2,8,8
3,4,1,6
3,4,7,2
3,6,0,7
3,6,3,1
3,6,5,2
3,6,8,6
3,7,1,2
3,7,7,5
3,8,2,8
3,8,4,7
3,8,6,2
4,0,0,3
4,0,3,4
4,0,5,1
4,0,8,9
4,3,0,4
4,3,8,7
4,5,0,7
4,5,8,2
4,8,0,1
4,8,3,9
4,8,5,6
4,8,8,5
5,0,2,4
5,0,4,7
5,0,6,6
5,1,1,3
5,1,7,8
5,2,0,8
5,2,3,3
5,2,5,9
5,2,8,7
5,4,1,4
5,4,7,3
5,6,0,2
5,6,3,6
5,6,5,4
5,6,8,8
5,7,1,8
5,7,7,4
5,8,2,7
5,8,4,2
5,8,6,3
6,0,3,3
6,0,5,2
6,1,3,4
6,1,5,5
6,2,1,1
6,2,7,7
6,3,1,2
6,3,7,5
6,4,0,9
6,4,2,8
6,4,6,1
6,4,8,4
6,5,1,6
6,5,7,2
6,6,1,3
6,6,7,8
6,7,3,6
6,7,5,7
6,8,3,2
6,8,5,9
7,0,3,7
7,0,4,5
7,0,5,4
7,4,1,3
7,4,3,5
7,4,5,9
7,4,7,8
7,8,3,4
7,8,4,1
7,8,5,5
8,0,4,8
8,1,4,3
8,2,0,6
8,2,8,1
8,3,4,9
8,4,1,7
8,4,7,9
8,5,4,7
8,6,0,1
8,6,8,4
8,7,4,5
8,8,4,6
