0,1,0,3
0,1,8,1
0,3,1,3
0,3,7,6
0,5,1,5
0,5,7,2
0,7,0,4
0,7,8,7
1,1,1,9
1,1,7,2
1,3,3,6
1,3,5,1
1,4,4,5
1,5,3,7
1,5,5,9
1,7,1,1
1,7,7,6
2,0,2,3
2,0,6,2
2,1,3,7
2,1,5,6
2,3,2,6
2,3,6,8
2,5,2,4
2,5,6,6
2,7,3,6
2,7,5,8
2,8,2,1
2,8,6,7
3,0,2,4
3,0,4,3
3,0,6,9
3,3,2,8
3,3,6,4
3,5,2,5
3,5,6,3
3,8,2,7
3,8,4,8
3,8,6,5
4,0,2,2
4,0,6,6
4,1,4,7
4,2,1,7
4,2,7,1
4,3,0,5
4,3,1,4
4,3,7,8
4,3,8,9
4,4,1,6
4,4,4,8
4,4,7,4
4,5,0,2
4,5,1,8
4,5,7,6
4,5,8,7
4,6,1,3
4,6,7,5
4,7,4,5
4,8,2,4
4,8,6,9
5,0,2,7
5,0,4,8
5,0,6,5
5,3,2,1
5,3,6,7
5,5,2,6
5,5,6,8
5,8,2,2
5,8,4,1
5,8,6,6
6,0,2,5
6,0,6,3
6,1,3,8
6,1,5,7
6,3,2,7
6,3,6,9
6,5,2,8
6,5,6,7
6,7,3,7
6,7,5,5
6,8,2,6
6,8,6,1
7,1,1,4
7,1,7,3
7,3,3,7
7,3,5,5
7,4,4,2
7,5,3,3
7,5,5,4
7,7,1,6
7,7,7,7
8,1,0,5
8,1,8,9
8,3,1,6
8,3,7,7
8,5,1,2
8,5,7,1
8,7,0,3
8,7,8,1
