0,0,4,2
0,3,1,1
0,3,3,8
0,3,4,7
0,3,5,2
0,3,7,6
0,5,1,5
0,5,3,1
0,5,4,9
0,5,5,3
0,5,7,2
0,8,4,1
1,2,2,1
1,2,6,7
1,3,0,8
1,3,1,7
1,3,7,1
1,3,8,9
1,4,1,4
1,4,7,8
1,5,0,1
1,5,1,9
1,5,7,5
1,5,8,4
1,6,2,5
1,6,6,8
2,0,4,6
2,1,1,1
2,1,7,8
2,4,0,9
2,4,8,6
2,7,1,8
2,7,7,3
2,8,4,9
3,1,1,7
3,1,3,3
3,1,5,5
3,1,7,6
3,2,0,5
3,2,3,9
3,2,5,6
3,2,8,7
3,3,1,2
3,3,3,1
3,3,5,3
3,3,7,9
3,5,1,4
3,5,3,2
3,5,5,7
3,5,7,3
3,6,0,4
3,6,3,6
3,6,5,2
3,6,8,8
3,7,1,6
3,7,3,8
3,7,5,1
3,7,7,4
4,0,4,5
4,1,0,3
4,1,8,4
4,2,2,6
4,2,3,4
4,2,5,7
4,2,6,5
4,4,0,4
4,4,8,5
4,6,2,2
4,6,3,7
4,6,5,8
4,6,6,4
4,7,0,8
4,7,8,9
4,8,4,2
5,1,1,6
5,1,3,8
5,1,5,4
5,1,7,2
5,2,0,4
5,2,3,5
5,2,5,2
5,2,8,6
5,3,1,9
5,3,3,7
5,3,5,8
5,3,7,5
5,5,1,3
5,5,3,9
5,5,5,6
5,5,7,8
5,6,0,7
5,6,3,4
5,6,5,3
5,6,8,2
5,7,1,4
5,7,3,2
5,7,5,9
5,7,7,7
6,0,4,3
6,1,1,9
6,1,7,5
6,4,0,7
6,4,8,3
6,7,1,5
6,7,7,1
6,8,4,7
7,2,2,5
7,2,6,8
7,3,0,2
7,3,1,8
7,3,7,3
7,3,8,1
7,4,1,5
7,4,7,2
7,5,0,3
7,5,1,1
7,5,7,6
7,5,8,5
7,6,2,6
7,6,6,1
8,0,4,1
8,3,1,4
8,3,3,9
8,3,4,3
8,3,5,1
8,3,7,8
8,5,1,7
8,5,3,4
8,5,4,6
8,5,5,5
8,5,7,1
8,8,4,4
