0,2,1,6
0,2,3,2
0,2,5,1
0,2,7,3
0,3,1,8
0,3,2,6
0,3,6,7
0,3,7,9
0,4,4,9
0,5,1,9
0,5,2,3
0,5,6,1
0,5,7,2
0,6,1,7
0,6,3,6
0,6,5,8
0,6,7,1
1,3,3,9
1,3,5,7
1,5,3,2
1,5,5,1
2,1,4,9
2,3,3,6
2,3,5,8
2,4,0,6
2,4,1,4
2,4,2,8
2,4,6,3
2,4,7,7
2,4,8,9
2,5,3,3
2,5,5,9
2,7,4,6
3,0,0,9
3,0,8,8
3,1,1,6
3,1,7,2
3,3,0,6
3,3,1,4
3,3,7,7
3,3,8,9
3,5,0,1
3,5,1,7
3,5,7,8
3,5,8,4
3,7,1,9
3,7,7,4
3,8,0,4
3,8,8,2
4,0,4,9
4,1,4,7
4,2,0,1
4,2,1,7
4,2,7,9
4,2,8,4
4,4,0,7
4,4,1,6
4,4,7,4
4,4,8,3
4,6,0,6
4,6,1,1
4,6,7,3
4,6,8,9
4,7,4,3
4,8,4,4
5,0,0,6
5,0,8,9
5,1,1,8
5,1,7,4
5,3,0,8
5,3,1,1
5,3,7,3
5,3,8,6
5,5,0,2
5,5,1,3
5,5,7,9
5,5,8,1
5,7,1,6
5,7,7,1
5,8,0,1
5,8,8,4
6,1,4,4
6,3,3,2
6,3,5,3
6,4,0,2
6,4,1,5
6,4,2,3
6,4,6,1
6,4,7,6
6,4,8,4
6,5,3,1
6,5,5,4
6,7,4,2
7,3,3,4
7,3,5,6
7,5,3,7
7,5,5,8
8,2,1,2
8,2,3,7
8,2,5,8
8,2,7,1
8,3,1,3
8,3,2,2
8,3,6,6
8,3,7,4
8,4,4,4
8,5,1,4
8,5,2,1
8,5,6,8
8,5,7,7
8,6,1,6
8,6,3,2
8,6,5,3
8,6,7,8
