0,0,1,5
0,0,7,3
0,2,3,2
0,2,5,9
0,3,0,5
0,3,4,8
0,3,8,2
0,4,3,5
0,4,5,3
0,5,0,4
0,5,4,9
0,5,8,3
0,6,3,3
0,6,5,4
0,8,1,6
0,8,7,1
1,1,0,4
1,1,2,6
1,1,6,5
1,1,8,3
1,2,2,3
1,2,6,1
1,4,0,3
1,4,8,5
1,6,2,9
1,6,6,6
1,7,0,6
1,7,2,1
1,7,6,8
1,7,8,7
2,0,0,3
2,0,3,9
2,0,5,8
2,0,8,5
2,8,0,1
2,8,3,5
2,8,5,3
2,8,8,6
3,0,1,8
3,0,7,2
3,1,1,2
3,1,7,6
3,3,4,4
3,5,4,3
3,7,1,5
3,7,7,1
3,8,1,3
3,8,7,7
4,0,0,2
4,0,8,8
4,1,3,2
4,1,5,6
4,2,2,7
4,2,6,2
4,6,2,8
4,6,6,1
4,7,3,9
4,7,5,1
4,8,0,7
4,8,8,3
5,0,1,1
5,0,7,7
5,1,1,7
5,1,7,5
5,3,4,2
5,5,4,8
5,7,1,9
5,7,7,3
5,8,1,8
5,8,7,4
6,0,0,6
6,0,3,2
6,0,5,9
6,0,8,7
6,8,0,9
6,8,3,7
6,8,5,5
6,8,8,4
7,1,0,8
7,1,2,2
7,1,6,4
7,1,8,6
7,2,2,6
7,2,6,5
7,4,0,9
7,4,8,4
7,6,2,7
7,6,6,2
7,7,0,2
7,7,2,9
7,7,6,6
7,7,8,8
8,0,1,2
8,0,7,6
8,2,3,1
8,2,5,4
8,3,0,2
8,3,4,5
8,3,8,8
8,4,3,2
8,4,5,9
8,5,0,3
8,5,4,4
8,5,8,9
8,6,3,5
8,6,5,1
8,8,1,7
8,8,7,9
