0,0,2,5
0,0,4,9
0,0,6,4
0,1,4,5
0,7,4,7
0,8,2,7
0,8,4,6
0,8,6,2
1,0,0,9
1,0,1,2
1,0,7,5
1,0,8,6
1,1,1,7
1,1,7,4
1,2,2,3
1,2,4,8
1,2,6,1
1,3,0,1
1,3,2,6
1,3,3,5
1,3,4,2
1,3,5,3
1,3,6,7
1,3,8,9
1,5,0,8
1,5,2,7
1,5,3,9
1,5,4,6
1,5,5,1
1,5,6,2
1,5,8,4
1,6,2,5
1,6,4,9
1,6,6,4
1,7,1,8
1,7,7,7
1,8,0,2
1,8,1,1
1,8,7,6
1,8,8,8
2,2,4,6
2,3,0,7
2,3,8,3
2,4,4,5
2,5,0,2
2,5,8,1
2,6,4,3
3,0,4,7
3,4,2,7
3,4,3,9
3,4,5,5
3,4,6,8
3,8,4,3
4,0,3,8
4,0,5,1
4,2,4,2
4,4,2,1
4,4,6,5
4,6,4,7
4,8,3,5
4,8,5,4
5,0,4,5
5,4,2,9
5,4,3,8
5,4,5,1
5,4,6,2
5,8,4,2
6,2,4,5
6,3,0,4
6,3,8,7
6,4,4,8
6,5,0,5
6,5,8,2
6,6,4,6
7,0,0,1
7,0,1,5
7,0,7,8
7,0,8,4
7,1,1,4
7,1,7,1
7,2,2,2
7,2,4,7
7,2,6,6
7,3,0,2
7,3,2,9
7,3,3,8
7,3,4,4
7,3,5,7
7,3,6,5
7,3,8,1
7,5,0,6
7,5,2,4
7,5,3,3
7,5,4,5
7,5,5,2
7,5,6,9
7,5,8,8
7,6,2,8
7,6,4,1
7,6,6,3
7,7,1,2
7,7,7,5
7,8,0,5
7,8,1,7
7,8,7,4
7,8,8,2
8,0,2,3
8,0,4,8
8,0,6,1
8,1,4,1
8,7,4,9
8,8,2,4
8,8,4,5
8,8,6,9
