0,1,1,4
0,1,7,3
0,2,2,3
0,2,3,8
0,2,5,9
0,2,6,4
0,4,4,8
0,6,2,6
0,6,3,7
0,6,5,8
0,6,6,1
0,7,1,1
0,7,7,6
1,0,2,5
1,0,6,2
1,1,2,9
1,1,6,6
1,2,1,2
1,2,4,1
1,2,7,9
1,4,1,8
1,4,4,4
1,4,7,7
1,6,1,5
1,6,4,6
1,6,7,3
1,7,2,3
1,7,6,5
1,8,2,1
1,8,6,9
2,2,3,2
2,2,5,3
2,3,1,4
2,3,7,1
2,4,3,3
2,4,4,2
2,4,5,9
2,5,1,9
2,5,7,3
2,6,3,5
2,6,5,2
3,0,2,3
3,0,6,7
3,1,3,3
3,1,5,1
3,2,3,7
3,2,5,2
3,6,3,4
3,6,5,5
3,7,3,1
3,7,5,8
3,8,2,5
3,8,6,8
4,2,3,1
4,2,5,8
4,3,2,5
4,3,6,1
4,5,2,2
4,5,6,4
4,6,3,6
4,6,5,7
5,0,2,7
5,0,6,4
5,1,3,6
5,1,5,7
5,2,3,4
5,2,5,5
5,6,3,3
5,6,5,1
5,7,3,7
5,7,5,2
5,8,2,3
5,8,6,7
6,2,3,3
6,2,5,4
6,3,1,6
6,3,7,9
6,4,3,9
6,4,4,3
6,4,5,2
6,5,1,2
6,5,7,5
6,6,3,2
6,6,5,3
7,0,2,9
7,0,6,6
7,1,2,4
7,1,6,7
7,2,1,6
7,2,4,8
7,2,7,4
7,4,1,3
7,4,4,5
7,4,7,2
7,6,1,9
7,6,4,7
7,6,7,1
7,7,2,1
7,7,6,9
7,8,2,8
7,8,6,4
8,1,1,1
8,1,7,6
8,2,2,2
8,2,3,6
8,2,5,1
8,2,6,3
8,4,4,6
8,6,2,5
8,6,3,9
8,6,5,6
8,6,6,7
8,7,1,6
8,7,7,5
