0,0,1,6
0,0,7,5
0,2,1,5
0,2,7,4
0,3,0,9
0,3,3,1
0,3,5,5
0,3,8,2
0,5,0,6
0,5,3,9
0,5,5,4
0,5,8,5
0,6,1,1
0,6,7,9
0,8,1,9
0,8,7,2
1,0,1,9
1,0,2,8
1,0,6,7
1,0,7,6
1,1,4,7
1,2,3,4
1,2,5,8
1,3,4,6
1,4,2,6
1,4,6,3
1,5,4,5
1,6,3,9
1,6,5,4
1,7,4,3
1,8,1,3
1,8,2,5
1,8,6,9
1,8,7,8
2,0,3,7
2,0,5,2
2,2,1,8
2,2,2,4
2,2,6,6
2,2,7,2
2,4,2,8
2,4,6,2
2,6,1,4
2,6,2,9
2,6,6,7
2,6,7,6
2,8,3,8
2,8,5,9
3,1,0,7
3,1,8,4
3,2,1,1
3,2,7,7
3,6,1,9
3,6,7,2
3,7,0,5
3,7,8,8
4,3,1,4
4,3,7,9
4,5,1,9
4,5,7,7
5,1,0,1
5,1,8,2
5,2,1,4
5,2,7,9
5,6,1,3
5,6,7,8
5,7,0,7
5,7,8,5
6,0,3,9
6,0,5,4
6,2,1,3
6,2,2,5
6,2,6,9
6,2,7,8
6,4,2,3
6,4,6,4
6,6,1,5
6,6,2,1
6,6,6,8
6,6,7,4
6,8,3,3
6,8,5,1
7,0,1,4
7,0,2,9
7,0,6,2
7,0,7,7
7,1,4,2
7,2,3,8
7,2,5,9
7,3,4,7
7,4,2,7
7,4,6,1
7,5,4,3
7,6,3,4
7,6,5,8
7,7,4,1
7,8,1,1
7,8,2,3
7,8,6,4
7,8,7,9
8,0,1,1
8,0,7,9
8,2,1,9
8,2,7,6
8,3,0,2
8,3,3,8
8,3,5,9
8,3,8,1
8,5,0,3
8,5,3,7
8,5,5,2
8,5,8,9
8,6,1,8
8,6,7,7
8,8,1,6
8,8,7,3
