0,1,1,1
0,1,3,5
0,1,5,8
0,1,7,4
0,4,3,4
0,4,5,2
0,7,1,3
0,7,3,7
0,7,5,1
0,7,7,5
1,0,0,1
1,0,3,3
1,0,5,5
1,0,8,7
1,1,0,9
1,1,8,2
1,2,0,5
1,2,8,3
1,6,0,3
1,6,8,8
1,7,0,7
1,7,8,6
1,8,0,2
1,8,3,8
1,8,5,3
1,8,8,4
2,0,4,1
2,1,2,5
2,1,6,1
2,2,2,1
2,2,6,9
2,3,1,2
2,3,7,9
2,5,1,7
2,5,7,1
2,6,2,7
2,6,6,3
2,7,2,2
2,7,6,7
2,8,4,7
3,0,1,9
3,0,7,1
3,4,1,4
3,4,7,2
3,8,1,3
3,8,7,5
4,2,0,6
4,2,8,9
4,3,0,2
4,3,8,4
4,5,0,9
4,5,8,2
4,6,0,4
4,6,8,5
5,0,1,6
5,0,7,7
5,4,1,2
5,4,7,9
5,8,1,8
5,8,7,4
6,0,4,9
6,1,2,1
6,1,6,9
6,2,2,9
6,2,6,5
6,3,1,3
6,3,7,5
6,5,1,2
6,5,7,9
6,6,2,2
6,6,6,7
6,7,2,3
6,7,6,2
6,8,4,2
7,0,0,6
7,0,3,5
7,0,5,8
7,0,8,9
7,1,0,4
7,1,8,5
7,2,0,8
7,2,8,1
7,6,0,9
7,6,8,2
7,7,0,5
7,7,8,3
7,8,0,1
7,8,3,3
7,8,5,5
7,8,8,7
8,1,1,7
8,1,3,2
8,1,5,9
8,1,7,1
8,4,3,1
8,4,5,6
8,7,1,6
8,7,3,8
8,7,5,3
8,7,7,7
