0,0,4,2
0,1,4,9
0,3,1,1
0,3,7,8
0,5,1,9
0,5,7,4
0,7,4,8
0,8,4,6
1,0,0,4
1,0,8,8
1,2,1,3
1,2,7,1
1,4,0,9
1,4,3,5
1,4,5,8
1,4,8,1
1,6,1,4
1,6,7,5
1,8,0,5
1,8,8,3
2,1,0,3
2,1,8,6
2,2,1,1
2,2,7,8
2,6,1,9
2,6,7,4
2,7,0,6
2,7,8,9
3,0,4,3
3,1,2,3
3,1,3,5
3,1,5,8
3,1,6,4
3,2,1,5
3,2,2,2
3,2,6,3
3,2,7,9
3,4,0,2
3,4,8,9
3,6,1,2
3,6,2,1
3,6,6,9
3,6,7,6
3,7,2,7
3,7,3,8
3,7,5,6
3,7,6,1
3,8,4,1
4,0,0,6
4,0,8,4
4,3,1,5
4,3,7,9
4,5,1,6
4,5,7,7
4,8,0,2
4,8,8,9
5,0,4,8
5,1,2,8
5,1,3,9
5,1,5,1
5,1,6,5
5,2,1,9
5,2,2,6
5,2,6,8
5,2,7,4
5,4,0,6
5,4,8,4
5,6,1,6
5,6,2,3
5,6,6,4
5,6,7,7
5,7,2,2
5,7,3,1
5,7,5,7
5,7,6,3
5,8,4,3
6,1,0,6
6,1,8,4
6,2,1,7
6,2,7,6
6,6,1,3
6,6,7,1
6,7,0,9
6,7,8,8
7,0,0,3
7,0,8,6
7,2,1,6
7,2,7,2
7,4,0,8
7,4,3,1
7,4,5,7
7,4,8,2
7,6,1,8
7,6,7,3
7,8,0,1
7,8,8,7
8,0,4,5
8,1,4,8
8,3,1,7
8,3,7,6
8,5,1,8
8,5,7,3
8,7,4,7
8,8,4,9
