0,0,1,6
0,0,3,2
0,0,5,3
0,0,7,4
0,4,1,8
0,4,3,3
0,4,5,1
0,4,7,5
0,8,1,9
0,8,3,1
0,8,5,2
0,8,7,7
1,0,0,4
1,0,4,9
1,0,8,2
1,1,0,1
1,1,8,4
1,2,1,9
1,2,7,6
1,3,0,3
1,3,1,2
1,3,7,8
1,3,8,6
1,4,0,5
1,4,1,4
1,4,2,7
1,4,6,2
1,4,7,1
1,4,8,3
1,5,0,6
1,5,1,1
1,5,7,7
1,5,8,9
1,6,1,6
1,6,7,4
1,7,0,9
1,7,8,8
1,8,0,7
1,8,4,8
1,8,8,1
2,2,0,6
2,2,8,1
2,4,4,7
2,6,0,4
2,6,8,2
3,1,2,3
3,1,6,8
3,2,3,2
3,2,4,5
3,2,5,3
3,3,0,5
3,3,8,4
3,4,0,2
3,4,2,4
3,4,6,3
3,4,8,1
3,5,0,3
3,5,8,2
3,6,3,4
3,6,4,6
3,6,5,5
3,7,2,8
3,7,6,4
4,0,0,9
4,0,1,8
4,0,2,7
4,0,3,3
4,0,4,6
4,0,5,5
4,0,6,2
4,0,7,1
4,0,8,4
4,1,0,6
4,1,3,9
4,1,5,2
4,1,8,5
4,2,0,3
4,2,1,2
4,2,7,8
4,2,8,6
4,4,0,7
4,4,8,9
4,6,0,5
4,6,1,4
4,6,7,9
4,6,8,3
4,7,0,2
4,7,3,5
4,7,5,7
4,7,8,1
4,8,0,8
4,8,1,7
4,8,2,1
4,8,3,6
4,8,4,9
4,8,5,3
4,8,6,5
4,8,7,4
4,8,8,2
5,1,2,8
5,1,6,4
5,2,3,6
5,2,4,9
5,2,5,8
5,3,0,9
5,3,8,3
5,4,0,6
5,4,2,3
5,4,6,8
5,4,8,5
5,5,0,8
5,5,8,6
5,6,3,3
5,6,4,7
5,6,5,9
5,7,2,4
5,7,6,3
6,2,0,5
6,2,8,3
6,4,4,5
6,6,0,2
6,6,8,5
7,0,0,7
7,0,4,8
7,0,8,5
7,1,0,8
7,1,8,7
7,2,1,3
7,2,7,9
7,3,0,2
7,3,1,1
7,3,7,6
7,3,8,9
7,4,0,4
7,4,1,7
7,4,2,9
7,4,6,5
7,4,7,3
7,4,8,2
7,5,0,5
7,5,1,8
7,5,7,1
7,5,8,4
7,6,1,5
7,6,7,7
7,7,0,3
7,7,8,6
7,8,0,9
7,8,4,6
7,8,8,3
8,0,1,5
8,0,3,9
8,0,5,7
8,0,7,6
8,4,1,2
8,4,3,7
8,4,5,4
8,4,7,8
8,8,1,3
8,8,3,4
8,8,5,9
8,8,7,1
