0,0,4,6
0,8,4,4
1,0,4,8
1,1,0,5
1,1,8,7
1,3,4,5
1,4,4,9
1,5,4,4
1,7,0,8
1,7,8,4
1,8,4,2
2,1,4,9
2,2,0,2
2,2,8,3
2,3,1,2
2,3,3,3
2,3,5,4
2,3,7,7
2,4,3,8
2,4,5,5
2,5,1,7
2,5,3,1
2,5,5,9
2,5,7,6
2,6,0,4
2,6,8,6
2,7,4,8
3,2,0,1
3,2,2,9
3,2,6,8
3,2,8,4
3,3,0,8
3,3,8,5
3,4,3,7
3,4,5,8
3,5,0,5
3,5,8,7
3,6,0,9
3,6,2,6
3,6,6,4
3,6,8,2
4,0,1,1
4,0,7,8
4,1,0,8
4,1,3,1
4,1,5,4
4,1,8,9
4,3,0,2
4,3,1,5
4,3,7,9
4,3,8,8
4,5,0,3
4,5,1,6
4,5,7,2
4,5,8,4
4,7,0,6
4,7,3,7
4,7,5,1
4,7,8,3
4,8,1,3
4,8,7,1
5,2,0,5
5,2,2,2
5,2,6,9
5,2,8,7
5,3,0,9
5,3,8,2
5,4,3,3
5,4,5,4
5,5,0,7
5,5,8,3
5,6,0,2
5,6,2,3
5,6,6,7
5,6,8,1
6,1,4,3
6,2,0,4
6,2,8,6
6,3,1,4
6,3,3,2
6,3,5,1
6,3,7,5
6,4,3,6
6,4,5,3
6,5,1,9
6,5,3,7
6,5,5,8
6,5,7,4
6,6,0,8
6,6,8,4
6,7,4,2
7,0,4,7
7,1,0,3
7,1,8,5
7,3,4,3
7,4,4,8
7,5,4,1
7,7,0,2
7,7,8,1
7,8,4,5
8,0,4,9
8,8,4,3
