0,1,0,3
0,1,4,5
0,1,8,6
0,2,2,7
0,2,6,4
0,3,0,5
0,3,8,8
0,4,4,9
0,5,0,7
0,5,8,4
0,6,2,5
0,6,6,1
0,7,0,8
0,7,4,4
0,7,8,7
1,0,2,3
1,0,4,9
1,0,6,2
1,2,4,2
1,4,1,6
1,4,7,4
1,6,4,5
1,8,2,9
1,8,4,6
1,8,6,8
2,1,3,2
2,1,5,7
2,2,2,1
2,2,6,6
2,6,2,7
2,6,6,5
2,7,3,6
2,7,5,2
3,2,0,4
3,2,1,8
3,2,7,3
3,2,8,7
3,3,4,2
3,4,4,7
3,5,4,6
3,6,0,7
3,6,1,9
3,6,7,5
3,6,8,8
4,1,1,6
4,1,7,7
4,2,1,2
4,2,4,7
4,2,7,6
4,4,2,8
4,4,6,2
4,6,1,3
4,6,4,8
4,6,7,1
4,7,1,8
4,7,7,3
5,2,0,7
5,2,1,5
5,2,7,4
5,2,8,1
5,3,4,1
5,4,4,3
5,5,4,8
5,6,0,8
5,6,1,2
5,6,7,6
5,6,8,9
6,1,3,5
6,1,5,4
6,2,2,2
6,2,6,5
6,6,2,9
6,6,6,8
6,7,3,4
6,7,5,9
7,0,2,7
7,0,4,8
7,0,6,4
7,2,4,5
7,4,1,9
7,4,7,1
7,6,4,1
7,8,2,1
7,8,4,4
7,8,6,2
8,1,0,7
8,1,4,1
8,1,8,5
8,2,2,5
8,2,6,1
8,3,0,3
8,3,8,7
8,4,4,8
8,5,0,4
8,5,8,1
8,6,2,3
8,6,6,7
8,7,0,2
8,7,4,3
8,7,8,4
