0,0,1,6
0,0,7,1
0,2,2,2
0,2,4,7
0,2,6,6
0,3,2,1
0,3,6,3
0,4,2,7
0,4,6,2
0,5,2,9
0,5,6,4
0,6,2,6
0,6,4,2
0,6,6,7
0,8,1,5
0,8,7,6
1,4,4,1
2,0,0,2
2,0,2,1
2,0,3,9
2,0,5,7
2,0,6,3
2,0,8,5
2,1,1,8
2,1,3,3
2,1,5,4
2,1,7,9
2,4,0,1
2,4,1,6
2,4,2,4
2,4,4,9
2,4,6,5
2,4,7,3
2,4,8,7
2,7,1,9
2,7,3,5
2,7,5,2
2,7,7,7
2,8,0,4
2,8,2,7
2,8,3,8
2,8,5,9
2,8,6,2
2,8,8,3
3,0,3,7
3,0,4,3
3,0,5,9
3,1,2,1
3,1,6,3
3,4,4,2
3,7,2,5
3,7,6,9
3,8,3,3
3,8,4,9
3,8,5,6
4,0,1,5
4,0,3,4
4,0,5,1
4,0,7,8
4,1,1,4
4,1,7,1
4,2,1,9
4,2,4,6
4,2,7,3
4,3,1,1
4,3,4,5
4,3,7,6
4,4,2,5
4,4,3,1
4,4,5,6
4,4,6,9
4,5,1,8
4,5,4,9
4,5,7,7
4,6,1,7
4,6,4,3
4,6,7,5
4,7,1,6
4,7,7,4
4,8,1,2
4,8,3,7
4,8,5,4
4,8,7,9
5,0,3,8
5,0,4,5
5,0,5,6
5,1,2,5
5,1,6,9
5,4,4,8
5,7,2,7
5,7,6,2
5,8,3,5
5,8,4,2
5,8,5,8
6,0,0,5
6,0,2,2
6,0,3,3
6,0,5,4
6,0,6,6
6,0,8,1
6,1,1,6
6,1,3,2
6,1,5,1
6,1,7,8
6,4,0,6
6,4,1,5
6,4,2,8
6,4,4,3
6,4,6,1
6,4,7,7
6,4,8,9
6,7,1,1
6,7,3,8
6,7,5,9
6,7,7,5
6,8,0,8
6,8,2,5
6,8,3,6
6,8,5,3
6,8,6,9
6,8,8,2
7,4,4,5
8,0,1,7
8,0,7,3
8,2,2,6
8,2,4,2
8,2,6,7
8,3,2,3
8,3,6,8
8,4,2,2
8,4,6,6
8,5,2,5
8,5,6,9
8,6,2,7
8,6,4,6
8,6,6,2
8,8,1,4
8,8,7,7
