0,1,1,7
0,1,4,5
0,1,7,8
0,2,0,3
0,2,4,6
0,2,8,2
0,3,1,3
0,3,2,7
0,3,6,4
0,3,7,9
0,4,2,4
0,4,4,7
0,4,6,2
0,5,1,1
0,5,2,2
0,5,6,7
0,5,7,6
0,6,0,4
0,6,4,3
0,6,8,5
0,7,1,5
0,7,4,8
0,7,7,7
1,1,0,5
1,1,8,3
1,4,0,7
1,4,8,9
1,7,0,1
1,7,8,2
2,2,1,5
2,2,3,9
2,2,5,4
2,2,7,7
2,3,3,7
2,3,5,1
2,4,0,1
2,4,8,7
2,5,3,2
2,5,5,8
2,6,1,3
2,6,3,8
2,6,5,9
2,6,7,6
3,0,0,3
3,0,8,2
3,2,3,2
3,2,4,5
3,2,5,3
3,3,3,6
3,3,5,7
3,4,3,9
3,4,4,3
3,4,5,4
3,5,3,5
3,5,5,2
3,6,3,3
3,6,4,7
3,6,5,6
3,8,0,6
3,8,8,3
4,1,3,5
4,1,5,2
4,4,4,2
4,7,3,2
4,7,5,1
5,0,0,6
5,0,8,8
5,2,3,1
5,2,4,4
5,2,5,9
5,3,3,2
5,3,5,8
5,4,3,7
5,4,4,6
5,4,5,1
5,5,3,4
5,5,5,3
5,6,3,5
5,6,4,1
5,6,5,2
5,8,0,2
5,8,8,6
6,2,1,3
6,2,3,8
6,2,5,6
6,2,7,5
6,3,3,5
6,3,5,2
6,4,0,4
6,4,8,5
6,5,3,9
6,5,5,4
6,6,1,4
6,6,3,7
6,6,5,3
6,6,7,8
7,1,0,3
7,1,8,2
7,4,0,5
7,4,8,8
7,7,0,7
7,7,8,9
8,1,1,5
8,1,4,1
8,1,7,7
8,2,0,7
8,2,4,3
8,2,8,9
8,3,1,2
8,3,2,5
8,3,6,6
8,3,7,8
8,4,2,6
8,4,4,5
8,4,6,9
8,5,1,4
8,5,2,9
8,5,6,5
8,5,7,3
8,6,0,6
8,6,4,2
8,6,8,3
8,7,1,1
8,7,4,7
8,7,7,5
