0,0,1,4
0,0,3,6
0,0,5,7
0,0,7,5
0,3,3,9
0,3,5,8
0,5,3,4
0,5,5,3
0,8,1,5
0,8,3,3
0,8,5,2
0,8,7,1
1,1,0,2
1,1,3,7
1,1,5,8
1,1,8,5
1,2,4,5
1,3,4,4
1,5,4,7
1,6,4,3
1,7,0,1
1,7,3,6
1,7,5,4
1,7,8,3
3,0,3,2
3,0,5,6
3,1,0,5
3,1,8,7
3,2,4,9
3,3,1,8
3,3,2,3
3,3,6,2
3,3,7,5
3,4,0,9
3,4,8,8
3,5,1,2
3,5,2,5
3,5,6,7
3,5,7,9
3,6,4,1
3,7,0,8
3,7,8,2
3,8,3,6
3,8,5,5
4,0,2,1
4,0,6,5
4,2,2,6
4,2,3,3
4,2,5,8
4,2,6,7
4,3,2,2
4,3,3,1
4,3,4,8
4,3,5,3
4,3,6,4
4,4,3,9
4,4,5,7
4,5,2,4
4,5,3,2
4,5,4,5
4,5,5,6
4,5,6,8
4,6,2,9
4,6,3,5
4,6,5,2
4,6,6,3
4,8,2,3
4,8,6,2
5,0,3,8
5,0,5,1
5,1,0,1
5,1,8,6
5,2,4,6
5,3,1,7
5,3,2,9
5,3,6,1
5,3,7,8
5,4,0,2
5,4,8,7
5,5,1,3
5,5,2,1
5,5,6,5
5,5,7,6
5,6,4,7
5,7,0,9
5,7,8,1
5,8,3,1
5,8,5,3
7,1,0,8
7,1,3,2
7,1,5,9
7,1,8,1
7,2,4,8
7,3,4,5
7,5,4,6
7,6,4,9
7,7,0,4
7,7,3,3
7,7,5,2
7,7,8,9
8,0,1,5
8,0,3,3
8,0,5,2
8,0,7,1
8,3,3,2
8,3,5,4
8,5,3,5
8,5,5,7
8,8,1,3
8,8,3,9
8,8,5,1
8,8,7,4
