0,1,0,4
0,1,8,5
0,3,4,2
0,5,4,7
0,7,0,8
0,7,8,6
1,0,0,6
1,0,1,5
1,0,7,7
1,0,8,9
1,1,3,1
1,1,5,5
1,2,1,4
1,2,3,7
1,2,5,3
1,2,7,1
1,3,3,8
1,3,5,7
1,4,1,1
1,4,7,8
1,5,3,9
1,5,5,1
1,6,1,6
1,6,3,5
1,6,5,8
1,6,7,4
1,7,3,3
1,7,5,6
1,8,0,1
1,8,1,8
1,8,7,3
1,8,8,7
2,0,1,8
2,0,4,7
2,0,7,5
2,1,3,4
2,1,5,8
2,3,4,9
2,4,2,2
2,4,6,5
2,5,4,6
2,7,3,8
2,7,5,1
2,8,1,2
2,8,4,3
2,8,7,8
3,1,2,3
3,1,3,7
3,1,5,6
3,1,6,5
3,3,1,8
3,3,4,1
3,3,7,4
3,5,1,3
3,5,4,9
3,5,7,2
3,7,2,5
3,7,3,1
3,7,5,9
3,7,6,4
4,0,3,4
4,0,5,7
4,3,0,7
4,3,2,9
4,3,6,6
4,3,8,3
4,4,4,7
4,5,0,8
4,5,2,5
4,5,6,4
4,5,8,7
4,8,3,7
4,8,5,8
5,1,2,6
5,1,3,5
5,1,5,2
5,1,6,8
5,3,1,1
5,3,4,4
5,3,7,8
5,5,1,9
5,5,4,2
5,5,7,3
5,7,2,9
5,7,3,4
5,7,5,7
5,7,6,6
6,0,1,9
6,0,4,1
6,0,7,4
6,1,3,3
6,1,5,9
6,3,4,6
6,4,2,7
6,4,6,4
6,5,4,8
6,7,3,9
6,7,5,2
6,8,1,7
6,8,4,5
6,8,7,9
7,0,0,5
7,0,1,1
7,0,7,9
7,0,8,3
7,1,3,6
7,1,5,1
7,2,1,2
7,2,3,9
7,2,5,7
7,2,7,6
7,3,3,3
7,3,5,8
7,4,1,9
7,4,7,3
7,5,3,5
7,5,5,9
7,6,1,3
7,6,3,1
7,6,5,5
7,6,7,2
7,7,3,7
7,7,5,3
7,8,0,8
7,8,1,5
7,8,7,7
7,8,8,6
8,1,0,6
8,1,8,9
8,3,4,5
8,5,4,4
8,7,0,7
8,7,8,2
