0,0,0,2
0,0,1,6
0,0,7,5
0,0,8,7
0,1,0,5
0,1,2,8
0,1,4,3
0,1,6,1
0,1,8,4
0,2,1,4
0,2,7,2
0,3,3,2
0,3,5,8
0,5,3,9
0,5,5,3
0,6,1,8
0,6,7,6
0,7,0,6
0,7,2,2
0,7,4,9
0,7,6,5
0,7,8,3
0,8,0,7
0,8,1,3
0,8,7,4
0,8,8,8
1,0,4,2
1,1,4,5
1,2,3,1
1,2,4,9
1,2,5,4
1,4,2,8
1,4,3,4
1,4,5,9
1,4,6,1
1,6,3,9
1,6,4,4
1,6,5,8
1,7,4,6
1,8,4,7
2,0,3,5
2,0,5,8
2,1,1,2
2,1,7,8
2,2,4,6
2,3,1,8
2,3,7,7
2,4,3,8
2,4,5,6
2,5,1,3
2,5,7,6
2,6,4,1
2,7,1,4
2,7,7,2
2,8,3,4
2,8,5,9
3,1,4,6
3,7,4,2
4,0,0,4
4,0,1,1
4,0,7,8
4,0,8,5
4,1,2,7
4,1,4,8
4,1,6,4
4,2,0,2
4,2,3,4
4,2,4,1
4,2,5,6
4,2,8,7
4,3,0,7
4,3,8,3
4,4,1,2
4,4,2,1
4,4,6,7
4,4,7,9
4,5,0,6
4,5,8,1
4,6,0,3
4,6,3,8
4,6,4,6
4,6,5,4
4,6,8,9
4,7,2,4
4,7,4,7
4,7,6,3
4,8,0,1
4,8,1,7
4,8,7,6
4,8,8,4
5,1,4,9
5,7,4,8
6,0,3,1
6,0,5,4
6,1,1,8
6,1,7,4
6,2,4,5
6,3,1,7
6,3,7,9
6,4,3,7
6,4,5,5
6,5,1,6
6,5,7,5
6,6,4,7
6,7,1,2
6,7,7,3
6,8,3,2
6,8,5,1
7,0,4,8
7,1,4,1
7,2,3,6
7,2,4,3
7,2,5,2
7,4,2,7
7,4,3,2
7,4,5,8
7,4,6,4
7,6,3,1
7,6,4,2
7,6,5,6
7,7,4,5
7,8,4,9
8,0,0,8
8,0,1,5
8,0,7,1
8,0,8,9
8,1,0,1
8,1,2,4
8,1,4,7
8,1,6,6
8,1,8,2
8,2,1,2
8,2,7,8
8,3,3,1
8,3,5,7
8,5,3,8
8,5,5,6
8,6,1,6
8,6,7,5
8,7,0,5
8,7,2,3
8,7,4,1
8,7,6,8
8,7,8,4
8,8,0,9
8,8,1,4
8,8,7,2
8,8,8,6
