0,2,0,8
0,2,4,2
0,2,8,4
0,3,4,4
0,5,4,8
0,6,0,1
0,6,4,6
0,6,8,9
1,1,0,9
1,1,8,6
1,2,3,1
1,2,5,7
1,3,3,7
1,3,5,9
1,4,0,2
1,4,3,8
1,4,5,6
1,4,8,3
1,5,3,4
1,5,5,3
1,6,3,3
1,6,5,2
1,7,0,3
1,7,8,4
2,0,0,7
2,0,2,9
2,0,6,4
2,0,8,1
2,1,3,4
2,1,5,1
2,2,0,4
2,2,2,1
2,2,6,3
2,2,8,7
2,4,1,7
2,4,7,9
2,6,0,9
2,6,2,3
2,6,6,8
2,6,8,2
2,7,3,8
2,7,5,6
2,8,0,8
2,8,2,7
2,8,6,6
2,8,8,5
3,0,2,6
3,0,4,4
3,0,6,1
3,1,2,9
3,1,3,1
3,1,5,3
3,1,6,6
3,7,2,7
3,7,3,4
3,7,5,5
3,7,6,3
3,8,2,5
3,8,4,1
3,8,6,7
4,1,4,2
4,2,1,6
4,2,2,2
4,2,4,9
4,2,6,8
4,2,7,3
4,4,1,2
4,4,2,7
4,4,6,3
4,4,7,1
4,6,1,7
4,6,2,6
4,6,4,5
4,6,6,1
4,6,7,8
4,7,4,8
5,0,2,8
5,0,4,7
5,0,6,9
5,1,2,7
5,1,3,9
5,1,5,4
5,1,6,3
5,7,2,1
5,7,3,6
5,7,5,7
5,7,6,5
5,8,2,2
5,8,4,4
5,8,6,8
6,0,0,8
6,0,2,7
6,0,6,6
6,0,8,9
6,1,3,7
6,1,5,9
6,2,0,2
6,2,2,9
6,2,6,4
6,2,8,3
6,4,1,8
6,4,7,6
6,6,0,6
6,6,2,5
6,6,6,9
6,6,8,8
6,7,3,9
6,7,5,8
6,8,0,9
6,8,2,8
6,8,6,1
6,8,8,6
7,1,0,1
7,1,8,4
7,2,3,2
7,2,5,4
7,3,3,9
7,3,5,3
7,4,0,9
7,4,3,7
7,4,5,5
7,4,8,2
7,5,3,8
7,5,5,6
7,6,3,6
7,6,5,9
7,7,0,7
7,7,8,1
8,2,0,3
8,2,4,7
8,2,8,5
8,3,4,5
8,5,4,3
8,6,0,8
8,6,4,2
8,6,8,4
