0,0,0,7
0,0,1,1
0,0,7,3
0,0,8,9
0,1,0,6
0,1,8,4
0,2,1,3
0,2,7,8
0,4,0,4
0,4,1,7
0,4,3,9
0,4,5,8
0,4,7,6
0,4,8,3
0,6,1,4
0,6,7,5
0,7,0,3
0,7,8,7
0,8,0,1
0,8,1,9
0,8,7,4
0,8,8,6
1,1,0,5
1,1,8,3
1,2,0,9
1,2,8,1
1,3,0,8
1,3,8,2
1,4,0,3
1,4,8,7
1,5,0,1
1,5,8,6
1,6,0,7
1,6,8,4
1,7,0,6
1,7,8,5
2,0,1,9
2,0,7,4
2,2,0,1
2,2,4,4
2,2,8,6
2,4,0,6
2,4,1,8
2,4,7,1
2,4,8,9
2,6,0,5
2,6,4,6
2,6,8,8
2,8,1,6
2,8,7,2
3,0,0,9
3,0,8,1
3,2,2,1
3,2,6,9
3,4,1,1
3,4,7,3
3,6,2,7
3,6,6,3
3,8,0,3
3,8,8,7
4,0,3,8
4,0,5,2
4,2,4,9
4,4,2,3
4,4,6,4
4,6,4,1
4,8,3,7
4,8,5,9
5,0,0,2
5,0,8,5
5,2,2,9
5,2,6,2
5,4,1,5
5,4,7,9
5,6,2,8
5,6,6,5
5,8,0,9
5,8,8,3
6,0,1,7
6,0,7,6
6,2,0,4
6,2,4,6
6,2,8,8
6,4,0,1
6,4,1,4
6,4,7,5
6,4,8,6
6,6,0,6
6,6,4,3
6,6,8,5
6,8,1,1
6,8,7,3
7,1,0,2
7,1,8,5
7,2,0,7
7,2,8,9
7,3,0,4
7,3,8,3
7,4,0,5
7,4,8,1
7,5,0,9
7,5,8,8
7,6,0,3
7,6,8,7
7,7,0,1
7,7,8,6
8,0,0,3
8,0,1,4
8,0,7,5
8,0,8,7
8,1,0,1
8,1,8,6
8,2,1,9
8,2,7,4
8,4,0,2
8,4,1,3
8,4,3,6
8,4,5,5
8,4,7,8
8,4,8,4
8,6,1,7
8,6,7,6
8,7,0,4
8,7,8,1
8,8,0,5
8,8,1,2
8,8,7,7
8,8,8,8
