0,0,1,5
0,0,4,3
0,0,7,7
0,1,1,9
0,1,2,4
0,1,4,1
0,1,6,2
0,1,7,6
0,3,2,2
0,3,6,8
0,4,0,4
0,4,3,2
0,4,5,1
0,4,8,6
0,5,2,9
0,5,6,1
0,7,1,4
0,7,2,8
0,7,4,9
0,7,6,6
0,7,7,3
0,8,1,7
0,8,4,2
0,8,7,1
1,0,2,2
1,0,6,1
1,2,1,8
1,2,7,2
1,6,1,5
1,6,7,4
1,8,2,4
1,8,6,5
2,0,0,9
2,0,1,4
2,0,2,8
2,0,6,6
2,0,7,3
2,0,8,2
2,1,3,8
2,1,5,6
2,2,0,5
2,2,8,9
2,4,0,3
2,4,1,9
2,4,2,7
2,4,3,6
2,4,5,5
2,4,6,2
2,4,7,4
2,4,8,1
2,6,0,4
2,6,8,6
2,7,3,2
2,7,5,8
2,8,0,6
2,8,1,1
2,8,2,9
2,8,6,8
2,8,7,2
2,8,8,7
3,0,2,4
3,0,6,8
3,1,4,8
3,3,4,7
3,4,0,5
3,4,8,9
3,5,4,1
3,7,4,4
3,8,2,7
3,8,6,3
4,2,0,9
4,2,2,6
4,2,4,5
4,2,6,1
4,2,8,2
4,4,2,9
4,4,4,3
4,4,6,6
4,6,0,7
4,6,2,8
4,6,4,6
4,6,6,2
4,6,8,4
5,0,2,3
5,0,6,2
5,1,4,2
5,3,4,8
5,4,0,7
5,4,8,4
5,5,4,5
5,7,4,1
5,8,2,1
5,8,6,9
6,0,0,5
6,0,1,6
6,0,2,1
6,0,6,7
6,0,7,8
6,0,8,9
6,1,3,1
6,1,5,7
6,2,0,2
6,2,8,5
6,4,0,8
6,4,1,5
6,4,2,4
6,4,3,7
6,4,5,2
6,4,6,9
6,4,7,6
6,4,8,3
6,6,0,6
6,6,8,7
6,7,3,9
6,7,5,1
6,8,0,7
6,8,1,3
6,8,2,5
6,8,6,1
6,8,7,9
6,8,8,4
7,0,2,7
7,0,6,5
7,2,1,9
7,2,7,6
7,6,1,7
7,6,7,1
7,8,2,8
7,8,6,6
8,0,1,8
8,0,4,7
8,0,7,2
8,1,1,3
8,1,2,2
8,1,4,6
8,1,6,1
8,1,7,5
8,3,2,8
8,3,6,6
8,4,0,9
8,4,3,8
8,4,5,6
8,4,8,2
8,5,2,1
8,5,6,7
8,7,1,5
8,7,2,7
8,7,4,8
8,7,6,9
8,7,7,4
8,8,1,9
8,8,4,3
8,8,7,7
