0,1,0,3
0,1,2,8
0,1,4,4
0,1,6,1
0,1,8,2
0,2,0,9
0,2,8,8
0,6,0,5
0,6,8,3
0,7,0,6
0,7,2,1
0,7,4,8
0,7,6,5
0,7,8,4
1,2,1,3
1,2,3,5
1,2,4,9
1,2,5,4
1,2,7,1
1,4,3,9
1,4,5,5
1,6,1,7
1,6,3,4
1,6,4,5
1,6,5,9
1,6,7,6
2,2,0,6
2,2,8,9
2,6,0,2
2,6,8,5
3,0,3,9
3,0,5,7
3,2,1,9
3,2,4,5
3,2,7,4
3,3,2,9
3,3,3,3
3,3,5,5
3,3,6,6
3,4,4,9
3,5,2,7
3,5,3,4
3,5,5,2
3,5,6,9
3,6,1,5
3,6,4,4
3,6,7,9
3,8,3,6
3,8,5,9
5,0,3,8
5,0,5,1
5,2,1,8
5,2,4,7
5,2,7,2
5,3,2,2
5,3,3,9
5,3,5,8
5,3,6,5
5,4,4,2
5,5,2,1
5,5,3,7
5,5,5,3
5,5,6,2
5,6,1,2
5,6,4,8
5,6,7,7
5,8,3,4
5,8,5,7
6,2,0,4
6,2,8,3
6,6,0,9
6,6,8,7
7,2,1,7
7,2,3,9
7,2,4,4
7,2,5,5
7,2,7,6
7,4,3,4
7,4,5,9
7,6,1,8
7,6,3,5
7,6,4,9
7,6,5,4
7,6,7,2
8,1,0,5
8,1,2,4
8,1,4,1
8,1,6,8
8,1,8,7
8,2,0,2
8,2,8,4
8,6,0,1
8,6,8,9
8,7,0,3
8,7,2,8
8,7,4,5
8,7,6,1
8,7,8,2
