0,0,4,6
0,2,4,7
0,6,4,9
0,8,4,4
1,0,3,5
1,0,4,8
1,0,5,7
1,2,0,8
1,2,8,2
1,3,0,5
1,3,1,2
1,3,7,3
1,3,8,4
1,5,0,9
1,5,1,8
1,5,7,6
1,5,8,5
1,6,0,6
1,6,8,3
1,8,3,1
1,8,4,3
1,8,5,5
2,1,0,4
2,1,8,9
2,3,3,1
2,3,4,3
2,3,5,4
2,4,0,6
2,4,2,2
2,4,6,4
2,4,8,3
2,5,3,2
2,5,4,6
2,5,5,5
2,7,0,2
2,7,8,1
3,0,0,8
3,0,2,2
3,0,3,9
3,0,5,5
3,0,6,6
3,0,8,3
3,2,3,1
3,2,5,6
3,4,0,7
3,4,4,9
3,4,8,6
3,6,3,7
3,6,5,8
3,8,0,2
3,8,2,7
3,8,3,4
3,8,5,9
3,8,6,3
3,8,8,1
4,1,0,2
4,1,8,1
4,3,3,2
4,3,5,7
4,5,3,4
4,5,5,9
4,7,0,6
4,7,8,4
5,0,0,6
5,0,2,3
5,0,3,8
5,0,5,2
5,0,6,9
5,0,8,5
5,2,3,4
5,2,5,9
5,4,0,1
5,4,4,2
5,4,8,4
5,6,3,1
5,6,5,6
5,8,0,3
5,8,2,1
5,8,3,2
5,8,5,7
5,8,6,4
5,8,8,9
6,1,0,6
6,1,8,3
6,3,3,4
6,3,4,1
6,3,5,3
6,4,0,2
6,4,2,5
6,4,6,3
6,4,8,1
6,5,3,5
6,5,4,2
6,5,5,6
6,7,0,9
6,7,8,5
7,0,3,4
7,0,4,2
7,0,5,6
7,2,0,2
7,2,8,1
7,3,0,4
7,3,1,1
7,3,7,7
7,3,8,9
7,5,0,5
7,5,1,2
7,5,7,3
7,5,8,4
7,6,0,3
7,6,8,7
7,8,3,8
7,8,4,7
7,8,5,4
8,0,4,5
8,2,4,9
8,6,4,8
8,8,4,1
