0,0,4,2
0,1,4,6
0,2,0,6
0,2,1,8
0,2,7,7
0,2,8,2
0,3,0,7
0,3,1,2
0,3,4,1
0,3,7,9
0,3,8,5
0,5,0,5
0,5,1,4
0,5,4,7
0,5,7,8
0,5,8,1
0,6,0,8
0,6,1,1
0,6,7,2
0,6,8,3
0,7,4,3
0,8,4,8
1,0,4,8
1,1,1,1
1,1,7,2
1,2,0,5
1,2,8,8
1,3,0,6
1,3,1,8
1,3,7,7
1,3,8,2
1,4,0,4
1,4,8,6
1,5,0,2
1,5,1,3
1,5,7,5
1,5,8,4
1,6,0,9
1,6,8,1
1,7,1,2
1,7,7,4
1,8,4,9
2,1,3,3
2,1,4,7
2,1,5,2
2,7,3,9
2,7,4,5
2,7,5,4
3,1,3,6
3,1,5,9
3,2,1,9
3,2,7,2
3,4,1,8
3,4,4,3
3,4,7,9
3,6,1,6
3,6,7,1
3,7,3,1
3,7,5,2
4,1,3,7
4,1,5,3
4,3,0,8
4,3,4,7
4,3,8,1
4,4,3,2
4,4,4,1
4,4,5,9
4,5,0,1
4,5,4,8
4,5,8,7
4,7,3,5
4,7,5,8
5,1,3,5
5,1,5,1
5,2,1,1
5,2,7,4
5,4,1,2
5,4,4,4
5,4,7,7
5,6,1,4
5,6,7,3
5,7,3,3
5,7,5,9
6,1,3,4
6,1,4,9
6,1,5,5
6,7,3,6
6,7,4,8
6,7,5,1
7,0,4,7
7,1,1,2
7,1,7,5
7,2,0,1
7,2,8,7
7,3,0,3
7,3,1,7
7,3,7,4
7,3,8,9
7,4,0,8
7,4,8,3
7,5,0,9
7,5,1,5
7,5,7,6
7,5,8,8
7,6,0,6
7,6,8,2
7,7,1,4
7,7,7,1
7,8,4,6
8,0,4,5
8,1,4,3
8,2,0,3
8,2,1,7
8,2,7,9
8,2,8,5
8,3,0,4
8,3,1,9
8,3,4,2
8,3,7,1
8,3,8,6
8,5,0,6
8,5,1,8
8,5,4,4
8,5,7,7
8,5,8,2
8,6,0,7
8,6,1,2
8,6,7,4
8,6,8,9
8,7,4,9
8,8,4,7
