0,0,1,2
0,0,7,8
0,2,0,6
0,2,8,9
0,4,1,8
0,4,2,7
0,4,3,4
0,4,5,1
0,4,6,5
0,4,7,6
0,6,0,1
0,6,8,8
0,8,1,6
0,8,7,2
1,1,3,3
1,1,5,6
1,2,4,1
1,6,4,4
1,7,3,6
1,7,5,5
2,0,1,8
2,0,4,2
2,0,7,6
2,1,3,7
2,1,4,9
2,1,5,8
2,2,3,6
2,2,5,4
2,6,3,1
2,6,5,2
2,7,3,8
2,7,4,7
2,7,5,9
2,8,1,2
2,8,4,6
2,8,7,8
3,3,0,4
3,3,8,7
3,4,1,9
3,4,7,5
3,5,0,6
3,5,8,4
4,0,1,4
4,0,7,9
4,1,0,8
4,1,1,1
4,1,7,3
4,1,8,5
4,2,0,5
4,2,8,7
4,4,4,9
4,6,0,6
4,6,8,4
4,7,0,4
4,7,1,2
4,7,7,6
4,7,8,3
4,8,1,9
4,8,7,5
5,3,0,5
5,3,8,3
5,4,1,4
5,4,7,9
5,5,0,8
5,5,8,5
6,0,1,3
6,0,4,7
6,0,7,1
6,1,3,9
6,1,4,2
6,1,5,3
6,2,3,1
6,2,5,8
6,6,3,5
6,6,5,7
6,7,3,3
6,7,4,9
6,7,5,2
6,8,1,7
6,8,4,1
6,8,7,3
7,1,3,4
7,1,5,1
7,2,4,5
7,6,4,8
7,7,3,1
7,7,5,6
8,0,1,7
8,0,7,3
8,2,0,1
8,2,8,8
8,4,1,3
8,4,2,4
8,4,3,8
8,4,5,5
8,4,6,2
8,4,7,1
8,6,0,9
8,6,8,3
8,8,1,1
8,8,7,7
