0,1,0,7
0,1,8,4
0,2,2,3
0,2,3,1
0,2,5,7
0,2,6,2
0,3,1,3
0,3,7,9
0,5,1,6
0,5,7,2
0,6,2,1
0,6,3,8
0,6,5,4
0,6,6,7
0,7,0,3
0,7,8,8
1,2,0,5
1,2,1,2
1,2,7,3
1,2,8,9
1,3,2,9
1,3,6,3
1,5,2,2
1,5,6,9
1,6,0,9
1,6,1,7
1,6,7,1
1,6,8,6
2,0,3,7
2,0,5,9
2,3,1,8
2,3,2,6
2,3,6,1
2,3,7,5
2,5,1,9
2,5,2,7
2,5,6,6
2,5,7,4
2,8,3,5
2,8,5,8
3,0,1,2
3,0,7,8
3,2,1,1
3,2,2,9
3,2,6,3
3,2,7,5
3,3,2,2
3,3,6,5
3,5,2,1
3,5,6,4
3,6,1,3
3,6,2,5
3,6,6,8
3,6,7,6
3,8,1,6
3,8,7,4
4,0,3,3
4,0,5,7
4,8,3,4
4,8,5,9
5,0,1,7
5,0,7,3
5,2,1,8
5,2,2,5
5,2,6,1
5,2,7,6
5,3,2,7
5,3,6,6
5,5,2,8
5,5,6,2
5,6,1,1
5,6,2,6
5,6,6,3
5,6,7,9
5,8,1,9
5,8,7,2
6,0,3,5
6,0,5,3
6,3,1,7
6,3,2,3
6,3,6,4
6,3,7,8
6,5,1,1
6,5,2,5
6,5,6,3
6,5,7,9
6,8,3,3
6,8,5,4
7,2,0,8
7,2,1,6
7,2,7,2
7,2,8,1
7,3,2,8
7,3,6,7
7,5,2,6
7,5,6,8
7,6,0,3
7,6,1,5
7,6,7,7
7,6,8,8
8,1,0,5
8,1,8,9
8,2,2,7
8,2,3,2
8,2,5,5
8,2,6,6
8,3,1,4
8,3,7,3
8,5,1,8
8,5,7,6
8,6,2,4
8,6,3,7
8,6,5,9
8,6,6,5
8,7,0,2
8,7,8,7
