0,0,4,6
0,1,2,2
0,1,6,8
0,3,0,1
0,3,2,7
0,3,6,6
0,3,8,3
0,5,0,2
0,5,2,4
0,5,6,7
0,5,8,9
0,7,2,5
0,7,6,3
0,8,4,5
1,1,0,7
1,1,4,8
1,1,8,9
1,3,1,8
1,3,7,1
1,4,2,2
1,4,6,8
1,5,1,7
1,5,7,3
1,7,0,4
1,7,4,7
1,7,8,1
2,0,3,8
2,0,5,2
2,1,1,3
2,1,7,2
2,2,0,2
2,2,8,4
2,4,2,9
2,4,6,3
2,6,0,3
2,6,8,9
2,7,1,9
2,7,7,5
2,8,3,9
2,8,5,8
3,3,0,8
3,3,8,7
3,5,0,3
3,5,8,4
4,0,2,1
4,0,6,3
4,1,1,9
4,1,7,1
4,2,3,1
4,2,5,6
4,3,0,5
4,3,2,9
4,3,3,2
4,3,5,3
4,3,6,1
4,3,8,6
4,5,0,6
4,5,2,8
4,5,3,5
4,5,5,9
4,5,6,2
4,5,8,3
4,6,3,6
4,6,5,8
4,7,1,8
4,7,7,3
4,8,2,4
4,8,6,8
5,3,0,7
5,3,8,5
5,5,0,4
5,5,8,1
6,0,3,5
6,0,5,6
6,1,1,6
6,1,7,8
6,2,0,1
6,2,8,7
6,4,2,7
6,4,6,1
6,6,0,6
6,6,8,2
6,7,1,2
6,7,7,7
6,8,3,2
6,8,5,9
7,1,0,5
7,1,4,3
7,1,8,6
7,3,1,7
7,3,7,3
7,4,2,5
7,4,6,2
7,5,1,4
7,5,7,9
7,7,0,8
7,7,4,9
7,7,8,3
8,0,4,8
8,1,2,7
8,1,6,1
8,3,0,6
8,3,2,3
8,3,6,8
8,3,8,2
8,5,0,7
8,5,2,9
8,5,6,3
8,5,8,5
8,7,2,4
8,7,6,2
8,8,4,4
