0,0,2,6
0,0,6,9
0,1,3,6
0,1,4,2
0,1,5,9
0,2,0,1
0,2,8,2
0,4,4,8
0,6,0,5
0,6,8,4
0,7,3,1
0,7,4,4
0,7,5,7
0,8,2,3
0,8,6,7
1,4,1,8
1,4,4,4
1,4,7,1
2,0,1,7
2,0,4,9
2,0,7,1
2,3,0,1
2,3,8,2
2,5,0,3
2,5,8,1
2,8,1,1
2,8,4,6
2,8,7,4
3,0,1,8
3,0,7,9
3,1,4,6
3,3,0,9
3,3,1,5
3,3,7,1
3,3,8,3
3,4,4,5
3,5,0,8
3,5,1,7
3,5,7,5
3,5,8,4
3,7,4,1
3,8,1,4
3,8,7,2
4,1,0,7
4,1,8,9
4,2,3,8
4,2,5,6
4,3,0,6
4,3,3,2
4,3,5,3
4,3,8,5
4,5,0,1
4,5,3,4
4,5,5,5
4,5,8,6
4,6,3,6
4,6,5,7
4,7,0,2
4,7,8,8
5,0,1,5
5,0,7,2
5,1,4,5
5,3,0,2
5,3,1,1
5,3,7,8
5,3,8,7
5,4,4,2
5,5,0,5
5,5,1,4
5,5,7,3
5,5,8,2
5,7,4,6
5,8,1,2
5,8,7,7
6,0,1,6
6,0,4,5
6,0,7,3
6,3,0,3
6,3,8,1
6,5,0,2
6,5,8,3
6,8,1,3
6,8,4,8
6,8,7,9
7,4,1,3
7,4,4,7
7,4,7,5
8,0,2,5
8,0,6,1
8,1,3,4
8,1,4,7
8,1,5,3
8,2,0,6
8,2,8,7
8,4,4,9
8,6,0,2
8,6,8,3
8,7,3,8
8,7,4,2
8,7,5,5
8,8,2,7
8,8,6,4
