0,1,4,1
0,3,0,6
0,3,3,3
0,3,5,2
0,3,8,9
0,5,0,1
0,5,3,6
0,5,5,4
0,5,8,2
0,7,4,3
1,0,0,9
1,0,8,4
1,1,2,5
1,1,3,2
1,1,4,3
1,1,5,4
1,1,6,9
1,3,0,8
1,3,3,7
1,3,5,1
1,3,8,6
1,4,2,1
1,4,4,4
1,4,6,8
1,5,0,5
1,5,3,8
1,5,5,3
1,5,8,1
1,7,2,2
1,7,3,4
1,7,4,7
1,7,5,9
1,7,6,6
1,8,0,4
1,8,8,2
2,0,0,6
2,0,8,9
2,1,2,2
2,1,3,8
2,1,4,7
2,1,5,9
2,1,6,6
2,2,2,9
2,2,4,5
2,2,6,3
2,3,1,1
2,3,2,7
2,3,6,2
2,3,7,3
2,5,1,3
2,5,2,8
2,5,6,4
2,5,7,6
2,6,2,3
2,6,4,9
2,6,6,5
2,7,2,4
2,7,3,5
2,7,4,8
2,7,5,6
2,7,6,1
2,8,0,5
2,8,8,4
3,1,1,1
3,1,2,4
3,1,6,3
3,1,7,9
3,7,1,2
3,7,2,7
3,7,6,8
3,7,7,1
4,0,4,1
4,1,1,2
4,1,7,4
4,3,1,7
4,3,7,1
4,4,0,1
4,4,8,5
4,5,1,5
4,5,7,2
4,7,1,3
4,7,7,7
4,8,4,9
5,1,1,3
5,1,2,9
5,1,6,2
5,1,7,7
5,7,1,8
5,7,2,1
5,7,6,3
5,7,7,9
6,0,0,5
6,0,8,8
6,1,2,3
6,1,3,6
6,1,4,9
6,1,5,8
6,1,6,5
6,2,2,8
6,2,4,1
6,2,6,4
6,3,1,6
6,3,2,9
6,3,6,3
6,3,7,8
6,5,1,8
6,5,2,7
6,5,6,2
6,5,7,5
6,6,2,1
6,6,4,4
6,6,6,8
6,7,2,6
6,7,3,8
6,7,4,2
6,7,5,5
6,7,6,7
6,8,0,8
6,8,8,6
7,0,0,7
7,0,8,5
7,1,2,6
7,1,3,1
7,1,4,2
7,1,5,5
7,1,6,7
7,3,0,5
7,3,3,8
7,3,5,3
7,3,8,1
7,4,2,3
7,4,4,9
7,4,6,5
7,5,0,6
7,5,3,5
7,5,5,2
7,5,8,3
7,7,2,8
7,7,3,3
7,7,4,1
7,7,5,7
7,7,6,4
7,8,0,3
7,8,8,8
8,1,4,4
8,3,0,7
8,3,3,9
8,3,5,6
8,3,8,5
8,5,0,4
8,5,3,7
8,5,5,8
8,5,8,6
8,7,4,9
