0,0,1,6
0,0,7,8
0,1,0,9
0,1,1,2
0,1,3,3
0,1,5,7
0,1,7,1
0,1,8,5
0,7,0,3
0,7,1,5
0,7,3,7
0,7,5,9
0,7,7,6
0,7,8,8
0,8,1,9
0,8,7,2
1,0,4,7
1,1,4,6
1,2,4,2
1,3,0,1
1,3,8,3
1,4,2,7
1,4,6,4
1,5,0,8
1,5,8,1
1,6,4,9
1,7,4,4
1,8,4,5
2,2,2,2
2,2,6,5
2,3,2,3
2,3,4,9
2,3,6,2
2,4,1,6
2,4,7,1
2,5,2,1
2,5,4,5
2,5,6,6
2,6,2,9
2,6,6,1
3,0,0,3
3,0,3,5
3,0,5,7
3,0,8,8
3,1,4,3
3,2,0,1
3,2,8,3
3,3,0,2
3,3,3,3
3,3,4,7
3,3,5,9
3,3,8,6
3,4,1,9
3,4,7,3
3,5,0,6
3,5,3,1
3,5,4,2
3,5,5,5
3,5,8,7
3,6,0,9
3,6,8,5
3,7,4,5
3,8,0,5
3,8,3,2
3,8,5,3
3,8,8,4
4,0,2,6
4,0,6,3
4,1,1,3
4,1,7,6
4,2,3,6
4,2,5,3
4,6,3,3
4,6,5,9
4,7,1,9
4,7,7,3
4,8,2,3
4,8,6,9
5,0,0,7
5,0,3,3
5,0,5,9
5,0,8,2
5,1,4,2
5,2,0,2
5,2,8,6
5,3,0,9
5,3,3,6
5,3,4,4
5,3,5,8
5,3,8,5
5,4,1,3
5,4,7,7
5,5,0,5
5,5,3,7
5,5,4,9
5,5,5,3
5,5,8,4
5,6,0,3
5,6,8,8
5,7,4,3
5,8,0,1
5,8,3,4
5,8,5,7
5,8,8,3
6,2,2,4
6,2,6,3
6,3,2,6
6,3,4,3
6,3,6,5
6,4,1,4
6,4,7,6
6,5,2,7
6,5,4,1
6,5,6,4
6,6,2,1
6,6,6,7
7,0,4,5
7,1,4,9
7,2,4,4
7,3,0,7
7,3,8,2
7,4,2,9
7,4,6,1
7,5,0,2
7,5,8,6
7,6,4,3
7,7,4,8
7,8,4,1
8,0,1,9
8,0,7,6
8,1,0,1
8,1,1,4
8,1,3,6
8,1,5,5
8,1,7,2
8,1,8,3
8,7,0,7
8,7,1,8
8,7,3,4
8,7,5,3
8,7,7,5
8,7,8,2
8,8,1,1
8,8,7,9
