0,1,4,6
0,2,2,8
0,2,3,3
0,2,5,2
0,2,6,7
0,6,2,3
0,6,3,5
0,6,5,6
0,6,6,2
0,7,4,3
1,0,3,2
1,0,5,1
1,1,0,2
1,1,1,8
1,1,7,1
1,1,8,6
1,3,0,7
1,3,2,1
1,3,4,6
1,3,6,3
1,3,8,2
1,4,2,3
1,4,6,7
1,5,0,8
1,5,2,2
1,5,4,3
1,5,6,1
1,5,8,5
1,7,0,5
1,7,1,1
1,7,7,2
1,7,8,3
1,8,3,1
1,8,5,5
2,0,1,1
2,0,2,7
2,0,6,4
2,0,7,2
2,1,3,1
2,1,5,8
2,4,4,9
2,7,3,7
2,7,5,4
2,8,1,8
2,8,2,1
2,8,6,5
2,8,7,4
3,0,0,7
3,0,1,8
3,0,7,1
3,0,8,2
3,8,0,9
3,8,1,7
3,8,7,5
3,8,8,1
4,0,4,7
4,2,1,1
4,2,7,2
4,3,0,1
4,3,8,4
4,4,0,3
4,4,8,5
4,5,0,6
4,5,8,7
4,6,1,9
4,6,7,7
4,8,4,1
5,0,0,6
5,0,1,3
5,0,7,4
5,0,8,7
5,8,0,1
5,8,1,6
5,8,7,8
5,8,8,4
6,0,1,2
6,0,2,8
6,0,6,6
6,0,7,5
6,1,3,6
6,1,5,4
6,4,4,7
6,7,3,5
6,7,5,2
6,8,1,4
6,8,2,2
6,8,6,9
6,8,7,6
7,0,3,8
7,0,5,2
7,1,0,3
7,1,1,1
7,1,7,6
7,1,8,8
7,3,0,8
7,3,2,7
7,3,4,3
7,3,6,9
7,3,8,5
7,4,2,9
7,4,6,3
7,5,0,1
7,5,2,3
7,5,4,9
7,5,6,6
7,5,8,4
7,7,0,4
7,7,1,7
7,7,7,5
7,7,8,9
7,8,3,2
7,8,5,4
8,1,4,3
8,2,2,9
8,2,3,4
8,2,5,8
8,2,6,3
8,6,2,4
8,6,3,1
8,6,5,3
8,6,6,5
8,7,4,4
