0,0,2,3
0,0,6,7
0,2,2,1
0,2,4,4
0,2,6,6
0,3,1,8
0,3,3,5
0,3,5,3
0,3,7,4
0,5,1,3
0,5,3,9
0,5,5,1
0,5,7,5
0,6,2,6
0,6,4,8
0,6,6,9
0,8,2,2
0,8,6,4
1,0,1,8
1,0,3,5
1,0,5,3
1,0,7,4
1,2,0,2
1,2,8,7
1,3,0,1
1,3,3,6
1,3,4,8
1,3,5,4
1,3,8,3
1,4,2,6
1,4,3,7
1,4,5,9
1,4,6,5
1,5,0,8
1,5,3,2
1,5,4,3
1,5,5,5
1,5,8,1
1,6,0,4
1,6,8,5
1,8,1,6
1,8,3,8
1,8,5,7
1,8,7,3
2,2,3,7
2,2,4,3
2,2,5,5
2,3,0,4
2,3,8,5
2,5,0,5
2,5,8,9
2,6,3,5
2,6,4,6
2,6,5,3
3,0,2,4
3,0,3,9
3,0,5,2
3,0,6,6
3,1,3,5
3,1,5,6
3,2,2,5
3,2,3,4
3,2,5,7
3,2,6,2
3,6,2,2
3,6,3,6
3,6,5,1
3,6,6,8
3,7,3,7
3,7,5,3
3,8,2,7
3,8,3,2
3,8,5,8
3,8,6,3
4,1,0,6
4,1,8,2
4,2,0,7
4,2,2,8
4,2,3,3
4,2,4,2
4,2,5,9
4,2,6,5
4,2,8,6
4,3,0,5
4,3,2,7
4,3,6,8
4,3,8,9
4,4,2,2
4,4,6,1
4,5,0,9
4,5,2,6
4,5,6,3
4,5,8,4
4,6,0,8
4,6,2,4
4,6,3,9
4,6,4,3
4,6,5,7
4,6,6,2
4,6,8,1
4,7,0,1
4,7,8,3
5,0,2,6
5,0,3,7
5,0,5,1
5,0,6,8
5,1,3,2
5,1,5,3
5,2,2,2
5,2,3,6
5,2,5,8
5,2,6,3
5,6,2,1
5,6,3,8
5,6,5,5
5,6,6,4
5,7,3,1
5,7,5,4
5,8,2,8
5,8,3,3
5,8,5,9
5,8,6,5
6,2,3,1
6,2,4,9
6,2,5,6
6,3,0,2
6,3,8,7
6,5,0,7
6,5,8,6
6,6,3,2
6,6,4,1
6,6,5,9
7,0,1,4
7,0,3,6
7,0,5,9
7,0,7,7
7,2,0,1
7,2,8,3
7,3,0,9
7,3,3,3
7,3,4,5
7,3,5,2
7,3,8,4
7,4,2,1
7,4,3,8
7,4,5,6
7,4,6,7
7,5,0,4
7,5,3,1
7,5,4,9
7,5,5,7
7,5,8,5
7,6,0,6
7,6,8,2
7,8,1,8
7,8,3,5
7,8,5,3
7,8,7,4
8,0,2,5
8,0,6,3
8,2,2,9
8,2,4,7
8,2,6,1
8,3,1,4
8,3,3,7
8,3,5,9
8,3,7,2
8,5,1,5
8,5,3,6
8,5,5,4
8,5,7,7
8,6,2,8
8,6,4,5
8,6,6,7
8,8,2,3
8,8,6,6
