0,1,0,8
0,1,8,6
0,2,2,1
0,2,6,5
0,4,0,3
0,4,8,7
0,6,2,4
0,6,6,7
0,7,0,1
0,7,8,2
1,0,1,9
1,0,2,6
1,0,4,4
1,0,6,8
1,0,7,5
1,4,4,7
1,8,1,1
1,8,2,9
1,8,4,3
1,8,6,2
1,8,7,8
2,0,3,5
2,0,5,1
2,1,0,6
2,1,8,5
2,3,3,9
2,3,4,2
2,3,5,8
2,4,1,8
2,4,7,3
2,5,3,3
2,5,4,4
2,5,5,7
2,7,0,2
2,7,8,4
2,8,3,1
2,8,5,2
3,1,0,9
3,1,2,6
3,1,6,5
3,1,8,7
3,2,2,2
3,2,6,9
3,3,0,6
3,3,8,8
3,4,2,8
3,4,3,7
3,4,5,1
3,4,6,6
3,5,0,7
3,5,8,1
3,6,2,5
3,6,6,8
3,7,0,8
3,7,2,9
3,7,6,3
3,7,8,5
4,0,0,8
4,0,8,5
4,3,2,2
4,3,6,5
4,5,2,6
4,5,6,4
4,8,0,2
4,8,8,8
5,1,0,7
5,1,2,1
5,1,6,2
5,1,8,8
5,2,2,8
5,2,6,7
5,3,0,3
5,3,8,9
5,4,2,5
5,4,3,3
5,4,5,9
5,4,6,8
5,5,0,8
5,5,8,5
5,6,2,6
5,6,6,9
5,7,0,5
5,7,2,2
5,7,6,4
5,7,8,6
6,0,3,8
6,0,5,7
6,1,0,4
6,1,8,3
6,3,3,3
6,3,4,4
6,3,5,2
6,4,1,7
6,4,7,2
6,5,3,7
6,5,4,1
6,5,5,5
6,7,0,9
6,7,8,8
6,8,3,2
6,8,5,9
7,0,1,7
7,0,2,1
7,0,4,6
7,0,6,5
7,0,7,2
7,4,4,3
7,8,1,9
7,8,2,2
7,8,4,4
7,8,6,8
7,8,7,5
8,1,0,1
8,1,8,2
8,2,2,3
8,2,6,4
8,4,0,8
8,4,8,6
8,6,2,9
8,6,6,6
8,7,0,3
8,7,8,7
