0,2,2,7
0,2,4,3
0,2,6,4
0,3,4,7
0,4,0,2
0,4,1,7
0,4,2,6
0,4,4,8
0,4,6,9
0,4,7,5
0,4,8,4
0,5,4,9
0,6,2,2
0,6,4,1
0,6,6,5
1,1,4,5
1,2,1,9
1,2,7,8
1,3,3,5
1,3,5,9
1,5,3,3
1,5,5,8
1,6,1,4
1,6,7,3
1,7,4,3
2,1,2,6
2,1,6,9
2,2,4,9
2,6,4,4
2,7,2,4
2,7,6,1
3,0,0,2
3,0,8,1
3,1,1,9
3,1,3,4
3,1,5,1
3,1,7,8
3,2,3,2
3,2,4,8
3,2,5,9
3,3,0,8
3,3,1,5
3,3,7,1
3,3,8,4
3,4,0,4
3,4,8,6
3,5,0,7
3,5,1,1
3,5,7,2
3,5,8,3
3,6,3,6
3,6,4,3
3,6,5,4
3,7,1,3
3,7,3,1
3,7,5,2
3,7,7,7
3,8,0,1
3,8,8,9
4,0,4,2
4,2,2,9
4,2,6,5
4,3,3,6
4,3,5,4
4,4,0,6
4,4,8,1
4,5,3,5
4,5,5,1
4,6,2,4
4,6,6,9
4,8,4,1
5,0,0,9
5,0,8,2
5,1,1,1
5,1,3,8
5,1,5,2
5,1,7,7
5,2,3,5
5,2,4,7
5,2,5,3
5,3,0,2
5,3,1,3
5,3,7,6
5,3,8,8
5,4,0,1
5,4,8,5
5,5,0,5
5,5,1,6
5,5,7,4
5,5,8,7
5,6,3,9
5,6,4,2
5,6,5,1
5,7,1,2
5,7,3,7
5,7,5,5
5,7,7,9
5,8,0,7
5,8,8,1
6,1,2,9
6,1,6,3
6,2,4,1
6,6,4,8
6,7,2,3
6,7,6,6
7,1,4,4
7,2,1,5
7,2,7,3
7,3,3,4
7,3,5,5
7,5,3,1
7,5,5,3
7,6,1,9
7,6,7,1
7,7,4,1
8,2,2,3
8,2,4,5
8,2,6,7
8,3,4,1
8,4,0,3
8,4,1,1
8,4,2,8
8,4,4,4
8,4,6,6
8,4,7,2
8,4,8,7
8,5,4,2
8,6,2,1
8,6,4,9
8,6,6,2
