0,2,0,9
0,2,2,4
0,2,4,3
0,2,6,7
0,2,8,8
0,6,0,8
0,6,2,2
0,6,4,4
0,6,6,6
0,6,8,3
1,0,2,1
1,0,6,5
1,1,4,6
1,3,4,7
1,5,4,5
1,7,4,3
1,8,2,8
1,8,6,1
2,3,0,5
2,3,1,4
2,3,2,9
2,3,6,7
2,3,7,2
2,3,8,8
2,4,0,7
2,4,3,5
2,4,5,9
2,4,8,6
2,5,0,1
2,5,1,3
2,5,2,6
2,5,6,5
2,5,7,4
2,5,8,9
3,1,2,1
3,1,4,8
3,1,6,5
3,4,3,8
3,4,4,3
3,4,5,6
3,7,2,2
3,7,4,6
3,7,6,4
4,0,1,5
4,0,7,6
4,1,2,8
4,1,6,1
4,3,4,2
4,4,3,4
4,4,5,5
4,5,4,8
4,7,2,6
4,7,6,2
4,8,1,1
4,8,7,4
5,1,2,5
5,1,4,1
5,1,6,8
5,4,3,1
5,4,4,7
5,4,5,2
5,7,2,4
5,7,4,2
5,7,6,6
6,3,0,7
6,3,1,2
6,3,2,8
6,3,6,1
6,3,7,3
6,3,8,6
6,4,0,1
6,4,3,7
6,4,5,8
6,4,8,9
6,5,0,5
6,5,1,4
6,5,2,9
6,5,6,7
6,5,7,2
6,5,8,8
7,0,2,6
7,0,6,9
7,1,4,3
7,3,4,8
7,5,4,9
7,7,4,1
7,8,2,2
7,8,6,6
8,2,0,3
8,2,2,1
8,2,4,8
8,2,6,5
8,2,8,9
8,6,0,4
8,6,2,5
8,6,4,3
8,6,6,7
8,6,8,8
