0,1,3,6
0,1,5,3
0,2,2,8
0,2,6,3
0,3,2,5
0,3,6,1
0,4,2,2
0,4,6,8
0,5,2,9
0,5,6,2
0,6,2,3
0,6,6,6
0,7,3,3
0,7,5,5
1,0,0,4
1,0,8,2
1,1,0,7
1,1,8,3
1,2,2,5
1,2,6,1
1,6,2,1
1,6,6,2
1,7,0,9
1,7,8,5
1,8,0,5
1,8,8,7
2,0,0,8
2,0,8,7
2,3,1,2
2,3,7,7
2,5,1,4
2,5,7,8
2,8,0,4
2,8,8,6
3,0,3,7
3,0,5,1
3,2,2,7
3,2,4,3
3,2,6,5
3,3,3,4
3,3,5,7
3,4,2,1
3,4,6,7
3,5,3,1
3,5,5,8
3,6,2,5
3,6,4,7
3,6,6,9
3,8,3,2
3,8,5,9
4,0,4,8
4,1,1,6
4,1,3,3
4,1,5,4
4,1,7,2
4,4,0,6
4,4,8,3
4,7,1,3
4,7,3,4
4,7,5,7
4,7,7,1
4,8,4,5
5,0,3,6
5,0,5,3
5,2,2,6
5,2,4,9
5,2,6,8
5,3,3,5
5,3,5,6
5,4,2,3
5,4,6,6
5,5,3,3
5,5,5,4
5,6,2,8
5,6,4,6
5,6,6,1
5,8,3,7
5,8,5,1
6,0,0,9
6,0,8,4
6,3,1,5
6,3,7,4
6,5,1,1
6,5,7,9
6,8,0,1
6,8,8,5
7,0,0,3
7,0,8,5
7,1,0,5
7,1,8,6
7,2,2,9
7,2,6,7
7,6,2,6
7,6,6,5
7,7,0,7
7,7,8,9
7,8,0,9
7,8,8,8
8,1,3,4
8,1,5,7
8,2,2,3
8,2,6,6
8,3,2,1
8,3,6,7
8,4,2,8
8,4,6,3
8,5,2,7
8,5,6,4
8,6,2,2
8,6,6,8
8,7,3,7
8,7,5,1
