0,2,2,2
0,2,3,4
0,2,4,8
0,2,5,6
0,2,6,3
0,3,0,5
0,3,1,3
0,3,7,4
0,3,8,8
0,4,3,6
0,4,5,8
0,5,0,6
0,5,1,1
0,5,7,3
0,5,8,9
0,6,2,3
0,6,3,8
0,6,4,6
0,6,5,1
0,6,6,7
1,0,3,9
1,0,5,3
1,1,3,8
1,1,4,6
1,1,5,4
1,2,1,6
1,2,7,2
1,4,0,1
1,4,8,2
1,6,1,4
1,6,7,1
1,7,3,2
1,7,4,4
1,7,5,9
1,8,3,6
1,8,5,8
2,0,0,2
2,0,8,7
2,1,1,3
2,1,3,5
2,1,4,1
2,1,5,7
2,1,7,4
2,3,2,1
2,3,4,5
2,3,6,9
2,4,2,3
2,4,6,8
2,5,2,4
2,5,4,6
2,5,6,7
2,7,1,9
2,7,3,1
2,7,4,8
2,7,5,6
2,7,7,7
2,8,0,4
2,8,8,2
3,1,3,7
3,1,5,9
3,2,0,7
3,2,8,2
3,6,0,5
3,6,8,1
3,7,3,9
3,7,5,4
4,1,2,3
4,1,3,2
4,1,5,1
4,1,6,9
4,2,0,2
4,2,2,4
4,2,3,9
4,2,5,3
4,2,6,5
4,2,8,1
4,6,0,3
4,6,2,7
4,6,3,1
4,6,5,6
4,6,6,4
4,6,8,8
4,7,2,6
4,7,3,3
4,7,5,8
4,7,6,1
5,1,3,4
5,1,5,6
5,2,0,3
5,2,8,7
5,6,0,8
5,6,8,5
5,7,3,6
5,7,5,5
6,0,0,8
6,0,8,4
6,1,1,5
6,1,3,9
6,1,4,2
6,1,5,3
6,1,7,6
6,3,2,5
6,3,4,9
6,3,6,4
6,4,2,2
6,4,6,1
6,5,2,6
6,5,4,7
6,5,6,3
6,7,1,4
6,7,3,5
6,7,4,3
6,7,5,7
6,7,7,1
6,8,0,5
6,8,8,8
7,0,3,4
7,0,5,6
7,1,3,1
7,1,4,7
7,1,5,5
7,2,1,7
7,2,7,8
7,4,0,5
7,4,8,8
7,6,1,5
7,6,7,6
7,7,3,8
7,7,4,6
7,7,5,1
7,8,3,7
7,8,5,3
8,2,2,8
8,2,3,5
8,2,4,1
8,2,5,7
8,2,6,2
8,3,0,9
8,3,1,2
8,3,7,5
8,3,8,1
8,4,3,7
8,4,5,4
8,5,0,7
8,5,1,5
8,5,7,6
8,5,8,4
8,6,2,6
8,6,3,3
8,6,4,7
8,6,5,5
8,6,6,1
