0,0,4,9
0,8,4,7
1,0,0,3
1,0,8,7
1,1,0,7
1,1,4,8
1,1,8,4
1,2,0,9
1,2,3,4
1,2,5,3
1,2,8,1
1,6,0,1
1,6,3,8
1,6,5,7
1,6,8,2
1,7,0,2
1,7,4,3
1,7,8,9
1,8,0,5
1,8,8,8
2,1,0,2
2,1,2,4
2,1,6,7
2,1,8,9
2,2,2,3
2,2,3,9
2,2,5,1
2,2,6,4
2,3,0,3
2,3,3,1
2,3,4,5
2,3,5,6
2,3,8,7
2,4,2,5
2,4,6,6
2,5,0,9
2,5,3,4
2,5,4,7
2,5,5,3
2,5,8,1
2,6,2,7
2,6,3,3
2,6,5,2
2,6,6,1
2,7,0,6
2,7,2,9
2,7,6,2
2,7,8,5
3,0,1,8
3,0,7,1
3,1,4,7
3,2,3,1
3,2,5,6
3,3,4,1
3,4,2,8
3,4,3,4
3,4,5,3
3,4,6,9
3,5,4,5
3,6,3,6
3,6,5,5
3,7,4,2
3,8,1,5
3,8,7,9
4,0,1,3
4,0,2,9
4,0,6,2
4,0,7,8
4,2,0,1
4,2,1,5
4,2,7,9
4,2,8,6
4,3,0,2
4,3,8,9
4,5,0,8
4,5,8,2
4,6,0,7
4,6,1,8
4,6,7,1
4,6,8,5
4,8,1,9
4,8,2,2
4,8,6,8
4,8,7,4
5,0,1,1
5,0,7,3
5,1,4,2
5,2,3,3
5,2,5,7
5,3,4,3
5,4,2,1
5,4,3,9
5,4,5,8
5,4,6,5
5,5,4,4
5,6,3,7
5,6,5,4
5,7,4,6
5,8,1,4
5,8,7,5
6,1,0,3
6,1,2,7
6,1,6,8
6,1,8,6
6,2,2,4
6,2,3,7
6,2,5,5
6,2,6,2
6,3,0,9
6,3,3,4
6,3,4,2
6,3,5,8
6,3,8,3
6,4,2,6
6,4,6,1
6,5,0,2
6,5,3,6
6,5,4,1
6,5,5,9
6,5,8,4
6,6,2,3
6,6,3,5
6,6,5,1
6,6,6,9
6,7,0,1
6,7,2,2
6,7,6,3
6,7,8,7
7,0,0,4
7,0,8,3
7,1,0,8
7,1,4,9
7,1,8,2
7,2,0,2
7,2,3,6
7,2,5,4
7,2,8,5
7,6,0,9
7,6,3,4
7,6,5,3
7,6,8,1
7,7,0,3
7,7,4,5
7,7,8,6
7,8,0,6
7,8,8,4
8,0,4,7
8,8,4,1
