0,1,0,9
0,1,8,2
0,2,1,5
0,2,4,3
0,2,7,6
0,3,2,3
0,3,6,2
0,4,1,7
0,4,7,1
0,5,2,6
0,5,6,8
0,6,1,2
0,6,4,8
0,6,7,5
0,7,0,6
0,7,8,4
1,2,1,4
1,2,7,7
1,3,0,6
1,3,8,4
1,4,2,5
1,4,3,6
1,4,4,4
1,4,5,1
1,4,6,9
1,5,0,4
1,5,8,1
1,6,1,3
1,6,7,4
2,0,2,5
2,0,6,9
2,1,2,7
2,1,4,8
2,1,6,6
2,4,0,1
2,4,4,9
2,4,8,8
2,7,2,3
2,7,4,1
2,7,6,2
2,8,2,9
2,8,6,4
3,0,0,7
3,0,8,5
3,1,4,4
3,2,3,3
3,2,5,5
3,3,2,8
3,3,4,7
3,3,6,6
3,5,2,9
3,5,4,5
3,5,6,4
3,6,3,8
3,6,5,3
3,7,4,6
3,8,0,8
3,8,8,4
4,3,1,3
4,3,7,9
4,5,1,8
4,5,7,2
5,0,0,6
5,0,8,4
5,1,4,9
5,2,3,2
5,2,5,4
5,3,2,7
5,3,4,6
5,3,6,8
5,5,2,5
5,5,4,4
5,5,6,9
5,6,3,7
5,6,5,2
5,7,4,8
5,8,0,7
5,8,8,9
6,0,2,8
6,0,6,7
6,1,2,2
6,1,4,3
6,1,6,1
6,4,0,9
6,4,4,7
6,4,8,3
6,7,2,9
6,7,4,5
6,7,6,4
6,8,2,7
6,8,6,6
7,2,1,7
7,2,7,1
7,3,0,3
7,3,8,7
7,4,2,7
7,4,3,3
7,4,4,8
7,4,5,4
7,4,6,6
7,5,0,6
7,5,8,5
7,6,1,9
7,6,7,6
8,1,0,6
8,1,8,5
8,2,1,8
8,2,4,5
8,2,7,2
8,3,2,5
8,3,6,9
8,4,1,3
8,4,7,5
8,5,2,2
8,5,6,1
8,6,1,5
8,6,4,1
8,6,7,7
8,7,0,2
8,7,8,6
