0,4,0,9
0,4,8,8
1,0,4,1
1,2,0,6
1,2,8,2
1,3,2,1
1,3,3,8
1,3,5,4
1,3,6,3
1,4,2,4
1,4,6,7
1,5,2,6
1,5,3,7
1,5,5,1
1,5,6,8
1,6,0,4
1,6,8,5
1,8,4,8
2,0,1,6
2,0,4,9
2,0,7,5
2,1,3,2
2,1,5,1
2,3,4,7
2,4,0,1
2,4,1,7
2,4,3,4
2,4,4,8
2,4,5,2
2,4,7,3
2,4,8,9
2,5,4,3
2,7,3,9
2,7,5,3
2,8,1,2
2,8,4,1
2,8,7,4
3,0,0,2
3,0,1,5
3,0,4,7
3,0,7,1
3,0,8,6
3,2,3,2
3,2,4,5
3,2,5,1
3,6,3,4
3,6,4,1
3,6,5,2
3,8,0,7
3,8,1,3
3,8,4,6
3,8,7,8
3,8,8,2
4,1,3,4
4,1,5,7
4,7,3,2
4,7,5,1
5,0,0,7
5,0,1,4
5,0,4,6
5,0,7,8
5,0,8,2
5,2,3,7
5,2,4,4
5,2,5,8
5,6,3,3
5,6,4,8
5,6,5,7
5,8,0,6
5,8,1,5
5,8,4,2
5,8,7,9
5,8,8,7
6,0,1,8
6,0,4,4
6,0,7,2
6,1,3,1
6,1,5,3
6,3,4,1
6,4,0,3
6,4,1,1
6,4,3,2
6,4,4,5
6,4,5,8
6,4,7,6
6,4,8,4
6,5,4,6
6,7,3,4
6,7,5,2
6,8,1,9
6,8,4,3
6,8,7,7
7,0,4,3
7,2,0,9
7,2,8,8
7,3,2,3
7,3,3,5
7,3,5,6
7,3,6,7
7,4,2,6
7,4,6,8
7,5,2,1
7,5,3,8
7,5,5,3
7,5,6,5
7,6,0,2
7,6,8,7
7,8,4,5
8,4,0,4
8,4,8,5
