0,0,0,5
0,0,2,8
0,0,6,1
0,0,8,3
0,2,1,6
0,2,4,5
0,2,7,8
0,3,2,5
0,3,6,4
0,4,2,2
0,4,4,9
0,4,6,7
0,5,2,3
0,5,6,8
0,6,1,5
0,6,4,7
0,6,7,1
0,8,0,7
0,8,2,6
0,8,6,2
0,8,8,8
1,0,0,1
1,0,8,6
1,1,1,7
1,1,7,2
1,4,1,3
1,4,7,9
1,7,1,6
1,7,7,8
1,8,0,5
1,8,8,3
2,2,1,2
2,2,7,6
2,3,4,5
2,4,1,9
2,4,7,4
2,5,4,3
2,6,1,7
2,6,7,2
3,0,2,1
3,0,6,5
3,1,3,3
3,1,5,5
3,2,4,1
3,6,4,9
3,7,3,5
3,7,5,2
3,8,2,5
3,8,6,9
4,1,4,9
4,2,4,3
4,4,1,8
4,4,2,1
4,4,4,6
4,4,6,5
4,4,7,3
4,6,4,4
4,7,4,7
5,0,2,7
5,0,6,4
5,1,3,1
5,1,5,8
5,2,4,7
5,6,4,2
5,7,3,8
5,7,5,4
5,8,2,1
5,8,6,5
6,2,1,9
6,2,7,4
6,3,4,9
6,4,1,7
6,4,7,2
6,5,4,6
6,6,1,2
6,6,7,6
7,0,0,8
7,0,8,4
7,1,1,2
7,1,7,6
7,4,1,1
7,4,7,7
7,7,1,4
7,7,7,5
7,8,0,6
7,8,8,9
8,0,0,6
8,0,2,3
8,0,6,8
8,0,8,9
8,2,1,4
8,2,4,9
8,2,7,5
8,3,2,6
8,3,6,2
8,4,2,9
8,4,4,7
8,4,6,3
8,5,2,1
8,5,6,5
8,6,1,6
8,6,4,5
8,6,7,8
8,8,0,2
8,8,2,4
8,8,6,6
8,8,8,5
