0,1,4,9
0,2,0,4
0,2,8,5
0,3,1,9
0,3,7,6
0,4,3,9
0,4,5,5
0,5,1,8
0,5,7,5
0,6,0,9
0,6,8,7
0,7,4,5
1,1,1,1
1,1,2,5
1,1,6,6
1,1,7,2
1,2,0,7
1,2,1,6
1,2,7,8
1,2,8,4
1,3,4,6
1,5,4,9
1,6,0,3
1,6,1,8
1,6,7,5
1,6,8,9
1,7,1,9
1,7,2,1
1,7,6,7
1,7,7,6
2,0,0,2
2,0,8,8
2,1,1,8
2,1,4,2
2,1,7,5
2,3,3,1
2,3,5,9
2,5,3,4
2,5,5,8
2,7,1,3
2,7,4,6
2,7,7,1
2,8,0,1
2,8,8,6
3,0,0,9
3,0,8,3
3,1,0,4
3,1,3,8
3,1,5,9
3,1,8,5
3,2,0,1
3,2,2,6
3,2,6,2
3,2,8,8
3,3,1,7
3,3,4,1
3,3,7,3
3,4,0,3
3,4,1,2
3,4,3,6
3,4,5,8
3,4,7,5
3,4,8,7
3,5,1,6
3,5,4,4
3,5,7,8
3,6,0,7
3,6,2,8
3,6,6,3
3,6,8,4
3,7,0,2
3,7,3,9
3,7,5,6
3,7,8,1
3,8,0,6
3,8,8,9
4,1,1,6
4,1,7,8
4,2,1,7
4,2,2,9
4,2,4,1
4,2,6,4
4,2,7,3
4,4,2,5
4,4,6,8
4,6,1,3
4,6,2,2
4,6,4,6
4,6,6,7
4,6,7,1
4,7,1,5
4,7,7,9
5,0,0,6
5,0,8,9
5,1,0,7
5,1,3,1
5,1,5,2
5,1,8,4
5,2,0,2
5,2,2,3
5,2,6,5
5,2,8,1
5,3,1,5
5,3,4,7
5,3,7,9
5,4,0,9
5,4,1,8
5,4,3,5
5,4,5,1
5,4,7,4
5,4,8,3
5,5,1,3
5,5,4,6
5,5,7,1
5,6,0,5
5,6,2,1
5,6,6,9
5,6,8,2
5,7,0,8
5,7,3,2
5,7,5,5
5,7,8,6
5,8,0,3
5,8,8,7
6,0,0,4
6,0,8,5
6,1,1,5
6,1,4,8
6,1,7,7
6,3,3,6
6,3,5,7
6,5,3,9
6,5,5,5
6,7,1,1
6,7,4,3
6,7,7,2
6,8,0,7
6,8,8,4
7,1,1,7
7,1,2,6
7,1,6,4
7,1,7,3
7,2,0,3
7,2,1,8
7,2,7,5
7,2,8,9
7,3,4,3
7,5,4,7
7,6,0,1
7,6,1,5
7,6,7,7
7,6,8,6
7,7,1,2
7,7,2,7
7,7,6,8
7,7,7,4
8,1,4,7
8,2,0,9
8,2,8,7
8,3,1,2
8,3,7,4
8,4,3,7
8,4,5,2
8,5,1,5
8,5,7,7
8,6,0,2
8,6,8,8
8,7,4,2
