0,0,0,8
0,0,1,5
0,0,4,6
0,0,7,1
0,0,8,2
0,1,2,4
0,1,6,8
0,2,1,1
0,2,3,8
0,2,5,3
0,2,7,9
0,6,1,4
0,6,3,1
0,6,5,6
0,6,7,3
0,7,2,3
0,7,6,6
0,8,0,7
0,8,1,6
0,8,4,4
0,8,7,5
0,8,8,9
1,0,4,5
1,3,3,5
1,3,5,4
1,4,3,3
1,4,4,1
1,4,5,2
1,5,3,8
1,5,5,6
1,8,4,6
2,0,2,1
2,0,6,4
2,1,1,8
2,1,7,3
2,3,0,6
2,3,8,8
2,5,0,2
2,5,8,6
2,7,1,9
2,7,7,2
2,8,2,2
2,8,6,7
3,0,1,9
3,0,3,2
3,0,5,1
3,0,7,8
3,1,1,2
3,1,4,6
3,1,7,1
3,2,0,1
3,2,8,2
3,3,3,8
3,3,5,6
3,4,0,6
3,4,1,4
3,4,7,7
3,4,8,8
3,5,3,4
3,5,5,7
3,6,0,5
3,6,8,7
3,7,1,3
3,7,4,8
3,7,7,5
3,8,1,7
3,8,3,6
3,8,5,5
3,8,7,9
4,0,1,7
4,0,4,4
4,0,7,9
4,1,4,8
4,4,0,8
4,4,1,9
4,4,7,1
4,4,8,5
4,7,4,5
4,8,1,8
4,8,4,9
4,8,7,7
5,0,1,1
5,0,3,8
5,0,5,3
5,0,7,7
5,1,1,4
5,1,4,2
5,1,7,6
5,2,0,7
5,2,8,1
5,3,3,7
5,3,5,2
5,4,0,2
5,4,1,7
5,4,7,9
5,4,8,3
5,5,3,3
5,5,5,9
5,6,0,4
5,6,8,9
5,7,1,5
5,7,4,3
5,7,7,1
5,8,1,9
5,8,3,2
5,8,5,8
5,8,7,4
6,0,2,4
6,0,6,8
6,1,1,1
6,1,7,9
6,3,0,3
6,3,8,1
6,5,0,7
6,5,8,3
6,7,1,6
6,7,7,7
6,8,2,7
6,8,6,5
7,0,4,2
7,3,3,2
7,3,5,8
7,4,3,9
7,4,4,4
7,4,5,7
7,5,3,1
7,5,5,3
7,8,4,3
8,0,0,1
8,0,1,2
8,0,4,3
8,0,7,4
8,0,8,7
8,1,2,8
8,1,6,1
8,2,1,4
8,2,3,1
8,2,5,9
8,2,7,6
8,6,1,8
8,6,3,4
8,6,5,3
8,6,7,9
8,7,2,9
8,7,6,3
8,8,0,5
8,8,1,3
8,8,4,8
8,8,7,2
8,8,8,6
