0,0,2,1
0,0,4,7
0,0,6,4
0,1,3,4
0,1,5,5
0,3,2,7
0,3,4,5
0,3,6,1
0,5,2,8
0,5,4,2
0,5,6,9
0,7,3,2
0,7,5,7
0,8,2,2
0,8,4,4
0,8,6,8
1,1,0,1
1,1,1,3
1,1,7,4
1,1,8,9
1,7,0,9
1,7,1,5
1,7,7,7
1,7,8,2
2,0,1,6
2,0,7,1
2,1,2,4
2,1,6,6
2,3,4,8
2,5,4,4
2,7,2,6
2,7,6,1
2,8,1,9
2,8,7,6
3,1,1,4
3,1,7,1
3,2,1,3
3,2,2,8
3,2,3,4
3,2,4,9
3,2,5,5
3,2,6,6
3,2,7,7
3,3,0,4
3,3,1,9
3,3,7,8
3,3,8,1
3,4,3,9
3,4,4,5
3,4,5,4
3,5,0,7
3,5,1,2
3,5,7,4
3,5,8,9
3,6,1,8
3,6,2,1
3,6,3,5
3,6,4,4
3,6,5,9
3,6,6,2
3,6,7,6
3,7,1,6
3,7,7,9
4,0,0,8
4,0,3,5
4,0,5,9
4,0,8,7
4,1,2,7
4,1,6,4
4,3,2,2
4,3,4,1
4,3,6,9
4,4,3,6
4,4,4,7
4,4,5,2
4,5,2,1
4,5,4,9
4,5,6,6
4,7,2,8
4,7,6,7
4,8,0,7
4,8,3,3
4,8,5,1
4,8,8,9
5,1,1,8
5,1,7,2
5,2,1,2
5,2,2,6
5,2,3,8
5,2,4,1
5,2,5,3
5,2,6,5
5,2,7,4
5,3,0,1
5,3,1,3
5,3,7,6
5,3,8,7
5,4,3,3
5,4,4,8
5,4,5,1
5,5,0,9
5,5,1,5
5,5,7,1
5,5,8,3
5,6,1,7
5,6,2,2
5,6,3,1
5,6,4,3
5,6,5,8
5,6,6,9
5,6,7,5
5,7,1,4
5,7,7,8
6,0,1,3
6,0,7,4
6,1,2,2
6,1,6,1
6,3,4,9
6,5,4,7
6,7,2,1
6,7,6,9
6,8,1,6
6,8,7,8
7,1,0,4
7,1,1,9
7,1,7,6
7,1,8,7
7,7,0,6
7,7,1,7
7,7,7,1
7,7,8,3
8,0,2,4
8,0,4,1
8,0,6,6
8,1,3,7
8,1,5,6
8,3,2,1
8,3,4,6
8,3,6,5
8,5,2,9
8,5,4,8
8,5,6,7
8,7,3,1
8,7,5,8
8,8,2,8
8,8,4,7
8,8,6,4
