0,1,2,1
0,1,4,4
0,1,6,7
0,2,2,8
0,2,6,2
0,4,2,2
0,4,6,4
0,6,2,5
0,6,6,1
0,7,2,4
0,7,4,6
0,7,6,8
1,0,3,6
1,0,5,9
1,1,0,3
1,1,1,9
1,1,4,1
1,1,7,6
1,1,8,8
1,2,0,1
1,2,8,3
1,4,3,9
1,4,5,8
1,6,0,9
1,6,8,4
1,7,0,5
1,7,1,6
1,7,4,4
1,7,7,1
1,7,8,9
1,8,3,1
1,8,5,6
2,1,3,9
2,1,5,3
2,2,0,2
2,2,8,6
2,6,0,3
2,6,8,8
2,7,3,7
2,7,5,5
3,3,0,3
3,3,4,1
3,3,8,8
3,5,0,8
3,5,4,3
3,5,8,1
4,0,3,3
4,0,4,7
4,0,5,4
4,3,0,4
4,3,8,5
4,4,0,9
4,4,4,5
4,4,8,4
4,5,0,5
4,5,8,9
4,8,3,9
4,8,4,8
4,8,5,2
5,3,0,2
5,3,4,7
5,3,8,6
5,5,0,7
5,5,4,6
5,5,8,2
6,1,3,3
6,1,5,6
6,2,0,9
6,2,8,4
6,6,0,7
6,6,8,2
6,7,3,5
6,7,5,8
7,0,3,7
7,0,5,5
7,1,0,1
7,1,1,5
7,1,4,8
7,1,7,7
7,1,8,3
7,2,0,8
7,2,8,1
7,4,3,5
7,4,5,3
7,6,0,5
7,6,8,9
7,7,0,4
7,7,1,7
7,7,4,9
7,7,7,8
7,7,8,5
7,8,3,8
7,8,5,7
8,1,2,9
8,1,4,7
8,1,6,8
8,2,2,5
8,2,6,3
8,4,2,1
8,4,6,2
8,6,2,2
8,6,6,4
8,7,2,6
8,7,4,3
8,7,6,9
