0,0,0,2
0,0,8,1
0,1,1,9
0,1,4,1
0,1,7,8
0,3,1,7
0,3,2,4
0,3,4,6
0,3,6,2
0,3,7,9
0,4,2,5
0,4,6,7
0,5,1,2
0,5,2,9
0,5,4,3
0,5,6,1
0,5,7,5
0,7,1,8
0,7,4,5
0,7,7,1
0,8,0,5
0,8,8,4
1,1,3,9
1,1,5,7
1,3,2,2
1,3,6,6
1,4,1,3
1,4,2,7
1,4,6,8
1,4,7,2
1,5,2,1
1,5,6,3
1,7,3,8
1,7,5,4
2,0,2,7
2,0,3,1
2,0,4,4
2,0,5,6
2,0,6,8
2,1,2,1
2,1,3,2
2,1,4,5
2,1,5,8
2,1,6,3
2,4,1,9
2,4,4,7
2,4,7,6
2,7,2,5
2,7,3,9
2,7,4,6
2,7,5,1
2,7,6,2
2,8,2,9
2,8,3,4
2,8,4,8
2,8,5,2
2,8,6,7
3,0,4,5
3,2,4,4
3,3,1,3
3,3,7,6
3,5,1,8
3,5,7,3
3,6,4,2
3,8,4,1
4,1,1,8
4,1,4,6
4,1,7,3
4,2,1,3
4,2,4,8
4,2,7,6
4,3,0,4
4,3,8,3
4,4,1,2
4,4,2,3
4,4,6,9
4,4,7,7
4,5,0,9
4,5,8,8
4,6,1,9
4,6,4,5
4,6,7,4
4,7,1,4
4,7,4,9
4,7,7,5
5,0,4,1
5,2,4,7
5,3,1,9
5,3,7,4
5,5,1,5
5,5,7,9
5,6,4,6
5,8,4,3
6,0,2,6
6,0,3,8
6,0,4,2
6,0,5,5
6,0,6,9
6,1,2,8
6,1,3,3
6,1,4,7
6,1,5,9
6,1,6,4
6,4,1,7
6,4,4,6
6,4,7,9
6,7,2,1
6,7,3,2
6,7,4,4
6,7,5,8
6,7,6,3
6,8,2,2
6,8,3,7
6,8,4,5
6,8,5,3
6,8,6,6
7,1,3,1
7,1,5,6
7,3,2,3
7,3,6,9
7,4,1,5
7,4,2,6
7,4,6,4
7,4,7,3
7,5,2,8
7,5,6,5
7,7,3,5
7,7,5,7
8,0,0,3
8,0,8,8
8,1,1,1
8,1,4,8
8,1,7,9
8,3,1,6
8,3,2,1
8,3,4,9
8,3,6,3
8,3,7,7
8,4,2,2
8,4,6,6
8,5,1,3
8,5,2,7
8,5,4,5
8,5,6,8
8,5,7,2
8,7,1,5
8,7,4,1
8,7,7,8
8,8,0,1
8,8,8,7
