0,0,3,9
0,0,4,8
0,0,5,6
0,1,3,5
0,1,5,3
0,3,3,2
0,3,5,7
0,4,2,8
0,4,6,7
0,5,3,8
0,5,5,4
0,7,3,7
0,7,5,8
0,8,3,3
0,8,4,6
0,8,5,9
1,0,3,2
1,0,4,1
1,0,5,5
1,2,0,1
1,2,2,2
1,2,4,6
1,2,6,8
1,2,8,9
1,3,0,2
1,3,8,7
1,5,0,8
1,5,8,2
1,6,0,4
1,6,2,6
1,6,4,3
1,6,6,2
1,6,8,5
1,8,3,8
1,8,4,5
1,8,5,2
2,0,0,2
2,0,1,1
2,0,7,8
2,0,8,5
2,1,2,8
2,1,6,7
2,3,4,1
2,4,1,2
2,4,2,3
2,4,4,4
2,4,6,5
2,4,7,9
2,5,4,6
2,7,2,1
2,7,6,6
2,8,0,8
2,8,1,6
2,8,7,5
2,8,8,9
3,0,2,9
3,0,6,3
3,8,2,3
3,8,6,5
4,0,4,7
4,2,2,3
4,2,6,5
4,4,0,9
4,4,8,5
4,6,2,9
4,6,6,1
4,8,4,4
5,0,2,2
5,0,6,1
5,8,2,1
5,8,6,6
6,0,0,5
6,0,1,4
6,0,7,2
6,0,8,8
6,1,2,2
6,1,6,3
6,3,4,2
6,4,1,5
6,4,2,4
6,4,4,6
6,4,6,1
6,4,7,7
6,5,4,3
6,7,2,9
6,7,6,8
6,8,0,4
6,8,1,8
6,8,7,3
6,8,8,7
7,0,3,5
7,0,4,4
7,0,5,8
7,2,0,4
7,2,2,5
7,2,4,1
7,2,6,2
7,2,8,7
7,3,0,5
7,3,8,8
7,5,0,9
7,5,8,5
7,6,0,6
7,6,2,8
7,6,4,2
7,6,6,5
7,6,8,3
7,8,3,4
7,8,4,3
7,8,5,5
8,0,3,7
8,0,4,2
8,0,5,1
8,1,3,8
8,1,5,9
8,3,3,5
8,3,5,8
8,4,2,9
8,4,6,8
8,5,3,9
8,5,5,6
8,7,3,1
8,7,5,4
8,8,3,2
8,8,4,8
8,8,5,7
