0,0,0,9
0,0,4,4
0,0,8,2
0,2,1,8
0,2,2,4
0,2,6,7
0,2,7,5
0,3,4,3
0,4,4,6
0,5,4,8
0,6,1,3
0,6,2,2
0,6,6,9
0,6,7,4
0,8,0,7
0,8,4,5
0,8,8,3
1,0,0,4
1,0,8,5
1,3,1,2
1,3,7,6
1,4,2,4
1,4,4,9
1,4,6,7
1,5,1,1
1,5,7,3
1,8,0,8
1,8,8,7
2,0,1,5
2,0,7,9
2,1,1,4
2,1,2,6
2,1,6,5
2,1,7,1
2,2,3,4
2,2,5,5
2,4,2,2
2,4,6,9
2,6,3,2
2,6,5,3
2,7,1,1
2,7,2,7
2,7,6,8
2,7,7,3
2,8,1,2
2,8,7,6
3,2,1,5
3,2,7,6
3,3,2,4
3,3,6,3
3,5,2,5
3,5,6,4
3,6,1,1
3,6,7,3
4,0,1,7
4,0,7,8
4,1,1,8
4,1,2,9
4,1,3,7
4,1,5,3
4,1,6,6
4,1,7,4
4,2,3,5
4,2,5,9
4,3,0,2
4,3,3,4
4,3,5,6
4,3,8,8
4,4,4,7
4,5,0,6
4,5,3,9
4,5,5,8
4,5,8,3
4,6,3,6
4,6,5,1
4,7,1,9
4,7,2,5
4,7,3,2
4,7,5,7
4,7,6,4
4,7,7,1
4,8,1,6
4,8,7,7
5,2,1,2
5,2,7,9
5,3,2,9
5,3,6,6
5,5,2,2
5,5,6,5
5,6,1,5
5,6,7,6
6,0,1,2
6,0,7,6
6,1,1,5
6,1,2,3
6,1,6,7
6,1,7,9
6,2,3,9
6,2,5,6
6,4,2,1
6,4,6,6
6,6,3,1
6,6,5,8
6,7,1,8
6,7,2,4
6,7,6,2
6,7,7,5
6,8,1,1
6,8,7,3
7,0,0,7
7,0,8,1
7,3,1,5
7,3,7,9
7,4,2,7
7,4,4,3
7,4,6,5
7,5,1,2
7,5,7,6
7,8,0,4
7,8,8,5
8,0,0,5
8,0,4,1
8,0,8,7
8,2,1,9
8,2,2,1
8,2,6,6
8,2,7,8
8,3,4,4
8,4,4,2
8,5,4,9
8,6,1,4
8,6,2,7
8,6,6,5
8,6,7,1
8,8,0,6
8,8,4,8
8,8,8,4
