0,2,1,9
0,2,2,3
0,2,6,4
0,2,7,8
0,3,2,5
0,3,6,7
0,5,2,6
0,5,6,5
0,6,1,1
0,6,2,9
0,6,6,2
0,6,7,4
1,2,1,5
1,2,3,3
1,2,5,4
1,2,7,6
1,6,1,2
1,6,3,4
1,6,5,1
1,6,7,9
2,0,1,2
2,0,2,5
2,0,4,6
2,0,6,7
2,0,7,9
2,2,0,1
2,2,8,2
2,3,2,9
2,3,6,2
2,4,1,3
2,4,7,7
2,5,2,8
2,5,6,9
2,6,0,8
2,6,8,6
2,8,1,9
2,8,2,3
2,8,4,1
2,8,6,4
2,8,7,8
3,0,2,8
3,0,6,4
3,1,4,6
3,3,3,6
3,3,5,4
3,5,3,1
3,5,5,3
3,7,4,3
3,8,2,1
3,8,6,8
4,0,3,8
4,0,5,5
4,1,4,3
4,2,1,3
4,2,7,7
4,3,4,2
4,4,1,2
4,4,3,5
4,4,5,1
4,4,7,9
4,5,4,4
4,6,1,9
4,6,7,8
4,7,4,8
4,8,3,2
4,8,5,3
5,0,2,3
5,0,6,5
5,1,4,8
5,3,3,8
5,3,5,5
5,5,3,2
5,5,5,6
5,7,4,6
5,8,2,2
5,8,6,3
6,0,1,6
6,0,2,1
6,0,4,4
6,0,6,3
6,0,7,2
6,2,0,8
6,2,8,6
6,3,2,7
6,3,6,6
6,4,1,4
6,4,7,3
6,5,2,5
6,5,6,7
6,6,0,4
6,6,8,5
6,8,1,1
6,8,2,9
6,8,4,8
6,8,6,2
6,8,7,4
7,2,1,2
7,2,3,5
7,2,5,1
7,2,7,4
7,6,1,6
7,6,3,7
7,6,5,8
7,6,7,2
8,2,1,1
8,2,2,5
8,2,6,2
8,2,7,9
8,3,2,1
8,3,6,3
8,5,2,9
8,5,6,1
8,6,1,8
8,6,2,7
8,6,6,6
8,6,7,1
