0,0,3,4
0,0,5,1
0,8,3,1
0,8,5,2
1,0,1,5
1,0,7,6
1,1,1,4
1,1,2,2
1,1,6,9
1,1,7,7
1,2,1,9
1,2,2,6
1,2,6,5
1,2,7,2
1,3,3,1
1,3,5,6
1,4,2,1
1,4,6,2
1,5,3,8
1,5,5,2
1,6,1,3
1,6,2,9
1,6,6,1
1,6,7,5
1,7,1,8
1,7,2,5
1,7,6,3
1,7,7,4
1,8,1,1
1,8,7,9
2,0,1,2
2,0,7,1
2,1,0,9
2,1,4,4
2,1,8,5
2,4,3,9
2,4,5,8
2,7,0,1
2,7,4,3
2,7,8,8
2,8,1,9
2,8,7,2
3,0,3,1
3,0,5,3
3,1,0,5
3,1,8,3
3,3,0,8
3,3,2,1
3,3,6,2
3,3,8,6
3,4,2,6
3,4,3,8
3,4,5,1
3,4,6,5
3,5,0,4
3,5,2,9
3,5,6,8
3,5,8,1
3,7,0,3
3,7,8,7
3,8,3,3
3,8,5,8
4,0,0,9
4,0,4,2
4,0,8,1
4,2,0,6
4,2,2,7
4,2,6,4
4,2,8,9
4,3,1,6
4,3,7,4
4,4,0,5
4,4,8,8
4,5,1,1
4,5,7,6
4,6,0,1
4,6,2,3
4,6,6,2
4,6,8,6
4,8,0,4
4,8,4,7
4,8,8,3
5,0,3,9
5,0,5,5
5,1,0,2
5,1,8,4
5,3,0,9
5,3,2,5
5,3,6,1
5,3,8,3
5,4,2,3
5,4,3,5
5,4,5,4
5,4,6,6
5,5,0,6
5,5,2,7
5,5,6,4
5,5,8,9
5,7,0,5
5,7,8,1
5,8,3,4
5,8,5,9
6,0,1,3
6,0,7,9
6,1,0,6
6,1,4,7
6,1,8,2
6,4,3,2
6,4,5,9
6,7,0,4
6,7,4,5
6,7,8,9
6,8,1,6
6,8,7,1
7,0,1,9
7,0,7,2
7,1,1,5
7,1,2,7
7,1,6,4
7,1,7,6
7,2,1,4
7,2,2,2
7,2,6,9
7,2,7,7
7,3,3,8
7,3,5,2
7,4,2,8
7,4,6,7
7,5,3,3
7,5,5,7
7,6,1,1
7,6,2,4
7,6,6,8
7,6,7,9
7,7,1,3
7,7,2,9
7,7,6,1
7,7,7,5
7,8,1,8
7,8,7,4
8,0,3,3
8,0,5,2
8,8,3,6
8,8,5,5
