0,0,0,2
0,0,8,6
0,1,2,9
0,1,3,3
0,1,5,5
0,1,6,4
0,2,1,5
0,2,4,6
0,2,7,9
0,3,0,1
0,3,4,5
0,3,8,4
0,4,4,4
0,5,0,4
0,5,4,1
0,5,8,5
0,6,1,6
0,6,4,8
0,6,7,1
0,7,2,4
0,7,3,1
0,7,5,6
0,7,6,2
0,8,0,9
0,8,8,8
1,0,0,3
1,0,8,9
1,2,0,9
1,2,1,6
1,2,4,3
1,2,7,4
1,2,8,8
1,3,2,8
1,3,4,2
1,3,6,5
1,5,2,3
1,5,4,7
1,5,6,1
1,6,0,1
1,6,1,9
1,6,4,5
1,6,7,6
1,6,8,4
1,8,0,4
1,8,8,5
2,2,1,8
2,2,4,1
2,2,7,6
2,4,4,9
2,6,1,4
2,6,4,6
2,6,7,3
3,0,2,1
3,0,6,3
3,8,2,4
3,8,6,9
4,2,1,3
4,2,7,5
4,6,1,2
4,6,7,9
5,0,2,3
5,0,6,7
5,8,2,9
5,8,6,2
6,2,1,4
6,2,4,7
6,2,7,3
6,4,4,1
6,6,1,7
6,6,4,9
6,6,7,5
7,0,0,8
7,0,8,3
7,2,0,3
7,2,1,7
7,2,4,8
7,2,7,1
7,2,8,9
7,3,2,9
7,3,4,6
7,3,6,4
7,5,2,8
7,5,4,2
7,5,6,5
7,6,0,5
7,6,1,3
7,6,4,4
7,6,7,7
7,6,8,1
7,8,0,1
7,8,8,4
8,0,0,5
8,0,8,1
8,1,2,2
8,1,3,7
8,1,5,9
8,1,6,3
8,2,1,9
8,2,4,5
8,2,7,7
8,3,0,8
8,3,4,9
8,3,8,3
8,4,4,3
8,5,0,3
8,5,4,8
8,5,8,9
8,6,1,1
8,6,4,7
8,6,7,8
8,7,2,3
8,7,3,8
8,7,5,4
8,7,6,1
8,8,0,7
8,8,8,2
