0,0,1,4
0,0,4,1
0,0,7,8
0,2,3,9
0,2,5,5
0,6,3,1
0,6,5,6
0,8,1,3
0,8,4,9
0,8,7,6
1,0,1,8
1,0,2,7
1,0,6,6
1,0,7,1
1,4,3,1
1,4,5,6
1,8,1,6
1,8,2,1
1,8,6,4
1,8,7,5
2,2,2,9
2,2,6,8
2,3,2,1
2,3,6,5
2,5,2,4
2,5,6,3
2,6,2,6
2,6,6,9
3,0,3,9
3,0,5,3
3,1,0,9
3,1,8,7
3,2,3,2
3,2,5,1
3,3,0,3
3,3,4,1
3,3,8,5
3,4,1,6
3,4,7,9
3,5,0,1
3,5,4,9
3,5,8,3
3,6,3,5
3,6,5,8
3,7,0,5
3,7,8,6
3,8,3,3
3,8,5,7
4,1,3,5
4,1,5,2
4,2,1,6
4,2,7,4
4,3,2,4
4,3,6,9
4,5,2,3
4,5,6,8
4,6,1,3
4,6,7,6
4,7,3,4
4,7,5,3
5,0,3,1
5,0,5,5
5,1,0,6
5,1,8,2
5,2,3,4
5,2,5,8
5,3,0,5
5,3,4,8
5,3,8,7
5,4,1,3
5,4,7,6
5,5,0,8
5,5,4,7
5,5,8,9
5,6,3,7
5,6,5,4
5,7,0,1
5,7,8,3
5,8,3,9
5,8,5,2
6,2,2,7
6,2,6,6
6,3,2,5
6,3,6,8
6,5,2,8
6,5,6,2
6,6,2,9
6,6,6,3
7,0,1,6
7,0,2,1
7,0,6,9
7,0,7,4
7,4,3,4
7,4,5,9
7,8,1,9
7,8,2,4
7,8,6,8
7,8,7,7
8,0,1,3
8,0,4,5
8,0,7,6
8,2,3,3
8,2,5,7
8,6,3,9
8,6,5,5
8,8,1,2
8,8,4,7
8,8,7,4
