0,2,3,1
0,2,4,7
0,2,5,5
0,3,0,2
0,3,8,1
0,4,1,7
0,4,7,2
0,5,0,5
0,5,8,7
0,6,3,8
0,6,4,2
0,6,5,9
1,2,1,6
1,2,2,9
1,2,6,1
1,2,7,7
1,4,2,5
1,4,6,3
1,6,1,7
1,6,2,4
1,6,6,8
1,6,7,2
2,2,0,1
2,2,8,4
2,4,2,4
2,4,6,1
2,6,0,8
2,6,8,5
3,0,0,6
3,0,8,1
3,1,2,9
3,1,6,3
3,2,2,2
3,2,6,5
3,3,0,1
3,3,8,9
3,5,0,2
3,5,8,3
3,6,2,6
3,6,6,9
3,7,2,1
3,7,6,6
3,8,0,3
3,8,8,5
4,0,2,8
4,0,6,6
4,1,4,6
4,3,1,7
4,3,7,6
4,4,1,8
4,4,7,3
4,5,1,9
4,5,7,4
4,7,4,4
4,8,2,9
4,8,6,3
5,0,0,2
5,0,8,8
5,1,2,4
5,1,6,1
5,2,2,7
5,2,6,9
5,3,0,8
5,3,8,4
5,5,0,7
5,5,8,1
5,6,2,2
5,6,6,4
5,7,2,8
5,7,6,2
5,8,0,1
5,8,8,9
6,2,0,6
6,2,8,3
6,4,2,1
6,4,6,6
6,6,0,7
6,6,8,1
7,2,1,4
7,2,2,1
7,2,6,6
7,2,7,9
7,4,2,3
7,4,6,2
7,6,1,5
7,6,2,8
7,6,6,7
7,6,7,4
8,2,3,6
8,2,4,4
8,2,5,8
8,3,0,9
8,3,8,2
8,4,1,5
8,4,7,4
8,5,0,3
8,5,8,9
8,6,3,7
8,6,4,5
8,6,5,3
