0,0,2,6
0,0,3,3
0,0,5,8
0,0,6,2
0,1,0,8
0,1,8,4
0,2,4,4
0,3,1,1
0,3,7,9
0,5,1,4
0,5,7,2
0,6,4,9
0,7,0,9
0,7,8,2
0,8,2,3
0,8,3,7
0,8,5,5
0,8,6,6
1,2,1,8
1,2,7,9
1,4,1,3
1,4,3,7
1,4,5,5
1,4,7,4
1,6,1,1
1,6,7,6
2,2,1,6
2,2,3,1
2,2,5,3
2,2,7,7
2,4,0,4
2,4,4,3
2,4,8,7
2,6,1,4
2,6,3,3
2,6,5,8
2,6,7,2
3,1,1,7
3,1,7,1
3,2,4,3
3,3,1,5
3,3,7,8
3,4,1,6
3,4,7,7
3,5,1,3
3,5,7,4
3,6,4,8
3,7,1,1
3,7,7,6
4,3,2,9
4,3,4,8
4,3,6,7
4,4,3,2
4,4,4,5
4,4,5,7
4,5,2,2
4,5,4,6
4,5,6,8
5,1,1,1
5,1,7,4
5,2,4,9
5,3,1,8
5,3,7,6
5,4,1,2
5,4,7,1
5,5,1,9
5,5,7,5
5,6,4,6
5,7,1,4
5,7,7,2
6,2,1,7
6,2,3,9
6,2,5,4
6,2,7,1
6,4,0,2
6,4,4,9
6,4,8,3
6,6,1,2
6,6,3,6
6,6,5,9
6,6,7,3
7,2,1,9
7,2,7,5
7,4,1,4
7,4,3,1
7,4,5,3
7,4,7,2
7,6,1,6
7,6,7,7
8,0,2,7
8,0,3,4
8,0,5,6
8,0,6,8
8,1,0,9
8,1,8,2
8,2,4,2
8,3,1,9
8,3,7,5
8,5,1,2
8,5,7,1
8,6,4,5
8,7,0,5
8,7,8,3
8,8,2,9
8,8,3,3
8,8,5,8
8,8,6,7
