0,0,2,7
0,0,3,5
0,0,4,2
0,0,5,3
0,0,6,6
0,2,0,4
0,2,8,2
0,3,2,1
0,3,6,3
0,5,2,4
0,5,6,5
0,6,0,6
0,6,8,8
0,8,2,2
0,8,3,9
0,8,4,6
0,8,5,8
0,8,6,7
1,0,1,5
1,0,2,2
1,0,6,7
1,0,7,8
1,2,0,9
1,2,1,7
1,2,2,1
1,2,6,3
1,2,7,4
1,2,8,6
1,6,0,7
1,6,1,1
1,6,2,5
1,6,6,9
1,6,7,6
1,6,8,3
1,8,1,9
1,8,2,6
1,8,6,2
1,8,7,1
2,0,0,1
2,0,8,5
2,1,3,1
2,1,5,2
2,2,1,2
2,2,7,9
2,4,0,8
2,4,8,4
2,6,1,8
2,6,7,7
2,7,3,7
2,7,5,5
2,8,0,3
2,8,8,9
3,0,1,2
3,0,7,4
3,1,0,1
3,1,8,5
3,3,1,8
3,3,7,6
3,4,0,9
3,4,2,1
3,4,6,8
3,4,8,2
3,5,1,4
3,5,7,1
3,7,0,7
3,7,8,8
3,8,1,6
3,8,7,9
4,0,3,6
4,0,4,3
4,0,5,5
4,1,1,5
4,1,7,1
4,3,0,7
4,3,4,5
4,3,8,8
4,4,0,5
4,4,3,2
4,4,4,8
4,4,5,9
4,4,8,7
4,5,0,8
4,5,4,7
4,5,8,5
4,7,1,3
4,7,7,7
4,8,3,7
4,8,4,1
4,8,5,4
5,0,1,6
5,0,7,5
5,1,0,8
5,1,8,9
5,3,1,3
5,3,7,7
5,4,0,4
5,4,2,8
5,4,6,3
5,4,8,6
5,5,1,5
5,5,7,8
5,7,0,2
5,7,8,3
5,8,1,7
5,8,7,4
6,0,0,2
6,0,8,1
6,1,3,7
6,1,5,4
6,2,1,4
6,2,7,8
6,4,0,7
6,4,8,8
6,6,1,7
6,6,7,4
6,7,3,4
6,7,5,3
6,8,0,6
6,8,8,3
7,0,1,1
7,0,2,5
7,0,6,9
7,0,7,6
7,2,0,8
7,2,1,9
7,2,2,6
7,2,6,2
7,2,7,1
7,2,8,4
7,6,0,5
7,6,1,6
7,6,2,8
7,6,6,1
7,6,7,9
7,6,8,2
7,8,1,3
7,8,2,9
7,8,6,4
7,8,7,7
8,0,2,4
8,0,3,1
8,0,4,9
8,0,5,7
8,0,6,5
8,2,0,1
8,2,8,9
8,3,2,7
8,3,6,6
8,5,2,3
8,5,6,8
8,6,0,4
8,6,8,7
8,8,2,5
8,8,3,3
8,8,4,4
8,8,5,2
8,8,6,9
