0,1,4,6
0,2,1,2
0,2,7,8
0,6,1,1
0,6,7,4
0,7,4,9
1,0,0,7
1,0,8,8
1,1,1,4
1,1,7,2
1,2,3,2
1,2,5,6
1,3,1,1
1,3,7,4
1,5,1,5
1,5,7,7
1,6,3,3
1,6,5,8
1,7,1,3
1,7,7,5
1,8,0,2
1,8,8,3
2,0,1,1
2,0,7,4
2,1,2,6
2,1,6,8
2,7,2,9
2,7,6,2
2,8,1,8
2,8,7,9
3,0,1,7
3,0,7,5
3,4,1,6
3,4,7,9
3,8,1,2
3,8,7,4
4,0,0,8
4,0,1,3
4,0,4,9
4,0,7,2
4,0,8,7
4,1,2,4
4,1,3,2
4,1,5,6
4,1,6,1
4,2,0,7
4,2,2,2
4,2,6,5
4,2,8,9
4,3,1,2
4,3,3,8
4,3,5,1
4,3,7,5
4,4,0,1
4,4,8,6
4,5,1,9
4,5,3,7
4,5,5,2
4,5,7,1
4,6,0,5
4,6,2,9
4,6,6,8
4,6,8,1
4,7,2,6
4,7,3,1
4,7,5,3
4,7,6,4
4,8,0,3
4,8,1,1
4,8,4,5
4,8,7,6
4,8,8,2
5,0,1,4
5,0,7,3
5,4,1,5
5,4,7,8
5,8,1,9
5,8,7,1
6,0,1,2
6,0,7,8
6,1,2,5
6,1,6,2
6,7,2,8
6,7,6,5
6,8,1,6
6,8,7,3
7,0,0,9
7,0,8,2
7,1,1,1
7,1,7,4
7,2,3,4
7,2,5,5
7,3,1,6
7,3,7,8
7,5,1,3
7,5,7,5
7,6,3,7
7,6,5,2
7,7,1,2
7,7,7,1
7,8,0,5
7,8,8,6
8,1,4,5
8,2,1,4
8,2,7,2
8,6,1,7
8,6,7,8
8,7,4,1
