0,0,2,1
0,0,6,3
0,2,4,9
0,3,4,6
0,5,4,3
0,6,4,4
0,8,2,6
0,8,6,2
1,0,2,5
1,0,6,9
1,1,3,9
1,1,4,1
1,1,5,7
1,2,4,6
1,3,3,5
1,3,5,2
1,4,1,8
1,4,3,3
1,4,5,4
1,4,7,9
1,5,3,6
1,5,5,1
1,6,4,2
1,7,3,7
1,7,4,5
1,7,5,8
1,8,2,8
1,8,6,1
2,0,2,6
2,0,6,2
2,8,2,4
2,8,6,5
3,0,4,2
3,2,2,5
3,2,6,3
3,3,0,5
3,3,2,9
3,3,6,8
3,3,8,6
3,4,4,3
3,5,0,8
3,5,2,2
3,5,6,7
3,5,8,4
3,6,2,3
3,6,6,4
3,8,4,8
4,0,1,2
4,0,3,6
4,0,5,4
4,0,7,3
4,1,3,8
4,1,5,2
4,2,1,3
4,2,2,6
4,2,6,2
4,2,7,1
4,3,3,9
4,3,5,6
4,4,4,2
4,5,3,7
4,5,5,3
4,6,1,4
4,6,2,2
4,6,6,7
4,6,7,9
4,7,3,2
4,7,5,5
4,8,1,9
4,8,3,1
4,8,5,7
4,8,7,2
5,0,4,5
5,2,2,1
5,2,6,9
5,3,0,1
5,3,2,6
5,3,6,2
5,3,8,5
5,4,4,9
5,5,0,7
5,5,2,5
5,5,6,3
5,5,8,8
5,6,2,9
5,6,6,8
5,8,4,2
6,0,2,2
6,0,6,7
6,8,2,9
6,8,6,4
7,0,2,4
7,0,6,5
7,1,3,5
7,1,4,8
7,1,5,6
7,2,4,2
7,3,3,4
7,3,5,7
7,4,1,3
7,4,3,1
7,4,5,9
7,4,7,5
7,5,3,2
7,5,5,8
7,6,4,7
7,7,3,6
7,7,4,4
7,7,5,3
7,8,2,3
7,8,6,8
8,0,2,8
8,0,6,1
8,2,4,5
8,3,4,2
8,5,4,1
8,6,4,9
8,8,2,2
8,8,6,7
