0,0,4,1
0,1,3,8
0,1,5,4
0,3,1,3
0,3,7,7
0,4,1,2
0,4,2,9
0,4,6,3
0,4,7,5
0,5,1,1
0,5,7,8
0,7,3,4
0,7,5,7
0,8,4,3
1,0,2,5
1,0,4,3
1,0,6,8
1,1,2,8
1,1,6,7
1,3,1,5
1,3,2,1
1,3,6,6
1,3,7,4
1,5,1,6
1,5,2,2
1,5,6,1
1,5,7,3
1,7,2,4
1,7,6,9
1,8,2,9
1,8,4,4
1,8,6,3
2,0,2,9
2,0,6,3
2,8,2,3
2,8,6,2
3,0,0,5
3,0,1,9
3,0,7,3
3,0,8,6
3,1,2,4
3,1,4,6
3,1,6,5
3,3,3,7
3,3,4,3
3,3,5,6
3,4,0,3
3,4,4,5
3,4,8,8
3,5,3,4
3,5,4,1
3,5,5,8
3,7,2,5
3,7,4,4
3,7,6,3
3,8,0,8
3,8,1,4
3,8,7,2
3,8,8,5
4,0,4,5
4,4,0,8
4,4,8,5
4,8,4,8
5,0,0,8
5,0,1,4
5,0,7,2
5,0,8,5
5,1,2,6
5,1,4,2
5,1,6,8
5,3,3,5
5,3,4,9
5,3,5,2
5,4,0,5
5,4,4,8
5,4,8,6
5,5,3,3
5,5,4,6
5,5,5,7
5,7,2,8
5,7,4,3
5,7,6,2
5,8,0,3
5,8,1,6
5,8,7,1
5,8,8,8
6,0,2,8
6,0,6,6
6,8,2,6
6,8,6,5
7,0,2,4
7,0,4,6
7,0,6,1
7,1,2,1
7,1,6,3
7,3,1,4
7,3,2,9
7,3,6,7
7,3,7,2
7,5,1,7
7,5,2,5
7,5,6,9
7,5,7,6
7,7,2,2
7,7,6,8
7,8,2,8
7,8,4,2
7,8,6,6
8,0,4,9
8,1,3,1
8,1,5,2
8,3,1,6
8,3,7,3
8,4,1,5
8,4,2,8
8,4,6,6
8,4,7,4
8,5,1,9
8,5,7,1
8,7,3,2
8,7,5,3
8,8,4,6
