0,1,0,4
0,1,1,5
0,1,7,2
0,1,8,7
0,2,1,1
0,2,4,2
0,2,7,4
0,3,3,7
0,3,5,2
0,5,3,9
0,5,5,1
0,6,1,4
0,6,4,1
0,6,7,7
0,7,0,9
0,7,1,8
0,7,7,3
0,7,8,4
1,0,0,5
1,0,8,6
1,1,4,7
1,3,4,5
1,5,4,2
1,7,4,3
1,8,0,4
1,8,8,2
2,1,3,4
2,1,5,3
2,2,1,4
2,2,4,1
2,2,7,6
2,3,0,4
2,3,8,6
2,5,0,2
2,5,8,1
2,6,1,2
2,6,4,4
2,6,7,1
2,7,3,9
2,7,5,1
3,0,2,5
3,0,6,3
3,3,0,2
3,3,1,3
3,3,4,8
3,3,7,6
3,3,8,4
3,5,0,7
3,5,1,4
3,5,4,1
3,5,7,2
3,5,8,5
3,8,2,2
3,8,6,6
4,0,4,2
4,1,1,8
4,1,4,6
4,1,7,3
4,4,0,1
4,4,1,2
4,4,4,5
4,4,7,9
4,4,8,6
4,7,1,4
4,7,4,1
4,7,7,7
4,8,4,8
5,0,2,9
5,0,6,8
5,3,0,5
5,3,1,8
5,3,4,2
5,3,7,3
5,3,8,1
5,5,0,3
5,5,1,1
5,5,4,7
5,5,7,4
5,5,8,9
5,8,2,4
5,8,6,5
6,1,3,8
6,1,5,9
6,2,1,8
6,2,4,6
6,2,7,3
6,3,0,8
6,3,8,5
6,5,0,4
6,5,8,6
6,6,1,3
6,6,4,8
6,6,7,2
6,7,3,6
6,7,5,7
7,0,0,4
7,0,8,7
7,1,4,2
7,3,4,4
7,5,4,6
7,7,4,5
7,8,0,3
7,8,8,6
8,1,0,2
8,1,1,7
8,1,7,1
8,1,8,9
8,2,1,3
8,2,4,8
8,2,7,7
8,3,3,8
8,3,5,9
8,5,3,4
8,5,5,3
8,6,1,6
8,6,4,3
8,6,7,8
8,7,0,4
8,7,1,5
8,7,7,6
8,7,8,2
