0,1,4,8
0,2,0,4
0,2,4,6
0,2,8,8
0,3,0,7
0,3,3,6
0,3,5,9
0,3,8,3
0,5,0,9
0,5,3,8
0,5,5,1
0,5,8,2
0,6,0,6
0,6,4,1
0,6,8,4
0,7,4,9
1,0,0,2
1,0,1,4
1,0,7,3
1,0,8,1
1,1,0,1
1,1,8,5
1,2,2,9
1,2,6,7
1,4,0,4
1,4,2,2
1,4,6,3
1,4,8,8
1,6,2,8
1,6,6,5
1,7,0,9
1,7,8,2
1,8,0,7
1,8,1,2
1,8,7,8
1,8,8,3
2,0,0,9
2,0,4,3
2,0,8,2
2,1,0,7
2,1,1,2
2,1,7,8
2,1,8,3
2,2,2,8
2,2,6,5
2,6,2,2
2,6,6,3
2,7,0,8
2,7,1,3
2,7,7,5
2,7,8,9
2,8,0,5
2,8,4,8
2,8,8,7
3,0,1,2
3,0,4,8
3,0,7,6
3,2,0,9
3,2,8,2
3,3,3,9
3,3,5,8
3,5,3,6
3,5,5,3
3,6,0,2
3,6,8,1
3,8,1,1
3,8,4,6
3,8,7,2
4,0,3,6
4,0,5,3
4,1,0,3
4,1,8,6
4,3,0,4
4,3,2,9
4,3,6,5
4,3,8,8
4,4,4,9
4,5,0,7
4,5,2,6
4,5,6,9
4,5,8,3
4,7,0,5
4,7,8,7
4,8,3,2
4,8,5,5
5,0,1,8
5,0,4,5
5,0,7,4
5,2,0,2
5,2,8,1
5,3,3,2
5,3,5,5
5,5,3,4
5,5,5,9
5,6,0,8
5,6,8,9
5,8,1,5
5,8,4,4
5,8,7,1
6,0,0,3
6,0,4,4
6,0,8,6
6,1,0,9
6,1,1,6
6,1,7,7
6,1,8,2
6,2,2,4
6,2,6,1
6,6,2,6
6,6,6,2
6,7,0,4
6,7,1,7
6,7,7,1
6,7,8,8
6,8,0,8
6,8,4,2
6,8,8,9
7,0,0,4
7,0,1,7
7,0,7,1
7,0,8,8
7,1,0,8
7,1,8,9
7,2,2,6
7,2,6,2
7,4,0,7
7,4,2,4
7,4,6,1
7,4,8,3
7,6,2,3
7,6,6,9
7,7,0,6
7,7,8,4
7,8,0,2
7,8,1,4
7,8,7,3
7,8,8,1
8,1,4,9
8,2,0,1
8,2,4,7
8,2,8,5
8,3,0,8
8,3,3,7
8,3,5,4
8,3,8,9
8,5,0,4
8,5,3,9
8,5,5,5
8,5,8,8
8,6,0,7
8,6,4,5
8,6,8,3
8,7,4,4
