0,2,0,1
0,2,3,7
0,2,5,9
0,2,8,8
0,3,1,9
0,3,4,8
0,3,7,7
0,4,0,7
0,4,3,4
0,4,5,3
0,4,8,2
0,5,1,2
0,5,4,9
0,5,7,3
0,6,0,9
0,6,3,3
0,6,5,2
0,6,8,4
1,0,0,7
1,0,3,4
1,0,5,8
1,0,8,2
1,3,2,7
1,3,6,9
1,4,2,4
1,4,4,7
1,4,6,3
1,5,2,3
1,5,6,7
1,8,0,6
1,8,3,5
1,8,5,3
1,8,8,7
2,1,1,6
2,1,3,1
2,1,5,2
2,1,7,3
2,4,1,3
2,4,2,9
2,4,6,1
2,4,7,4
2,7,1,9
2,7,3,2
2,7,5,5
2,7,7,7
3,0,3,3
3,0,5,7
3,2,1,3
3,2,7,5
3,6,1,5
3,6,7,7
3,8,3,8
3,8,5,2
4,0,0,9
4,0,1,7
4,0,7,8
4,0,8,5
4,1,2,2
4,1,3,6
4,1,5,9
4,1,6,4
4,3,0,2
4,3,1,8
4,3,7,5
4,3,8,7
4,5,0,3
4,5,1,4
4,5,7,6
4,5,8,8
4,7,2,5
4,7,3,9
4,7,5,1
4,7,6,8
4,8,0,4
4,8,1,2
4,8,7,1
4,8,8,9
5,0,3,8
5,0,5,6
5,2,1,8
5,2,7,4
5,6,1,4
5,6,7,6
5,8,3,1
5,8,5,7
6,1,1,3
6,1,3,5
6,1,5,8
6,1,7,4
6,4,1,9
6,4,2,7
6,4,6,4
6,4,7,2
6,7,1,7
6,7,3,1
6,7,5,6
6,7,7,3
7,0,0,1
7,0,3,7
7,0,5,5
7,0,8,8
7,3,2,8
7,3,6,6
7,4,2,6
7,4,4,8
7,4,6,9
7,5,2,4
7,5,6,8
7,8,0,8
7,8,3,6
7,8,5,9
7,8,8,3
8,2,0,9
8,2,3,1
8,2,5,2
8,2,8,4
8,3,1,7
8,3,4,4
8,3,7,8
8,4,0,8
8,4,3,7
8,4,5,9
8,4,8,3
8,5,1,3
8,5,4,2
8,5,7,4
8,6,0,7
8,6,3,4
8,6,5,1
8,6,8,2
