0,0,0,4
0,0,3,3
0,0,5,1
0,0,8,9
0,2,1,8
0,2,7,3
0,3,0,1
0,3,1,3
0,3,7,5
0,3,8,6
0,4,1,2
0,4,7,4
0,5,0,6
0,5,1,7
0,5,7,9
0,5,8,8
0,6,1,5
0,6,7,1
0,8,0,3
0,8,3,8
0,8,5,4
0,8,8,7
1,0,2,9
1,0,6,7
1,3,0,2
1,3,8,3
1,5,0,3
1,5,8,7
1,8,2,2
1,8,6,1
2,0,1,5
2,0,7,1
2,1,1,4
2,1,3,1
2,1,5,5
2,1,7,8
2,3,1,6
2,3,7,2
2,4,0,9
2,4,8,5
2,5,1,8
2,5,7,3
2,7,1,2
2,7,3,9
2,7,5,7
2,7,7,4
2,8,1,7
2,8,7,9
3,1,0,4
3,1,1,3
3,1,4,5
3,1,7,2
3,1,8,9
3,3,3,5
3,3,5,6
3,4,3,3
3,4,5,9
3,5,3,2
3,5,5,7
3,7,0,1
3,7,1,6
3,7,4,7
3,7,7,5
3,7,8,3
4,2,0,9
4,2,2,6
4,2,4,4
4,2,6,3
4,2,8,5
4,4,2,9
4,4,4,7
4,4,6,8
4,6,0,6
4,6,2,1
4,6,4,2
4,6,6,5
4,6,8,8
5,1,0,1
5,1,1,6
5,1,4,7
5,1,7,5
5,1,8,3
5,3,3,7
5,3,5,4
5,4,3,6
5,4,5,1
5,5,3,9
5,5,5,8
5,7,0,2
5,7,1,5
5,7,4,8
5,7,7,1
5,7,8,6
6,0,1,1
6,0,7,7
6,1,1,8
6,1,3,7
6,1,5,6
6,1,7,3
6,3,1,2
6,3,7,4
6,4,0,6
6,4,8,8
6,5,1,3
6,5,7,5
6,7,1,9
6,7,3,8
6,7,5,4
6,7,7,6
6,8,1,5
6,8,7,1
7,0,2,6
7,0,6,9
7,3,0,9
7,3,8,5
7,5,0,4
7,5,8,9
7,8,2,9
7,8,6,7
8,0,0,8
8,0,3,9
8,0,5,7
8,0,8,1
8,2,1,3
8,2,7,5
8,3,0,7
8,3,1,4
8,3,7,8
8,3,8,2
8,4,1,9
8,4,7,6
8,5,0,2
8,5,1,5
8,5,7,1
8,5,8,3
8,6,1,1
8,6,7,7
8,8,0,4
8,8,3,3
8,8,5,1
8,8,8,9
