0,0,1,6
0,0,7,8
0,1,0,2
0,1,8,6
0,2,0,1
0,2,8,3
0,4,0,4
0,4,4,9
0,4,8,5
0,6,0,6
0,6,8,7
0,7,0,8
0,7,8,1
0,8,1,7
0,8,7,3
1,2,1,3
1,2,7,9
1,3,2,4
1,3,6,1
1,5,2,3
1,5,6,7
1,6,1,2
1,6,7,1
2,2,4,5
2,6,4,8
3,0,0,6
3,0,4,2
3,0,8,7
3,1,4,6
3,2,0,2
3,2,3,1
3,2,5,5
3,2,8,6
3,6,0,4
3,6,3,2
3,6,5,8
3,6,8,5
3,7,4,5
3,8,0,5
3,8,4,4
3,8,8,9
4,1,3,7
4,1,5,1
4,2,2,6
4,2,3,2
4,2,5,8
4,2,6,3
4,3,0,7
4,3,1,5
4,3,7,1
4,3,8,2
4,5,0,6
4,5,1,9
4,5,7,3
4,5,8,7
4,6,2,9
4,6,3,5
4,6,5,6
4,6,6,2
4,7,3,4
4,7,5,7
5,0,0,3
5,0,4,1
5,0,8,8
5,1,4,8
5,2,0,8
5,2,3,9
5,2,5,6
5,2,8,1
5,6,0,2
5,6,3,1
5,6,5,4
5,6,8,6
5,7,4,2
5,8,0,7
5,8,4,6
5,8,8,2
6,2,4,6
6,6,4,5
7,2,1,6
7,2,7,3
7,3,2,3
7,3,6,6
7,5,2,6
7,5,6,9
7,6,1,4
7,6,7,6
8,0,1,7
8,0,7,1
8,1,0,6
8,1,8,7
8,2,0,3
8,2,8,8
8,4,0,5
8,4,4,4
8,4,8,9
8,6,0,7
8,6,8,2
8,7,0,1
8,7,8,3
8,8,1,2
8,8,7,8
