0,0,0,5
0,0,3,1
0,0,5,9
0,0,8,3
0,2,0,9
0,2,2,7
0,2,6,2
0,2,8,8
0,3,4,5
0,4,2,9
0,4,4,4
0,4,6,5
0,5,4,9
0,6,0,7
0,6,2,3
0,6,6,1
0,6,8,5
0,8,0,2
0,8,3,5
0,8,5,7
0,8,8,9
1,0,3,4
1,0,5,6
1,1,1,5
1,1,3,9
1,1,4,1
1,1,5,2
1,1,7,7
1,3,2,6
1,3,6,7
1,4,1,1
1,4,7,9
1,5,2,7
1,5,6,2
1,7,1,7
1,7,3,6
1,7,4,4
1,7,5,8
1,7,7,1
1,8,3,2
1,8,5,3
2,0,1,2
2,0,7,1
2,1,1,7
2,1,7,8
2,2,4,9
2,3,0,7
2,3,8,5
2,4,1,5
2,4,7,7
2,5,0,2
2,5,8,9
2,6,4,2
2,7,1,8
2,7,7,9
2,8,1,3
2,8,7,5
3,1,1,8
3,1,7,4
3,2,3,9
3,2,4,4
3,2,5,5
3,3,1,6
3,3,7,1
3,4,2,4
3,4,6,7
3,5,1,1
3,5,7,9
3,6,3,2
3,6,4,6
3,6,5,7
3,7,1,2
3,7,7,3
4,1,0,5
4,1,1,9
4,1,7,2
4,1,8,6
4,2,3,6
4,2,5,2
4,3,1,8
4,3,2,1
4,3,4,6
4,3,6,4
4,3,7,5
4,4,3,4
4,4,5,9
4,5,1,5
4,5,2,9
4,5,4,8
4,5,6,6
4,5,7,7
4,6,3,8
4,6,5,3
4,7,0,8
4,7,1,1
4,7,7,4
4,7,8,5
5,1,1,2
5,1,7,1
5,2,3,8
5,2,4,1
5,2,5,3
5,3,1,4
5,3,7,6
5,4,2,8
5,4,6,9
5,5,1,7
5,5,7,3
5,6,3,5
5,6,4,9
5,6,5,4
5,7,1,9
5,7,7,2
6,0,1,3
6,0,7,9
6,1,1,1
6,1,7,5
6,2,4,2
6,3,0,8
6,3,8,2
6,4,1,6
6,4,7,1
6,5,0,1
6,5,8,6
6,6,4,3
6,7,1,4
6,7,7,6
6,8,1,9
6,8,7,2
7,0,3,9
7,0,5,2
7,1,1,4
7,1,3,5
7,1,4,8
7,1,5,7
7,1,7,6
7,3,2,2
7,3,6,6
7,4,1,8
7,4,7,5
7,5,2,6
7,5,6,7
7,7,1,6
7,7,3,2
7,7,4,9
7,7,5,3
7,7,7,8
7,8,3,7
7,8,5,1
8,0,0,1
8,0,3,6
8,0,5,3
8,0,8,2
8,2,0,3
8,2,2,4
8,2,6,9
8,2,8,6
8,3,4,8
8,4,2,1
8,4,4,3
8,4,6,8
8,5,4,1
8,6,0,4
8,6,2,2
8,6,6,6
8,6,8,3
8,8,0,5
8,8,3,3
8,8,5,9
8,8,8,8
