0,0,0,8
0,0,2,9
0,0,3,6
0,0,5,1
0,0,6,5
0,0,8,7
0,1,1,4
0,1,7,6
0,2,3,8
0,2,4,7
0,2,5,9
0,6,3,2
0,6,4,9
0,6,5,8
0,7,1,9
0,7,7,2
0,8,0,4
0,8,2,2
0,8,3,3
0,8,5,5
0,8,6,7
0,8,8,8
1,0,2,3
1,0,6,1
1,8,2,9
1,8,6,5
2,2,1,9
2,2,7,7
2,3,0,5
2,3,4,6
2,3,8,1
2,4,0,8
2,4,8,6
2,5,0,6
2,5,4,3
2,5,8,9
2,6,1,8
2,6,7,5
3,0,0,5
3,0,1,7
3,0,7,4
3,0,8,6
3,2,1,4
3,2,2,2
3,2,6,7
3,2,7,3
3,3,2,3
3,3,6,1
3,4,0,7
3,4,4,5
3,4,8,3
3,5,2,6
3,5,6,2
3,6,1,6
3,6,2,9
3,6,6,3
3,6,7,8
3,8,0,3
3,8,1,8
3,8,7,1
3,8,8,5
4,3,2,5
4,3,6,4
4,5,2,9
4,5,6,3
5,0,0,3
5,0,1,8
5,0,7,1
5,0,8,5
5,2,1,1
5,2,2,5
5,2,6,4
5,2,7,6
5,3,2,7
5,3,6,6
5,4,0,5
5,4,4,3
5,4,8,2
5,5,2,8
5,5,6,5
5,6,1,5
5,6,2,2
5,6,6,7
5,6,7,9
5,8,0,6
5,8,1,9
5,8,7,2
5,8,8,3
6,2,1,5
6,2,7,2
6,3,0,4
6,3,4,7
6,3,8,3
6,4,0,1
6,4,8,7
6,5,0,7
6,5,4,8
6,5,8,5
6,6,1,1
6,6,7,4
7,0,2,8
7,0,6,3
7,8,2,5
7,8,6,4
8,0,0,1
8,0,2,5
8,0,3,7
8,0,5,3
8,0,6,4
8,0,8,2
8,1,1,9
8,1,7,7
8,2,3,1
8,2,4,2
8,2,5,5
8,6,3,6
8,6,4,5
8,6,5,1
8,7,1,5
8,7,7,6
8,8,0,9
8,8,2,6
8,8,3,8
8,8,5,4
8,8,6,2
8,8,8,1
