0,0,0,7
0,0,1,3
0,0,4,9
0,0,7,2
0,0,8,5
0,1,4,2
0,2,0,1
0,2,1,2
0,2,3,7
0,2,4,3
0,2,5,4
0,2,7,9
0,2,8,8
0,3,1,6
0,3,7,7
0,4,0,5
0,4,8,9
0,5,1,7
0,5,7,8
0,6,0,2
0,6,1,5
0,6,3,8
0,6,4,4
0,6,5,7
0,6,7,1
0,6,8,6
0,7,4,1
0,8,0,9
0,8,1,1
0,8,4,5
0,8,7,4
0,8,8,7
1,0,2,6
1,0,3,2
1,0,5,1
1,0,6,3
1,1,1,5
1,1,3,3
1,1,5,7
1,1,7,8
1,2,3,9
1,2,5,6
1,4,0,7
1,4,8,5
1,6,3,1
1,6,5,9
1,7,1,6
1,7,3,5
1,7,5,2
1,7,7,7
1,8,2,2
1,8,3,4
1,8,5,8
1,8,6,1
2,0,2,2
2,0,3,4
2,0,4,7
2,0,5,3
2,0,6,8
2,2,1,6
2,2,7,7
2,4,2,6
2,4,6,1
2,6,1,9
2,6,7,8
2,8,2,4
2,8,3,6
2,8,4,9
2,8,5,1
2,8,6,3
3,0,0,4
3,0,8,6
3,1,0,3
3,1,8,1
3,3,1,1
3,3,7,6
3,4,0,2
3,4,1,7
3,4,7,1
3,4,8,4
3,5,1,6
3,5,7,9
3,7,0,5
3,7,8,9
3,8,0,6
3,8,8,2
4,0,2,3
4,0,4,4
4,0,6,7
4,3,3,4
4,3,5,8
4,4,0,4
4,4,4,2
4,4,8,6
4,5,3,5
4,5,5,6
4,8,2,1
4,8,4,6
4,8,6,5
5,0,0,2
5,0,8,4
5,1,0,1
5,1,8,8
5,3,1,8
5,3,7,4
5,4,0,6
5,4,1,9
5,4,7,8
5,4,8,2
5,5,1,4
5,5,7,5
5,7,0,7
5,7,8,5
5,8,0,4
5,8,8,6
6,0,2,5
6,0,3,7
6,0,4,3
6,0,5,6
6,0,6,2
6,2,1,9
6,2,7,3
6,4,2,9
6,4,6,6
6,6,1,1
6,6,7,6
6,8,2,7
6,8,3,9
6,8,4,1
6,8,5,2
6,8,6,4
7,0,2,7
7,0,3,9
7,0,5,4
7,0,6,6
7,1,1,8
7,1,3,6
7,1,5,1
7,1,7,2
7,2,3,3
7,2,5,7
7,4,0,8
7,4,8,3
7,6,3,2
7,6,5,8
7,7,1,7
7,7,3,1
7,7,5,9
7,7,7,3
7,8,2,9
7,8,3,5
7,8,5,6
7,8,6,2
8,0,0,8
8,0,1,6
8,0,4,1
8,0,7,7
8,0,8,3
8,1,4,7
8,2,0,4
8,2,1,7
8,2,3,8
8,2,4,6
8,2,5,9
8,2,7,1
8,2,8,2
8,3,1,5
8,3,7,3
8,4,0,1
8,4,8,8
8,5,1,3
8,5,7,4
8,6,0,7
8,6,1,8
8,6,3,6
8,6,4,9
8,6,5,1
8,6,7,2
8,6,8,5
8,7,4,2
8,8,0,3
8,8,1,2
8,8,4,8
8,8,7,9
8,8,8,1
