0,2,1,9
0,2,4,4
0,2,7,5
0,6,1,3
0,6,4,8
0,6,7,1
1,0,1,8
1,0,7,3
1,1,0,6
1,1,1,1
1,1,2,5
1,1,6,7
1,1,7,8
1,1,8,4
1,7,0,9
1,7,1,2
1,7,2,3
1,7,6,5
1,7,7,6
1,7,8,1
1,8,1,7
1,8,7,2
2,0,4,7
2,1,0,9
2,1,1,7
2,1,4,6
2,1,7,2
2,1,8,3
2,2,1,6
2,2,7,7
2,3,1,1
2,3,7,8
2,4,0,2
2,4,4,8
2,4,8,4
2,5,1,8
2,5,7,3
2,6,1,5
2,6,7,4
2,7,0,1
2,7,1,4
2,7,4,5
2,7,7,9
2,7,8,7
2,8,4,4
3,0,0,3
3,0,2,2
3,0,6,7
3,0,8,6
3,3,3,1
3,3,5,9
3,5,3,2
3,5,5,4
3,8,0,4
3,8,2,7
3,8,6,9
3,8,8,8
4,0,0,9
4,0,8,3
4,3,1,4
4,3,7,9
4,5,1,5
4,5,7,4
4,8,0,2
4,8,8,5
5,0,0,6
5,0,2,5
5,0,6,1
5,0,8,4
5,3,3,4
5,3,5,3
5,5,3,5
5,5,5,7
5,8,0,8
5,8,2,1
5,8,6,3
5,8,8,2
6,0,4,4
6,1,0,1
6,1,1,5
6,1,4,9
6,1,7,4
6,1,8,7
6,2,1,4
6,2,7,9
6,3,1,2
6,3,7,6
6,4,0,4
6,4,4,6
6,4,8,3
6,5,1,6
6,5,7,7
6,6,1,1
6,6,7,8
6,7,0,2
6,7,1,3
6,7,4,8
6,7,7,1
6,7,8,5
6,8,4,1
7,0,1,6
7,0,7,7
7,1,0,4
7,1,1,2
7,1,2,3
7,1,6,9
7,1,7,6
7,1,8,1
7,7,0,8
7,7,1,5
7,7,2,7
7,7,6,3
7,7,7,4
7,7,8,2
7,8,1,4
7,8,7,9
8,2,1,1
8,2,4,3
8,2,7,8
8,6,1,7
8,6,4,6
8,6,7,2
