0,1,2,5
0,1,6,2
0,3,3,2
0,3,4,3
0,3,5,5
0,5,3,1
0,5,4,9
0,5,5,6
0,7,2,6
0,7,6,1
1,0,1,4
1,0,3,3
1,0,5,2
1,0,7,5
1,1,0,2
1,1,4,8
1,1,8,4
1,3,1,3
1,3,7,8
1,4,4,2
1,5,1,5
1,5,7,9
1,7,0,3
1,7,4,5
1,7,8,2
1,8,1,8
1,8,3,2
1,8,5,4
1,8,7,1
2,0,4,4
2,1,0,6
2,1,8,5
2,2,0,9
2,2,4,7
2,2,8,3
2,4,4,6
2,6,0,5
2,6,4,2
2,6,8,1
2,7,0,1
2,7,8,6
2,8,4,1
3,1,3,4
3,1,5,1
3,2,3,8
3,2,5,6
3,4,2,7
3,4,6,8
3,6,3,1
3,6,5,7
3,7,3,2
3,7,5,5
4,0,1,3
4,0,7,1
4,1,4,7
4,2,0,8
4,2,8,6
4,3,2,8
4,3,6,4
4,4,1,9
4,4,7,5
4,5,2,4
4,5,6,6
4,6,0,1
4,6,8,7
4,7,4,1
4,8,1,7
4,8,7,6
5,1,3,9
5,1,5,8
5,2,3,3
5,2,5,7
5,4,2,2
5,4,6,3
5,6,3,8
5,6,5,2
5,7,3,6
5,7,5,4
6,0,4,7
6,1,0,3
6,1,8,2
6,2,0,6
6,2,4,3
6,2,8,9
6,4,4,8
6,6,0,7
6,6,4,1
6,6,8,5
6,7,0,9
6,7,8,1
6,8,4,4
7,0,1,6
7,0,3,5
7,0,5,3
7,0,7,7
7,1,0,1
7,1,4,4
7,1,8,6
7,3,1,9
7,3,7,4
7,4,4,3
7,5,1,2
7,5,7,6
7,7,0,5
7,7,4,6
7,7,8,8
7,8,1,4
7,8,3,3
7,8,5,2
7,8,7,5
8,1,2,6
8,1,6,1
8,3,3,8
8,3,4,4
8,3,5,7
8,5,3,5
8,5,4,2
8,5,5,3
8,7,2,1
8,7,6,5
