0,0,0,4
0,0,8,3
0,3,2,2
0,3,6,1
0,5,2,5
0,5,6,2
0,8,0,5
0,8,8,1
1,1,3,4
1,1,5,3
1,2,0,7
1,2,3,6
1,2,5,9
1,2,8,5
1,6,0,9
1,6,3,5
1,6,5,1
1,6,8,3
1,7,3,7
1,7,5,4
2,0,0,6
2,0,4,3
2,0,8,9
2,1,4,9
2,2,2,3
2,2,4,7
2,2,6,4
2,3,1,7
2,3,3,4
2,3,5,1
2,3,7,2
2,5,1,9
2,5,3,3
2,5,5,2
2,5,7,4
2,6,2,2
2,6,4,4
2,6,6,1
2,7,4,2
2,8,0,7
2,8,4,1
2,8,8,4
3,0,2,7
3,0,6,4
3,1,0,4
3,1,8,1
3,2,0,6
3,2,4,9
3,2,8,3
3,3,3,9
3,3,5,4
3,4,4,1
3,5,3,2
3,5,5,7
3,6,0,5
3,6,4,2
3,6,8,8
3,7,0,1
3,7,8,7
3,8,2,2
3,8,6,5
4,0,2,1
4,0,6,3
4,1,0,7
4,1,2,3
4,1,6,5
4,1,8,9
4,2,3,2
4,2,5,7
4,6,3,1
4,6,5,6
4,7,0,9
4,7,2,4
4,7,6,8
4,7,8,1
4,8,2,8
4,8,6,7
5,0,2,4
5,0,6,6
5,1,0,1
5,1,8,7
5,2,0,3
5,2,4,6
5,2,8,4
5,3,3,1
5,3,5,6
5,4,4,7
5,5,3,5
5,5,5,9
5,6,0,8
5,6,4,9
5,6,8,2
5,7,0,7
5,7,8,5
5,8,2,5
5,8,6,1
6,0,0,7
6,0,4,1
6,0,8,4
6,1,4,4
6,2,2,1
6,2,4,2
6,2,6,5
6,3,1,2
6,3,3,5
6,3,5,8
6,3,7,6
6,5,1,4
6,5,3,1
6,5,5,6
6,5,7,5
6,6,2,6
6,6,4,5
6,6,6,8
6,7,4,6
6,8,0,2
6,8,4,8
6,8,8,5
7,1,3,5
7,1,5,1
7,2,0,2
7,2,3,7
7,2,5,4
7,2,8,9
7,6,0,4
7,6,3,9
7,6,5,8
7,6,8,1
7,7,3,2
7,7,5,5
8,0,0,5
8,0,8,1
8,3,2,6
8,3,6,8
8,5,2,9
8,5,6,6
8,8,0,9
8,8,8,8
