0,0,3,1
0,0,5,9
0,1,1,9
0,1,7,4
0,2,1,6
0,2,2,2
0,2,6,9
0,2,7,3
0,3,4,2
0,4,0,2
0,4,1,8
0,4,4,4
0,4,7,9
0,4,8,1
0,5,4,8
0,6,1,2
0,6,2,3
0,6,6,8
0,6,7,5
0,7,1,4
0,7,7,1
0,8,3,8
0,8,5,2
1,1,2,1
1,1,6,3
1,2,0,3
1,2,8,4
1,3,1,4
1,3,7,1
1,4,3,8
1,4,5,9
1,5,1,9
1,5,7,5
1,6,0,5
1,6,8,2
1,7,2,9
1,7,6,7
2,0,3,8
2,0,5,7
2,2,3,5
2,2,5,3
2,6,3,2
2,6,5,5
2,8,3,3
2,8,5,9
3,1,0,9
3,1,1,3
3,1,3,8
3,1,5,7
3,1,7,2
3,1,8,1
3,2,1,2
3,2,2,8
3,2,6,3
3,2,7,4
3,3,4,8
3,5,4,4
3,6,1,8
3,6,2,5
3,6,6,4
3,6,7,9
3,7,0,6
3,7,1,9
3,7,3,7
3,7,5,4
3,7,7,5
3,7,8,2
4,0,2,9
4,0,6,2
4,1,3,1
4,1,5,9
4,3,0,6
4,3,3,7
4,3,4,1
4,3,5,4
4,3,8,2
4,4,3,5
4,4,5,3
4,5,0,7
4,5,3,8
4,5,4,6
4,5,5,2
4,5,8,1
4,7,3,9
4,7,5,6
4,8,2,7
4,8,6,9
5,1,0,7
5,1,1,1
5,1,3,3
5,1,5,2
5,1,7,9
5,1,8,8
5,2,1,9
5,2,2,3
5,2,6,1
5,2,7,5
5,3,4,3
5,5,4,5
5,6,1,3
5,6,2,6
5,6,6,5
5,6,7,7
5,7,0,4
5,7,1,7
5,7,3,2
5,7,5,5
5,7,7,6
5,7,8,9
6,0,3,9
6,0,5,6
6,2,3,1
6,2,5,7
6,6,3,5
6,6,5,3
6,8,3,2
6,8,5,4
7,1,2,2
7,1,6,9
7,2,0,7
7,2,8,3
7,3,1,3
7,3,7,9
7,4,3,9
7,4,5,4
7,5,1,4
7,5,7,3
7,6,0,3
7,6,8,5
7,7,2,4
7,7,6,6
8,0,3,7
8,0,5,4
8,1,1,4
8,1,7,8
8,2,1,8
8,2,2,5
8,2,6,4
8,2,7,7
8,3,4,5
8,4,0,5
8,4,1,9
8,4,4,1
8,4,7,4
8,4,8,7
8,5,4,7
8,6,1,5
8,6,2,9
8,6,6,7
8,6,7,3
8,7,1,3
8,7,7,9
8,8,3,9
8,8,5,5
