0,0,1,6
0,0,3,5
0,0,5,8
0,0,7,7
0,1,0,7
0,1,8,4
0,2,3,3
0,2,4,4
0,2,5,7
0,4,0,1
0,4,1,7
0,4,2,8
0,4,3,4
0,4,5,9
0,4,6,5
0,4,7,2
0,4,8,3
0,6,3,2
0,6,4,8
0,6,5,4
0,7,0,8
0,7,8,2
0,8,1,2
0,8,3,1
0,8,5,3
0,8,7,6
1,0,1,9
1,0,7,8
1,1,1,4
1,1,4,5
1,1,7,1
1,2,0,5
1,2,8,3
1,6,0,9
1,6,8,6
1,7,1,6
1,7,4,2
1,7,7,7
1,8,1,8
1,8,7,3
2,1,4,7
2,7,4,3
3,0,1,3
3,0,3,6
3,0,5,1
3,0,7,9
3,1,0,6
3,1,2,4
3,1,6,7
3,1,8,1
3,2,3,7
3,2,4,9
3,2,5,4
3,4,2,9
3,4,6,4
3,6,3,8
3,6,4,5
3,6,5,6
3,7,0,9
3,7,2,6
3,7,6,8
3,7,8,7
3,8,1,5
3,8,3,9
3,8,5,7
3,8,7,4
4,2,0,3
4,2,8,2
4,3,4,3
4,4,3,7
4,4,5,5
4,5,4,8
4,6,0,1
4,6,8,8
5,0,1,2
5,0,3,4
5,0,5,9
5,0,7,6
5,1,0,5
5,1,2,3
5,1,6,4
5,1,8,9
5,2,3,5
5,2,4,2
5,2,5,3
5,4,2,7
5,4,6,9
5,6,3,7
5,6,4,9
5,6,5,1
5,7,0,7
5,7,2,4
5,7,6,2
5,7,8,1
5,8,1,9
5,8,3,2
5,8,5,4
5,8,7,8
6,1,4,2
6,7,4,9
7,0,1,8
7,0,7,3
7,1,1,5
7,1,4,1
7,1,7,4
7,2,0,1
7,2,8,9
7,6,0,8
7,6,8,7
7,7,1,7
7,7,4,6
7,7,7,2
7,8,1,3
7,8,7,9
8,0,1,7
8,0,3,1
8,0,5,3
8,0,7,2
8,1,0,2
8,1,8,5
8,2,3,9
8,2,4,5
8,2,5,2
8,4,0,4
8,4,1,2
8,4,2,3
8,4,3,5
8,4,5,8
8,4,6,1
8,4,7,6
8,4,8,9
8,6,3,6
8,6,4,3
8,6,5,5
8,7,0,3
8,7,8,6
8,8,1,6
8,8,3,4
8,8,5,9
8,8,7,7
