0,0,4,9
0,1,3,2
0,1,5,5
0,2,0,2
0,2,8,1
0,3,4,3
0,4,3,8
0,4,5,2
0,5,4,6
0,6,0,6
0,6,8,8
0,7,3,5
0,7,5,8
0,8,4,4
1,0,3,8
1,0,5,2
1,8,3,1
1,8,5,3
2,0,0,5
2,0,8,3
2,1,0,6
2,1,1,4
2,1,4,1
2,1,7,2
2,1,8,8
2,2,2,1
2,2,6,6
2,6,2,2
2,6,6,3
2,7,0,7
2,7,1,6
2,7,4,3
2,7,7,5
2,7,8,2
2,8,0,1
2,8,8,4
3,1,0,5
3,1,8,3
3,3,4,6
3,5,4,5
3,7,0,8
3,7,8,6
4,0,1,8
4,0,7,3
4,1,3,8
4,1,5,3
4,3,0,8
4,3,1,5
4,3,7,7
4,3,8,6
4,5,0,4
4,5,1,2
4,5,7,8
4,5,8,5
4,7,3,3
4,7,5,5
4,8,1,3
4,8,7,5
5,1,0,4
5,1,8,5
5,3,4,8
5,5,4,4
5,7,0,3
5,7,8,8
6,0,0,6
6,0,8,8
6,1,0,9
6,1,1,3
6,1,4,2
6,1,7,4
6,1,8,7
6,2,2,8
6,2,6,1
6,6,2,4
6,6,6,8
6,7,0,1
6,7,1,9
6,7,4,5
6,7,7,6
6,7,8,4
6,8,0,8
6,8,8,9
7,0,3,2
7,0,5,5
7,8,3,3
7,8,5,9
8,0,4,6
8,1,3,9
8,1,5,1
8,2,0,1
8,2,8,4
8,3,4,4
8,4,3,3
8,4,5,9
8,5,4,2
8,6,0,2
8,6,8,1
8,7,3,1
8,7,5,3
8,8,4,8
