0,0,2,9
0,0,3,3
0,0,5,6
0,0,6,7
0,2,1,3
0,2,7,6
0,6,1,2
0,6,7,7
0,8,2,3
0,8,3,2
0,8,5,9
0,8,6,1
1,3,1,6
1,3,7,9
1,5,1,2
1,5,7,7
2,0,0,7
2,0,3,2
2,0,5,9
2,0,8,6
2,3,0,5
2,3,3,8
2,3,5,2
2,3,8,1
2,4,4,4
2,5,0,6
2,5,3,1
2,5,5,5
2,5,8,3
2,8,0,8
2,8,3,7
2,8,5,1
2,8,8,9
3,0,0,6
3,0,8,5
3,2,1,5
3,2,7,3
3,3,1,1
3,3,7,4
3,4,4,2
3,5,1,6
3,5,7,9
3,6,1,9
3,6,7,8
3,8,0,3
3,8,8,4
4,1,0,4
4,1,3,8
4,1,5,3
4,1,8,7
4,2,3,7
4,2,5,9
4,3,2,6
4,3,6,7
4,5,2,7
4,5,6,3
4,6,3,5
4,6,5,7
4,7,0,7
4,7,3,2
4,7,5,6
4,7,8,8
5,0,0,3
5,0,8,4
5,2,1,4
5,2,7,5
5,3,1,5
5,3,7,3
5,4,4,3
5,5,1,3
5,5,7,6
5,6,1,6
5,6,7,9
5,8,0,9
5,8,8,3
6,0,0,5
6,0,3,8
6,0,5,2
6,0,8,1
6,3,0,3
6,3,3,9
6,3,5,8
6,3,8,4
6,4,4,6
6,5,0,8
6,5,3,7
6,5,5,1
6,5,8,9
6,8,0,4
6,8,3,5
6,8,5,7
6,8,8,2
7,3,1,2
7,3,7,7
7,5,1,5
7,5,7,4
8,0,2,8
8,0,3,5
8,0,5,7
8,0,6,3
8,2,1,2
8,2,7,7
8,6,1,4
8,6,7,3
8,8,2,2
8,8,3,4
8,8,5,3
8,8,6,5
