0,1,2,3
0,1,6,4
0,3,0,8
0,3,1,9
0,3,7,7
0,3,8,2
0,5,0,1
0,5,1,7
0,5,7,4
0,5,8,6
0,7,2,9
0,7,6,2
2,0,0,2
2,0,4,1
2,0,8,4
2,2,1,8
2,2,4,3
2,2,7,1
2,3,0,4
2,3,1,6
2,3,7,5
2,3,8,8
2,4,0,7
2,4,1,2
2,4,2,1
2,4,3,9
2,4,5,8
2,4,6,4
2,4,7,6
2,4,8,3
2,5,0,9
2,5,1,5
2,5,7,2
2,5,8,1
2,6,1,9
2,6,4,4
2,6,7,7
2,8,0,8
2,8,4,9
2,8,8,6
3,0,3,9
3,0,5,1
3,3,2,6
3,3,6,8
3,5,2,7
3,5,6,6
3,8,3,7
3,8,5,8
4,1,2,4
4,1,6,8
4,2,4,4
4,3,0,7
4,3,8,3
4,4,2,2
4,4,4,1
4,4,6,5
4,5,0,8
4,5,8,4
4,6,4,7
4,7,2,3
4,7,6,7
5,0,3,3
5,0,5,4
5,3,2,9
5,3,6,4
5,5,2,3
5,5,6,9
5,8,3,1
5,8,5,6
6,0,0,6
6,0,4,3
6,0,8,9
6,2,1,1
6,2,4,8
6,2,7,3
6,3,0,9
6,3,1,5
6,3,7,2
6,3,8,1
6,4,0,4
6,4,1,6
6,4,2,3
6,4,3,7
6,4,5,1
6,4,6,9
6,4,7,5
6,4,8,8
6,5,0,7
6,5,1,2
6,5,7,6
6,5,8,3
6,6,1,7
6,6,4,9
6,6,7,4
6,8,0,1
6,8,4,7
6,8,8,5
8,1,2,5
8,1,6,3
8,3,0,6
8,3,1,3
8,3,7,8
8,3,8,9
8,5,0,5
8,5,1,8
8,5,7,1
8,5,8,7
8,7,2,1
8,7,6,9
