0,1,0,7
0,1,8,5
0,2,0,6
0,2,1,5
0,2,7,7
0,2,8,9
0,3,3,3
0,3,4,7
0,3,5,9
0,5,3,1
0,5,4,2
0,5,5,5
0,6,0,8
0,6,1,2
0,6,7,1
0,6,8,6
0,7,0,1
0,7,8,2
1,1,0,8
1,1,8,6
1,2,1,7
1,2,3,6
1,2,5,8
1,2,7,3
1,4,2,8
1,4,6,1
1,6,1,3
1,6,3,1
1,6,5,9
1,6,7,5
1,7,0,5
1,7,8,1
2,0,2,7
2,0,3,8
2,0,5,9
2,0,6,2
2,2,4,7
2,3,4,4
2,4,2,9
2,4,3,2
2,4,5,1
2,4,6,4
2,5,4,9
2,6,4,8
2,8,2,8
2,8,3,4
2,8,5,7
2,8,6,1
3,1,0,9
3,1,4,7
3,1,8,1
3,2,1,1
3,2,7,5
3,4,2,4
3,4,6,5
3,6,1,4
3,6,7,7
3,7,0,2
3,7,4,3
3,7,8,9
4,1,0,6
4,1,2,3
4,1,6,8
4,1,8,9
4,2,0,2
4,2,2,8
4,2,6,1
4,2,8,4
4,3,1,1
4,3,4,6
4,3,7,9
4,4,3,1
4,4,5,5
4,5,1,8
4,5,4,7
4,5,7,5
4,6,0,1
4,6,2,9
4,6,6,4
4,6,8,2
4,7,0,3
4,7,2,4
4,7,6,5
4,7,8,7
5,1,0,1
5,1,4,9
5,1,8,2
5,2,1,6
5,2,7,8
5,4,2,1
5,4,6,3
5,6,1,8
5,6,7,9
5,7,0,9
5,7,4,6
5,7,8,3
6,0,2,2
6,0,3,3
6,0,5,5
6,0,6,6
6,2,4,2
6,3,4,9
6,4,2,5
6,4,3,6
6,4,5,8
6,4,6,9
6,5,4,5
6,6,4,3
6,8,2,3
6,8,3,9
6,8,5,2
6,8,6,8
7,1,0,2
7,1,8,4
7,2,1,4
7,2,3,9
7,2,5,6
7,2,7,2
7,4,2,2
7,4,6,6
7,6,1,6
7,6,3,2
7,6,5,1
7,6,7,8
7,7,0,8
7,7,8,6
8,1,0,3
8,1,8,7
8,2,0,8
8,2,1,2
8,2,7,1
8,2,8,6
8,3,3,4
8,3,4,8
8,3,5,6
8,5,3,9
8,5,4,3
8,5,5,7
8,6,0,9
8,6,1,1
8,6,7,4
8,6,8,3
8,7,0,4
8,7,8,8
