0,2,0,9
0,2,1,1
0,2,7,4
0,2,8,8
0,3,2,8
0,3,6,3
0,5,2,2
0,5,6,7
0,6,0,5
0,6,1,9
0,6,7,2
0,6,8,4
1,1,2,9
1,1,4,6
1,1,6,4
1,2,2,7
1,2,6,5
1,6,2,3
1,6,6,1
1,7,2,6
1,7,4,4
1,7,6,9
2,1,0,3
2,1,4,9
2,1,8,2
2,2,0,6
2,2,3,1
2,2,4,5
2,2,5,4
2,2,8,3
2,3,3,9
2,3,5,7
2,4,0,8
2,4,8,7
2,5,3,3
2,5,5,6
2,6,0,2
2,6,3,4
2,6,4,1
2,6,5,5
2,6,8,9
2,7,0,1
2,7,4,6
2,7,8,5
3,0,1,1
3,0,7,6
3,1,1,4
3,1,7,2
3,7,1,9
3,7,7,5
3,8,1,5
3,8,7,3
4,0,3,8
4,0,5,6
4,8,3,5
4,8,5,3
5,0,1,8
5,0,7,4
5,1,1,9
5,1,7,5
5,7,1,6
5,7,7,7
5,8,1,7
5,8,7,1
6,1,0,9
6,1,4,7
6,1,8,3
6,2,0,2
6,2,3,9
6,2,4,3
6,2,5,5
6,2,8,6
6,3,3,7
6,3,5,1
6,4,0,4
6,4,8,8
6,5,3,4
6,5,5,2
6,6,0,1
6,6,3,5
6,6,4,9
6,6,5,3
6,6,8,7
6,7,0,6
6,7,4,2
6,7,8,1
7,1,2,7
7,1,4,2
7,1,6,5
7,2,2,3
7,2,6,1
7,6,2,9
7,6,6,4
7,7,2,2
7,7,4,5
7,7,6,7
8,2,0,7
8,2,1,6
8,2,7,5
8,2,8,9
8,3,2,4
8,3,6,6
8,5,2,1
8,5,6,8
8,6,0,8
8,6,1,7
8,6,7,3
8,6,8,5
