0,1,0,4
0,1,8,3
0,3,1,9
0,3,7,8
0,4,3,7
0,4,5,8
0,5,1,7
0,5,7,1
0,7,0,7
0,7,8,2
1,1,1,6
1,1,7,1
1,2,1,7
1,2,7,8
1,3,0,6
1,3,2,1
1,3,3,5
1,3,5,7
1,3,6,3
1,3,8,2
1,4,0,7
1,4,4,3
1,4,8,5
1,5,0,9
1,5,2,3
1,5,3,2
1,5,5,6
1,5,6,8
1,5,8,4
1,6,1,1
1,6,7,2
1,7,1,8
1,7,7,5
2,0,4,3
2,2,1,4
2,2,7,7
2,3,2,7
2,3,6,6
2,5,2,6
2,5,6,9
2,6,1,9
2,6,7,1
2,8,4,5
3,3,0,1
3,3,8,5
3,5,0,3
3,5,8,2
4,0,0,4
4,0,8,9
4,2,2,8
4,2,3,6
4,2,5,2
4,2,6,1
4,6,2,9
4,6,3,5
4,6,5,1
4,6,6,7
4,8,0,8
4,8,8,4
5,3,0,5
5,3,8,9
5,5,0,2
5,5,8,7
6,0,4,7
6,2,1,1
6,2,7,2
6,3,2,2
6,3,6,5
6,5,2,4
6,5,6,2
6,6,1,2
6,6,7,7
6,8,4,8
7,1,1,9
7,1,7,3
7,2,1,6
7,2,7,1
7,3,0,9
7,3,2,3
7,3,3,2
7,3,5,6
7,3,6,8
7,3,8,4
7,4,0,6
7,4,4,8
7,4,8,2
7,5,0,7
7,5,2,8
7,5,3,4
7,5,5,9
7,5,6,1
7,5,8,5
7,6,1,3
7,6,7,4
7,7,1,1
7,7,7,2
8,1,0,6
8,1,8,5
8,3,1,1
8,3,7,2
8,4,3,3
8,4,5,4
8,5,1,3
8,5,7,4
8,7,0,8
8,7,8,7
