0,0,1,8
0,0,7,1
0,4,2,8
0,4,4,3
0,4,6,4
0,8,1,6
0,8,7,4
1,1,2,6
1,1,4,7
1,1,6,2
1,2,0,8
1,2,3,6
1,2,5,3
1,2,8,7
1,3,0,1
1,3,8,4
1,4,0,4
1,4,1,6
1,4,7,3
1,4,8,2
1,5,0,2
1,5,8,1
1,6,0,3
1,6,3,2
1,6,5,4
1,6,8,6
1,7,2,8
1,7,4,3
1,7,6,4
2,0,1,6
2,0,7,8
2,1,4,3
2,7,4,5
2,8,1,1
2,8,7,6
3,0,1,7
3,0,7,9
3,2,0,9
3,2,1,6
3,2,4,1
3,2,7,3
3,2,8,8
3,3,3,9
3,3,5,5
3,4,1,9
3,4,7,8
3,5,3,4
3,5,5,8
3,6,0,6
3,6,1,5
3,6,4,2
3,6,7,4
3,6,8,3
3,8,1,3
3,8,7,7
4,0,2,6
4,0,6,8
4,2,2,8
4,2,4,6
4,2,6,7
4,4,2,4
4,4,6,2
4,6,2,3
4,6,4,5
4,6,6,1
4,8,2,1
4,8,6,5
5,0,1,4
5,0,7,7
5,2,0,7
5,2,1,1
5,2,4,3
5,2,7,6
5,2,8,5
5,3,3,7
5,3,5,2
5,4,1,7
5,4,7,9
5,5,3,6
5,5,5,9
5,6,0,1
5,6,1,2
5,6,4,4
5,6,7,5
5,6,8,9
5,8,1,9
5,8,7,3
6,0,1,5
6,0,7,2
6,1,4,6
6,7,4,4
6,8,1,8
6,8,7,5
7,1,2,3
7,1,4,4
7,1,6,8
7,2,0,5
7,2,3,3
7,2,5,1
7,2,8,4
7,3,0,2
7,3,8,1
7,4,0,1
7,4,1,4
7,4,7,5
7,4,8,3
7,5,0,3
7,5,8,2
7,6,0,9
7,6,3,4
7,6,5,5
7,6,8,8
7,7,2,1
7,7,4,9
7,7,6,5
8,0,1,3
8,0,7,5
8,4,2,3
8,4,4,4
8,4,6,8
8,8,1,2
8,8,7,8
