0,2,1,9
0,2,7,8
0,6,1,5
0,6,7,7
1,0,1,6
1,0,7,1
1,1,3,8
1,1,5,1
1,7,3,3
1,7,5,8
1,8,1,3
1,8,7,4
2,1,1,7
2,1,7,3
2,2,4,8
2,3,2,1
2,3,6,4
2,4,1,6
2,4,7,8
2,5,2,4
2,5,6,9
2,6,4,7
2,7,1,9
2,7,7,1
3,0,1,3
3,0,7,5
3,2,1,1
3,2,3,5
3,2,5,8
3,2,7,6
3,3,2,3
3,3,6,7
3,4,4,5
3,5,2,1
3,5,6,4
3,6,1,2
3,6,3,4
3,6,5,5
3,6,7,9
3,8,1,5
3,8,7,7
4,1,1,2
4,1,7,9
4,2,1,6
4,2,7,4
4,3,2,2
4,3,3,5
4,3,5,3
4,3,6,1
4,5,2,5
4,5,3,6
4,5,5,1
4,5,6,8
4,6,1,9
4,6,7,1
4,7,1,4
4,7,7,3
5,0,1,7
5,0,7,3
5,2,1,4
5,2,3,3
5,2,5,9
5,2,7,1
5,3,2,9
5,3,6,5
5,4,4,1
5,5,2,7
5,5,6,6
5,6,1,1
5,6,3,6
5,6,5,8
5,6,7,2
5,8,1,8
5,8,7,5
6,1,1,4
6,1,7,6
6,2,4,7
6,3,2,6
6,3,6,3
6,4,1,2
6,4,7,9
6,5,2,3
6,5,6,5
6,6,4,4
6,7,1,5
6,7,7,7
7,0,1,2
7,0,7,9
7,1,3,7
7,1,5,9
7,7,3,9
7,7,5,6
7,8,1,9
7,8,7,1
8,2,1,5
8,2,7,7
8,6,1,3
8,6,7,4
