0,0,4,4
0,3,0,2
0,3,8,7
0,5,0,9
0,5,8,3
0,8,4,8
1,0,1,2
1,0,3,3
1,0,5,5
1,0,7,9
1,2,2,1
1,2,6,3
1,4,0,1
1,4,4,4
1,4,8,8
1,6,2,8
1,6,6,7
1,8,1,5
1,8,3,9
1,8,5,7
1,8,7,8
2,0,1,5
2,0,7,7
2,1,3,2
2,1,5,4
2,2,0,2
2,2,1,6
2,2,2,4
2,2,6,9
2,2,7,1
2,2,8,8
2,3,1,9
2,3,4,2
2,3,7,8
2,5,1,7
2,5,4,9
2,5,7,2
2,6,0,7
2,6,1,4
2,6,2,2
2,6,6,1
2,6,7,6
2,6,8,9
2,7,3,1
2,7,5,9
2,8,1,8
2,8,7,3
3,0,1,8
3,0,7,4
3,1,4,2
3,2,0,9
3,2,2,5
3,2,6,2
3,2,8,6
3,3,1,4
3,3,7,5
3,4,1,9
3,4,7,2
3,5,1,3
3,5,7,1
3,6,0,8
3,6,2,9
3,6,6,3
3,6,8,2
3,7,4,9
3,8,1,1
3,8,7,6
4,0,3,2
4,0,5,7
4,8,3,4
4,8,5,1
5,0,1,9
5,0,7,2
5,1,4,6
5,2,0,1
5,2,2,6
5,2,6,8
5,2,8,9
5,3,1,2
5,3,7,6
5,4,1,1
5,4,7,7
5,5,1,5
5,5,7,8
5,6,0,4
5,6,2,1
5,6,6,5
5,6,8,6
5,7,4,1
5,8,1,6
5,8,7,4
6,0,1,4
6,0,7,6
6,1,3,3
6,1,5,9
6,2,0,3
6,2,1,8
6,2,2,9
6,2,6,5
6,2,7,2
6,2,8,7
6,3,1,5
6,3,4,3
6,3,7,7
6,5,1,6
6,5,4,5
6,5,7,3
6,6,0,6
6,6,1,9
6,6,2,3
6,6,6,2
6,6,7,8
6,6,8,5
6,7,3,2
6,7,5,5
6,8,1,7
6,8,7,1
7,0,1,3
7,0,3,1
7,0,5,4
7,0,7,5
7,2,2,2
7,2,6,1
7,4,0,2
7,4,4,9
7,4,8,7
7,6,2,7
7,6,6,6
7,8,1,4
7,8,3,5
7,8,5,6
7,8,7,7
8,0,4,9
8,3,0,3
8,3,8,6
8,5,0,5
8,5,8,1
8,8,4,7
