0,0,1,3
0,0,2,9
0,0,6,1
0,0,7,7
0,1,0,4
0,1,8,3
0,2,0,7
0,2,8,8
0,3,1,1
0,3,7,8
0,4,1,4
0,4,7,5
0,5,1,6
0,5,7,3
0,6,0,6
0,6,8,2
0,7,0,1
0,7,8,5
0,8,1,2
0,8,2,3
0,8,6,9
0,8,7,1
1,1,4,8
1,2,0,6
1,2,3,7
1,2,5,1
1,2,8,2
1,3,1,8
1,3,7,2
1,4,4,5
1,5,1,3
1,5,7,7
1,6,0,3
1,6,3,6
1,6,5,8
1,6,8,1
1,7,4,7
2,0,3,1
2,0,4,7
2,0,5,9
2,1,1,1
2,1,7,8
2,2,2,2
2,2,6,7
2,6,2,1
2,6,6,6
2,7,1,3
2,7,7,7
2,8,3,5
2,8,4,1
2,8,5,7
3,0,1,8
3,0,7,1
3,1,0,3
3,1,8,2
3,2,4,3
3,3,1,4
3,3,7,5
3,5,1,1
3,5,7,2
3,6,4,6
3,7,0,4
3,7,8,6
3,8,1,9
3,8,7,4
4,0,1,1
4,0,4,8
4,0,7,2
4,2,1,6
4,2,2,9
4,2,6,1
4,2,7,3
4,3,4,5
4,4,0,1
4,4,3,8
4,4,4,6
4,4,5,4
4,4,8,9
4,5,4,1
4,6,1,7
4,6,2,4
4,6,6,8
4,6,7,6
4,8,1,5
4,8,4,4
4,8,7,9
5,0,1,2
5,0,7,8
5,1,0,6
5,1,8,1
5,2,4,6
5,3,1,5
5,3,7,9
5,5,1,8
5,5,7,1
5,6,4,7
5,7,0,5
5,7,8,7
5,8,1,4
5,8,7,5
6,0,3,6
6,0,4,5
6,0,5,2
6,1,1,6
6,1,7,3
6,2,2,7
6,2,6,9
6,6,2,6
6,6,6,4
6,7,1,4
6,7,7,5
6,8,3,2
6,8,4,6
6,8,5,4
7,1,4,6
7,2,0,4
7,2,3,9
7,2,5,7
7,2,8,3
7,3,1,6
7,3,7,3
7,4,4,8
7,5,1,4
7,5,7,5
7,6,0,5
7,6,3,4
7,6,5,6
7,6,8,7
7,7,4,5
8,0,1,4
8,0,2,8
8,0,6,3
8,0,7,5
8,1,0,1
8,1,8,9
8,2,0,9
8,2,8,7
8,3,1,3
8,3,7,7
8,4,1,8
8,4,7,2
8,5,1,9
8,5,7,4
8,6,0,4
8,6,8,6
8,7,0,3
8,7,8,1
8,8,1,6
8,8,2,9
8,8,6,2
8,8,7,3
