0,1,2,5
0,1,6,1
0,2,3,7
0,2,5,2
0,3,4,1
0,5,4,7
0,6,3,4
0,6,5,1
0,7,2,7
0,7,6,6
1,0,3,6
1,0,4,8
1,0,5,9
1,1,2,1
1,1,6,3
1,2,2,9
1,2,4,5
1,2,6,6
1,6,2,4
1,6,4,9
1,6,6,2
1,7,2,3
1,7,6,5
1,8,3,5
1,8,4,1
1,8,5,4
2,1,4,1
2,2,0,5
2,2,8,4
2,4,0,3
2,4,3,6
2,4,5,1
2,4,8,7
2,6,0,1
2,6,8,5
2,7,4,4
3,0,2,1
3,0,6,8
3,2,4,8
3,3,0,5
3,3,1,4
3,3,7,6
3,3,8,7
3,4,1,1
3,4,2,2
3,4,6,3
3,4,7,9
3,5,0,7
3,5,1,8
3,5,7,5
3,5,8,4
3,6,4,4
3,8,2,4
3,8,6,9
4,0,4,2
4,3,4,5
4,4,0,8
4,4,3,2
4,4,4,6
4,4,5,9
4,4,8,1
4,5,4,1
4,8,4,9
5,0,2,5
5,0,6,3
5,2,4,3
5,3,0,3
5,3,1,7
5,3,7,1
5,3,8,5
5,4,1,5
5,4,2,4
5,4,6,7
5,4,7,2
5,5,0,2
5,5,1,6
5,5,7,3
5,5,8,9
5,6,4,7
5,8,2,9
5,8,6,2
6,1,4,3
6,2,0,7
6,2,8,2
6,4,0,2
6,4,3,5
6,4,5,6
6,4,8,4
6,6,0,3
6,6,8,9
6,7,4,5
7,0,3,3
7,0,4,5
7,0,5,1
7,1,2,7
7,1,6,4
7,2,2,1
7,2,4,2
7,2,6,3
7,6,2,6
7,6,4,1
7,6,6,8
7,7,2,4
7,7,6,2
7,8,3,2
7,8,4,7
7,8,5,6
8,1,2,6
8,1,6,5
8,2,3,5
8,2,5,3
8,3,4,8
8,5,4,5
8,6,3,9
8,6,5,8
8,7,2,8
8,7,6,9
