0,0,3,8
0,0,5,7
0,1,1,3
0,1,7,1
0,2,3,2
0,2,4,1
0,2,5,3
0,6,3,7
0,6,4,4
0,6,5,9
0,7,1,4
0,7,7,2
0,8,3,3
0,8,5,8
1,0,4,4
1,1,0,6
1,1,8,8
1,2,4,7
1,6,4,6
1,7,0,9
1,7,8,7
1,8,4,9
2,0,2,6
2,0,6,7
2,2,4,5
2,3,4,4
2,4,0,2
2,4,8,8
2,5,4,6
2,6,4,3
2,8,2,4
2,8,6,8
3,3,1,4
3,3,3,7
3,3,5,2
3,3,7,9
3,4,1,3
3,4,7,2
3,5,1,7
3,5,3,9
3,5,5,3
3,5,7,8
4,0,1,4
4,0,7,3
4,1,1,5
4,1,7,6
4,3,2,5
4,3,6,2
4,5,2,8
4,5,6,9
4,7,1,8
4,7,7,9
4,8,1,3
4,8,7,2
5,3,1,2
5,3,3,3
5,3,5,5
5,3,7,1
5,4,1,8
5,4,7,3
5,5,1,5
5,5,3,8
5,5,5,1
5,5,7,6
6,0,2,7
6,0,6,2
6,2,4,3
6,3,4,1
6,4,0,6
6,4,8,4
6,5,4,7
6,6,4,9
6,8,2,1
6,8,6,4
7,0,4,1
7,1,0,7
7,1,8,4
7,2,4,2
7,6,4,7
7,7,0,5
7,7,8,2
7,8,4,5
8,0,3,4
8,0,5,2
8,1,1,9
8,1,7,8
8,2,3,6
8,2,4,8
8,2,5,9
8,6,3,2
8,6,4,1
8,6,5,5
8,7,1,1
8,7,7,6
8,8,3,9
8,8,5,4
