0,0,1,8
0,0,7,3
0,1,1,2
0,1,7,6
0,2,3,6
0,2,5,3
0,3,2,2
0,3,4,8
0,3,6,5
0,4,1,7
0,4,3,3
0,4,5,5
0,4,7,2
0,5,2,8
0,5,4,4
0,5,6,7
0,6,3,5
0,6,5,6
0,7,1,6
0,7,7,7
0,8,1,4
0,8,7,5
1,1,0,6
1,1,8,3
1,2,0,4
1,2,8,6
1,4,1,4
1,4,7,5
1,6,0,3
1,6,8,5
1,7,0,7
1,7,8,8
2,1,3,5
2,1,4,3
2,1,5,6
2,2,3,1
2,2,4,2
2,2,5,4
2,3,1,9
2,3,7,4
2,4,1,8
2,4,2,6
2,4,6,9
2,4,7,3
2,5,1,2
2,5,7,6
2,6,3,2
2,6,4,4
2,6,5,1
2,7,3,9
2,7,4,8
2,7,5,7
3,1,3,1
3,1,5,7
3,2,4,4
3,3,4,1
3,4,3,8
3,4,4,5
3,4,5,4
3,5,4,2
3,6,4,8
3,7,3,3
3,7,5,2
4,0,4,7
4,1,1,3
4,1,2,9
4,1,6,2
4,1,7,1
4,2,0,1
4,2,8,7
4,4,0,4
4,4,4,3
4,4,8,9
4,6,0,5
4,6,8,8
4,7,1,8
4,7,2,6
4,7,6,4
4,7,7,3
4,8,4,5
5,1,3,6
5,1,5,3
5,2,4,1
5,3,4,6
5,4,3,9
5,4,4,7
5,4,5,1
5,5,4,8
5,6,4,9
5,7,3,5
5,7,5,8
6,1,3,9
6,1,4,1
6,1,5,2
6,2,3,8
6,2,4,7
6,2,5,5
6,3,1,4
6,3,7,5
6,4,1,3
6,4,2,2
6,4,6,4
6,4,7,1
6,5,1,7
6,5,7,2
6,6,3,7
6,6,4,5
6,6,5,8
6,7,3,4
6,7,4,3
6,7,5,6
7,1,0,2
7,1,8,1
7,2,0,5
7,2,8,2
7,4,1,5
7,4,7,9
7,6,0,1
7,6,8,9
7,7,0,6
7,7,8,3
8,0,1,3
8,0,7,1
8,1,1,7
8,1,7,2
8,2,3,2
8,2,5,1
8,3,2,7
8,3,4,3
8,3,6,9
8,4,1,6
8,4,3,1
8,4,5,9
8,4,7,7
8,5,2,3
8,5,4,5
8,5,6,6
8,6,3,9
8,6,5,2
8,7,1,2
8,7,7,6
8,8,1,5
8,8,7,9
