0,1,1,4
0,1,7,8
0,2,4,1
0,3,1,6
0,3,4,8
0,3,7,4
0,4,0,7
0,4,1,1
0,4,2,4
0,4,6,9
0,4,7,2
0,4,8,8
0,5,1,9
0,5,4,7
0,5,7,3
0,6,4,2
0,7,1,7
0,7,7,9
1,0,1,9
1,0,7,3
1,1,4,8
1,2,0,7
1,2,8,8
1,3,4,4
1,4,0,3
1,4,1,2
1,4,7,5
1,4,8,4
1,5,4,3
1,6,0,9
1,6,8,6
1,7,4,9
1,8,1,4
1,8,7,8
2,0,1,7
2,0,7,9
2,1,2,9
2,1,6,1
2,2,0,3
2,2,1,1
2,2,2,6
2,2,4,5
2,2,6,7
2,2,7,2
2,2,8,4
2,4,4,2
2,6,0,7
2,6,1,2
2,6,2,4
2,6,4,1
2,6,6,9
2,6,7,5
2,6,8,8
2,7,2,5
2,7,6,6
2,8,1,6
2,8,7,4
3,1,4,2
3,2,2,2
3,2,3,4
3,2,5,5
3,2,6,6
3,4,0,6
3,4,2,3
3,4,4,9
3,4,6,4
3,4,8,5
3,6,2,5
3,6,3,6
3,6,5,3
3,6,6,1
3,7,4,4
4,0,0,3
4,0,8,8
4,1,1,2
4,1,2,1
4,1,4,5
4,1,6,7
4,1,7,3
4,2,1,8
4,2,7,9
4,4,1,9
4,4,7,7
4,6,1,7
4,6,7,8
4,7,1,6
4,7,2,9
4,7,4,1
4,7,6,3
4,7,7,4
4,8,0,8
4,8,8,1
5,1,4,3
5,2,2,3
5,2,3,6
5,2,5,2
5,2,6,1
5,4,0,1
5,4,2,5
5,4,4,7
5,4,6,6
5,4,8,2
5,6,2,2
5,6,3,1
5,6,5,5
5,6,6,4
5,7,4,6
6,0,1,5
6,0,7,8
6,1,2,8
6,1,6,3
6,2,0,2
6,2,1,3
6,2,2,9
6,2,4,4
6,2,6,5
6,2,7,6
6,2,8,1
6,4,4,6
6,6,0,5
6,6,1,6
6,6,2,1
6,6,4,3
6,6,6,8
6,6,7,4
6,6,8,7
6,7,2,4
6,7,6,9
6,8,1,9
6,8,7,1
7,0,1,2
7,0,7,5
7,1,4,9
7,2,0,8
7,2,8,9
7,3,4,7
7,4,0,5
7,4,1,6
7,4,7,4
7,4,8,7
7,5,4,5
7,6,0,2
7,6,8,1
7,7,4,2
7,8,1,7
7,8,7,9
8,1,1,9
8,1,7,1
8,2,4,3
8,3,1,7
8,3,4,1
8,3,7,9
8,4,0,2
8,4,1,3
8,4,2,9
8,4,6,5
8,4,7,6
8,4,8,1
8,5,1,5
8,5,4,2
8,5,7,8
8,6,4,6
8,7,1,2
8,7,7,5
