0,0,3,9
0,0,4,6
0,0,5,8
0,1,2,9
0,1,3,3
0,1,5,2
0,1,6,5
0,4,0,7
0,4,3,8
0,4,5,6
0,4,8,1
0,7,2,5
0,7,3,1
0,7,5,7
0,7,6,4
0,8,3,6
0,8,4,8
0,8,5,4
1,3,2,6
1,3,6,7
1,5,2,3
1,5,6,1
2,3,1,4
2,3,7,1
2,4,2,5
2,4,6,4
2,5,1,2
2,5,7,5
3,0,2,3
3,0,6,8
3,1,1,4
3,1,3,5
3,1,5,3
3,1,7,1
3,3,1,2
3,3,2,1
3,3,6,3
3,3,7,5
3,5,1,8
3,5,2,4
3,5,6,9
3,5,7,2
3,7,1,9
3,7,3,4
3,7,5,8
3,7,7,3
3,8,2,5
3,8,6,4
4,1,2,7
4,1,3,4
4,1,5,1
4,1,6,6
4,2,2,5
4,2,6,4
4,6,2,3
4,6,6,8
4,7,2,6
4,7,3,9
4,7,5,3
4,7,6,2
5,0,2,8
5,0,6,1
5,1,1,5
5,1,3,9
5,1,5,8
5,1,7,3
5,3,1,7
5,3,2,3
5,3,6,8
5,3,7,9
5,5,1,1
5,5,2,5
5,5,6,4
5,5,7,7
5,7,1,4
5,7,3,5
5,7,5,1
5,7,7,8
5,8,2,9
5,8,6,5
6,3,1,8
6,3,7,6
6,4,2,3
6,4,6,1
6,5,1,9
6,5,7,8
7,3,2,9
7,3,6,5
7,5,2,2
7,5,6,6
8,0,3,1
8,0,4,5
8,0,5,7
8,1,2,3
8,1,3,6
8,1,5,9
8,1,6,1
8,4,0,9
8,4,3,7
8,4,5,4
8,4,8,6
8,7,2,1
8,7,3,2
8,7,5,5
8,7,6,8
8,8,3,9
8,8,4,7
8,8,5,1
