0,0,0,6
0,0,3,7
0,0,5,5
0,0,8,1
0,1,2,7
0,1,3,3
0,1,5,4
0,1,6,9
0,2,0,1
0,2,1,4
0,2,7,7
0,2,8,8
0,3,3,1
0,3,5,3
0,4,4,4
0,5,3,8
0,5,5,7
0,6,0,3
0,6,1,1
0,6,7,4
0,6,8,7
0,7,2,5
0,7,3,4
0,7,5,8
0,7,6,1
0,8,0,7
0,8,3,9
0,8,5,1
0,8,8,2
1,0,2,8
1,0,6,2
1,1,2,1
1,1,3,6
1,1,5,2
1,1,6,7
1,3,0,3
1,3,8,7
1,4,0,2
1,4,3,9
1,4,5,8
1,4,8,3
1,5,0,7
1,5,8,2
1,7,2,7
1,7,3,3
1,7,5,9
1,7,6,5
1,8,2,3
1,8,6,4
2,0,4,2
2,1,3,5
2,1,5,8
2,3,2,2
2,3,6,5
2,5,2,3
2,5,6,9
2,7,3,6
2,7,5,2
2,8,4,4
3,0,3,4
3,0,5,7
3,2,1,6
3,2,7,2
3,4,3,7
3,4,5,6
3,6,1,8
3,6,7,7
3,8,3,6
3,8,5,9
4,0,1,8
4,0,7,7
4,1,2,4
4,1,6,2
4,3,1,2
4,3,7,1
4,5,1,6
4,5,7,2
4,7,2,2
4,7,6,8
4,8,1,4
4,8,7,9
5,0,3,8
5,0,5,1
5,2,1,5
5,2,7,4
5,4,3,1
5,4,5,9
5,6,1,2
5,6,7,1
5,8,3,4
5,8,5,8
6,0,4,7
6,1,3,4
6,1,5,1
6,3,2,7
6,3,6,4
6,5,2,2
6,5,6,5
6,7,3,8
6,7,5,7
6,8,4,9
7,0,2,7
7,0,6,9
7,1,2,3
7,1,3,2
7,1,5,9
7,1,6,5
7,3,0,5
7,3,8,9
7,4,0,4
7,4,3,8
7,4,5,7
7,4,8,5
7,5,0,9
7,5,8,4
7,7,2,4
7,7,3,9
7,7,5,1
7,7,6,6
7,8,2,9
7,8,6,8
8,0,0,4
8,0,3,6
8,0,5,2
8,0,8,5
8,1,2,6
8,1,3,8
8,1,5,7
8,1,6,3
8,2,0,5
8,2,1,7
8,2,7,6
8,2,8,9
8,3,3,9
8,3,5,8
8,4,4,3
8,5,3,4
8,5,5,6
8,6,0,8
8,6,1,4
8,6,7,2
8,6,8,6
8,7,2,3
8,7,3,2
8,7,5,5
8,7,6,4
8,8,0,6
8,8,3,7
8,8,5,4
8,8,8,1
