0,0,1,5
0,0,4,8
0,0,7,1
0,1,1,9
0,1,7,5
0,2,3,9
0,2,5,4
0,4,2,1
0,4,6,2
0,6,3,5
0,6,5,8
0,7,1,4
0,7,7,8
0,8,1,2
0,8,4,9
0,8,7,4
1,0,2,1
1,0,6,5
1,1,0,4
1,1,8,1
1,3,0,3
1,3,1,4
1,3,4,5
1,3,7,6
1,3,8,2
1,4,0,6
1,4,1,5
1,4,4,8
1,4,7,4
1,4,8,9
1,5,0,1
1,5,1,9
1,5,4,4
1,5,7,5
1,5,8,7
1,7,0,2
1,7,8,5
1,8,2,4
1,8,6,2
2,0,3,1
2,0,5,5
2,1,3,2
2,1,5,9
2,3,2,9
2,3,6,7
2,4,1,2
2,4,7,1
2,5,2,3
2,5,6,9
2,7,3,9
2,7,5,1
2,8,3,4
2,8,5,2
3,1,2,9
3,1,6,1
3,3,3,7
3,3,5,5
3,4,4,4
3,5,3,9
3,5,5,1
3,7,2,7
3,7,6,5
4,0,2,2
4,0,3,3
4,0,5,8
4,0,6,6
4,1,3,9
4,1,5,1
4,2,4,6
4,3,4,8
4,4,2,5
4,4,3,2
4,4,5,9
4,4,6,8
4,5,4,5
4,6,4,3
4,7,3,4
4,7,5,2
4,8,2,3
4,8,3,5
4,8,5,6
4,8,6,9
5,1,2,8
5,1,6,7
5,3,3,4
5,3,5,2
5,4,4,1
5,5,3,8
5,5,5,7
5,7,2,4
5,7,6,2
6,0,3,8
6,0,5,7
6,1,3,1
6,1,5,2
6,3,2,5
6,3,6,9
6,4,1,1
6,4,7,8
6,5,2,4
6,5,6,2
6,7,3,5
6,7,5,6
6,8,3,9
6,8,5,1
7,0,2,8
7,0,6,7
7,1,0,6
7,1,8,9
7,3,0,4
7,3,1,8
7,3,4,7
7,3,7,5
7,3,8,1
7,4,0,3
7,4,1,7
7,4,4,5
7,4,7,9
7,4,8,2
7,5,0,9
7,5,1,5
7,5,4,6
7,5,7,7
7,5,8,8
7,7,0,1
7,7,8,7
7,8,2,9
7,8,6,1
8,0,1,7
8,0,4,3
8,0,7,8
8,1,1,3
8,1,7,7
8,2,3,2
8,2,5,8
8,4,2,8
8,4,6,1
8,6,3,7
8,6,5,2
8,7,1,8
8,7,7,5
8,8,1,1
8,8,4,5
8,8,7,9
