0,0,1,5
0,0,7,8
0,2,2,9
0,2,6,5
0,4,0,9
0,4,4,3
0,4,8,7
0,6,2,4
0,6,6,7
0,8,1,1
0,8,7,4
1,0,4,5
1,1,0,6
1,1,2,4
1,1,4,1
1,1,6,7
1,1,8,5
1,3,2,9
1,3,4,8
1,3,6,5
1,4,4,4
1,5,2,1
1,5,4,2
1,5,6,6
1,7,0,1
1,7,2,8
1,7,4,7
1,7,6,4
1,7,8,9
1,8,4,3
2,0,3,1
2,0,5,8
2,1,1,2
2,1,3,6
2,1,5,4
2,1,7,3
2,4,3,2
2,4,5,7
2,7,1,6
2,7,3,3
2,7,5,1
2,7,7,7
2,8,3,9
2,8,5,6
3,1,0,9
3,1,1,4
3,1,2,6
3,1,4,3
3,1,6,2
3,1,7,5
3,1,8,7
3,2,0,7
3,2,2,5
3,2,6,1
3,2,8,8
3,6,0,2
3,6,2,7
3,6,6,3
3,6,8,1
3,7,0,3
3,7,1,8
3,7,2,1
3,7,4,2
3,7,6,6
3,7,7,9
3,7,8,4
4,0,3,4
4,0,5,9
4,1,4,5
4,3,1,8
4,3,3,7
4,3,4,2
4,3,5,5
4,3,7,9
4,4,1,6
4,4,3,3
4,4,5,1
4,4,7,7
4,5,1,5
4,5,3,9
4,5,4,4
4,5,5,6
4,5,7,8
4,7,4,9
4,8,3,5
4,8,5,2
5,1,0,2
5,1,1,5
5,1,2,7
5,1,4,4
5,1,6,3
5,1,7,8
5,1,8,1
5,2,0,3
5,2,2,1
5,2,6,6
5,2,8,4
5,6,0,8
5,6,2,3
5,6,6,9
5,6,8,6
5,7,0,6
5,7,1,9
5,7,2,4
5,7,4,1
5,7,6,7
5,7,7,2
5,7,8,5
6,0,3,7
6,0,5,5
6,1,1,6
6,1,3,3
6,1,5,1
6,1,7,7
6,4,3,6
6,4,5,4
6,7,1,1
6,7,3,2
6,7,5,7
6,7,7,4
6,8,3,8
6,8,5,3
7,0,4,9
7,1,0,1
7,1,2,8
7,1,4,7
7,1,6,4
7,1,8,9
7,3,2,3
7,3,4,5
7,3,6,9
7,4,4,1
7,5,2,2
7,5,4,6
7,5,6,8
7,7,0,2
7,7,2,7
7,7,4,4
7,7,6,3
7,7,8,1
7,8,4,2
8,0,1,9
8,0,7,2
8,2,2,3
8,2,6,9
8,4,0,3
8,4,4,2
8,4,8,4
8,6,2,8
8,6,6,4
8,8,1,2
8,8,7,3
