0,0,3,8
0,0,5,3
0,1,0,3
0,1,1,8
0,1,7,5
0,1,8,2
0,3,4,6
0,5,4,1
0,7,0,1
0,7,1,4
0,7,7,8
0,7,8,7
0,8,3,2
0,8,5,8
1,2,1,3
1,2,4,1
1,2,7,9
1,4,1,4
1,4,7,8
1,6,1,7
1,6,4,2
1,6,7,6
2,0,1,6
2,0,7,2
2,1,1,4
2,1,7,8
2,2,2,5
2,2,3,2
2,2,5,8
2,2,6,6
2,6,2,1
2,6,3,5
2,6,5,9
2,6,6,8
2,7,1,5
2,7,7,4
2,8,1,3
2,8,7,9
3,0,1,8
3,0,7,4
3,1,1,3
3,1,7,1
3,2,1,7
3,2,4,6
3,2,7,2
3,3,2,6
3,3,4,4
3,3,6,1
3,5,2,1
3,5,4,7
3,5,6,5
3,6,1,4
3,6,4,8
3,6,7,5
3,7,1,1
3,7,7,9
3,8,1,6
3,8,7,7
4,2,0,4
4,2,3,8
4,2,5,3
4,2,8,9
4,6,0,1
4,6,3,3
4,6,5,2
4,6,8,7
5,0,1,4
5,0,7,5
5,1,1,1
5,1,7,9
5,2,1,2
5,2,4,7
5,2,7,6
5,3,2,7
5,3,4,5
5,3,6,9
5,5,2,9
5,5,4,2
5,5,6,8
5,6,1,5
5,6,4,4
5,6,7,8
5,7,1,9
5,7,7,3
5,8,1,7
5,8,7,2
6,0,1,1
6,0,7,3
6,1,1,7
6,1,7,6
6,2,2,6
6,2,3,1
6,2,5,7
6,2,6,9
6,6,2,8
6,6,3,2
6,6,5,4
6,6,6,6
6,7,1,6
6,7,7,2
6,8,1,5
6,8,7,4
7,2,1,8
7,2,4,4
7,2,7,5
7,4,1,7
7,4,7,6
7,6,1,3
7,6,4,1
7,6,7,9
8,0,3,7
8,0,5,4
8,1,0,4
8,1,1,2
8,1,7,7
8,1,8,3
8,3,4,3
8,5,4,5
8,7,0,5
8,7,1,7
8,7,7,6
8,7,8,1
8,8,3,1
8,8,5,7
