0,1,0,6
0,1,1,5
0,1,7,4
0,1,8,9
0,2,1,1
0,2,2,4
0,2,6,2
0,2,7,7
0,6,1,4
0,6,2,5
0,6,6,9
0,6,7,8
0,7,0,2
0,7,1,9
0,7,7,6
0,7,8,7
1,0,2,1
1,0,6,3
1,1,1,8
1,1,3,3
1,1,5,9
1,1,7,5
1,3,0,2
1,3,3,7
1,3,5,4
1,3,8,9
1,4,1,1
1,4,4,2
1,4,7,7
1,5,0,8
1,5,3,6
1,5,5,3
1,5,8,2
1,7,1,3
1,7,3,1
1,7,5,7
1,7,7,9
1,8,2,9
1,8,6,7
2,0,2,6
2,0,4,2
2,0,6,4
2,8,2,3
2,8,4,1
2,8,6,8
3,0,2,3
3,0,6,8
3,8,2,4
3,8,6,2
4,0,0,1
4,0,1,5
4,0,7,3
4,0,8,9
4,1,4,3
4,2,1,3
4,2,2,7
4,2,6,5
4,2,7,4
4,4,1,6
4,4,7,9
4,6,1,9
4,6,2,6
4,6,6,4
4,6,7,1
4,7,4,1
4,8,0,2
4,8,1,1
4,8,7,6
4,8,8,3
5,0,2,9
5,0,6,7
5,8,2,8
5,8,6,1
6,0,2,8
6,0,4,3
6,0,6,1
6,8,2,7
6,8,4,9
6,8,6,5
7,0,2,2
7,0,6,6
7,1,1,6
7,1,3,2
7,1,5,3
7,1,7,1
7,3,0,5
7,3,3,1
7,3,5,7
7,3,8,8
7,4,1,4
7,4,4,5
7,4,7,3
7,5,0,2
7,5,3,9
7,5,5,4
7,5,8,5
7,7,1,2
7,7,3,4
7,7,5,1
7,7,7,8
7,8,2,1
7,8,6,3
8,1,0,2
8,1,1,9
8,1,7,6
8,1,8,7
8,2,1,8
8,2,2,6
8,2,6,4
8,2,7,5
8,6,1,6
8,6,2,9
8,6,6,7
8,6,7,3
8,7,0,4
8,7,1,7
8,7,7,2
8,7,8,5
