0,0,1,3
0,0,3,1
0,0,5,2
0,0,7,6
0,1,3,5
0,1,5,8
0,2,3,6
0,2,5,9
0,4,0,2
0,4,8,1
0,6,3,9
0,6,5,3
0,7,3,2
0,7,5,4
0,8,1,1
0,8,3,8
0,8,5,7
0,8,7,2
1,1,0,9
1,1,8,6
1,2,4,5
1,3,1,3
1,3,7,6
1,5,1,2
1,5,7,4
1,6,4,8
1,7,0,2
1,7,8,1
2,2,3,4
2,2,5,1
2,3,1,5
2,3,4,6
2,3,7,1
2,4,0,9
2,4,8,6
2,5,1,1
2,5,4,5
2,5,7,2
2,6,3,1
2,6,5,2
3,2,2,1
3,2,3,2
3,2,4,7
3,2,5,6
3,2,6,4
3,3,4,1
3,5,4,8
3,6,2,3
3,6,3,6
3,6,4,2
3,6,5,7
3,6,6,8
4,0,3,6
4,0,5,7
4,2,4,9
4,4,2,8
4,4,6,7
4,6,4,1
4,8,3,5
4,8,5,4
5,2,2,6
5,2,3,5
5,2,4,8
5,2,5,4
5,2,6,3
5,3,4,2
5,5,4,9
5,6,2,7
5,6,3,4
5,6,4,5
5,6,5,8
5,6,6,9
6,2,3,3
6,2,5,2
6,3,1,1
6,3,4,9
6,3,7,7
6,4,0,8
6,4,8,5
6,5,1,6
6,5,4,1
6,5,7,9
6,6,3,2
6,6,5,4
7,1,0,6
7,1,8,8
7,2,4,6
7,3,1,4
7,3,7,8
7,5,1,8
7,5,7,6
7,6,4,9
7,7,0,8
7,7,8,5
8,0,1,1
8,0,3,8
8,0,5,6
8,0,7,7
8,1,3,4
8,1,5,3
8,2,3,7
8,2,5,5
8,4,0,6
8,4,8,8
8,6,3,5
8,6,5,1
8,7,3,6
8,7,5,9
8,8,1,8
8,8,3,3
8,8,5,2
8,8,7,6
