0,0,0,5
0,0,1,1
0,0,7,7
0,0,8,9
0,1,1,4
0,1,2,6
0,1,3,1
0,1,5,9
0,1,6,5
0,1,7,2
0,3,1,3
0,3,7,5
0,4,2,7
0,4,3,3
0,4,5,1
0,4,6,2
0,5,1,5
0,5,7,1
0,7,1,7
0,7,2,5
0,7,3,4
0,7,5,3
0,7,6,8
0,7,7,9
0,8,0,4
0,8,1,2
0,8,7,3
0,8,8,5
1,0,0,9
1,0,8,4
1,1,3,6
1,1,5,4
1,2,4,2
1,6,4,7
1,7,3,5
1,7,5,8
1,8,0,5
1,8,8,9
2,0,3,3
2,0,5,6
2,1,4,7
2,2,1,3
2,2,3,4
2,2,5,8
2,2,7,9
2,3,4,6
2,4,2,8
2,4,6,6
2,5,4,8
2,6,1,5
2,6,3,6
2,6,5,4
2,6,7,1
2,7,4,2
2,8,3,8
2,8,5,1
3,0,1,5
3,0,2,2
3,0,3,1
3,0,4,7
3,0,5,9
3,0,6,4
3,0,7,6
3,2,0,9
3,2,8,5
3,3,0,5
3,3,8,4
3,5,0,1
3,5,8,2
3,6,0,2
3,6,8,6
3,8,1,9
3,8,2,1
3,8,3,6
3,8,4,8
3,8,5,4
3,8,6,5
3,8,7,2
4,0,4,8
4,2,2,7
4,2,6,6
4,3,3,8
4,3,5,2
4,4,0,8
4,4,8,3
4,5,3,9
4,5,5,3
4,6,2,4
4,6,6,7
4,8,4,3
5,0,1,9
5,0,2,1
5,0,3,6
5,0,4,3
5,0,5,4
5,0,6,5
5,0,7,2
5,2,0,4
5,2,8,9
5,3,0,9
5,3,8,5
5,5,0,6
5,5,8,1
5,6,0,1
5,6,8,2
5,8,1,4
5,8,2,6
5,8,3,2
5,8,4,7
5,8,5,5
5,8,6,9
5,8,7,1
6,0,3,4
6,0,5,8
6,1,4,9
6,2,1,9
6,2,3,6
6,2,5,5
6,2,7,1
6,3,4,8
6,4,2,9
6,4,6,8
6,5,4,4
6,6,1,1
6,6,3,8
6,6,5,2
6,6,7,7
6,7,4,3
6,8,3,9
6,8,5,7
7,0,0,2
7,0,8,1
7,1,3,8
7,1,5,2
7,2,4,3
7,6,4,9
7,7,3,2
7,7,5,5
7,8,0,6
7,8,8,2
8,0,0,6
8,0,1,7
8,0,7,5
8,0,8,2
8,1,1,2
8,1,2,8
8,1,3,7
8,1,5,6
8,1,6,1
8,1,7,3
8,3,1,9
8,3,7,2
8,4,2,5
8,4,3,4
8,4,5,7
8,4,6,3
8,5,1,1
8,5,7,7
8,7,1,4
8,7,2,2
8,7,3,6
8,7,5,9
8,7,6,5
8,7,7,1
8,8,0,1
8,8,1,3
8,8,7,4
8,8,8,6
