0,0,0,8
0,0,1,9
0,0,7,1
0,0,8,5
0,2,0,2
0,2,8,3
0,4,3,7
0,4,5,2
0,6,0,1
0,6,8,7
0,8,0,9
0,8,1,3
0,8,7,5
0,8,8,4
1,1,4,5
1,2,0,9
1,2,2,8
1,2,4,7
1,2,6,1
1,2,8,4
1,3,2,3
1,3,6,4
1,4,1,1
1,4,2,5
1,4,6,7
1,4,7,6
1,5,2,6
1,5,6,8
1,6,0,6
1,6,2,7
1,6,4,4
1,6,6,3
1,6,8,9
1,7,4,6
2,0,1,2
2,0,2,7
2,0,3,5
2,0,5,1
2,0,6,3
2,0,7,8
2,3,2,4
2,3,4,3
2,3,6,6
2,5,2,8
2,5,4,7
2,5,6,1
2,8,1,7
2,8,2,6
2,8,3,4
2,8,5,5
2,8,6,8
2,8,7,9
3,1,0,6
3,1,1,2
3,1,4,4
3,1,7,1
3,1,8,9
3,7,0,8
3,7,1,5
3,7,4,3
3,7,7,2
3,7,8,7
4,2,0,7
4,2,2,2
4,2,6,9
4,2,8,1
4,3,0,2
4,3,2,6
4,3,6,1
4,3,8,3
4,4,4,3
4,5,0,3
4,5,2,9
4,5,6,5
4,5,8,8
4,6,0,9
4,6,2,1
4,6,6,8
4,6,8,4
5,1,0,8
5,1,1,5
5,1,4,3
5,1,7,2
5,1,8,7
5,7,0,1
5,7,1,9
5,7,4,2
5,7,7,8
5,7,8,5
6,0,1,8
6,0,2,9
6,0,3,7
6,0,5,2
6,0,6,5
6,0,7,4
6,3,2,2
6,3,4,5
6,3,6,9
6,5,2,4
6,5,4,3
6,5,6,6
6,8,1,9
6,8,2,3
6,8,3,6
6,8,5,7
6,8,6,4
6,8,7,1
7,1,4,1
7,2,0,8
7,2,2,3
7,2,4,2
7,2,6,4
7,2,8,5
7,3,2,9
7,3,6,5
7,4,1,4
7,4,2,1
7,4,6,2
7,4,7,7
7,5,2,7
7,5,6,3
7,6,0,7
7,6,2,2
7,6,4,5
7,6,6,9
7,6,8,8
7,7,4,7
8,0,0,7
8,0,1,6
8,0,7,3
8,0,8,8
8,2,0,1
8,2,8,7
8,4,3,4
8,4,5,5
8,6,0,3
8,6,8,1
8,8,0,6
8,8,1,2
8,8,7,8
8,8,8,9
