0,0,1,2
0,0,7,3
0,1,0,1
0,1,8,2
0,3,3,6
0,3,5,7
0,5,3,5
0,5,5,2
0,7,0,8
0,7,8,6
0,8,1,3
0,8,7,9
1,2,1,5
1,2,7,8
1,3,0,8
1,3,2,7
1,3,6,2
1,3,8,6
1,5,0,5
1,5,2,2
1,5,6,8
1,5,8,3
1,6,1,7
1,6,7,6
2,0,1,3
2,0,7,9
2,2,2,7
2,2,3,3
2,2,5,4
2,2,6,2
2,6,2,3
2,6,3,5
2,6,5,2
2,6,6,1
2,8,1,8
2,8,7,2
3,1,1,6
3,1,7,1
3,2,0,5
3,2,1,7
3,2,2,1
3,2,6,4
3,2,7,2
3,2,8,3
3,3,2,3
3,3,6,6
3,5,2,5
3,5,6,2
3,6,0,2
3,6,1,3
3,6,2,4
3,6,6,9
3,6,7,8
3,6,8,6
3,7,1,8
3,7,7,7
4,1,4,1
4,2,0,9
4,2,3,4
4,2,4,2
4,2,5,3
4,2,8,1
4,3,0,5
4,3,3,8
4,3,5,9
4,3,8,3
4,4,1,4
4,4,2,2
4,4,6,8
4,4,7,6
4,5,0,8
4,5,3,2
4,5,5,4
4,5,8,5
4,6,0,7
4,6,3,6
4,6,4,9
4,6,5,8
4,6,8,4
4,7,4,7
5,1,1,1
5,1,7,3
5,2,0,4
5,2,1,2
5,2,2,3
5,2,6,6
5,2,7,9
5,2,8,8
5,3,2,6
5,3,6,5
5,5,2,4
5,5,6,9
5,6,0,8
5,6,1,6
5,6,2,9
5,6,6,7
5,6,7,1
5,6,8,5
5,7,1,7
5,7,7,2
6,0,1,6
6,0,7,1
6,2,2,8
6,2,3,9
6,2,5,5
6,2,6,7
6,6,2,6
6,6,3,8
6,6,5,7
6,6,6,3
6,8,1,1
6,8,7,7
7,2,1,4
7,2,7,3
7,3,0,7
7,3,2,2
7,3,6,8
7,3,8,5
7,5,0,4
7,5,2,6
7,5,6,3
7,5,8,1
7,6,1,2
7,6,7,5
8,0,1,1
8,0,7,7
8,1,0,4
8,1,8,1
8,3,3,9
8,3,5,5
8,5,3,3
8,5,5,1
8,7,0,6
8,7,8,9
8,8,1,7
8,8,7,8
