0,1,1,1
0,1,7,6
0,2,1,3
0,2,3,1
0,2,5,6
0,2,7,7
0,6,1,6
0,6,3,7
0,6,5,4
0,6,7,9
0,7,1,7
0,7,7,4
1,0,2,7
1,0,6,6
1,1,4,6
1,2,3,4
1,2,5,3
1,3,2,3
1,3,6,8
1,4,0,4
1,4,3,6
1,4,5,9
1,4,8,7
1,5,2,1
1,5,6,3
1,6,3,3
1,6,5,2
1,7,4,9
1,8,2,5
1,8,6,9
2,0,3,6
2,0,5,9
2,2,4,8
2,3,0,2
2,3,4,9
2,3,8,1
2,4,3,8
2,4,5,7
2,5,0,7
2,5,4,5
2,5,8,8
2,6,4,6
2,8,3,5
2,8,5,3
3,0,2,8
3,0,6,1
3,2,0,1
3,2,8,4
3,3,1,1
3,3,2,5
3,3,3,8
3,3,5,7
3,3,6,9
3,3,7,2
3,5,1,7
3,5,2,3
3,5,3,2
3,5,5,5
3,5,6,8
3,5,7,4
3,6,0,3
3,6,8,9
3,8,2,9
3,8,6,4
4,0,0,3
4,0,4,6
4,0,8,5
4,1,1,7
4,1,3,2
4,1,5,5
4,1,7,4
4,2,1,8
4,2,2,5
4,2,3,3
4,2,5,7
4,2,6,9
4,2,7,2
4,3,0,4
4,3,2,8
4,3,6,1
4,3,8,7
4,4,0,7
4,4,8,8
4,5,0,1
4,5,2,6
4,5,6,2
4,5,8,9
4,6,1,1
4,6,2,4
4,6,3,8
4,6,5,6
4,6,6,5
4,6,7,7
4,7,1,9
4,7,3,5
4,7,5,3
4,7,7,1
4,8,0,5
4,8,4,1
4,8,8,2
5,0,2,9
5,0,6,4
5,2,0,4
5,2,8,7
5,3,1,9
5,3,2,7
5,3,3,5
5,3,5,1
5,3,6,6
5,3,7,8
5,5,1,8
5,5,2,4
5,5,3,3
5,5,5,6
5,5,6,5
5,5,7,7
5,6,0,9
5,6,8,6
5,8,2,2
5,8,6,7
6,0,3,4
6,0,5,3
6,2,4,6
6,3,0,5
6,3,4,8
6,3,8,2
6,4,3,2
6,4,5,5
6,5,0,4
6,5,4,3
6,5,8,7
6,6,4,4
6,8,3,8
6,8,5,6
7,0,2,4
7,0,6,5
7,1,4,4
7,2,3,8
7,2,5,2
7,3,2,2
7,3,6,7
7,4,0,1
7,4,3,4
7,4,5,8
7,4,8,9
7,5,2,7
7,5,6,6
7,6,3,6
7,6,5,9
7,7,4,1
7,8,2,8
7,8,6,1
8,1,1,2
8,1,7,5
8,2,1,6
8,2,3,7
8,2,5,4
8,2,7,9
8,6,1,9
8,6,3,5
8,6,5,3
8,6,7,1
8,7,1,4
8,7,7,3
