0,0,1,5
0,0,7,9
0,3,3,1
0,3,5,2
0,5,3,9
0,5,5,7
0,8,1,6
0,8,7,5
1,0,3,9
1,0,5,6
1,1,4,8
1,2,1,9
1,2,7,7
1,3,4,9
1,5,4,3
1,6,1,8
1,6,7,3
1,7,4,6
1,8,3,5
1,8,5,3
2,0,2,9
2,0,6,1
2,1,1,7
2,1,7,5
2,2,0,5
2,2,8,6
2,3,1,4
2,3,7,1
2,5,1,5
2,5,7,9
2,6,0,2
2,6,8,1
2,7,1,1
2,7,7,7
2,8,2,5
2,8,6,4
3,1,1,6
3,1,7,2
3,4,0,8
3,4,8,9
3,7,1,7
3,7,7,6
4,0,1,2
4,0,2,4
4,0,6,8
4,0,7,7
4,2,0,9
4,2,3,5
4,2,5,7
4,2,8,2
4,3,1,7
4,3,2,9
4,3,6,1
4,3,7,6
4,4,4,9
4,5,1,8
4,5,2,2
4,5,6,9
4,5,7,3
4,6,0,8
4,6,3,1
4,6,5,4
4,6,8,9
4,8,1,1
4,8,2,7
4,8,6,5
4,8,7,8
5,1,1,1
5,1,7,8
5,4,0,9
5,4,8,6
5,7,1,8
5,7,7,3
6,0,2,6
6,0,6,7
6,1,1,8
6,1,7,3
6,2,0,3
6,2,8,4
6,3,1,9
6,3,7,2
6,5,1,3
6,5,7,7
6,6,0,4
6,6,8,6
6,7,1,6
6,7,7,5
6,8,2,3
6,8,6,9
7,0,3,1
7,0,5,7
7,1,4,5
7,2,1,1
7,2,7,2
7,3,4,1
7,5,4,9
7,6,1,5
7,6,7,9
7,7,4,7
7,8,3,4
7,8,5,9
8,0,1,7
8,0,7,5
8,3,3,4
8,3,5,9
8,5,3,5
8,5,5,3
8,8,1,9
8,8,7,6
