0,0,4,3
0,1,1,8
0,1,2,3
0,1,6,9
0,1,7,2
0,3,4,2
0,5,4,4
0,7,1,4
0,7,2,5
0,7,6,1
0,7,7,8
0,8,4,1
1,0,0,6
1,0,8,1
1,1,0,9
1,1,8,4
1,2,1,1
1,2,2,8
1,2,6,7
1,2,7,9
1,3,0,8
1,3,8,7
1,5,0,2
1,5,8,5
1,6,1,9
1,6,2,2
1,6,6,4
1,6,7,5
1,7,0,1
1,7,8,9
1,8,0,5
1,8,8,8
2,2,1,9
2,2,4,1
2,2,7,5
2,6,1,5
2,6,4,9
2,6,7,3
3,1,2,8
3,1,6,7
3,2,1,7
3,2,2,1
3,2,4,4
3,2,6,6
3,2,7,3
3,6,1,8
3,6,2,5
3,6,4,7
3,6,6,1
3,6,7,4
3,7,2,4
3,7,6,3
4,0,1,8
4,0,7,2
4,1,0,7
4,1,1,1
4,1,7,5
4,1,8,6
4,3,1,9
4,3,4,5
4,3,7,8
4,4,3,3
4,4,5,9
4,5,1,6
4,5,4,2
4,5,7,3
4,7,0,3
4,7,1,2
4,7,7,6
4,7,8,8
4,8,1,5
4,8,7,9
5,1,2,6
5,1,6,4
5,2,1,4
5,2,2,9
5,2,4,3
5,2,6,2
5,2,7,7
5,6,1,7
5,6,2,3
5,6,4,4
5,6,6,6
5,6,7,8
5,7,2,8
5,7,6,9
6,2,1,8
6,2,4,6
6,2,7,2
6,6,1,2
6,6,4,1
6,6,7,6
7,0,0,7
7,0,8,6
7,1,0,8
7,1,8,9
7,2,1,6
7,2,2,4
7,2,6,1
7,2,7,8
7,3,0,6
7,3,8,8
7,5,0,1
7,5,8,2
7,6,1,1
7,6,2,8
7,6,6,9
7,6,7,2
7,7,0,4
7,7,8,1
7,8,0,2
7,8,8,5
8,0,4,5
8,1,1,4
8,1,2,5
8,1,6,8
8,1,7,3
8,3,4,1
8,5,4,9
8,7,1,9
8,7,2,2
8,7,6,4
8,7,7,5
8,8,4,4
