0,0,4,5
0,1,2,5
0,1,6,1
0,4,0,5
0,4,8,6
0,7,2,3
0,7,6,2
0,8,4,7
1,0,3,6
1,0,4,8
1,0,5,1
1,2,0,5
1,2,2,6
1,2,6,8
1,2,8,7
1,3,3,1
1,3,4,2
1,3,5,8
1,4,1,1
1,4,7,4
1,5,3,7
1,5,4,9
1,5,5,4
1,6,0,9
1,6,2,2
1,6,6,5
1,6,8,6
1,8,3,4
1,8,4,6
1,8,5,9
2,0,2,3
2,0,6,7
2,1,4,6
2,3,1,2
2,3,7,6
2,4,0,9
2,4,3,8
2,4,5,2
2,4,8,7
2,5,1,8
2,5,7,9
2,7,4,8
2,8,2,8
2,8,6,4
3,0,1,3
3,0,4,1
3,0,7,4
3,1,0,7
3,1,8,3
3,3,0,2
3,3,4,5
3,3,8,1
3,5,0,8
3,5,4,4
3,5,8,7
3,7,0,9
3,7,8,2
3,8,1,5
3,8,4,8
3,8,7,9
4,0,2,6
4,0,6,5
4,1,2,3
4,1,6,6
4,2,0,1
4,2,8,9
4,3,1,5
4,3,2,1
4,3,6,7
4,3,7,9
4,5,1,3
4,5,2,7
4,5,6,8
4,5,7,4
4,6,0,3
4,6,8,8
4,7,2,2
4,7,6,9
4,8,2,4
4,8,6,2
5,0,1,1
5,0,4,4
5,0,7,3
5,1,0,6
5,1,8,1
5,3,0,7
5,3,4,9
5,3,8,4
5,5,0,5
5,5,4,3
5,5,8,6
5,7,0,8
5,7,8,7
5,8,1,9
5,8,4,5
5,8,7,8
6,0,2,8
6,0,6,4
6,1,4,4
6,3,1,1
6,3,7,4
6,4,0,6
6,4,3,2
6,4,5,4
6,4,8,1
6,5,1,7
6,5,7,2
6,7,4,7
6,8,2,6
6,8,6,5
7,0,3,4
7,0,4,7
7,0,5,9
7,2,0,7
7,2,2,1
7,2,6,2
7,2,8,4
7,3,3,9
7,3,4,4
7,3,5,6
7,4,1,9
7,4,7,5
7,5,3,3
7,5,4,2
7,5,5,5
7,6,0,6
7,6,2,3
7,6,6,7
7,6,8,1
7,8,3,5
7,8,4,3
7,8,5,7
8,0,4,6
8,1,2,2
8,1,6,9
8,4,0,7
8,4,8,4
8,7,2,8
8,7,6,4
8,8,4,4
