0,0,4,3
0,2,3,6
0,2,4,1
0,2,5,2
0,4,1,1
0,4,4,2
0,4,7,5
0,6,3,2
0,6,4,6
0,6,5,8
0,8,4,5
1,0,0,6
1,0,8,1
1,1,3,1
1,1,5,6
1,3,0,1
1,3,1,7
1,3,2,4
1,3,6,5
1,3,7,8
1,3,8,9
1,4,2,5
1,4,4,4
1,4,6,6
1,5,0,8
1,5,1,2
1,5,2,6
1,5,6,4
1,5,7,3
1,5,8,7
1,7,3,5
1,7,5,9
1,8,0,7
1,8,8,5
2,0,1,7
2,0,4,6
2,0,7,3
2,1,2,5
2,1,6,6
2,3,2,3
2,3,6,1
2,4,1,6
2,4,2,8
2,4,6,3
2,4,7,7
2,5,2,1
2,5,6,8
2,7,2,7
2,7,6,9
2,8,1,8
2,8,4,7
2,8,7,6
3,1,4,3
3,2,0,2
3,2,1,8
3,2,2,7
3,2,6,6
3,2,7,5
3,2,8,3
3,4,2,2
3,4,6,5
3,6,0,7
3,6,1,2
3,6,2,3
3,6,6,1
3,6,7,6
3,6,8,5
3,7,4,6
4,0,0,7
4,0,1,2
4,0,3,9
4,0,5,4
4,0,7,6
4,0,8,5
4,1,0,9
4,1,2,4
4,1,6,7
4,1,8,1
4,2,2,5
4,2,4,2
4,2,6,9
4,3,1,4
4,3,7,3
4,4,2,3
4,4,6,1
4,5,1,1
4,5,7,5
4,6,2,6
4,6,4,7
4,6,6,4
4,7,0,3
4,7,2,2
4,7,6,5
4,7,8,6
4,8,0,4
4,8,1,9
4,8,3,5
4,8,5,6
4,8,7,7
4,8,8,2
5,1,4,9
5,2,0,4
5,2,1,9
5,2,2,3
5,2,6,1
5,2,7,7
5,2,8,2
5,4,2,4
5,4,6,7
5,6,0,1
5,6,1,4
5,6,2,9
5,6,6,2
5,6,7,8
5,6,8,7
5,7,4,1
6,0,1,9
6,0,4,4
6,0,7,8
6,1,2,6
6,1,6,4
6,3,2,8
6,3,6,3
6,4,1,4
6,4,2,1
6,4,6,8
6,4,7,9
6,5,2,3
6,5,6,1
6,7,2,9
6,7,6,2
6,8,1,1
6,8,4,9
6,8,7,4
7,0,0,2
7,0,8,4
7,1,3,6
7,1,5,2
7,3,0,4
7,3,1,1
7,3,2,7
7,3,6,9
7,3,7,5
7,3,8,8
7,4,2,9
7,4,4,7
7,4,6,2
7,5,0,6
7,5,1,8
7,5,2,2
7,5,6,7
7,5,7,4
7,5,8,3
7,7,3,9
7,7,5,3
7,8,0,3
7,8,8,9
8,0,4,2
8,2,3,8
8,2,4,9
8,2,5,5
8,4,1,2
8,4,4,5
8,4,7,3
8,6,3,5
8,6,4,3
8,6,5,9
8,8,4,1
