0,0,0,7
0,0,1,1
0,0,3,4
0,0,5,2
0,0,7,6
0,0,8,9
0,1,4,3
0,2,3,9
0,2,5,6
0,6,3,1
0,6,5,9
0,7,4,2
0,8,0,9
0,8,1,2
0,8,3,3
0,8,5,8
0,8,7,4
0,8,8,5
1,0,2,4
1,0,4,9
1,0,6,1
1,1,3,1
1,1,4,4
1,1,5,5
1,7,3,9
1,7,4,8
1,7,5,6
1,8,2,3
1,8,4,5
1,8,6,2
2,1,4,6
2,2,1,3
2,2,2,7
2,2,4,8
2,2,6,6
2,2,7,9
2,3,1,4
2,3,7,7
2,5,1,9
2,5,7,2
2,6,1,7
2,6,2,2
2,6,4,4
2,6,6,9
2,6,7,1
2,7,4,1
3,0,1,9
3,0,7,2
3,1,3,9
3,1,5,4
3,7,3,6
3,7,5,1
3,8,1,7
3,8,7,1
4,1,0,8
4,1,8,2
4,2,0,7
4,2,8,5
4,3,0,9
4,3,1,8
4,3,4,5
4,3,7,6
4,3,8,7
4,4,3,8
4,4,5,9
4,5,0,1
4,5,1,6
4,5,4,2
4,5,7,9
4,5,8,8
4,6,0,2
4,6,8,1
4,7,0,5
4,7,8,9
5,0,1,7
5,0,7,1
5,1,3,7
5,1,5,6
5,7,3,3
5,7,5,8
5,8,1,5
5,8,7,8
6,1,4,7
6,2,1,5
6,2,2,8
6,2,4,3
6,2,6,7
6,2,7,2
6,3,1,9
6,3,7,1
6,5,1,1
6,5,7,3
6,6,1,8
6,6,2,6
6,6,4,9
6,6,6,2
6,6,7,4
6,7,4,6
7,0,2,5
7,0,4,1
7,0,6,6
7,1,3,3
7,1,4,5
7,1,5,2
7,7,3,1
7,7,4,4
7,7,5,9
7,8,2,7
7,8,4,2
7,8,6,4
8,0,0,2
8,0,1,6
8,0,3,7
8,0,5,3
8,0,7,5
8,0,8,1
8,1,4,9
8,2,3,2
8,2,5,5
8,6,3,4
8,6,5,2
8,7,4,3
8,8,0,8
8,8,1,4
8,8,3,9
8,8,5,6
8,8,7,7
8,8,8,2
