0,0,0,1
0,0,1,8
0,0,7,7
0,0,8,6
0,1,3,1
0,1,5,3
0,3,1,1
0,3,3,9
0,3,4,5
0,3,5,4
0,3,7,6
0,4,2,2
0,4,6,9
0,5,1,5
0,5,3,7
0,5,4,6
0,5,5,2
0,5,7,1
0,7,3,8
0,7,5,1
0,8,0,4
0,8,1,9
0,8,7,3
0,8,8,1
1,1,3,9
1,1,5,4
1,2,2,7
1,2,6,9
1,3,3,2
1,3,5,6
1,4,0,8
1,4,8,6
1,5,3,8
1,5,5,1
1,6,2,9
1,6,6,1
1,7,3,5
1,7,5,9
2,0,4,3
2,1,1,9
2,1,2,5
2,1,6,8
2,1,7,3
2,2,1,3
2,2,7,6
2,6,1,7
2,6,7,5
2,7,1,5
2,7,2,4
2,7,6,3
2,7,7,1
2,8,4,5
3,0,3,9
3,0,5,2
3,4,0,9
3,4,3,7
3,4,5,1
3,4,8,8
3,8,3,3
3,8,5,8
4,1,1,4
4,1,2,1
4,1,6,9
4,1,7,5
4,2,0,7
4,2,2,3
4,2,6,4
4,2,8,6
4,6,0,9
4,6,2,7
4,6,6,3
4,6,8,8
4,7,1,1
4,7,2,2
4,7,6,5
4,7,7,7
5,0,3,7
5,0,5,3
5,4,0,2
5,4,3,5
5,4,5,9
5,4,8,7
5,8,3,4
5,8,5,2
6,0,4,9
6,1,1,6
6,1,2,2
6,1,6,4
6,1,7,9
6,2,1,9
6,2,7,3
6,6,1,1
6,6,7,7
6,7,1,7
6,7,2,6
6,7,6,9
6,7,7,5
6,8,4,7
7,1,3,5
7,1,5,9
7,2,2,6
7,2,6,5
7,3,3,7
7,3,5,2
7,4,0,3
7,4,8,2
7,5,3,3
7,5,5,8
7,6,2,5
7,6,6,8
7,7,3,4
7,7,5,5
8,0,0,6
8,0,1,2
8,0,7,5
8,0,8,4
8,1,3,6
8,1,5,7
8,3,1,7
8,3,3,8
8,3,4,3
8,3,5,1
8,3,7,9
8,4,2,5
8,4,6,8
8,5,1,3
8,5,3,4
8,5,4,9
8,5,5,5
8,5,7,7
8,7,3,7
8,7,5,2
8,8,0,1
8,8,1,8
8,8,7,6
8,8,8,2
