0,2,3,8
0,2,5,1
0,3,3,3
0,3,4,1
0,3,5,8
0,4,0,3
0,4,8,7
0,5,3,7
0,5,4,6
0,5,5,4
0,6,3,6
0,6,5,7
1,0,3,1
1,0,5,3
1,3,0,9
1,3,8,1
1,5,0,8
1,5,8,4
1,8,3,3
1,8,5,8
2,0,0,2
2,0,2,9
2,0,3,7
2,0,5,4
2,0,6,3
2,0,8,8
2,1,4,1
2,3,0,1
2,3,2,3
2,3,6,4
2,3,8,6
2,4,2,2
2,4,3,6
2,4,4,4
2,4,5,7
2,4,6,1
2,5,0,7
2,5,2,4
2,5,6,2
2,5,8,9
2,7,4,5
2,8,0,9
2,8,2,5
2,8,3,4
2,8,5,6
2,8,6,8
2,8,8,1
3,0,0,1
3,0,8,6
3,1,4,9
3,2,4,8
3,3,3,8
3,3,5,1
3,4,1,3
3,4,3,2
3,4,5,4
3,4,7,6
3,5,3,9
3,5,5,6
3,6,4,6
3,7,4,1
3,8,0,3
3,8,8,7
4,0,3,9
4,0,5,6
4,2,1,3
4,2,2,1
4,2,4,5
4,2,6,7
4,2,7,6
4,3,0,3
4,3,1,1
4,3,2,8
4,3,6,6
4,3,7,9
4,3,8,7
4,4,2,4
4,4,6,3
4,5,0,9
4,5,1,7
4,5,2,6
4,5,6,4
4,5,7,2
4,5,8,5
4,6,1,6
4,6,2,9
4,6,4,8
4,6,6,2
4,6,7,5
4,8,3,6
4,8,5,7
5,0,0,9
5,0,8,5
5,1,4,4
5,2,4,6
5,3,3,6
5,3,5,7
5,4,1,6
5,4,3,1
5,4,5,3
5,4,7,5
5,5,3,4
5,5,5,5
5,6,4,5
5,7,4,7
5,8,0,6
5,8,8,2
6,0,0,3
6,0,2,8
6,0,3,5
6,0,5,2
6,0,6,6
6,0,8,7
6,1,4,6
6,3,0,7
6,3,2,4
6,3,6,2
6,3,8,9
6,4,2,3
6,4,3,9
6,4,4,2
6,4,5,5
6,4,6,4
6,5,0,5
6,5,2,2
6,5,6,1
6,5,8,3
6,7,4,3
6,8,0,8
6,8,2,1
6,8,3,2
6,8,5,9
6,8,6,7
6,8,8,4
7,0,3,8
7,0,5,1
7,3,0,2
7,3,8,8
7,5,0,3
7,5,8,7
7,8,3,1
7,8,5,3
8,2,3,9
8,2,5,5
8,3,3,2
8,3,4,5
8,3,5,9
8,4,0,9
8,4,8,1
8,5,3,8
8,5,4,3
8,5,5,1
8,6,3,3
8,6,5,8
