0,1,2,6
0,1,6,3
0,2,1,1
0,2,7,9
0,3,0,8
0,3,2,7
0,3,6,2
0,3,8,5
0,5,0,3
0,5,2,1
0,5,6,7
0,5,8,9
0,6,1,8
0,6,7,2
0,7,2,9
0,7,6,4
1,1,3,6
1,1,5,2
1,2,0,7
1,2,8,6
1,3,0,9
1,3,1,2
1,3,7,4
1,3,8,1
1,5,0,4
1,5,1,7
1,5,7,5
1,5,8,2
1,6,0,6
1,6,8,4
1,7,3,4
1,7,5,6
2,0,2,1
2,0,6,7
2,1,0,8
2,1,1,4
2,1,2,7
2,1,6,2
2,1,7,6
2,1,8,5
2,2,0,6
2,2,1,9
2,2,7,3
2,2,8,4
2,4,4,9
2,6,0,5
2,6,1,1
2,6,7,9
2,6,8,7
2,7,0,4
2,7,1,7
2,7,2,8
2,7,6,6
2,7,7,5
2,7,8,2
2,8,2,6
2,8,6,3
3,0,0,7
3,0,8,4
3,3,3,8
3,3,5,6
3,4,4,4
3,5,3,2
3,5,5,1
3,8,0,4
3,8,8,3
4,0,0,5
4,0,8,6
4,1,4,3
4,2,3,9
4,2,5,5
4,4,1,2
4,4,7,4
4,6,3,7
4,6,5,2
4,7,4,6
4,8,0,3
4,8,8,2
5,0,0,6
5,0,8,7
5,3,3,4
5,3,5,9
5,4,4,1
5,5,3,3
5,5,5,8
5,8,0,2
5,8,8,9
6,0,2,6
6,0,6,3
6,1,0,5
6,1,1,1
6,1,2,3
6,1,6,8
6,1,7,9
6,1,8,7
6,2,0,4
6,2,1,7
6,2,7,5
6,2,8,2
6,4,4,2
6,6,0,2
6,6,1,6
6,6,7,1
6,6,8,3
6,7,0,1
6,7,1,3
6,7,2,5
6,7,6,9
6,7,7,7
6,7,8,8
6,8,2,4
6,8,6,5
7,1,3,5
7,1,5,8
7,2,0,3
7,2,8,9
7,3,0,7
7,3,1,8
7,3,7,2
7,3,8,6
7,5,0,1
7,5,1,3
7,5,7,7
7,5,8,8
7,6,0,4
7,6,8,2
7,7,3,7
7,7,5,5
8,1,2,4
8,1,6,5
8,2,1,6
8,2,7,1
8,3,0,5
8,3,2,3
8,3,6,8
8,3,8,7
8,5,0,9
8,5,2,6
8,5,6,3
8,5,8,1
8,6,1,5
8,6,7,8
8,7,2,7
8,7,6,2
