0,0,1,6
0,0,7,2
0,2,4,1
0,3,0,8
0,3,8,2
0,4,2,4
0,4,4,8
0,4,6,7
0,5,0,9
0,5,8,8
0,6,4,3
0,8,1,9
0,8,7,4
1,2,4,3
1,3,0,1
1,3,8,7
1,4,1,8
1,4,7,3
1,5,0,5
1,5,8,1
1,6,4,8
2,0,3,5
2,0,5,3
2,1,2,6
2,1,6,3
2,2,4,8
2,4,2,5
2,4,6,2
2,6,4,1
2,7,2,3
2,7,6,9
2,8,3,3
2,8,5,6
3,1,3,7
3,1,5,9
3,2,0,9
3,2,8,3
3,4,0,4
3,4,2,3
3,4,6,5
3,4,8,8
3,6,0,5
3,6,8,1
3,7,3,1
3,7,5,6
4,0,0,1
4,0,8,6
4,2,0,5
4,2,2,3
4,2,6,9
4,2,8,8
4,3,3,2
4,3,5,9
4,5,3,1
4,5,5,6
4,6,0,4
4,6,2,1
4,6,6,5
4,6,8,3
4,8,0,2
4,8,8,9
5,1,3,2
5,1,5,4
5,2,0,4
5,2,8,1
5,4,0,5
5,4,2,1
5,4,6,9
5,4,8,3
5,6,0,9
5,6,8,8
5,7,3,8
5,7,5,7
6,0,3,2
6,0,5,4
6,1,2,3
6,1,6,5
6,2,4,5
6,4,2,6
6,4,6,3
6,6,4,4
6,7,2,4
6,7,6,2
6,8,3,5
6,8,5,1
7,2,4,9
7,3,0,9
7,3,8,3
7,4,1,5
7,4,7,9
7,5,0,7
7,5,8,5
7,6,4,5
8,0,1,1
8,0,7,8
8,2,4,4
8,3,0,4
8,3,8,1
8,4,2,7
8,4,4,5
8,4,6,8
8,5,0,6
8,5,8,9
8,6,4,9
8,8,1,6
8,8,7,2
