0,0,1,1
0,0,3,6
0,0,5,2
0,0,7,9
0,3,1,4
0,3,7,2
0,5,1,2
0,5,7,3
0,8,1,8
0,8,3,2
0,8,5,7
0,8,7,4
1,1,1,8
1,1,3,2
1,1,5,7
1,1,7,4
1,2,2,7
1,2,6,3
1,3,0,6
1,3,8,3
1,5,0,8
1,5,8,5
1,6,2,8
1,6,6,9
1,7,1,2
1,7,3,4
1,7,5,5
1,7,7,3
2,0,0,7
2,0,8,8
2,2,2,8
2,2,6,9
2,3,0,3
2,3,2,1
2,3,6,5
2,3,8,9
2,5,0,4
2,5,2,5
2,5,6,2
2,5,8,7
2,6,2,4
2,6,6,6
2,8,0,6
2,8,8,3
3,2,0,5
3,2,1,4
3,2,4,6
3,2,7,2
3,2,8,3
3,3,4,7
3,4,4,4
3,5,4,2
3,6,0,6
3,6,1,7
3,6,4,3
3,6,7,4
3,6,8,9
4,1,3,6
4,1,4,7
4,1,5,1
4,3,0,8
4,3,8,7
4,4,1,7
4,4,7,4
4,5,0,9
4,5,8,2
4,7,3,9
4,7,4,5
4,7,5,4
5,2,0,6
5,2,1,7
5,2,4,3
5,2,7,4
5,2,8,9
5,3,4,8
5,4,4,6
5,5,4,5
5,6,0,3
5,6,1,8
5,6,4,4
5,6,7,1
5,6,8,6
6,0,0,3
6,0,8,9
6,2,2,5
6,2,6,2
6,3,0,9
6,3,2,4
6,3,6,6
6,3,8,2
6,5,0,6
6,5,2,2
6,5,6,8
6,5,8,3
6,6,2,6
6,6,6,1
6,8,0,1
6,8,8,4
7,1,1,5
7,1,3,8
7,1,5,3
7,1,7,7
7,2,2,3
7,2,6,4
7,3,0,1
7,3,8,4
7,5,0,5
7,5,8,6
7,6,2,5
7,6,6,2
7,7,1,8
7,7,3,2
7,7,5,7
7,7,7,4
8,0,1,4
8,0,3,1
8,0,5,8
8,0,7,2
8,3,1,6
8,3,7,8
8,5,1,8
8,5,7,4
8,8,1,5
8,8,3,8
8,8,5,3
8,8,7,7
