0,1,2,1
0,1,6,3
0,2,4,9
0,4,1,2
0,4,7,4
0,6,4,2
0,7,2,3
0,7,6,9
1,1,0,2
1,1,1,4
1,1,3,3
1,1,4,7
1,1,5,5
1,1,7,6
1,1,8,1
1,2,2,6
1,2,3,8
1,2,5,4
1,2,6,5
1,3,2,1
1,3,3,2
1,3,5,8
1,3,6,3
1,4,1,3
1,4,2,7
1,4,4,4
1,4,6,8
1,4,7,2
1,5,2,2
1,5,3,7
1,5,5,3
1,5,6,6
1,6,2,9
1,6,3,4
1,6,5,7
1,6,6,1
1,7,0,6
1,7,1,1
1,7,3,9
1,7,4,8
1,7,5,2
1,7,7,4
1,7,8,3
2,0,4,8
2,1,1,7
2,1,7,4
2,2,3,5
2,2,5,7
2,3,4,7
2,4,2,6
2,4,6,9
2,5,4,1
2,6,3,1
2,6,5,6
2,7,1,8
2,7,7,1
2,8,4,9
3,1,4,8
3,2,0,2
3,2,8,8
3,3,2,2
3,3,3,5
3,3,5,4
3,3,6,6
3,4,0,3
3,4,3,2
3,4,5,1
3,4,8,9
3,5,2,5
3,5,3,8
3,5,5,6
3,5,6,1
3,6,0,5
3,6,8,1
3,7,4,5
4,0,0,5
4,0,1,9
4,0,2,4
4,0,6,1
4,0,7,2
4,0,8,7
4,3,0,6
4,3,2,3
4,3,6,5
4,3,8,4
4,4,4,6
4,5,0,1
4,5,2,7
4,5,6,8
4,5,8,6
4,8,0,9
4,8,1,4
4,8,2,5
4,8,6,7
4,8,7,1
4,8,8,2
5,1,4,1
5,2,0,9
5,2,8,1
5,3,2,4
5,3,3,6
5,3,5,3
5,3,6,7
5,4,0,2
5,4,3,4
5,4,5,9
5,4,8,8
5,5,2,6
5,5,3,1
5,5,5,7
5,5,6,9
5,6,0,3
5,6,8,4
5,7,4,3
6,0,4,4
6,1,1,3
6,1,7,2
6,2,3,7
6,2,5,3
6,3,4,3
6,4,2,4
6,4,6,7
6,5,4,6
6,6,3,6
6,6,5,5
6,7,1,9
6,7,7,6
6,8,4,2
7,1,0,1
7,1,1,9
7,1,3,8
7,1,4,2
7,1,5,4
7,1,7,3
7,1,8,7
7,2,2,3
7,2,3,6
7,2,5,9
7,2,6,4
7,3,2,7
7,3,3,1
7,3,5,6
7,3,6,8
7,4,1,8
7,4,2,2
7,4,4,9
7,4,6,6
7,4,7,1
7,5,2,1
7,5,3,2
7,5,5,8
7,5,6,3
7,6,2,5
7,6,3,9
7,6,5,2
7,6,6,7
7,7,0,3
7,7,1,7
7,7,3,5
7,7,4,6
7,7,5,1
7,7,7,9
7,7,8,8
8,1,2,4
8,1,6,1
8,2,4,8
8,4,1,9
8,4,7,8
8,6,4,4
8,7,2,1
8,7,6,3
