0,0,0,2
0,0,1,9
0,0,3,5
0,0,5,6
0,0,7,7
0,0,8,3
0,2,2,7
0,2,6,6
0,3,2,4
0,3,6,1
0,4,0,8
0,4,2,5
0,4,6,9
0,4,8,6
0,5,2,2
0,5,6,7
0,6,2,1
0,6,6,8
0,8,0,3
0,8,1,8
0,8,3,1
0,8,5,9
0,8,7,5
0,8,8,4
1,2,0,9
1,2,8,4
1,3,3,3
1,3,5,6
1,5,3,8
1,5,5,9
1,6,0,6
1,6,8,3
2,0,0,6
2,0,3,3
2,0,4,8
2,0,5,7
2,0,8,9
2,2,0,3
2,2,8,8
2,4,0,4
2,4,2,3
2,4,6,5
2,4,8,7
2,6,0,2
2,6,8,5
2,8,0,9
2,8,3,8
2,8,4,2
2,8,5,5
2,8,8,1
3,0,0,5
3,0,1,4
3,0,3,1
3,0,5,9
3,0,7,3
3,0,8,8
3,1,4,8
3,2,0,8
3,2,2,9
3,2,6,5
3,2,8,6
3,3,4,2
3,4,1,5
3,4,4,1
3,4,7,6
3,5,4,5
3,6,0,3
3,6,2,2
3,6,6,6
3,6,8,4
3,7,4,4
3,8,0,4
3,8,1,6
3,8,3,2
3,8,5,1
3,8,7,8
3,8,8,7
4,0,0,9
4,0,2,6
4,0,6,7
4,0,8,4
4,3,0,3
4,3,4,7
4,3,8,8
4,4,3,3
4,4,5,6
4,5,0,8
4,5,4,9
4,5,8,7
4,8,0,1
4,8,2,9
4,8,6,5
4,8,8,6
5,0,0,3
5,0,1,8
5,0,3,4
5,0,5,5
5,0,7,9
5,0,8,1
5,1,4,1
5,2,0,1
5,2,2,5
5,2,6,3
5,2,8,7
5,3,4,6
5,4,1,3
5,4,4,4
5,4,7,7
5,5,4,3
5,6,0,9
5,6,2,6
5,6,6,7
5,6,8,8
5,7,4,8
5,8,0,8
5,8,1,7
5,8,3,6
5,8,5,4
5,8,7,1
5,8,8,2
6,0,0,8
6,0,3,7
6,0,4,5
6,0,5,1
6,0,8,2
6,2,0,2
6,2,8,9
6,4,0,5
6,4,2,2
6,4,6,7
6,4,8,4
6,6,0,1
6,6,8,7
6,8,0,7
6,8,3,9
6,8,4,1
6,8,5,2
6,8,8,5
7,2,0,7
7,2,8,3
7,3,3,7
7,3,5,1
7,5,3,9
7,5,5,6
7,6,0,4
7,6,8,6
8,0,0,4
8,0,1,7
8,0,3,2
8,0,5,8
8,0,7,1
8,0,8,6
8,2,2,1
8,2,6,8
8,3,2,9
8,3,6,3
8,4,0,3
8,4,2,6
8,4,6,2
8,4,8,1
8,5,2,8
8,5,6,4
8,6,2,3
8,6,6,5
8,8,0,2
8,8,1,9
8,8,3,5
8,8,5,6
8,8,7,7
8,8,8,3
