0,1,0,3
0,1,2,9
0,1,6,4
0,1,8,8
0,2,2,1
0,2,6,3
0,3,1,2
0,3,7,1
0,5,1,1
0,5,7,4
0,6,2,7
0,6,6,1
0,7,0,5
0,7,2,6
0,7,6,8
0,7,8,7
1,0,0,6
1,0,8,4
1,2,0,7
1,2,4,9
1,2,8,6
1,4,0,1
1,4,8,2
1,6,0,3
1,6,4,4
1,6,8,8
1,8,0,9
1,8,8,1
2,0,4,4
2,3,0,8
2,3,3,5
2,3,5,6
2,3,8,4
2,4,0,5
2,4,8,1
2,5,0,3
2,5,3,2
2,5,5,1
2,5,8,8
2,8,4,1
3,0,0,2
3,0,8,5
3,1,2,3
3,1,6,7
3,2,2,7
3,2,6,1
3,3,1,8
3,3,3,6
3,3,5,1
3,3,7,7
3,5,1,2
3,5,3,8
3,5,5,7
3,5,7,3
3,6,2,6
3,6,6,8
3,7,2,2
3,7,6,6
3,8,0,4
3,8,8,7
4,2,1,1
4,2,7,5
4,6,1,2
4,6,7,3
5,0,0,7
5,0,8,8
5,1,2,4
5,1,6,5
5,2,2,5
5,2,6,9
5,3,1,1
5,3,3,7
5,3,5,4
5,3,7,9
5,5,1,7
5,5,3,3
5,5,5,9
5,5,7,5
5,6,2,3
5,6,6,7
5,7,2,7
5,7,6,1
5,8,0,2
5,8,8,4
6,0,4,3
6,3,0,9
6,3,3,3
6,3,5,5
6,3,8,1
6,4,0,3
6,4,8,6
6,5,0,6
6,5,3,9
6,5,5,2
6,5,8,5
6,8,4,2
7,0,0,3
7,0,8,6
7,2,0,5
7,2,4,6
7,2,8,1
7,4,0,4
7,4,8,3
7,6,0,9
7,6,4,8
7,6,8,7
7,8,0,8
7,8,8,5
8,1,0,7
8,1,2,5
8,1,6,9
8,1,8,2
8,2,2,3
8,2,6,7
8,3,1,6
8,3,7,3
8,5,1,3
8,5,7,9
8,6,2,1
8,6,6,3
8,7,0,4
8,7,2,8
8,7,6,2
8,7,8,1
