0,1,2,4
0,1,6,5
0,2,3,5
0,2,5,2
0,6,3,4
0,6,5,6
0,7,2,6
0,7,6,7
1,0,2,9
1,0,6,7
1,2,1,2
1,2,2,5
1,2,3,6
1,2,5,9
1,2,6,3
1,2,7,1
1,3,2,6
1,3,4,1
1,3,6,5
1,5,2,2
1,5,4,9
1,5,6,8
1,6,1,6
1,6,2,4
1,6,3,8
1,6,5,1
1,6,6,2
1,6,7,5
1,8,2,7
1,8,6,1
2,0,0,3
2,0,3,2
2,0,5,7
2,0,8,6
2,1,0,2
2,1,3,4
2,1,5,6
2,1,8,3
2,2,2,6
2,2,6,2
2,6,2,3
2,6,6,6
2,7,0,5
2,7,3,6
2,7,5,9
2,7,8,1
2,8,0,6
2,8,3,3
2,8,5,8
2,8,8,2
3,0,4,4
3,1,4,5
3,2,1,3
3,2,7,8
3,3,2,2
3,3,6,8
3,5,2,9
3,5,6,2
3,6,1,4
3,6,7,9
3,7,4,7
3,8,4,8
4,1,1,1
4,1,4,8
4,1,7,3
4,2,4,9
4,3,2,8
4,3,6,6
4,4,1,3
4,4,2,6
4,4,6,5
4,4,7,8
4,5,2,5
4,5,6,3
4,6,4,2
4,7,1,8
4,7,4,3
4,7,7,1
5,0,4,3
5,1,4,6
5,2,1,5
5,2,7,7
5,3,2,4
5,3,6,7
5,5,2,3
5,5,6,4
5,6,1,3
5,6,7,8
5,7,4,9
5,8,4,5
6,0,0,2
6,0,3,4
6,0,5,6
6,0,8,3
6,1,0,4
6,1,3,8
6,1,5,1
6,1,8,7
6,2,2,8
6,2,6,4
6,6,2,2
6,6,6,8
6,7,0,6
6,7,3,3
6,7,5,8
6,7,8,2
6,8,0,1
6,8,3,5
6,8,5,2
6,8,8,9
7,0,2,4
7,0,6,5
7,2,1,7
7,2,2,2
7,2,3,9
7,2,5,4
7,2,6,8
7,2,7,3
7,3,2,9
7,3,4,3
7,3,6,2
7,5,2,7
7,5,4,4
7,5,6,1
7,6,1,9
7,6,2,6
7,6,3,1
7,6,5,3
7,6,6,7
7,6,7,2
7,8,2,5
7,8,6,3
8,1,2,5
8,1,6,3
8,2,3,1
8,2,5,3
8,6,3,2
8,6,5,7
8,7,2,7
8,7,6,1
