0,0,2,1
0,0,4,7
0,0,6,5
0,2,3,2
0,2,5,3
0,3,2,5
0,3,4,3
0,3,6,6
0,4,0,2
0,4,4,8
0,4,8,4
0,5,2,7
0,5,4,4
0,5,6,3
0,6,3,9
0,6,5,4
0,8,2,2
0,8,4,6
0,8,6,4
1,0,0,8
1,0,3,9
1,0,4,5
1,0,5,4
1,0,8,1
1,1,4,3
1,2,2,3
1,2,6,4
1,4,2,8
1,4,6,2
1,6,2,5
1,6,6,8
1,7,4,7
1,8,0,7
1,8,3,5
1,8,4,4
1,8,5,9
1,8,8,2
2,0,2,5
2,0,6,7
2,1,1,3
2,1,4,6
2,1,7,5
2,3,3,9
2,3,5,4
2,4,0,5
2,4,1,4
2,4,2,9
2,4,4,1
2,4,6,8
2,4,7,6
2,4,8,7
2,5,3,6
2,5,5,8
2,7,1,6
2,7,4,9
2,7,7,2
2,8,2,4
2,8,6,6
3,0,0,6
3,0,8,7
3,2,2,9
3,2,6,6
3,6,2,6
3,6,6,1
3,8,0,8
3,8,8,6
4,0,1,7
4,0,7,9
4,2,0,5
4,2,1,3
4,2,3,8
4,2,5,2
4,2,7,7
4,2,8,4
4,3,2,7
4,3,6,3
4,5,2,3
4,5,6,9
4,6,0,7
4,6,1,5
4,6,3,1
4,6,5,9
4,6,7,3
4,6,8,8
4,8,1,6
4,8,7,5
5,0,0,9
5,0,8,5
5,2,2,2
5,2,6,9
5,6,2,4
5,6,6,6
5,8,0,5
5,8,8,4
6,0,2,6
6,0,6,1
6,1,1,5
6,1,4,1
6,1,7,6
6,3,3,7
6,3,5,6
6,4,0,8
6,4,1,6
6,4,2,7
6,4,4,4
6,4,6,3
6,4,7,2
6,4,8,1
6,5,3,1
6,5,5,2
6,7,1,3
6,7,4,6
6,7,7,9
6,8,2,8
6,8,6,2
7,0,0,1
7,0,3,8
7,0,4,6
7,0,5,7
7,0,8,4
7,1,4,4
7,2,2,5
7,2,6,7
7,4,2,1
7,4,6,4
7,6,2,7
7,6,6,3
7,7,4,3
7,8,0,2
7,8,3,7
7,8,4,8
7,8,5,6
7,8,8,9
8,0,2,9
8,0,4,3
8,0,6,6
8,2,3,9
8,2,5,4
8,3,2,8
8,3,4,9
8,3,6,2
8,4,0,9
8,4,4,2
8,4,8,6
8,5,2,2
8,5,4,6
8,5,6,5
8,6,3,6
8,6,5,8
8,8,2,5
8,8,4,1
8,8,6,8
