0,1,2,5
0,1,6,2
0,2,0,1
0,2,1,8
0,2,7,9
0,2,8,5
0,6,0,3
0,6,1,1
0,6,7,5
0,6,8,4
0,7,2,2
0,7,6,3
1,0,4,3
1,1,0,8
1,1,1,3
1,1,7,5
1,1,8,4
1,4,3,4
1,4,4,9
1,4,5,5
1,7,0,5
1,7,1,4
1,7,7,2
1,7,8,7
1,8,4,2
2,0,4,2
2,2,2,9
2,2,4,1
2,2,6,6
2,3,3,9
2,3,5,4
2,4,0,9
2,4,8,2
2,5,3,7
2,5,5,2
2,6,2,5
2,6,4,3
2,6,6,2
2,8,4,9
3,0,3,9
3,0,5,8
3,1,3,6
3,1,5,1
3,2,2,1
3,2,4,4
3,2,6,9
3,3,2,7
3,3,6,2
3,4,3,2
3,4,5,6
3,5,2,6
3,5,6,5
3,6,2,4
3,6,4,9
3,6,6,8
3,7,3,8
3,7,5,2
3,8,3,1
3,8,5,4
4,0,2,2
4,0,6,8
4,1,0,3
4,1,2,4
4,1,3,8
4,1,4,9
4,1,5,5
4,1,6,1
4,1,8,2
4,2,1,9
4,2,7,7
4,3,1,2
4,3,2,3
4,3,6,9
4,3,7,5
4,4,1,4
4,4,4,5
4,4,7,2
4,5,1,5
4,5,2,1
4,5,6,7
4,5,7,4
4,6,1,8
4,6,7,3
4,7,0,4
4,7,2,7
4,7,3,5
4,7,4,3
4,7,5,9
4,7,6,2
4,7,8,6
4,8,2,9
4,8,6,4
5,0,3,2
5,0,5,6
5,1,3,4
5,1,5,7
5,2,2,7
5,2,4,8
5,2,6,2
5,3,2,5
5,3,6,8
5,4,3,8
5,4,5,4
5,5,2,4
5,5,6,3
5,6,2,3
5,6,4,2
5,6,6,7
5,7,3,7
5,7,5,1
5,8,3,9
5,8,5,3
6,0,4,8
6,2,2,6
6,2,4,9
6,2,6,1
6,3,3,6
6,3,5,7
6,4,0,6
6,4,8,1
6,5,3,8
6,5,5,1
6,6,2,2
6,6,4,5
6,6,6,3
6,8,4,6
7,0,4,4
7,1,0,5
7,1,1,4
7,1,7,2
7,1,8,7
7,4,3,7
7,4,4,6
7,4,5,2
7,7,0,2
7,7,1,7
7,7,7,3
7,7,8,1
7,8,4,3
8,1,2,2
8,1,6,8
8,2,0,9
8,2,1,5
8,2,7,6
8,2,8,2
8,6,0,5
8,6,1,4
8,6,7,2
8,6,8,7
8,7,2,3
8,7,6,5
