0,2,0,8
0,2,8,9
0,6,0,3
0,6,8,4
1,0,1,8
1,0,7,6
1,1,0,1
1,1,1,9
1,1,4,7
1,1,7,8
1,1,8,4
1,3,3,4
1,3,5,8
1,4,0,9
1,4,1,6
1,4,7,4
1,4,8,2
1,5,3,3
1,5,5,6
1,7,0,6
1,7,1,3
1,7,4,5
1,7,7,2
1,7,8,1
1,8,1,4
1,8,7,3
2,0,1,4
2,0,7,1
2,1,4,1
2,2,2,9
2,2,6,4
2,3,2,1
2,3,6,8
2,5,2,6
2,5,6,2
2,6,2,4
2,6,6,5
2,7,4,2
2,8,1,6
2,8,7,4
3,1,4,3
3,2,0,5
3,2,8,1
3,3,1,9
3,3,7,6
3,5,1,3
3,5,7,2
3,6,0,6
3,6,8,8
3,7,4,6
4,0,3,2
4,0,5,9
4,3,1,1
4,3,2,3
4,3,6,7
4,3,7,9
4,4,4,3
4,5,1,4
4,5,2,5
4,5,6,3
4,5,7,8
4,8,3,4
4,8,5,6
5,1,4,2
5,2,0,1
5,2,8,2
5,3,1,6
5,3,7,3
5,5,1,2
5,5,7,4
5,6,0,8
5,6,8,7
5,7,4,3
6,0,1,9
6,0,7,8
6,1,4,8
6,2,2,5
6,2,6,9
6,3,2,8
6,3,6,3
6,5,2,2
6,5,6,7
6,6,2,9
6,6,6,4
6,7,4,7
6,8,1,2
6,8,7,9
7,0,1,3
7,0,7,2
7,1,0,8
7,1,1,5
7,1,4,6
7,1,7,3
7,1,8,9
7,3,3,9
7,3,5,3
7,4,0,5
7,4,1,2
7,4,7,9
7,4,8,7
7,5,3,1
7,5,5,2
7,7,0,2
7,7,1,1
7,7,4,4
7,7,7,7
7,7,8,8
7,8,1,9
7,8,7,1
8,2,0,3
8,2,8,5
8,6,0,1
8,6,8,9
