0,1,2,6
0,1,6,8
0,2,0,2
0,2,8,5
0,3,1,2
0,3,3,1
0,3,5,6
0,3,7,5
0,5,1,1
0,5,3,5
0,5,5,4
0,5,7,8
0,6,0,7
0,6,8,8
0,7,2,2
0,7,6,5
1,0,2,1
1,0,4,9
1,0,6,2
1,2,1,4
1,2,2,5
1,2,3,8
1,2,5,3
1,2,6,1
1,2,7,7
1,3,1,5
1,3,7,1
1,5,1,3
1,5,7,9
1,6,1,2
1,6,2,3
1,6,3,1
1,6,5,6
1,6,6,9
1,6,7,4
1,8,2,7
1,8,4,5
1,8,6,3
2,0,1,2
2,0,7,9
2,1,0,4
2,1,8,1
2,3,1,6
2,3,3,4
2,3,5,9
2,3,7,3
2,4,1,8
2,4,7,4
2,5,1,9
2,5,3,8
2,5,5,3
2,5,7,7
2,7,0,1
2,7,8,3
2,8,1,3
2,8,7,5
3,0,0,6
3,0,8,5
3,8,0,1
3,8,8,4
4,1,0,8
4,1,8,4
4,2,2,6
4,2,3,2
4,2,5,9
4,2,6,8
4,6,2,7
4,6,3,4
4,6,5,1
4,6,6,3
4,7,0,9
4,7,8,7
5,0,0,9
5,0,8,2
5,8,0,5
5,8,8,3
6,0,1,5
6,0,7,6
6,1,0,6
6,1,8,2
6,3,1,8
6,3,3,6
6,3,5,7
6,3,7,4
6,4,1,9
6,4,7,7
6,5,1,6
6,5,3,4
6,5,5,9
6,5,7,3
6,7,0,2
6,7,8,9
6,8,1,4
6,8,7,1
7,0,2,6
7,0,4,5
7,0,6,8
7,2,1,9
7,2,2,4
7,2,3,3
7,2,5,2
7,2,6,6
7,2,7,1
7,3,1,4
7,3,7,6
7,5,1,2
7,5,7,5
7,6,1,8
7,6,2,2
7,6,3,6
7,6,5,7
7,6,6,5
7,6,7,9
7,8,2,1
7,8,4,4
7,8,6,2
8,1,2,5
8,1,6,1
8,2,0,7
8,2,8,8
8,3,1,7
8,3,3,9
8,3,5,5
8,3,7,2
8,5,1,5
8,5,3,3
8,5,5,2
8,5,7,1
8,6,0,5
8,6,8,1
8,7,2,7
8,7,6,3
