0,0,3,3
0,0,5,9
0,3,1,7
0,3,7,5
0,4,4,4
0,5,1,9
0,5,7,8
0,8,3,5
0,8,5,2
1,0,2,6
1,0,6,9
1,1,0,8
1,1,3,5
1,1,4,3
1,1,5,2
1,1,8,6
1,2,0,4
1,2,8,5
1,3,0,3
1,3,4,6
1,3,8,8
1,4,4,5
1,5,0,1
1,5,4,2
1,5,8,7
1,6,0,5
1,6,8,9
1,7,0,2
1,7,3,6
1,7,4,7
1,7,5,5
1,7,8,1
1,8,2,4
1,8,6,2
2,1,4,8
2,2,0,5
2,2,4,4
2,2,8,9
2,3,4,3
2,4,0,4
2,4,1,3
2,4,7,1
2,4,8,5
2,5,4,1
2,6,0,9
2,6,4,5
2,6,8,4
2,7,4,2
3,1,0,5
3,1,4,4
3,1,8,9
3,2,0,7
3,2,1,4
3,2,7,6
3,2,8,2
3,3,4,9
3,4,4,2
3,5,4,8
3,6,0,2
3,6,1,5
3,6,7,3
3,6,8,1
3,7,0,6
3,7,4,3
3,7,8,8
4,0,0,6
4,0,8,8
4,2,1,5
4,2,7,3
4,3,1,6
4,3,7,7
4,5,1,7
4,5,7,4
4,6,1,9
4,6,7,8
4,8,0,4
4,8,8,5
5,1,0,4
5,1,4,9
5,1,8,5
5,2,0,2
5,2,1,9
5,2,7,8
5,2,8,1
5,3,4,5
5,4,4,1
5,5,4,3
5,6,0,1
5,6,1,4
5,6,7,6
5,6,8,7
5,7,0,8
5,7,4,6
5,7,8,3
6,1,4,7
6,2,0,3
6,2,4,6
6,2,8,8
6,3,4,1
6,4,0,6
6,4,1,1
6,4,7,9
6,4,8,3
6,5,4,5
6,6,0,8
6,6,4,3
6,6,8,6
6,7,4,4
7,0,2,7
7,0,6,6
7,1,0,1
7,1,3,6
7,1,4,2
7,1,5,9
7,1,8,7
7,2,0,6
7,2,8,3
7,3,0,2
7,3,4,7
7,3,8,1
7,4,4,3
7,5,0,5
7,5,4,4
7,5,8,9
7,6,0,3
7,6,8,8
7,7,0,4
7,7,3,7
7,7,4,9
7,7,5,8
7,7,8,5
7,8,2,8
7,8,6,9
8,0,3,7
8,0,5,6
8,3,1,5
8,3,7,6
8,4,4,6
8,5,1,6
8,5,7,2
8,8,3,6
8,8,5,9
