0,2,0,6
0,2,4,5
0,2,8,7
0,4,4,4
0,6,0,1
0,6,4,6
0,6,8,8
1,0,0,3
1,0,2,9
1,0,4,2
1,0,6,7
1,0,8,4
1,1,4,9
1,3,1,3
1,3,4,8
1,3,7,4
1,4,2,1
1,4,4,6
1,4,6,2
1,5,1,2
1,5,4,1
1,5,7,9
1,7,4,3
1,8,0,5
1,8,2,2
1,8,4,4
1,8,6,3
1,8,8,9
2,1,4,8
2,3,2,2
2,3,4,7
2,3,6,3
2,4,2,3
2,4,4,5
2,4,6,7
2,5,2,7
2,5,4,3
2,5,6,8
2,7,4,2
3,1,2,1
3,1,6,7
3,2,3,5
3,2,5,3
3,4,2,2
3,4,6,5
3,6,3,1
3,6,5,2
3,7,2,3
3,7,6,9
4,0,1,1
4,0,7,5
4,1,0,8
4,1,8,4
4,3,0,3
4,3,1,2
4,3,7,9
4,3,8,5
4,5,0,6
4,5,1,5
4,5,7,3
4,5,8,8
4,7,0,1
4,7,8,6
4,8,1,6
4,8,7,4
5,1,2,5
5,1,6,8
5,2,3,6
5,2,5,4
5,4,2,6
5,4,6,3
5,6,3,5
5,6,5,3
5,7,2,7
5,7,6,4
6,1,4,5
6,3,2,8
6,3,4,4
6,3,6,9
6,4,2,9
6,4,4,2
6,4,6,4
6,5,2,4
6,5,4,9
6,5,6,5
6,7,4,8
7,0,0,1
7,0,2,7
7,0,4,9
7,0,6,5
7,0,8,2
7,1,4,7
7,3,1,7
7,3,4,6
7,3,7,5
7,4,2,5
7,4,4,1
7,4,6,6
7,5,1,3
7,5,4,8
7,5,7,4
7,7,4,4
7,8,0,6
7,8,2,3
7,8,4,5
7,8,6,4
7,8,8,1
8,2,0,8
8,2,4,4
8,2,8,3
8,4,4,3
8,6,0,3
8,6,4,2
8,6,8,7
