0,0,0,5
0,0,4,6
0,0,8,3
0,2,4,4
0,3,0,4
0,3,8,8
0,5,0,8
0,5,8,6
0,6,4,7
0,8,0,1
0,8,4,5
0,8,8,2
1,0,0,7
1,0,8,4
1,2,3,6
1,2,5,7
1,3,4,3
1,4,3,9
1,4,5,5
1,5,4,7
1,6,3,1
1,6,5,3
1,8,0,4
1,8,8,8
2,2,3,1
2,2,5,3
2,3,1,8
2,3,7,2
2,4,2,5
2,4,6,8
2,5,1,7
2,5,7,9
2,6,3,9
2,6,5,5
3,0,2,3
3,0,6,2
3,2,2,1
3,2,6,7
3,3,1,1
3,3,7,4
3,4,0,2
3,4,8,6
3,5,1,8
3,5,7,5
3,6,2,7
3,6,6,5
3,8,2,6
3,8,6,9
4,2,3,5
4,2,5,8
4,3,0,3
4,3,3,7
4,3,5,5
4,3,8,1
4,5,0,1
4,5,3,6
4,5,5,9
4,5,8,8
4,6,3,3
4,6,5,7
5,0,2,6
5,0,6,4
5,2,2,2
5,2,6,5
5,3,1,6
5,3,7,3
5,4,0,5
5,4,8,4
5,5,1,2
5,5,7,1
5,6,2,4
5,6,6,1
5,8,2,5
5,8,6,8
6,2,3,4
6,2,5,9
6,3,1,9
6,3,7,8
6,4,2,7
6,4,6,4
6,5,1,1
6,5,7,6
6,6,3,7
6,6,5,2
7,0,0,3
7,0,8,7
7,2,3,8
7,2,5,1
7,3,4,9
7,4,3,6
7,4,5,7
7,5,4,8
7,6,3,4
7,6,5,9
7,8,0,6
7,8,8,4
8,0,0,6
8,0,4,8
8,0,8,5
8,2,4,7
8,3,0,2
8,3,8,4
8,5,0,9
8,5,8,1
8,6,4,3
8,8,0,5
8,8,4,2
8,8,8,3
