0,0,0,7
0,0,8,3
0,2,0,4
0,2,3,8
0,2,5,3
0,2,8,7
0,3,1,8
0,3,7,6
0,4,4,8
0,5,1,7
0,5,7,8
0,6,0,6
0,6,3,1
0,6,5,8
0,6,8,5
0,8,0,1
0,8,8,6
1,0,0,9
1,0,3,3
1,0,4,8
1,0,5,1
1,0,8,2
1,1,3,6
1,1,5,4
1,2,2,1
1,2,6,4
1,3,0,5
1,3,4,6
1,3,8,8
1,5,0,6
1,5,4,3
1,5,8,5
1,6,2,3
1,6,6,6
1,7,3,8
1,7,5,3
1,8,0,7
1,8,3,9
1,8,4,4
1,8,5,6
1,8,8,3
2,0,0,1
2,0,4,5
2,0,8,6
2,8,0,9
2,8,4,8
2,8,8,2
3,0,2,4
3,0,6,3
3,2,1,3
3,2,2,8
3,2,6,7
3,2,7,5
3,3,1,5
3,3,7,4
3,4,3,2
3,4,5,4
3,5,1,2
3,5,7,3
3,6,1,8
3,6,2,1
3,6,6,5
3,6,7,6
3,8,2,5
3,8,6,2
4,1,3,5
4,1,5,7
4,7,3,9
4,7,5,2
5,0,2,5
5,0,6,2
5,2,1,4
5,2,2,2
5,2,6,8
5,2,7,1
5,3,1,3
5,3,7,5
5,4,3,6
5,4,5,5
5,5,1,6
5,5,7,2
5,6,1,2
5,6,2,9
5,6,6,1
5,6,7,3
5,8,2,3
5,8,6,6
6,0,0,4
6,0,4,1
6,0,8,7
6,8,0,5
6,8,4,6
6,8,8,8
7,0,0,5
7,0,3,4
7,0,4,6
7,0,5,9
7,0,8,8
7,1,3,7
7,1,5,2
7,2,2,4
7,2,6,2
7,3,0,8
7,3,4,7
7,3,8,4
7,5,0,7
7,5,4,4
7,5,8,3
7,6,2,6
7,6,6,7
7,7,3,6
7,7,5,4
7,8,0,3
7,8,3,5
7,8,4,2
7,8,5,7
7,8,8,9
8,0,0,3
8,0,8,9
8,2,0,2
8,2,3,6
8,2,5,4
8,2,8,1
8,3,1,9
8,3,7,7
8,4,4,6
8,5,1,3
8,5,7,4
8,6,0,7
8,6,3,9
8,6,5,6
8,6,8,3
8,8,0,4
8,8,8,7
