0,3,1,5
0,3,7,6
0,4,0,2
0,4,8,8
0,5,1,6
0,5,7,7
1,2,3,4
1,2,5,5
1,4,0,8
1,4,8,6
1,6,3,2
1,6,5,1
2,0,3,5
2,0,5,1
2,2,3,9
2,2,5,7
2,3,1,1
2,3,7,8
2,4,3,2
2,4,5,9
2,5,1,8
2,5,7,2
2,6,3,4
2,6,5,5
2,8,3,3
2,8,5,6
3,0,2,2
3,0,6,3
3,1,1,3
3,1,4,8
3,1,7,9
3,2,3,7
3,2,5,3
3,3,0,2
3,3,1,7
3,3,7,3
3,3,8,8
3,4,0,4
3,4,8,1
3,5,0,9
3,5,1,5
3,5,7,6
3,5,8,2
3,6,3,5
3,6,5,9
3,7,1,4
3,7,4,1
3,7,7,5
3,8,2,5
3,8,6,2
4,0,2,8
4,0,3,3
4,0,5,9
4,0,6,4
4,1,0,2
4,1,2,9
4,1,4,1
4,1,6,6
4,1,8,8
4,3,3,1
4,3,5,7
4,4,1,2
4,4,7,9
4,5,3,8
4,5,5,2
4,7,0,7
4,7,2,2
4,7,4,5
4,7,6,3
4,7,8,1
4,8,2,4
4,8,3,2
4,8,5,1
4,8,6,7
5,0,2,1
5,0,6,9
5,1,1,6
5,1,4,3
5,1,7,4
5,2,3,5
5,2,5,1
5,3,0,6
5,3,1,3
5,3,7,1
5,3,8,5
5,4,0,5
5,4,8,4
5,5,0,7
5,5,1,1
5,5,7,8
5,5,8,9
5,6,3,1
5,6,5,8
5,7,1,5
5,7,4,7
5,7,7,9
5,8,2,6
5,8,6,1
6,0,3,2
6,0,5,6
6,2,3,1
6,2,5,4
6,3,1,6
6,3,7,7
6,4,3,3
6,4,5,1
6,5,1,7
6,5,7,3
6,6,3,8
6,6,5,2
6,8,3,5
6,8,5,9
7,2,3,8
7,2,5,2
7,4,0,7
7,4,8,9
7,6,3,3
7,6,5,6
8,3,1,2
8,3,7,9
8,4,0,3
8,4,8,7
8,5,1,9
8,5,7,4
