0,0,4,5
0,1,1,7
0,1,2,1
0,1,3,9
0,1,5,8
0,1,6,4
0,1,7,5
0,2,3,2
0,2,5,1
0,4,0,3
0,4,8,5
0,6,3,5
0,6,5,4
0,7,1,8
0,7,2,2
0,7,3,6
0,7,5,9
0,7,6,5
0,7,7,1
0,8,4,8
1,0,3,1
1,0,5,7
1,1,2,6
1,1,6,1
1,2,4,9
1,3,4,3
1,5,4,1
1,6,4,7
1,7,2,3
1,7,6,2
1,8,3,9
1,8,5,3
2,0,0,7
2,0,8,4
2,1,3,7
2,1,5,2
2,2,1,8
2,2,7,1
2,4,1,5
2,4,3,2
2,4,5,3
2,4,7,6
2,6,1,2
2,6,7,4
2,7,3,8
2,7,5,7
2,8,0,3
2,8,8,7
3,0,4,7
3,2,2,6
3,2,6,1
3,3,3,3
3,3,5,7
3,5,3,1
3,5,5,4
3,6,2,4
3,6,6,6
3,8,4,3
5,0,4,3
5,2,2,4
5,2,6,6
5,3,3,6
5,3,5,8
5,5,3,5
5,5,5,3
5,6,2,8
5,6,6,4
5,8,4,5
6,0,0,2
6,0,8,3
6,1,3,2
6,1,5,1
6,2,1,6
6,2,7,7
6,4,1,4
6,4,3,3
6,4,5,7
6,4,7,9
6,6,1,8
6,6,7,1
6,7,3,7
6,7,5,2
6,8,0,6
6,8,8,2
7,0,3,3
7,0,5,5
7,1,2,7
7,1,6,3
7,2,4,2
7,3,4,8
7,5,4,3
7,6,4,5
7,7,2,8
7,7,6,4
7,8,3,2
7,8,5,8
8,0,4,1
8,1,1,8
8,1,2,9
8,1,3,5
8,1,5,4
8,1,6,7
8,1,7,1
8,2,3,6
8,2,5,9
8,4,0,9
8,4,8,3
8,6,3,8
8,6,5,7
8,7,1,9
8,7,2,6
8,7,3,1
8,7,5,5
8,7,6,8
8,7,7,2
8,8,4,9
