0,1,0,8
0,1,2,9
0,1,6,1
0,1,8,7
0,7,0,4
0,7,2,8
0,7,6,6
0,7,8,1
1,0,0,4
1,0,4,5
1,0,8,1
1,2,1,5
1,2,7,9
1,3,0,8
1,3,8,5
1,4,3,1
1,4,4,4
1,4,5,7
1,5,0,1
1,5,8,7
1,6,1,8
1,6,7,1
1,8,0,7
1,8,4,8
1,8,8,4
2,1,4,8
2,2,1,8
2,2,4,3
2,2,7,1
2,3,4,7
2,5,4,9
2,6,1,6
2,6,4,4
2,6,7,2
2,7,4,6
3,0,3,6
3,0,5,8
3,1,0,4
3,1,3,2
3,1,4,5
3,1,5,3
3,1,8,1
3,2,1,7
3,2,7,5
3,4,2,7
3,4,6,1
3,6,1,1
3,6,7,3
3,7,0,5
3,7,3,7
3,7,4,3
3,7,5,2
3,7,8,6
3,8,3,5
3,8,5,4
4,3,1,3
4,3,7,8
4,5,1,8
4,5,7,1
5,0,3,5
5,0,5,2
5,1,0,7
5,1,3,9
5,1,4,1
5,1,5,4
5,1,8,2
5,2,1,1
5,2,7,3
5,4,2,3
5,4,6,2
5,6,1,4
5,6,7,6
5,7,0,3
5,7,3,1
5,7,4,4
5,7,5,5
5,7,8,7
5,8,3,8
5,8,5,9
6,1,4,4
6,2,1,2
6,2,4,6
6,2,7,4
6,3,4,3
6,5,4,8
6,6,1,5
6,6,4,7
6,6,7,9
6,7,4,5
7,0,0,5
7,0,4,8
7,0,8,4
7,2,1,3
7,2,7,8
7,3,0,2
7,3,8,3
7,4,3,2
7,4,4,9
7,4,5,3
7,5,0,6
7,5,8,8
7,6,1,2
7,6,7,4
7,8,0,3
7,8,4,4
7,8,8,7
8,1,0,2
8,1,2,1
8,1,6,4
8,1,8,3
8,7,0,7
8,7,2,2
8,7,6,5
8,7,8,4
