0,0,0,5
0,0,1,2
0,0,2,9
0,0,6,4
0,0,7,1
0,0,8,3
0,1,0,7
0,1,8,9
0,2,1,1
0,2,3,5
0,2,5,9
0,2,7,8
0,3,0,8
0,3,8,5
0,5,0,3
0,5,8,4
0,6,1,4
0,6,3,9
0,6,5,7
0,6,7,3
0,7,0,9
0,7,8,1
0,8,0,6
0,8,1,3
0,8,2,8
0,8,6,9
0,8,7,5
0,8,8,7
1,1,4,7
1,2,3,3
1,2,5,1
1,3,4,8
1,4,0,2
1,4,3,4
1,4,5,7
1,4,8,9
1,5,4,3
1,6,3,1
1,6,5,4
1,7,4,9
2,1,0,1
2,1,4,9
2,1,8,7
2,2,1,9
2,2,7,3
2,3,3,9
2,3,4,5
2,3,5,3
2,5,3,7
2,5,4,4
2,5,5,1
2,6,1,7
2,6,7,1
2,7,0,3
2,7,4,1
2,7,8,9
3,0,4,2
3,3,3,4
3,3,4,9
3,3,5,2
3,4,1,9
3,4,7,1
3,5,3,3
3,5,4,1
3,5,5,5
3,8,4,3
4,0,1,7
4,0,3,3
4,0,4,6
4,0,5,8
4,0,7,5
4,1,4,5
4,2,4,7
4,3,0,6
4,3,1,8
4,3,4,3
4,3,7,4
4,3,8,9
4,4,0,5
4,4,1,3
4,4,2,1
4,4,3,2
4,4,5,9
4,4,6,6
4,4,7,8
4,4,8,7
4,5,0,2
4,5,1,4
4,5,4,8
4,5,7,3
4,5,8,1
4,6,4,9
4,7,4,2
4,8,1,2
4,8,3,7
4,8,4,1
4,8,5,5
4,8,7,9
5,0,4,9
5,3,3,7
5,3,4,6
5,3,5,8
5,4,1,6
5,4,7,2
5,5,3,9
5,5,4,2
5,5,5,4
5,8,4,8
6,1,0,8
6,1,4,2
6,1,8,6
6,2,1,2
6,2,7,1
6,3,3,3
6,3,4,4
6,3,5,5
6,5,3,1
6,5,4,7
6,5,5,8
6,6,1,5
6,6,7,8
6,7,0,6
6,7,4,8
6,7,8,7
7,1,4,8
7,2,3,4
7,2,5,2
7,3,4,1
7,4,0,8
7,4,3,5
7,4,5,4
7,4,8,6
7,5,4,9
7,6,3,7
7,6,5,5
7,7,4,6
8,0,0,1
8,0,1,3
8,0,2,8
8,0,6,9
8,0,7,6
8,0,8,7
8,1,0,2
8,1,8,8
8,2,1,6
8,2,3,1
8,2,5,8
8,2,7,4
8,3,0,4
8,3,8,1
8,5,0,7
8,5,8,9
8,6,1,9
8,6,3,8
8,6,5,2
8,6,7,7
8,7,0,8
8,7,8,6
8,8,0,5
8,8,1,7
8,8,2,4
8,8,6,8
8,8,7,1
8,8,8,2
