0,0,1,5
0,0,7,1
0,2,4,5
0,3,0,6
0,3,8,7
0,5,0,5
0,5,8,4
0,6,4,7
0,8,1,8
0,8,7,2
1,0,4,2
1,1,0,8
1,1,4,3
1,1,8,1
1,2,0,9
1,2,2,2
1,2,3,7
1,2,4,4
1,2,5,1
1,2,6,8
1,2,8,5
1,4,1,6
1,4,4,8
1,4,7,5
1,6,0,7
1,6,2,8
1,6,3,3
1,6,4,6
1,6,5,4
1,6,6,5
1,6,8,2
1,7,0,3
1,7,4,1
1,7,8,8
1,8,4,9
2,1,0,1
2,1,8,3
2,4,1,2
2,4,7,4
2,7,0,8
2,7,8,1
3,0,2,9
3,0,4,8
3,0,6,6
3,2,3,3
3,2,4,2
3,2,5,9
3,4,3,2
3,4,5,8
3,6,3,5
3,6,4,1
3,6,5,2
3,8,2,3
3,8,4,6
3,8,6,5
4,0,1,7
4,0,7,4
4,1,2,6
4,1,6,1
4,2,3,1
4,2,5,5
4,3,1,6
4,3,7,9
4,5,1,9
4,5,7,1
4,6,3,4
4,6,5,7
4,7,2,7
4,7,6,3
4,8,1,5
4,8,7,8
5,0,2,4
5,0,4,1
5,0,6,7
5,2,3,8
5,2,4,6
5,2,5,4
5,4,3,6
5,4,5,1
5,6,3,9
5,6,4,3
5,6,5,6
5,8,2,8
5,8,4,7
5,8,6,9
6,1,0,7
6,1,8,2
6,4,1,4
6,4,7,3
6,7,0,2
6,7,8,6
7,0,4,5
7,1,0,2
7,1,4,7
7,1,8,6
7,2,0,1
7,2,2,9
7,2,3,4
7,2,4,8
7,2,5,2
7,2,6,7
7,2,8,3
7,4,1,9
7,4,4,6
7,4,7,1
7,6,0,9
7,6,2,2
7,6,3,7
7,6,4,4
7,6,5,1
7,6,6,8
7,6,8,5
7,7,0,6
7,7,4,2
7,7,8,7
7,8,4,3
8,0,1,3
8,0,7,6
8,2,4,3
8,3,0,4
8,3,8,9
8,5,0,1
8,5,8,3
8,6,4,9
8,8,1,2
8,8,7,9
