0,0,1,3
0,0,7,5
0,1,1,5
0,1,2,2
0,1,6,9
0,1,7,7
0,2,0,9
0,2,8,1
0,3,3,7
0,3,5,9
0,4,3,8
0,4,5,2
0,5,3,5
0,5,5,3
0,6,0,1
0,6,8,5
0,7,1,8
0,7,2,5
0,7,6,3
0,7,7,9
0,8,1,9
0,8,7,6
1,0,1,9
1,0,3,7
1,0,5,5
1,0,7,2
1,1,0,1
1,1,4,9
1,1,8,5
1,2,3,1
1,2,5,3
1,3,4,5
1,4,2,1
1,4,6,3
1,5,4,8
1,6,3,5
1,6,5,8
1,7,0,4
1,7,4,3
1,7,8,8
1,8,1,6
1,8,3,4
1,8,5,7
1,8,7,3
2,0,4,1
2,3,1,3
2,3,2,5
2,3,6,4
2,3,7,9
2,4,3,6
2,4,5,5
2,5,1,6
2,5,2,8
2,5,6,2
2,5,7,3
2,8,4,6
3,4,0,9
3,4,8,1
4,2,1,7
4,2,7,4
4,6,1,4
4,6,7,5
5,4,0,7
5,4,8,6
6,0,4,3
6,3,1,7
6,3,2,3
6,3,6,6
6,3,7,4
6,4,3,5
6,4,5,3
6,5,1,1
6,5,2,6
6,5,6,5
6,5,7,2
6,8,4,9
7,0,1,7
7,0,3,8
7,0,5,2
7,0,7,4
7,1,0,2
7,1,4,6
7,1,8,7
7,2,3,7
7,2,5,5
7,3,4,7
7,4,2,7
7,4,6,9
7,5,4,5
7,6,3,6
7,6,5,9
7,7,0,5
7,7,4,1
7,7,8,9
7,8,1,3
7,8,3,5
7,8,5,8
7,8,7,1
8,0,1,8
8,0,7,1
8,1,1,1
8,1,2,7
8,1,6,5
8,1,7,6
8,2,0,5
8,2,8,9
8,3,3,6
8,3,5,5
8,4,3,4
8,4,5,7
8,5,3,1
8,5,5,8
8,6,0,9
8,6,8,1
8,7,1,4
8,7,2,1
8,7,6,8
8,7,7,5
8,8,1,5
8,8,7,2
