0,0,3,2
0,0,5,8
0,2,3,5
0,2,5,7
0,4,2,7
0,4,4,9
0,4,6,8
0,6,3,3
0,6,5,4
0,8,3,7
0,8,5,1
1,0,2,7
1,0,6,3
1,1,1,9
1,1,7,8
1,2,1,6
1,2,7,4
1,3,2,4
1,3,6,2
1,5,2,8
1,5,6,4
1,6,1,4
1,6,7,1
1,7,1,2
1,7,7,5
1,8,2,6
1,8,6,8
2,0,0,5
2,0,1,1
2,0,7,6
2,0,8,4
2,1,1,4
2,1,7,1
2,2,2,9
2,2,3,4
2,2,5,6
2,2,6,2
2,3,0,3
2,3,8,1
2,5,0,7
2,5,8,2
2,6,2,8
2,6,3,1
2,6,5,9
2,6,6,4
2,7,1,6
2,7,7,9
2,8,0,9
2,8,1,3
2,8,7,2
2,8,8,5
3,3,1,3
3,3,2,2
3,3,6,1
3,3,7,7
3,5,1,6
3,5,2,5
3,5,6,2
3,5,7,9
4,0,0,2
4,0,8,7
4,1,0,1
4,1,2,9
4,1,3,5
4,1,4,3
4,1,5,2
4,1,6,6
4,1,8,8
4,3,0,9
4,3,8,4
4,4,1,5
4,4,7,1
4,5,0,8
4,5,8,3
4,7,0,4
4,7,2,2
4,7,3,6
4,7,4,9
4,7,5,1
4,7,6,3
4,7,8,5
4,8,0,7
4,8,8,6
5,3,1,8
5,3,2,6
5,3,6,3
5,3,7,2
5,5,1,7
5,5,2,9
5,5,6,6
5,5,7,4
6,0,0,1
6,0,1,2
6,0,7,9
6,0,8,8
6,1,1,3
6,1,7,7
6,2,2,8
6,2,3,1
6,2,5,9
6,2,6,4
6,3,0,2
6,3,8,6
6,5,0,5
6,5,8,4
6,6,2,2
6,6,3,7
6,6,5,1
6,6,6,3
6,7,1,9
6,7,7,8
6,8,0,3
6,8,1,7
6,8,7,4
6,8,8,1
7,0,2,9
7,0,6,7
7,1,1,8
7,1,7,2
7,2,1,4
7,2,7,8
7,3,2,8
7,3,6,5
7,5,2,2
7,5,6,1
7,6,1,1
7,6,7,7
7,7,1,5
7,7,7,1
7,8,2,4
7,8,6,6
8,0,3,9
8,0,5,6
8,2,3,8
8,2,5,4
8,4,2,4
8,4,4,8
8,4,6,6
8,6,3,6
8,6,5,8
8,8,3,4
8,8,5,2
