0,0,1,4
0,0,4,9
0,0,7,3
0,1,1,6
0,1,7,1
0,4,3,8
0,4,5,2
0,7,1,9
0,7,7,4
0,8,1,2
0,8,4,3
0,8,7,6
1,2,2,8
1,2,4,1
1,2,6,3
1,3,3,7
1,3,5,8
1,5,3,6
1,5,5,1
1,6,2,6
1,6,4,7
1,6,6,4
2,1,2,4
2,1,6,7
2,2,1,3
2,2,7,5
2,3,4,3
2,5,4,8
2,6,1,7
2,6,7,8
2,7,2,5
2,7,6,2
3,1,4,7
3,2,1,1
3,2,3,2
3,2,5,5
3,2,7,9
3,4,3,6
3,4,5,7
3,6,1,9
3,6,3,3
3,6,5,1
3,6,7,4
3,7,4,6
4,0,0,5
4,0,8,3
4,1,0,1
4,1,1,3
4,1,3,4
4,1,5,2
4,1,7,7
4,1,8,6
4,2,4,8
4,4,2,3
4,4,6,6
4,6,4,9
4,7,0,3
4,7,1,8
4,7,3,5
4,7,5,4
4,7,7,6
4,7,8,9
4,8,0,9
4,8,8,2
5,1,4,1
5,2,1,4
5,2,3,6
5,2,5,7
5,2,7,3
5,4,3,3
5,4,5,1
5,6,1,1
5,6,3,2
5,6,5,5
5,6,7,9
5,7,4,3
6,1,2,5
6,1,6,2
6,2,1,6
6,2,7,1
6,3,4,4
6,5,4,7
6,6,1,2
6,6,7,6
6,7,2,8
6,7,6,3
7,2,2,1
7,2,4,3
7,2,6,8
7,3,3,6
7,3,5,1
7,5,3,4
7,5,5,3
7,6,2,4
7,6,4,6
7,6,6,7
8,0,1,3
8,0,4,7
8,0,7,5
8,1,1,1
8,1,7,9
8,4,3,5
8,4,5,4
8,7,1,7
8,7,7,8
8,8,1,4
8,8,4,9
8,8,7,3
