0,0,0,1
0,0,8,3
0,1,3,3
0,1,5,7
0,2,1,3
0,2,2,4
0,2,4,6
0,2,6,8
0,2,7,2
0,6,1,7
0,6,2,3
0,6,4,9
0,6,6,5
0,6,7,8
0,7,3,4
0,7,5,8
0,8,0,8
0,8,8,1
1,1,4,1
1,2,2,1
1,2,3,8
1,2,5,5
1,2,6,7
1,3,1,7
1,3,7,8
1,4,4,5
1,5,1,9
1,5,7,6
1,6,2,6
1,6,3,5
1,6,5,4
1,6,6,9
1,7,4,2
2,0,1,7
2,0,4,9
2,0,7,8
2,1,2,2
2,1,6,3
2,2,1,9
2,2,7,6
2,6,1,8
2,6,7,4
2,7,2,7
2,7,6,2
2,8,1,6
2,8,4,4
2,8,7,3
3,1,0,5
3,1,8,6
3,2,0,6
3,2,8,8
3,4,2,3
3,4,6,5
3,6,0,7
3,6,8,1
3,7,0,1
3,7,8,3
4,0,0,7
4,0,8,1
4,1,0,1
4,1,8,3
4,2,0,3
4,2,8,7
4,3,0,8
4,3,8,5
4,5,0,6
4,5,8,8
4,6,0,2
4,6,8,9
4,7,0,4
4,7,8,2
4,8,0,9
4,8,8,4
5,1,0,4
5,1,8,2
5,2,0,9
5,2,8,4
5,4,2,6
5,4,6,9
5,6,0,8
5,6,8,5
5,7,0,5
5,7,8,6
6,0,1,1
6,0,4,5
6,0,7,9
6,1,2,5
6,1,6,4
6,2,1,7
6,2,7,8
6,6,1,4
6,6,7,5
6,7,2,1
6,7,6,7
6,8,1,8
6,8,4,7
6,8,7,4
7,1,4,6
7,2,2,6
7,2,3,5
7,2,5,4
7,2,6,9
7,3,1,4
7,3,7,5
7,4,4,4
7,5,1,8
7,5,7,4
7,6,2,2
7,6,3,4
7,6,5,8
7,6,6,3
7,7,4,3
8,0,0,3
8,0,8,8
8,1,3,8
8,1,5,5
8,2,1,8
8,2,2,9
8,2,4,7
8,2,6,1
8,2,7,4
8,6,1,5
8,6,2,8
8,6,4,2
8,6,6,6
8,6,7,1
8,7,3,9
8,7,5,1
8,8,0,1
8,8,8,3
