0,0,0,8
0,0,2,1
0,0,4,6
0,0,6,2
0,0,8,5
0,1,1,6
0,1,7,9
0,2,4,9
0,4,1,8
0,4,3,7
0,4,5,2
0,4,7,1
0,6,4,5
0,7,1,5
0,7,7,7
0,8,0,9
0,8,2,8
0,8,4,7
0,8,6,3
0,8,8,6
1,0,2,3
1,0,6,7
1,1,2,9
1,1,6,5
1,2,2,6
1,2,3,5
1,2,5,3
1,2,6,1
1,3,2,4
1,3,6,9
1,4,1,5
1,4,4,6
1,4,7,7
1,5,2,8
1,5,6,3
1,6,2,2
1,6,3,4
1,6,5,7
1,6,6,6
1,7,2,7
1,7,6,8
1,8,2,5
1,8,6,4
2,1,2,2
2,1,6,6
2,2,4,7
2,4,0,4
2,4,1,2
2,4,7,9
2,4,8,6
2,6,4,8
2,7,2,9
2,7,6,5
3,0,2,2
3,0,6,6
3,1,4,2
3,2,1,8
3,2,7,9
3,3,0,6
3,3,4,7
3,3,8,9
3,4,0,1
3,4,4,8
3,4,8,5
3,5,0,2
3,5,4,3
3,5,8,4
3,6,1,1
3,6,7,8
3,7,4,5
3,8,2,9
3,8,6,5
4,0,0,7
4,0,3,2
4,0,5,3
4,0,8,1
4,1,1,1
4,1,3,6
4,1,5,7
4,1,7,3
4,2,1,2
4,2,2,9
4,2,6,5
4,2,7,7
4,3,1,3
4,3,7,5
4,4,4,1
4,5,1,8
4,5,7,9
4,6,1,4
4,6,2,8
4,6,6,3
4,6,7,6
4,7,1,9
4,7,3,4
4,7,5,2
4,7,7,1
4,8,0,1
4,8,3,9
4,8,5,6
4,8,8,4
5,0,2,8
5,0,6,3
5,1,4,8
5,2,1,5
5,2,7,1
5,3,0,7
5,3,4,9
5,3,8,6
5,4,0,8
5,4,4,5
5,4,8,1
5,5,0,3
5,5,4,4
5,5,8,2
5,6,1,3
5,6,7,5
5,7,4,6
5,8,2,2
5,8,6,6
6,1,2,1
6,1,6,2
6,2,4,8
6,4,0,9
6,4,1,1
6,4,7,5
6,4,8,2
6,6,4,3
6,7,2,5
6,7,6,4
7,0,2,7
7,0,6,8
7,1,2,5
7,1,6,4
7,2,2,2
7,2,3,4
7,2,5,7
7,2,6,6
7,3,2,9
7,3,6,5
7,4,1,4
7,4,4,2
7,4,7,8
7,5,2,3
7,5,6,7
7,6,2,1
7,6,3,9
7,6,5,8
7,6,6,2
7,7,2,8
7,7,6,3
7,8,2,4
7,8,6,9
8,0,0,3
8,0,2,6
8,0,4,2
8,0,6,1
8,0,8,4
8,1,1,2
8,1,7,5
8,2,4,5
8,4,1,3
8,4,3,8
8,4,5,1
8,4,7,6
8,6,4,4
8,7,1,4
8,7,7,8
8,8,0,5
8,8,2,3
8,8,4,8
8,8,6,7
8,8,8,2
