0,2,2,2
0,2,6,3
0,6,2,4
0,6,6,5
1,0,0,2
1,0,8,4
1,3,2,8
1,3,4,5
1,3,6,4
1,4,0,7
1,4,8,6
1,5,2,5
1,5,4,4
1,5,6,1
1,8,0,5
1,8,8,9
2,0,1,6
2,0,7,9
2,2,0,7
2,2,1,1
2,2,7,8
2,2,8,6
2,3,2,6
2,3,6,2
2,5,2,1
2,5,6,6
2,6,0,6
2,6,1,5
2,6,7,2
2,6,8,1
2,8,1,4
2,8,7,6
3,1,1,8
3,1,7,3
3,2,3,5
3,2,5,7
3,3,0,7
3,3,8,8
3,5,0,9
3,5,8,1
3,6,3,3
3,6,5,6
3,7,1,2
3,7,7,7
4,0,2,3
4,0,6,2
4,3,0,3
4,3,2,4
4,3,6,1
4,3,8,6
4,5,0,8
4,5,2,6
4,5,6,3
4,5,8,5
4,8,2,2
4,8,6,5
5,1,1,9
5,1,7,2
5,2,3,3
5,2,5,6
5,3,0,6
5,3,8,7
5,5,0,5
5,5,8,9
5,6,3,9
5,6,5,1
5,7,1,4
5,7,7,6
6,0,1,3
6,0,7,1
6,2,0,9
6,2,1,2
6,2,7,7
6,2,8,8
6,3,2,3
6,3,6,6
6,5,2,2
6,5,6,8
6,6,0,3
6,6,1,4
6,6,7,6
6,6,8,5
6,8,1,1
6,8,7,8
7,0,0,1
7,0,8,7
7,3,2,9
7,3,4,3
7,3,6,7
7,4,0,3
7,4,8,5
7,5,2,8
7,5,4,7
7,5,6,9
7,8,0,8
7,8,8,2
8,2,2,7
8,2,6,1
8,6,2,6
8,6,6,2
