0,0,4,2
0,1,1,7
0,1,7,3
0,2,0,2
0,2,4,9
0,2,8,6
0,4,3,9
0,4,5,4
0,6,0,3
0,6,4,4
0,6,8,1
0,7,1,1
0,7,7,7
0,8,4,6
1,1,2,2
1,1,6,1
1,2,0,6
1,2,1,8
1,2,3,2
1,2,5,3
1,2,7,9
1,2,8,7
1,3,2,5
1,3,6,6
1,5,2,7
1,5,6,2
1,6,0,1
1,6,1,6
1,6,3,3
1,6,5,5
1,6,7,4
1,6,8,9
1,7,2,4
1,7,6,5
2,0,1,2
2,0,7,8
2,1,0,8
2,1,8,4
2,2,3,1
2,2,4,6
2,2,5,8
2,6,3,8
2,6,4,1
2,6,5,6
2,7,0,5
2,7,8,8
2,8,1,8
2,8,7,9
3,0,3,1
3,0,5,8
3,1,1,6
3,1,3,7
3,1,5,5
3,1,7,2
3,2,2,4
3,2,3,9
3,2,5,2
3,2,6,1
3,3,3,4
3,3,5,7
3,4,1,4
3,4,7,8
3,5,3,6
3,5,5,1
3,6,2,7
3,6,3,2
3,6,5,3
3,6,6,8
3,7,1,2
3,7,3,8
3,7,5,6
3,7,7,4
3,8,3,5
3,8,5,4
4,1,4,1
4,2,0,8
4,2,3,5
4,2,4,7
4,2,5,4
4,2,8,2
4,4,1,6
4,4,2,8
4,4,6,3
4,4,7,2
4,6,0,6
4,6,3,4
4,6,4,5
4,6,5,7
4,6,8,3
4,7,4,2
5,0,3,4
5,0,5,7
5,1,1,4
5,1,3,3
5,1,5,9
5,1,7,8
5,2,2,2
5,2,3,6
5,2,5,1
5,2,6,5
5,3,3,2
5,3,5,3
5,4,1,2
5,4,7,4
5,5,3,5
5,5,5,4
5,6,2,3
5,6,3,1
5,6,5,8
5,6,6,4
5,7,1,6
5,7,3,7
5,7,5,5
5,7,7,2
5,8,3,9
5,8,5,2
6,0,1,1
6,0,7,7
6,1,0,4
6,1,8,3
6,2,3,7
6,2,4,4
6,2,5,9
6,6,3,9
6,6,4,7
6,6,5,4
6,7,0,6
6,7,8,7
6,8,1,4
6,8,7,2
7,1,2,3
7,1,6,8
7,2,0,1
7,2,1,6
7,2,3,3
7,2,5,5
7,2,7,4
7,2,8,9
7,3,2,2
7,3,6,1
7,5,2,9
7,5,6,3
7,6,0,8
7,6,1,1
7,6,3,5
7,6,5,2
7,6,7,7
7,6,8,4
7,7,2,7
7,7,6,2
8,0,4,7
8,1,1,8
8,1,7,9
8,2,0,7
8,2,4,1
8,2,8,5
8,4,3,1
8,4,5,8
8,6,0,9
8,6,4,8
8,6,8,2
8,7,1,5
8,7,7,1
8,8,4,2
