0,3,0,6
0,3,4,8
0,3,8,5
0,4,0,8
0,4,1,2
0,4,7,3
0,4,8,7
0,5,0,4
0,5,4,2
0,5,8,8
1,0,0,9
1,0,2,2
1,0,6,7
1,0,8,3
1,2,3,7
1,2,5,8
1,3,3,5
1,3,5,6
1,4,0,1
1,4,8,6
1,5,3,8
1,5,5,9
1,6,3,6
1,6,5,1
1,8,0,6
1,8,2,3
1,8,6,1
1,8,8,5
2,0,3,3
2,0,5,5
2,3,3,9
2,3,4,3
2,3,5,2
2,4,4,5
2,5,3,1
2,5,4,6
2,5,5,4
2,8,3,5
2,8,5,6
3,0,2,8
3,0,6,3
3,2,1,3
3,2,2,2
3,2,4,7
3,2,6,6
3,2,7,9
3,4,3,3
3,4,4,6
3,4,5,5
3,6,1,8
3,6,2,6
3,6,4,2
3,6,6,7
3,6,7,5
3,8,2,5
3,8,6,9
4,0,3,4
4,0,4,3
4,0,5,7
4,1,0,3
4,1,8,2
4,2,1,8
4,2,7,4
4,3,2,5
4,3,6,9
4,4,0,4
4,4,8,1
4,5,2,8
4,5,6,3
4,6,1,1
4,6,7,9
4,7,0,6
4,7,8,5
4,8,3,7
4,8,4,5
4,8,5,1
5,0,2,3
5,0,6,1
5,2,1,1
5,2,2,7
5,2,4,6
5,2,6,2
5,2,7,5
5,4,3,1
5,4,4,2
5,4,5,4
5,6,1,3
5,6,2,2
5,6,4,7
5,6,6,6
5,6,7,4
5,8,2,4
5,8,6,5
6,0,3,2
6,0,5,3
6,3,3,3
6,3,4,2
6,3,5,5
6,4,4,8
6,5,3,6
6,5,4,9
6,5,5,1
6,8,3,1
6,8,5,4
7,0,0,3
7,0,2,5
7,0,6,4
7,0,8,2
7,2,3,4
7,2,5,2
7,3,3,8
7,3,5,4
7,4,0,2
7,4,8,4
7,5,3,2
7,5,5,3
7,6,3,5
7,6,5,7
7,8,0,5
7,8,2,7
7,8,6,6
7,8,8,8
8,3,0,5
8,3,4,6
8,3,8,3
8,4,0,7
8,4,1,4
8,4,7,6
8,4,8,9
8,5,0,3
8,5,4,4
8,5,8,2
