0,1,3,3
0,1,4,5
0,1,5,6
0,3,2,3
0,3,6,6
0,5,2,8
0,5,6,2
0,7,3,8
0,7,4,3
0,7,5,1
1,2,0,4
1,2,8,9
1,6,0,9
1,6,8,3
2,0,4,6
2,2,0,5
2,2,1,6
2,2,7,4
2,2,8,1
2,3,0,4
2,3,8,9
2,5,0,7
2,5,8,6
2,6,0,2
2,6,1,7
2,6,7,9
2,6,8,5
2,8,4,9
3,0,1,2
3,0,7,9
3,1,0,4
3,1,8,6
3,3,4,7
3,4,0,5
3,4,8,1
3,5,4,6
3,7,0,7
3,7,8,4
3,8,1,3
3,8,7,8
4,0,4,4
4,2,2,9
4,2,6,6
4,3,0,1
4,3,8,4
4,4,0,9
4,4,8,6
4,5,0,8
4,5,8,7
4,6,2,3
4,6,6,5
4,8,4,6
5,0,1,3
5,0,7,6
5,1,0,5
5,1,8,1
5,3,4,9
5,4,0,7
5,4,8,3
5,5,4,1
5,7,0,3
5,7,8,6
5,8,1,5
5,8,7,2
6,0,4,8
6,2,0,1
6,2,1,8
6,2,7,9
6,2,8,2
6,3,0,9
6,3,8,3
6,5,0,6
6,5,8,8
6,6,0,5
6,6,1,6
6,6,7,3
6,6,8,1
6,8,4,3
7,2,0,9
7,2,8,3
7,6,0,3
7,6,8,4
8,1,3,4
8,1,4,1
8,1,5,8
8,3,2,4
8,3,6,8
8,5,2,7
8,5,6,5
8,7,3,7
8,7,4,4
8,7,5,2
