0,2,2,3
0,2,6,5
0,3,0,6
0,3,1,3
0,3,7,1
0,3,8,9
0,5,0,8
0,5,1,9
0,5,7,5
0,5,8,6
0,6,2,8
0,6,6,9
1,0,3,8
1,0,5,6
1,1,3,7
1,1,4,3
1,1,5,4
1,2,3,5
1,2,5,1
1,6,3,9
1,6,5,3
1,7,3,1
1,7,4,4
1,7,5,7
1,8,3,2
1,8,5,5
2,2,0,5
2,2,8,8
2,4,4,2
2,6,0,9
2,6,8,1
3,0,0,9
3,0,8,3
3,1,0,3
3,1,8,7
3,2,4,3
3,3,1,9
3,3,4,4
3,3,7,5
3,4,0,7
3,4,8,4
3,5,1,6
3,5,4,2
3,5,7,7
3,6,4,8
3,7,0,5
3,7,8,8
3,8,0,8
3,8,8,2
4,1,0,1
4,1,8,6
4,2,4,1
4,3,0,8
4,3,3,1
4,3,5,6
4,3,8,2
4,4,2,4
4,4,6,7
4,5,0,9
4,5,3,4
4,5,5,3
4,5,8,8
4,6,4,3
4,7,0,4
4,7,8,3
5,0,0,4
5,0,8,8
5,1,0,8
5,1,8,2
5,2,4,8
5,3,1,4
5,3,4,5
5,3,7,9
5,4,0,2
5,4,8,5
5,5,1,7
5,5,4,6
5,5,7,2
5,6,4,1
5,7,0,9
5,7,8,1
5,8,0,1
5,8,8,6
6,2,0,1
6,2,8,6
6,4,4,4
6,6,0,3
6,6,8,7
7,0,3,6
7,0,5,5
7,1,3,9
7,1,4,7
7,1,5,1
7,2,3,8
7,2,5,2
7,6,3,1
7,6,5,6
7,7,3,7
7,7,4,8
7,7,5,9
7,8,3,4
7,8,5,3
8,2,2,7
8,2,6,3
8,3,0,9
8,3,1,2
8,3,7,6
8,3,8,3
8,5,0,7
8,5,1,1
8,5,7,8
8,5,8,4
8,6,2,2
8,6,6,8
