0,0,2,1
0,0,4,5
0,0,6,6
0,1,3,4
0,1,4,7
0,1,5,8
0,3,0,3
0,3,8,1
0,4,2,8
0,4,4,9
0,4,6,7
0,5,0,7
0,5,8,6
0,7,3,2
0,7,4,3
0,7,5,5
0,8,2,3
0,8,4,4
0,8,6,2
1,1,0,4
1,1,8,5
1,2,3,5
1,2,5,3
1,3,3,9
1,3,5,1
1,5,3,8
1,5,5,7
1,6,3,3
1,6,5,2
1,7,0,6
1,7,8,2
2,0,1,8
2,0,7,5
2,1,2,7
2,1,6,4
2,2,2,3
2,2,6,2
2,4,3,4
2,4,5,8
2,6,2,6
2,6,6,9
2,7,2,8
2,7,6,7
2,8,1,1
2,8,7,4
3,1,4,6
3,3,2,8
3,3,6,5
3,4,4,1
3,5,2,7
3,5,6,3
3,7,4,5
4,0,3,1
4,0,4,3
4,0,5,8
4,3,2,2
4,3,6,1
4,4,0,8
4,4,8,4
4,5,2,5
4,5,6,7
4,8,3,4
4,8,4,9
4,8,5,5
5,1,4,1
5,3,2,9
5,3,6,2
5,4,4,5
5,5,2,1
5,5,6,4
5,7,4,6
6,0,1,1
6,0,7,9
6,1,2,2
6,1,6,5
6,2,2,8
6,2,6,6
6,4,3,5
6,4,5,1
6,6,2,7
6,6,6,4
6,7,2,1
6,7,6,2
6,8,1,3
6,8,7,5
7,1,0,5
7,1,8,9
7,2,3,9
7,2,5,8
7,3,3,4
7,3,5,3
7,5,3,1
7,5,5,2
7,6,3,8
7,6,5,6
7,7,0,7
7,7,8,6
8,0,2,3
8,0,4,9
8,0,6,7
8,1,3,5
8,1,4,2
8,1,5,1
8,3,0,8
8,3,8,3
8,4,2,1
8,4,4,4
8,4,6,2
8,5,0,2
8,5,8,7
8,7,3,6
8,7,4,8
8,7,5,9
8,8,2,8
8,8,4,5
8,8,6,6
