0,2,1,4
0,2,4,1
0,2,7,8
0,3,1,2
0,3,7,5
0,5,1,6
0,5,7,2
0,6,1,9
0,6,4,3
0,6,7,7
1,0,1,3
1,0,7,5
1,1,2,8
1,1,6,9
1,2,0,9
1,2,2,1
1,2,6,7
1,2,8,4
1,3,2,6
1,3,6,4
1,5,2,5
1,5,6,3
1,6,0,5
1,6,2,3
1,6,6,6
1,6,8,9
1,7,2,9
1,7,6,1
1,8,1,4
1,8,7,8
2,0,0,1
2,0,3,8
2,0,5,5
2,0,8,3
2,1,3,1
2,1,5,6
2,2,1,2
2,2,4,7
2,2,7,9
2,3,2,1
2,3,6,6
2,4,4,8
2,5,2,7
2,5,6,5
2,6,1,1
2,6,4,6
2,6,7,5
2,7,3,7
2,7,5,4
2,8,0,9
2,8,3,3
2,8,5,8
2,8,8,4
3,1,0,1
3,1,8,6
3,2,2,6
3,2,6,3
3,3,3,4
3,3,5,9
3,4,3,6
3,4,5,5
3,5,3,8
3,5,5,7
3,6,2,2
3,6,6,5
3,7,0,5
3,7,8,1
4,0,4,8
4,1,2,2
4,1,6,7
4,2,1,8
4,2,2,3
4,2,6,9
4,2,7,4
4,3,2,8
4,3,6,3
4,4,0,3
4,4,8,6
4,5,2,6
4,5,6,2
4,6,1,3
4,6,2,5
4,6,6,8
4,6,7,1
4,7,2,7
4,7,6,4
4,8,4,1
5,1,0,8
5,1,8,9
5,2,2,9
5,2,6,6
5,3,3,7
5,3,5,2
5,4,3,9
5,4,5,3
5,5,3,5
5,5,5,1
5,6,2,8
5,6,6,2
5,7,0,2
5,7,8,6
6,0,0,2
6,0,3,6
6,0,5,4
6,0,8,1
6,1,3,2
6,1,5,7
6,2,1,3
6,2,4,8
6,2,7,5
6,3,2,2
6,3,6,7
6,4,4,6
6,5,2,8
6,5,6,4
6,6,1,2
6,6,4,7
6,6,7,4
6,7,3,8
6,7,5,9
6,8,0,5
6,8,3,1
6,8,5,6
6,8,8,9
7,0,1,1
7,0,7,4
7,1,2,6
7,1,6,5
7,2,0,5
7,2,2,2
7,2,6,8
7,2,8,9
7,3,2,7
7,3,6,9
7,5,2,4
7,5,6,1
7,6,0,4
7,6,2,1
7,6,6,7
7,6,8,5
7,7,2,5
7,7,6,2
7,8,1,9
7,8,7,6
8,2,1,9
8,2,4,2
8,2,7,6
8,3,1,3
8,3,7,4
8,5,1,7
8,5,7,3
8,6,1,5
8,6,4,1
8,6,7,8
