0,0,2,2
0,0,6,5
0,2,2,4
0,2,6,1
0,3,2,5
0,3,6,6
0,5,2,3
0,5,6,8
0,6,2,1
0,6,6,2
0,8,2,8
0,8,6,4
1,2,0,9
1,2,8,5
1,4,1,3
1,4,7,5
1,6,0,6
1,6,8,3
2,3,2,2
2,3,6,5
2,4,1,8
2,4,2,1
2,4,3,3
2,4,4,9
2,4,5,2
2,4,6,7
2,4,7,6
2,5,2,4
2,5,6,3
3,1,0,1
3,1,4,3
3,1,8,6
3,2,2,7
3,2,6,9
3,3,3,5
3,3,5,1
3,5,3,8
3,5,5,6
3,6,2,6
3,6,6,4
3,7,0,8
3,7,4,5
3,7,8,9
4,0,4,4
4,1,2,5
4,1,6,3
4,2,4,7
4,3,0,9
4,3,1,2
4,3,7,1
4,3,8,5
4,4,0,8
4,4,2,6
4,4,6,2
4,4,8,9
4,5,0,5
4,5,1,4
4,5,7,6
4,5,8,8
4,6,4,6
4,7,2,2
4,7,6,5
4,8,4,3
5,1,0,8
5,1,4,5
5,1,8,9
5,2,2,6
5,2,6,7
5,3,3,2
5,3,5,9
5,5,3,4
5,5,5,5
5,6,2,8
5,6,6,6
5,7,0,4
5,7,4,2
5,7,8,7
6,3,2,1
6,3,6,7
6,4,1,6
6,4,2,4
6,4,3,5
6,4,4,8
6,4,5,1
6,4,6,3
6,4,7,9
6,5,2,2
6,5,6,5
7,2,0,1
7,2,8,6
7,4,1,2
7,4,7,1
7,6,0,2
7,6,8,8
8,0,2,7
8,0,6,9
8,2,2,5
8,2,6,3
8,3,2,9
8,3,6,1
8,5,2,6
8,5,6,2
8,6,2,3
8,6,6,7
8,8,2,2
8,8,6,5
