0,1,3,8
0,1,5,7
0,2,1,8
0,2,3,1
0,2,5,6
0,2,7,2
0,3,3,4
0,3,5,1
0,4,2,2
0,4,6,6
0,5,3,9
0,5,5,8
0,6,1,6
0,6,3,2
0,6,5,4
0,6,7,9
0,7,3,7
0,7,5,5
1,0,0,3
1,0,8,4
1,1,0,8
1,1,8,5
1,2,0,1
1,2,4,2
1,2,8,9
1,3,1,2
1,3,7,4
1,4,4,8
1,5,1,6
1,5,7,9
1,6,0,2
1,6,4,5
1,6,8,3
1,7,0,7
1,7,8,8
1,8,0,6
1,8,8,1
2,2,0,9
2,2,3,7
2,2,5,5
2,2,8,6
2,6,0,1
2,6,3,9
2,6,5,3
2,6,8,5
3,0,4,8
3,1,2,5
3,1,6,9
3,2,1,4
3,2,4,6
3,2,7,3
3,6,1,7
3,6,4,3
3,6,7,5
3,7,2,9
3,7,6,4
3,8,4,2
4,1,2,2
4,1,3,5
4,1,5,8
4,1,6,6
4,2,1,6
4,2,7,9
4,3,2,9
4,3,6,4
4,5,2,3
4,5,6,1
4,6,1,3
4,6,7,7
4,7,2,7
4,7,3,9
4,7,5,3
4,7,6,2
5,0,4,2
5,1,2,8
5,1,6,3
5,2,1,3
5,2,4,5
5,2,7,6
5,6,1,9
5,6,4,7
5,6,7,3
5,7,2,3
5,7,6,1
5,8,4,9
6,2,0,6
6,2,3,3
6,2,5,2
6,2,8,8
6,6,0,9
6,6,3,7
6,6,5,5
6,6,8,6
7,0,0,5
7,0,8,7
7,1,0,9
7,1,8,6
7,2,0,4
7,2,4,1
7,2,8,2
7,3,1,8
7,3,7,7
7,4,4,5
7,5,1,3
7,5,7,2
7,6,0,3
7,6,4,2
7,6,8,9
7,7,0,8
7,7,8,4
7,8,0,1
7,8,8,5
8,1,3,4
8,1,5,3
8,2,1,9
8,2,3,5
8,2,5,8
8,2,7,1
8,3,3,6
8,3,5,9
8,4,2,8
8,4,6,3
8,5,3,7
8,5,5,5
8,6,1,1
8,6,3,3
8,6,5,6
8,6,7,2
8,7,3,8
8,7,5,2
