0,1,1,3
0,1,2,1
0,1,6,6
0,1,7,9
0,2,3,4
0,2,5,1
0,6,3,5
0,6,5,9
0,7,1,1
0,7,2,4
0,7,6,5
0,7,7,6
1,0,2,4
1,0,3,7
1,0,4,8
1,0,5,2
1,0,6,9
1,1,0,9
1,1,8,2
1,2,1,8
1,2,7,1
1,3,2,1
1,3,6,5
1,4,2,9
1,4,4,3
1,4,6,8
1,5,2,7
1,5,6,4
1,6,1,4
1,6,7,9
1,7,0,6
1,7,8,8
1,8,2,8
1,8,3,6
1,8,4,9
1,8,5,5
1,8,6,1
2,0,4,4
2,1,1,2
2,1,2,7
2,1,4,6
2,1,6,1
2,1,7,4
2,2,1,4
2,2,7,6
2,3,1,9
2,3,7,7
2,5,1,1
2,5,7,9
2,6,1,5
2,6,7,8
2,7,1,8
2,7,2,2
2,7,4,5
2,7,6,4
2,7,7,3
2,8,4,8
3,0,4,7
3,1,4,5
3,3,0,5
3,3,8,4
3,4,0,3
3,4,1,1
3,4,7,9
3,4,8,2
3,5,0,7
3,5,8,8
3,7,4,8
3,8,4,3
4,1,1,9
4,1,4,3
4,1,7,6
4,3,3,6
4,3,5,5
4,4,1,2
4,4,7,8
4,5,3,9
4,5,5,7
4,7,1,7
4,7,4,1
4,7,7,5
5,0,4,1
5,1,4,2
5,3,0,2
5,3,8,6
5,4,0,8
5,4,1,5
5,4,7,3
5,4,8,1
5,5,0,4
5,5,8,9
5,7,4,9
5,8,4,6
6,0,4,5
6,1,1,1
6,1,2,4
6,1,4,8
6,1,6,9
6,1,7,5
6,2,1,5
6,2,7,8
6,3,1,2
6,3,7,3
6,5,1,6
6,5,7,2
6,6,1,7
6,6,7,4
6,7,1,4
6,7,2,3
6,7,4,7
6,7,6,6
6,7,7,9
6,8,4,4
7,0,2,5
7,0,3,4
7,0,4,3
7,0,5,1
7,0,6,2
7,1,0,2
7,1,8,1
7,2,1,3
7,2,7,9
7,3,2,6
7,3,6,7
7,4,2,2
7,4,4,5
7,4,6,1
7,5,2,3
7,5,6,9
7,6,1,6
7,6,7,2
7,7,0,8
7,7,8,4
7,8,2,4
7,8,3,8
7,8,4,2
7,8,5,7
7,8,6,5
8,1,1,6
8,1,2,9
8,1,6,8
8,1,7,2
8,2,3,5
8,2,5,9
8,6,3,7
8,6,5,2
8,7,1,5
8,7,2,6
8,7,6,7
8,7,7,8
