0,2,1,6
0,2,7,3
0,4,2,6
0,4,6,8
0,6,1,7
0,6,7,8
1,1,0,1
1,1,8,5
1,3,3,2
1,3,5,7
1,4,0,9
1,4,3,1
1,4,5,8
1,4,8,6
1,5,3,5
1,5,5,4
1,7,0,2
1,7,8,8
2,1,0,6
2,1,4,4
2,1,8,1
2,2,0,8
2,2,8,4
2,3,1,6
2,3,7,3
2,5,1,9
2,5,7,7
2,6,0,1
2,6,8,9
2,7,0,9
2,7,4,8
2,7,8,7
3,1,0,7
3,1,1,5
3,1,7,2
3,1,8,9
3,2,4,7
3,3,1,9
3,3,2,8
3,3,6,3
3,3,7,7
3,5,1,2
3,5,2,5
3,5,6,9
3,5,7,1
3,6,4,2
3,7,0,1
3,7,1,7
3,7,7,8
3,7,8,2
4,0,0,5
4,0,1,1
4,0,3,3
4,0,5,4
4,0,7,9
4,0,8,8
4,1,1,2
4,1,7,1
4,2,1,4
4,2,7,7
4,6,1,9
4,6,7,2
4,7,1,3
4,7,7,5
4,8,0,8
4,8,1,6
4,8,3,2
4,8,5,1
4,8,7,3
4,8,8,7
5,1,0,4
5,1,1,8
5,1,7,5
5,1,8,3
5,2,4,4
5,3,1,3
5,3,2,2
5,3,6,6
5,3,7,9
5,5,1,4
5,5,2,1
5,5,6,8
5,5,7,2
5,6,4,9
5,7,0,6
5,7,1,5
5,7,7,7
5,7,8,9
6,1,0,5
6,1,4,8
6,1,8,7
6,2,0,7
6,2,8,3
6,3,1,4
6,3,7,2
6,5,1,1
6,5,7,5
6,6,0,2
6,6,8,8
6,7,0,3
6,7,4,2
6,7,8,4
7,1,0,2
7,1,8,8
7,3,3,9
7,3,5,5
7,4,0,1
7,4,3,6
7,4,5,2
7,4,8,4
7,5,3,3
7,5,5,1
7,7,0,5
7,7,8,6
8,2,1,5
8,2,7,2
8,4,2,4
8,4,6,6
8,6,1,4
8,6,7,6
