0,0,0,7
0,0,3,8
0,0,5,4
0,0,8,6
0,1,1,6
0,1,7,5
0,2,2,2
0,2,6,3
0,4,4,7
0,6,2,5
0,6,6,6
0,7,1,3
0,7,7,2
0,8,0,2
0,8,3,3
0,8,5,5
0,8,8,7
1,1,4,1
1,3,3,6
1,3,5,1
1,4,0,7
1,4,2,3
1,4,6,9
1,4,8,6
1,5,3,9
1,5,5,7
1,7,4,4
2,0,1,4
2,0,7,3
2,2,1,1
2,2,3,2
2,2,5,3
2,2,7,6
2,4,3,3
2,4,5,5
2,6,1,6
2,6,3,9
2,6,5,7
2,6,7,5
2,8,1,5
2,8,7,1
3,0,2,4
3,0,6,7
3,1,1,1
3,1,7,2
3,2,2,3
3,2,3,1
3,2,5,5
3,2,6,4
3,4,0,3
3,4,8,8
3,6,2,2
3,6,3,6
3,6,5,1
3,6,6,8
3,7,1,4
3,7,7,1
3,8,2,5
3,8,6,6
4,0,2,9
4,0,6,2
4,1,1,3
4,1,3,2
4,1,5,1
4,1,7,6
4,2,1,5
4,2,3,3
4,2,4,6
4,2,5,4
4,2,7,1
4,3,1,4
4,3,4,7
4,3,7,8
4,4,2,5
4,4,3,4
4,4,5,2
4,4,6,6
4,5,1,1
4,5,4,5
4,5,7,7
4,6,1,8
4,6,3,7
4,6,4,4
4,6,5,3
4,6,7,2
4,7,1,9
4,7,3,8
4,7,5,5
4,7,7,3
4,8,2,4
4,8,6,7
5,0,2,5
5,0,6,6
5,1,1,8
5,1,7,7
5,2,2,1
5,2,3,8
5,2,5,9
5,2,6,5
5,4,0,1
5,4,8,3
5,6,2,7
5,6,3,2
5,6,5,8
5,6,6,3
5,7,1,5
5,7,7,8
5,8,2,9
5,8,6,2
6,0,1,8
6,0,7,7
6,2,1,6
6,2,3,9
6,2,5,7
6,2,7,5
6,4,3,2
6,4,5,3
6,6,1,9
6,6,3,3
6,6,5,5
6,6,7,8
6,8,1,3
6,8,7,2
7,1,4,7
7,3,3,4
7,3,5,2
7,4,0,4
7,4,2,6
7,4,6,3
7,4,8,5
7,5,3,8
7,5,5,5
7,7,4,8
8,0,0,4
8,0,3,7
8,0,5,3
8,0,8,5
8,1,1,9
8,1,7,3
8,2,2,5
8,2,6,6
8,4,4,5
8,6,2,3
8,6,6,5
8,7,1,2
8,7,7,4
8,8,0,5
8,8,3,2
8,8,5,1
8,8,8,9
