0,0,1,6
0,0,7,5
0,1,2,1
0,1,4,9
0,1,6,3
0,2,2,9
0,2,6,8
0,3,3,5
0,3,5,9
0,5,3,2
0,5,5,8
0,6,2,5
0,6,6,1
0,7,2,6
0,7,4,8
0,7,6,5
0,8,1,8
0,8,7,3
1,2,0,1
1,2,3,5
1,2,4,4
1,2,5,9
1,2,8,6
1,3,1,6
1,3,3,8
1,3,5,1
1,3,7,4
1,4,4,5
1,5,1,9
1,5,3,3
1,5,5,7
1,5,7,2
1,6,0,2
1,6,3,4
1,6,4,9
1,6,5,5
1,6,8,3
2,0,2,8
2,0,6,6
2,1,2,5
2,1,4,7
2,1,6,2
2,3,4,3
2,5,4,9
2,7,2,1
2,7,4,4
2,7,6,3
2,8,2,4
2,8,6,8
3,0,4,8
3,1,1,7
3,1,7,4
3,2,1,1
3,2,7,5
3,6,1,4
3,6,7,6
3,7,1,5
3,7,7,2
3,8,4,3
4,0,4,7
4,2,4,3
4,3,2,6
4,3,6,2
4,4,0,4
4,4,2,2
4,4,6,8
4,4,8,1
4,5,2,8
4,5,6,6
4,6,4,4
4,8,4,9
5,0,4,9
5,1,1,8
5,1,7,3
5,2,1,6
5,2,7,7
5,6,1,3
5,6,7,4
5,7,1,7
5,7,7,5
5,8,4,2
6,0,2,3
6,0,6,5
6,1,2,8
6,1,4,5
6,1,6,6
6,3,4,9
6,5,4,8
6,7,2,7
6,7,4,2
6,7,6,4
6,8,2,1
6,8,6,3
7,2,0,8
7,2,3,4
7,2,4,9
7,2,5,5
7,2,8,7
7,3,1,7
7,3,3,2
7,3,5,8
7,3,7,9
7,4,4,4
7,5,1,5
7,5,3,6
7,5,5,3
7,5,7,1
7,6,0,1
7,6,3,9
7,6,4,5
7,6,5,4
7,6,8,6
8,0,1,8
8,0,7,3
8,1,2,4
8,1,4,3
8,1,6,1
8,2,2,6
8,2,6,4
8,3,3,3
8,3,5,7
8,5,3,9
8,5,5,4
8,6,2,3
8,6,6,9
8,7,2,8
8,7,4,9
8,7,6,6
8,8,1,4
8,8,7,1
