0,0,0,9
0,0,3,1
0,0,5,6
0,0,8,7
0,1,0,8
0,1,4,4
0,1,8,2
0,2,0,1
0,2,8,6
0,3,0,6
0,3,8,5
0,5,0,2
0,5,8,4
0,6,0,4
0,6,8,8
0,7,0,5
0,7,4,6
0,7,8,1
0,8,0,3
0,8,3,5
0,8,5,8
0,8,8,9
1,1,0,2
1,1,8,5
1,2,3,7
1,2,5,4
1,3,0,3
1,3,4,6
1,3,8,9
1,4,2,9
1,4,6,5
1,5,0,5
1,5,4,2
1,5,8,1
1,6,3,8
1,6,5,7
1,7,0,9
1,7,8,6
2,0,1,6
2,0,4,7
2,0,7,2
2,1,4,2
2,3,0,8
2,3,1,5
2,3,4,4
2,3,7,3
2,3,8,6
2,5,0,9
2,5,1,4
2,5,4,3
2,5,7,5
2,5,8,2
2,7,4,8
2,8,1,9
2,8,4,1
2,8,7,8
3,0,1,5
3,0,2,6
3,0,4,4
3,0,6,1
3,0,7,8
3,1,3,8
3,1,5,1
3,3,0,1
3,3,1,8
3,3,7,4
3,3,8,7
3,4,3,4
3,4,5,9
3,5,0,6
3,5,1,9
3,5,7,3
3,5,8,5
3,7,3,5
3,7,5,3
3,8,1,3
3,8,2,5
3,8,4,9
3,8,6,7
3,8,7,1
4,2,1,6
4,2,2,3
4,2,3,4
4,2,5,9
4,2,6,8
4,2,7,2
4,3,0,7
4,3,1,3
4,3,4,9
4,3,7,1
4,3,8,8
4,4,3,1
4,4,5,7
4,5,0,8
4,5,1,2
4,5,4,6
4,5,7,7
4,5,8,9
4,6,1,1
4,6,2,8
4,6,3,7
4,6,5,5
4,6,6,2
4,6,7,9
5,0,1,7
5,0,2,1
5,0,4,2
5,0,6,4
5,0,7,6
5,1,3,7
5,1,5,4
5,3,0,4
5,3,1,6
5,3,7,2
5,3,8,3
5,4,3,6
5,4,5,5
5,5,0,3
5,5,1,5
5,5,7,8
5,5,8,6
5,7,3,2
5,7,5,8
5,8,1,8
5,8,2,6
5,8,4,5
5,8,6,9
5,8,7,4
6,0,1,3
6,0,4,5
6,0,7,4
6,1,4,3
6,3,0,2
6,3,1,1
6,3,4,8
6,3,7,9
6,3,8,4
6,5,0,7
6,5,1,8
6,5,4,9
6,5,7,1
6,5,8,3
6,7,4,2
6,8,1,2
6,8,4,6
6,8,7,7
7,1,0,5
7,1,8,1
7,2,3,5
7,2,5,8
7,3,0,9
7,3,4,3
7,3,8,2
7,4,2,7
7,4,6,1
7,5,0,1
7,5,4,5
7,5,8,7
7,6,3,2
7,6,5,3
7,7,0,2
7,7,8,3
8,0,0,6
8,0,3,7
8,0,5,4
8,0,8,3
8,1,0,7
8,1,4,8
8,1,8,4
8,2,0,2
8,2,8,5
8,3,0,5
8,3,8,1
8,5,0,4
8,5,8,8
8,6,0,8
8,6,8,7
8,7,0,1
8,7,4,5
8,7,8,2
8,8,0,9
8,8,3,1
8,8,5,2
8,8,8,6
