0,1,3,3
0,1,5,1
0,2,0,2
0,2,8,7
0,6,0,3
0,6,8,5
0,7,3,9
0,7,5,6
1,2,0,5
1,2,8,8
1,3,1,4
1,3,7,3
1,4,4,6
1,5,1,1
1,5,7,5
1,6,0,9
1,6,8,4
2,0,0,9
2,0,1,5
2,0,2,7
2,0,6,8
2,0,7,6
2,0,8,4
2,2,1,8
2,2,7,2
2,3,0,3
2,3,8,5
2,5,0,5
2,5,8,8
2,6,1,4
2,6,7,3
2,8,0,7
2,8,1,1
2,8,2,3
2,8,6,9
2,8,7,5
2,8,8,6
3,1,1,7
3,1,7,2
3,2,3,2
3,2,5,9
3,6,3,9
3,6,5,8
3,7,1,8
3,7,7,5
4,2,4,7
4,3,0,1
4,3,1,7
4,3,7,2
4,3,8,3
4,4,2,9
4,4,6,7
4,5,0,3
4,5,1,4
4,5,7,9
4,5,8,6
4,6,4,4
5,1,1,8
5,1,7,5
5,2,3,5
5,2,5,6
5,6,3,2
5,6,5,1
5,7,1,1
5,7,7,4
6,0,0,4
6,0,1,8
6,0,2,6
6,0,6,3
6,0,7,2
6,0,8,1
6,2,1,3
6,2,7,7
6,3,0,5
6,3,8,8
6,5,0,8
6,5,8,3
6,6,1,1
6,6,7,5
6,8,0,6
6,8,1,9
6,8,2,5
6,8,6,4
6,8,7,8
6,8,8,2
7,2,0,7
7,2,8,6
7,3,1,8
7,3,7,6
7,4,4,1
7,5,1,3
7,5,7,2
7,6,0,5
7,6,8,8
8,1,3,4
8,1,5,6
8,2,0,8
8,2,8,3
8,6,0,4
8,6,8,1
8,7,3,7
8,7,5,3
