0,0,1,8
0,0,3,1
0,0,5,2
0,0,7,7
0,1,0,2
0,1,1,3
0,1,4,4
0,1,7,6
0,1,8,1
0,3,4,6
0,5,4,7
0,7,0,5
0,7,1,7
0,7,4,8
0,7,7,9
0,7,8,2
0,8,1,6
0,8,3,2
0,8,5,9
0,8,7,5
1,0,2,1
1,0,6,8
1,1,2,8
1,1,6,3
1,2,4,8
1,3,3,3
1,3,5,7
1,4,0,7
1,4,1,8
1,4,7,2
1,4,8,3
1,5,3,8
1,5,5,2
1,6,4,2
1,7,2,2
1,7,6,6
1,8,2,7
1,8,6,2
2,0,0,3
2,0,8,9
2,1,2,7
2,1,6,2
2,3,0,5
2,3,3,2
2,3,5,4
2,3,8,7
2,4,2,1
2,4,6,8
2,5,0,9
2,5,3,6
2,5,5,5
2,5,8,2
2,7,2,4
2,7,6,5
2,8,0,2
2,8,8,3
3,1,4,7
3,4,0,5
3,4,1,6
3,4,2,3
3,4,6,1
3,4,7,9
3,4,8,7
3,7,4,4
4,0,3,7
4,0,5,4
4,3,3,8
4,3,4,4
4,3,5,2
4,4,3,3
4,4,5,7
4,5,3,1
4,5,4,5
4,5,5,6
4,8,3,5
4,8,5,1
5,1,4,5
5,4,0,8
5,4,1,9
5,4,2,7
5,4,6,2
5,4,7,3
5,4,8,4
5,7,4,1
6,0,0,2
6,0,8,1
6,1,2,4
6,1,6,5
6,3,0,3
6,3,3,4
6,3,5,8
6,3,8,9
6,4,2,2
6,4,6,6
6,5,0,8
6,5,3,5
6,5,5,1
6,5,8,4
6,7,2,1
6,7,6,8
6,8,0,9
6,8,8,6
7,0,2,8
7,0,6,3
7,1,2,3
7,1,6,1
7,2,4,3
7,3,3,1
7,3,5,6
7,4,0,6
7,4,1,3
7,4,7,7
7,4,8,1
7,5,3,3
7,5,5,7
7,6,4,7
7,7,2,7
7,7,6,2
7,8,2,6
7,8,6,7
8,0,1,4
8,0,3,9
8,0,5,3
8,0,7,8
8,1,0,8
8,1,1,9
8,1,4,2
8,1,7,3
8,1,8,4
8,3,4,3
8,5,4,8
8,7,0,2
8,7,1,8
8,7,4,5
8,7,7,6
8,7,8,3
8,8,1,3
8,8,3,8
8,8,5,6
8,8,7,2
