0,0,1,5
0,0,7,8
0,1,3,8
0,1,5,4
0,4,0,5
0,4,3,3
0,4,5,9
0,4,8,8
0,7,3,7
0,7,5,5
0,8,1,1
0,8,7,2
1,1,1,1
1,1,7,4
1,4,0,4
1,4,1,8
1,4,4,5
1,4,7,3
1,4,8,6
1,7,1,9
1,7,7,7
2,0,3,2
2,0,5,8
2,1,1,8
2,1,7,3
2,3,0,7
2,3,8,2
2,5,0,2
2,5,8,3
2,7,1,5
2,7,7,4
2,8,3,4
2,8,5,2
3,0,0,4
3,0,1,8
3,0,7,5
3,0,8,7
3,1,0,3
3,1,8,4
3,3,1,7
3,3,7,3
3,5,1,3
3,5,7,8
3,7,0,7
3,7,8,3
3,8,0,8
3,8,1,2
3,8,7,1
3,8,8,5
4,0,1,1
4,0,7,3
4,2,0,9
4,2,8,2
4,3,3,1
4,3,4,5
4,3,5,7
4,4,3,4
4,4,5,2
4,5,3,6
4,5,4,9
4,5,5,3
4,6,0,4
4,6,8,1
4,8,1,7
4,8,7,6
5,0,0,6
5,0,1,9
5,0,7,4
5,0,8,8
5,1,0,5
5,1,8,3
5,3,1,8
5,3,7,1
5,5,1,1
5,5,7,6
5,7,0,2
5,7,8,7
5,8,0,9
5,8,1,3
5,8,7,8
5,8,8,2
6,0,3,9
6,0,5,6
6,1,1,3
6,1,7,7
6,3,0,2
6,3,8,3
6,5,0,6
6,5,8,5
6,7,1,2
6,7,7,6
6,8,3,3
6,8,5,9
7,1,1,5
7,1,7,8
7,4,0,8
7,4,1,2
7,4,4,7
7,4,7,6
7,4,8,9
7,7,1,3
7,7,7,1
8,0,1,6
8,0,7,1
8,1,3,7
8,1,5,5
8,4,0,9
8,4,3,2
8,4,5,8
8,4,8,7
8,7,3,6
8,7,5,3
8,8,1,9
8,8,7,7
