0,0,3,3
0,0,5,5
0,1,0,7
0,1,1,2
0,1,7,6
0,1,8,5
0,2,3,2
0,2,5,7
0,3,3,7
0,3,5,1
0,4,3,5
0,4,4,3
0,4,5,6
0,5,3,4
0,5,5,8
0,6,3,8
0,6,5,9
0,7,0,6
0,7,1,5
0,7,7,4
0,7,8,9
0,8,3,6
0,8,5,3
1,0,2,7
1,0,6,6
1,1,3,1
1,1,5,2
1,7,3,5
1,7,5,6
1,8,2,2
1,8,6,5
2,0,0,5
2,0,4,2
2,0,8,8
2,1,3,5
2,1,5,6
2,2,2,2
2,2,6,5
2,4,4,7
2,6,2,4
2,6,6,1
2,7,3,9
2,7,5,4
2,8,0,3
2,8,4,1
2,8,8,4
3,0,2,8
3,0,6,3
3,3,0,7
3,3,4,3
3,3,8,9
3,5,0,5
3,5,4,6
3,5,8,2
3,8,2,6
3,8,6,4
4,0,4,3
4,2,3,8
4,2,5,9
4,3,2,3
4,3,6,2
4,4,0,1
4,4,8,6
4,5,2,6
4,5,6,4
4,6,3,1
4,6,5,2
4,8,4,4
5,0,2,3
5,0,6,2
5,3,0,6
5,3,4,7
5,3,8,5
5,5,0,2
5,5,4,4
5,5,8,8
5,8,2,4
5,8,6,1
6,0,0,8
6,0,4,5
6,0,8,1
6,1,3,8
6,1,5,9
6,2,2,3
6,2,6,8
6,4,4,6
6,6,2,2
6,6,6,5
6,7,3,7
6,7,5,1
6,8,0,4
6,8,4,3
6,8,8,7
7,0,2,5
7,0,6,9
7,1,3,3
7,1,5,5
7,7,3,8
7,7,5,9
7,8,2,3
7,8,6,8
8,0,3,4
8,0,5,8
8,1,0,5
8,1,1,3
8,1,7,9
8,1,8,8
8,2,3,5
8,2,5,6
8,3,3,6
8,3,5,3
8,4,3,8
8,4,4,4
8,4,5,9
8,5,3,1
8,5,5,2
8,6,3,2
8,6,5,7
8,7,0,9
8,7,1,8
8,7,7,7
8,7,8,2
8,8,3,9
8,8,5,4
