0,1,0,7
0,1,3,6
0,1,4,1
0,1,5,8
0,1,8,4
0,2,0,6
0,2,8,9
0,4,1,9
0,4,7,7
0,6,0,1
0,6,8,7
0,7,0,9
0,7,3,3
0,7,4,6
0,7,5,7
0,7,8,5
1,1,3,5
1,1,5,3
1,2,2,3
1,2,4,9
1,2,6,4
1,3,3,3
1,3,5,7
1,5,3,9
1,5,5,2
1,6,2,9
1,6,4,1
1,6,6,2
1,7,3,2
1,7,5,4
2,0,2,7
2,0,6,9
2,1,3,9
2,1,5,2
2,3,2,8
2,3,4,5
2,3,6,7
2,5,2,9
2,5,4,1
2,5,6,2
2,7,3,8
2,7,5,1
2,8,2,1
2,8,6,5
3,1,3,4
3,1,5,6
3,2,4,1
3,6,4,2
3,7,3,5
3,7,5,8
4,1,2,4
4,1,4,2
4,1,6,9
4,3,0,7
4,3,8,4
4,4,1,4
4,4,7,3
4,5,0,8
4,5,8,2
4,7,2,5
4,7,4,7
4,7,6,2
5,1,3,1
5,1,5,9
5,2,4,7
5,6,4,3
5,7,3,6
5,7,5,2
6,0,2,9
6,0,6,2
6,1,3,2
6,1,5,1
6,3,2,7
6,3,4,2
6,3,6,5
6,5,2,3
6,5,4,9
6,5,6,1
6,7,3,7
6,7,5,5
6,8,2,5
6,8,6,3
7,1,3,8
7,1,5,4
7,2,2,4
7,2,4,2
7,2,6,9
7,3,3,4
7,3,5,9
7,5,3,3
7,5,5,1
7,6,2,8
7,6,4,9
7,6,6,1
7,7,3,1
7,7,5,6
8,1,0,5
8,1,3,3
8,1,4,9
8,1,5,7
8,1,8,6
8,2,0,3
8,2,8,2
8,4,1,3
8,4,7,6
8,6,0,6
8,6,8,9
8,7,0,8
8,7,3,4
8,7,4,2
8,7,5,9
8,7,8,3
