0,4,3,7
0,4,5,6
1,0,0,9
1,0,3,8
1,0,5,1
1,0,8,3
1,2,1,1
1,2,2,8
1,2,3,7
1,2,5,4
1,2,6,6
1,2,7,5
1,3,4,6
1,5,4,1
1,6,1,3
1,6,2,1
1,6,3,4
1,6,5,9
1,6,6,2
1,6,7,6
1,8,0,5
1,8,3,6
1,8,5,2
1,8,8,7
2,0,2,3
2,0,6,8
2,2,0,6
2,2,8,4
2,6,0,2
2,6,8,9
2,8,2,7
2,8,6,6
3,0,1,3
3,0,4,1
3,0,7,5
3,1,0,4
3,1,8,3
3,2,0,5
3,2,3,3
3,2,4,9
3,2,5,2
3,2,8,6
3,6,0,6
3,6,3,5
3,6,4,8
3,6,5,7
3,6,8,2
3,7,0,7
3,7,8,1
3,8,1,2
3,8,4,4
3,8,7,7
4,0,0,7
4,0,8,4
4,1,1,2
4,1,7,7
4,2,1,4
4,2,3,5
4,2,5,7
4,2,7,9
4,6,1,9
4,6,3,6
4,6,5,4
4,6,7,8
4,7,1,6
4,7,7,3
4,8,0,8
4,8,8,6
5,0,1,1
5,0,4,5
5,0,7,3
5,1,0,8
5,1,8,1
5,2,0,3
5,2,3,1
5,2,4,4
5,2,5,6
5,2,8,7
5,6,0,5
5,6,3,3
5,6,4,9
5,6,5,2
5,6,8,4
5,7,0,2
5,7,8,8
5,8,1,4
5,8,4,7
5,8,7,2
6,0,2,2
6,0,6,5
6,2,0,4
6,2,8,1
6,6,0,9
6,6,8,3
6,8,2,8
6,8,6,4
7,0,0,5
7,0,3,1
7,0,5,2
7,0,8,7
7,2,1,2
7,2,2,1
7,2,3,4
7,2,5,3
7,2,6,9
7,2,7,6
7,3,4,3
7,5,4,9
7,6,1,7
7,6,2,3
7,6,3,9
7,6,5,5
7,6,6,8
7,6,7,2
7,8,0,4
7,8,3,2
7,8,5,8
7,8,8,1
8,4,3,9
8,4,5,5
