0,1,2,5
0,1,6,8
0,3,1,2
0,3,3,3
0,3,5,7
0,3,7,8
0,5,1,7
0,5,3,8
0,5,5,6
0,5,7,4
0,7,2,6
0,7,6,5
1,0,2,8
1,0,3,4
1,0,5,6
1,0,6,2
1,1,1,2
1,1,2,3
1,1,6,6
1,1,7,4
1,3,0,3
1,3,8,4
1,4,3,7
1,4,5,9
1,5,0,8
1,5,8,3
1,7,1,8
1,7,2,1
1,7,6,3
1,7,7,9
1,8,2,9
1,8,3,1
1,8,5,8
1,8,6,4
2,4,0,7
2,4,8,2
3,1,3,3
3,1,4,6
3,1,5,4
3,3,3,4
3,3,5,2
3,4,1,7
3,4,7,4
3,5,3,5
3,5,5,7
3,7,3,6
3,7,4,5
3,7,5,9
4,0,4,4
4,3,1,5
4,3,7,3
4,4,0,2
4,4,8,6
4,5,1,8
4,5,7,9
4,8,4,1
5,1,3,5
5,1,4,9
5,1,5,2
5,3,3,7
5,3,5,9
5,4,1,1
5,4,7,7
5,5,3,6
5,5,5,1
5,7,3,1
5,7,4,2
5,7,5,8
6,4,0,5
6,4,8,1
7,0,2,2
7,0,3,7
7,0,5,1
7,0,6,5
7,1,1,5
7,1,2,6
7,1,6,1
7,1,7,7
7,3,0,2
7,3,8,6
7,4,3,5
7,4,5,4
7,5,0,7
7,5,8,2
7,7,1,6
7,7,2,3
7,7,6,7
7,7,7,4
7,8,2,4
7,8,3,3
7,8,5,6
7,8,6,2
8,1,2,8
8,1,6,2
8,3,1,1
8,3,3,2
8,3,5,5
8,3,7,7
8,5,1,5
8,5,3,7
8,5,5,9
8,5,7,6
8,7,2,5
8,7,6,8
