0,0,3,4
0,0,5,5
0,1,2,6
0,1,6,5
0,2,4,3
0,3,0,6
0,3,8,8
0,4,0,8
0,4,8,5
0,5,0,5
0,5,8,2
0,6,4,4
0,7,2,8
0,7,6,2
0,8,3,8
0,8,5,3
1,0,3,8
1,0,5,9
1,1,1,1
1,1,7,8
1,2,0,7
1,2,8,4
1,3,3,7
1,3,5,8
1,4,3,4
1,4,5,3
1,5,3,5
1,5,5,2
1,6,0,3
1,6,8,2
1,7,1,5
1,7,7,9
1,8,3,1
1,8,5,5
2,2,2,1
2,2,4,9
2,2,6,7
2,3,4,3
2,4,0,4
2,4,8,3
2,5,4,4
2,6,2,6
2,6,4,1
2,6,6,9
3,0,2,8
3,0,6,7
3,1,1,2
3,1,7,6
3,2,2,7
3,2,6,3
3,3,1,1
3,3,7,4
3,5,1,6
3,5,7,7
3,6,2,3
3,6,6,8
3,7,1,8
3,7,7,1
3,8,2,1
3,8,6,6
4,0,1,5
4,0,7,9
4,2,1,8
4,2,7,1
4,6,1,6
4,6,7,7
4,8,1,3
4,8,7,5
5,0,2,4
5,0,6,2
5,1,1,6
5,1,7,7
5,2,2,2
5,2,6,9
5,3,1,8
5,3,7,1
5,5,1,7
5,5,7,2
5,6,2,9
5,6,6,4
5,7,1,4
5,7,7,8
5,8,2,8
5,8,6,7
6,2,2,9
6,2,4,6
6,2,6,8
6,3,4,7
6,4,0,5
6,4,8,2
6,5,4,5
6,6,2,8
6,6,4,9
6,6,6,2
7,0,3,5
7,0,5,6
7,1,1,3
7,1,7,5
7,2,0,4
7,2,8,9
7,3,3,4
7,3,5,5
7,4,3,9
7,4,5,7
7,5,3,6
7,5,5,8
7,6,0,2
7,6,8,8
7,7,1,7
7,7,7,2
7,8,3,3
7,8,5,2
8,0,3,3
8,0,5,7
8,1,2,1
8,1,6,2
8,2,4,2
8,3,0,4
8,3,8,9
8,4,0,9
8,4,8,7
8,5,0,2
8,5,8,4
8,6,4,3
8,7,2,9
8,7,6,8
8,8,3,9
8,8,5,6
