0,1,0,9
0,1,8,4
0,2,3,7
0,2,5,4
0,3,0,4
0,3,8,1
0,5,0,2
0,5,8,7
0,6,3,6
0,6,5,9
0,7,0,6
0,7,8,2
1,2,2,7
1,2,4,8
1,2,6,1
1,4,2,2
1,4,6,9
1,6,2,6
1,6,4,5
1,6,6,4
2,0,3,4
2,0,5,8
2,2,0,5
2,2,1,9
2,2,7,7
2,2,8,8
2,3,3,8
2,3,5,6
2,4,0,8
2,4,8,3
2,5,3,1
2,5,5,3
2,6,0,3
2,6,1,1
2,6,7,6
2,6,8,5
2,8,3,3
2,8,5,7
3,0,0,3
3,0,1,9
3,0,3,2
3,0,5,1
3,0,7,7
3,0,8,5
3,2,1,2
3,2,7,3
3,3,0,6
3,3,1,3
3,3,7,4
3,3,8,7
3,5,0,8
3,5,1,1
3,5,7,6
3,5,8,3
3,6,1,6
3,6,7,5
3,8,0,2
3,8,1,8
3,8,3,4
3,8,5,5
3,8,7,9
3,8,8,6
4,0,4,5
4,4,0,9
4,4,8,4
4,8,4,6
5,0,0,5
5,0,1,4
5,0,3,6
5,0,5,9
5,0,7,2
5,0,8,8
5,2,1,6
5,2,7,5
5,3,0,7
5,3,1,5
5,3,7,1
5,3,8,2
5,5,0,3
5,5,1,9
5,5,7,7
5,5,8,5
5,6,1,7
5,6,7,8
5,8,0,6
5,8,1,3
5,8,3,1
5,8,5,8
5,8,7,4
5,8,8,7
6,0,3,8
6,0,5,6
6,2,0,7
6,2,1,5
6,2,7,1
6,2,8,6
6,3,3,2
6,3,5,1
6,4,0,2
6,4,8,7
6,5,3,3
6,5,5,7
6,6,0,6
6,6,1,3
6,6,7,4
6,6,8,2
6,8,3,6
6,8,5,9
7,2,2,1
7,2,4,7
7,2,6,3
7,4,2,9
7,4,6,5
7,6,2,4
7,6,4,6
7,6,6,8
8,1,0,5
8,1,8,8
8,2,3,1
8,2,5,8
8,3,0,8
8,3,8,3
8,5,0,9
8,5,8,4
8,6,3,4
8,6,5,5
8,7,0,4
8,7,8,1
