0,0,2,4
0,0,3,2
0,0,5,1
0,0,6,9
0,1,0,5
0,1,3,4
0,1,5,3
0,1,8,7
0,2,1,1
0,2,7,4
0,3,0,9
0,3,2,5
0,3,3,3
0,3,5,8
0,3,6,2
0,3,8,1
0,4,4,9
0,5,0,4
0,5,2,3
0,5,3,7
0,5,5,2
0,5,6,6
0,5,8,9
0,6,1,7
0,6,7,8
0,7,0,3
0,7,3,1
0,7,5,7
0,7,8,6
0,8,2,9
0,8,3,8
0,8,5,4
0,8,6,7
1,0,4,3
1,1,2,7
1,1,6,4
1,7,2,6
1,7,6,1
1,8,4,5
2,0,3,9
2,0,5,5
2,3,0,3
2,3,3,2
2,3,5,1
2,3,8,5
2,5,0,7
2,5,3,6
2,5,5,9
2,5,8,3
2,8,3,7
2,8,5,2
3,1,2,4
3,1,6,9
3,2,1,9
3,2,4,2
3,2,7,8
3,4,0,3
3,4,8,8
3,6,1,3
3,6,4,1
3,6,7,5
3,7,2,5
3,7,6,4
4,1,0,9
4,1,1,3
4,1,3,2
4,1,5,4
4,1,7,7
4,1,8,1
4,3,1,1
4,3,2,3
4,3,3,4
4,3,5,9
4,3,6,6
4,3,7,8
4,5,1,9
4,5,2,4
4,5,3,8
4,5,5,6
4,5,6,1
4,5,7,3
4,7,0,4
4,7,1,7
4,7,3,9
4,7,5,5
4,7,7,6
4,7,8,3
5,1,2,1
5,1,6,2
5,2,1,2
5,2,4,8
5,2,7,9
5,4,0,9
5,4,8,1
5,6,1,1
5,6,4,5
5,6,7,3
5,7,2,3
5,7,6,9
6,0,3,1
6,0,5,7
6,3,0,5
6,3,3,8
6,3,5,4
6,3,8,7
6,5,0,3
6,5,3,2
6,5,5,1
6,5,8,5
6,8,3,4
6,8,5,3
7,0,4,8
7,1,2,2
7,1,6,3
7,7,2,9
7,7,6,7
7,8,4,6
8,0,2,7
8,0,3,5
8,0,5,6
8,0,6,4
8,1,0,3
8,1,3,7
8,1,5,2
8,1,8,9
8,2,1,6
8,2,7,7
8,3,0,8
8,3,2,4
8,3,3,1
8,3,5,7
8,3,6,5
8,3,8,6
8,4,4,8
8,5,0,2
8,5,2,1
8,5,3,9
8,5,5,5
8,5,6,3
8,5,8,8
8,6,1,9
8,6,7,2
8,7,0,7
8,7,3,6
8,7,5,9
8,7,8,4
8,8,2,3
8,8,3,2
8,8,5,1
8,8,6,9
