0,0,1,4
0,0,7,2
0,1,4,8
0,3,2,4
0,3,4,6
0,3,6,1
0,4,0,3
0,4,4,2
0,4,8,6
0,5,2,9
0,5,4,3
0,5,6,7
0,7,4,9
0,8,1,2
0,8,7,1
1,0,1,2
1,0,4,9
1,0,7,1
1,1,2,1
1,1,6,6
1,3,2,3
1,3,6,4
1,4,3,3
1,4,5,4
1,5,2,2
1,5,6,9
1,7,2,9
1,7,6,1
1,8,1,1
1,8,4,2
1,8,7,9
2,0,0,3
2,0,8,6
2,1,0,6
2,1,4,3
2,1,8,2
2,2,3,9
2,2,5,8
2,3,1,6
2,3,3,1
2,3,5,3
2,3,7,7
2,4,1,2
2,4,2,7
2,4,6,3
2,4,7,1
2,5,1,3
2,5,3,7
2,5,5,2
2,5,7,8
2,6,3,6
2,6,5,4
2,7,0,1
2,7,4,7
2,7,8,8
2,8,0,8
2,8,8,7
3,1,2,8
3,1,6,1
3,2,2,9
3,2,6,8
3,4,4,9
3,6,2,3
3,6,6,9
3,7,2,7
3,7,6,3
4,0,1,8
4,0,2,4
4,0,3,5
4,0,5,2
4,0,6,7
4,0,7,9
4,2,3,8
4,2,5,6
4,3,4,1
4,4,3,6
4,4,5,5
4,5,4,4
4,6,3,4
4,6,5,8
4,8,1,3
4,8,2,2
4,8,3,7
4,8,5,1
4,8,6,6
4,8,7,8
5,1,2,5
5,1,6,2
5,2,2,6
5,2,6,9
5,4,4,3
5,6,2,8
5,6,6,1
5,7,2,4
5,7,6,8
6,0,0,1
6,0,8,8
6,1,0,8
6,1,4,1
6,1,8,7
6,2,3,6
6,2,5,9
6,3,1,8
6,3,3,4
6,3,5,1
6,3,7,5
6,4,1,7
6,4,2,4
6,4,6,1
6,4,7,9
6,5,1,1
6,5,3,9
6,5,5,7
6,5,7,4
6,6,3,8
6,6,5,6
6,7,0,4
6,7,4,5
6,7,8,9
6,8,0,5
6,8,8,4
7,0,1,6
7,0,4,5
7,0,7,7
7,1,2,7
7,1,6,3
7,3,2,2
7,3,6,9
7,4,3,2
7,4,5,9
7,5,2,6
7,5,6,5
7,7,2,5
7,7,6,7
7,8,1,7
7,8,4,6
7,8,7,5
8,0,1,7
8,0,7,4
8,1,4,2
8,3,2,1
8,3,4,9
8,3,6,6
8,4,0,9
8,4,4,4
8,4,8,5
8,5,2,7
8,5,4,5
8,5,6,3
8,7,4,8
8,8,1,4
8,8,7,6
