0,1,2,7
0,1,6,9
0,2,3,4
0,2,5,1
0,3,3,8
0,3,5,2
0,4,3,3
0,4,5,9
0,5,3,1
0,5,5,7
0,6,3,9
0,6,5,4
0,7,2,8
0,7,6,1
1,1,1,1
1,1,7,2
1,2,4,6
1,6,4,2
1,7,1,6
1,7,7,3
2,0,1,7
2,0,7,4
2,1,1,2
2,1,7,5
2,3,0,8
2,3,8,5
2,5,0,1
2,5,8,4
2,7,1,3
2,7,7,9
2,8,1,1
2,8,7,7
3,0,2,1
3,0,6,3
3,1,2,8
3,1,4,3
3,1,6,1
3,2,4,1
3,3,3,6
3,3,5,8
3,4,4,9
3,5,3,2
3,5,5,1
3,6,4,7
3,7,2,7
3,7,4,2
3,7,6,6
3,8,2,2
3,8,6,7
4,0,1,8
4,0,2,2
4,0,4,6
4,0,6,7
4,0,7,9
4,1,1,3
4,1,7,4
4,4,0,7
4,4,8,5
4,7,1,2
4,7,7,8
4,8,1,6
4,8,2,5
4,8,4,9
4,8,6,4
4,8,7,3
5,0,2,5
5,0,6,4
5,1,2,9
5,1,4,4
5,1,6,5
5,2,4,5
5,3,3,1
5,3,5,4
5,4,4,6
5,5,3,3
5,5,5,9
5,6,4,1
5,7,2,1
5,7,4,8
5,7,6,3
5,8,2,8
5,8,6,1
6,0,1,1
6,0,7,2
6,1,1,8
6,1,7,9
6,3,0,5
6,3,8,9
6,5,0,4
6,5,8,2
6,7,1,4
6,7,7,1
6,8,1,5
6,8,7,8
7,1,1,6
7,1,7,8
7,2,4,7
7,6,4,3
7,7,1,7
7,7,7,4
8,1,2,1
8,1,6,3
8,2,3,2
8,2,5,6
8,3,3,5
8,3,5,1
8,4,3,6
8,4,5,8
8,5,3,4
8,5,5,3
8,6,3,1
8,6,5,2
8,7,2,6
8,7,6,5
