0,0,3,9
0,0,5,4
0,3,1,6
0,3,7,9
0,5,1,9
0,5,7,1
0,8,3,5
0,8,5,9
1,0,1,4
1,0,4,6
1,0,7,8
1,2,0,1
1,2,8,7
1,3,0,8
1,3,3,9
1,3,5,4
1,3,8,2
1,4,2,4
1,4,6,1
1,5,0,6
1,5,3,3
1,5,5,1
1,5,8,4
1,6,0,7
1,6,8,5
1,8,1,9
1,8,4,2
1,8,7,1
2,0,3,1
2,0,5,8
2,1,4,9
2,2,4,7
2,4,2,6
2,4,6,5
2,6,4,5
2,7,4,6
2,8,3,3
2,8,5,1
3,4,0,2
3,4,3,7
3,4,5,4
3,4,8,5
4,0,4,4
4,1,3,9
4,1,5,8
4,4,0,8
4,4,8,2
4,7,3,6
4,7,5,4
4,8,4,9
5,4,0,5
5,4,3,9
5,4,5,8
5,4,8,1
6,0,3,4
6,0,5,5
6,1,4,7
6,2,4,3
6,4,2,8
6,4,6,7
6,6,4,6
6,7,4,8
6,8,3,9
6,8,5,4
7,0,1,5
7,0,4,2
7,0,7,3
7,2,0,8
7,2,8,6
7,3,0,3
7,3,3,4
7,3,5,5
7,3,8,7
7,4,2,5
7,4,6,8
7,5,0,2
7,5,3,1
7,5,5,8
7,5,8,5
7,6,0,6
7,6,8,9
7,8,1,4
7,8,4,7
7,8,7,8
8,0,3,8
8,0,5,3
8,3,1,5
8,3,7,3
8,5,1,1
8,5,7,7
8,8,3,1
8,8,5,8
