0,0,3,6
0,0,4,4
0,0,5,3
0,1,1,4
0,1,7,2
0,4,0,4
0,4,4,6
0,4,8,8
0,7,1,7
0,7,7,3
0,8,3,9
0,8,4,3
0,8,5,6
1,0,3,9
1,0,5,2
1,2,2,4
1,2,6,9
1,3,2,6
1,3,4,7
1,3,6,2
1,4,0,8
1,4,3,2
1,4,4,4
1,4,5,1
1,4,8,6
1,5,2,1
1,5,4,3
1,5,6,8
1,6,2,5
1,6,6,4
1,8,3,1
1,8,5,5
2,1,2,5
2,1,4,9
2,1,6,4
2,4,1,5
2,4,4,8
2,4,7,2
2,7,2,2
2,7,4,6
2,7,6,7
3,1,0,5
3,1,8,7
3,3,2,1
3,3,6,8
3,5,2,2
3,5,6,7
3,7,0,1
3,7,8,4
4,0,4,3
4,1,3,6
4,1,5,9
4,3,1,6
4,3,4,2
4,3,7,1
4,4,0,9
4,4,3,5
4,4,4,1
4,4,5,3
4,4,8,7
4,5,1,1
4,5,4,6
4,5,7,2
4,7,3,8
4,7,5,2
4,8,4,9
5,1,0,7
5,1,8,1
5,3,2,9
5,3,6,6
5,5,2,4
5,5,6,1
5,7,0,4
5,7,8,7
6,1,2,9
6,1,4,4
6,1,6,5
6,4,1,9
6,4,4,3
6,4,7,7
6,7,2,7
6,7,4,2
6,7,6,6
7,0,3,4
7,0,5,7
7,2,2,5
7,2,6,4
7,3,2,2
7,3,4,6
7,3,6,7
7,4,0,3
7,4,3,7
7,4,4,5
7,4,5,8
7,4,8,2
7,5,2,8
7,5,4,1
7,5,6,3
7,6,2,9
7,6,6,5
7,8,3,8
7,8,5,9
8,0,3,2
8,0,4,5
8,0,5,1
8,1,1,5
8,1,7,7
8,4,0,5
8,4,4,2
8,4,8,3
8,7,1,6
8,7,7,1
8,8,3,4
8,8,4,1
8,8,5,2
