0,0,0,2
0,0,2,6
0,0,4,3
0,0,6,9
0,0,8,1
0,8,0,5
0,8,2,8
0,8,4,4
0,8,6,6
0,8,8,7
1,0,0,4
1,0,8,5
1,1,3,8
1,1,4,5
1,1,5,3
1,7,3,6
1,7,4,2
1,7,5,7
1,8,0,2
1,8,8,9
2,0,0,8
2,0,2,3
2,0,4,9
2,0,6,6
2,0,8,7
2,1,3,2
2,1,4,7
2,1,5,6
2,2,1,6
2,2,7,1
2,3,3,6
2,3,5,7
2,5,3,9
2,5,5,1
2,6,1,2
2,6,7,4
2,7,3,4
2,7,4,1
2,7,5,9
2,8,0,1
2,8,2,4
2,8,4,6
2,8,6,8
2,8,8,3
3,0,3,4
3,0,5,9
3,1,1,6
3,1,4,2
3,1,7,7
3,2,4,6
3,6,4,1
3,7,1,3
3,7,4,4
3,7,7,1
3,8,3,5
3,8,5,6
4,2,0,8
4,2,4,3
4,2,8,7
4,4,2,8
4,4,6,4
4,6,0,7
4,6,4,5
4,6,8,4
5,0,3,2
5,0,5,3
5,1,1,9
5,1,4,8
5,1,7,5
5,2,4,9
5,6,4,2
5,7,1,7
5,7,4,6
5,7,7,2
5,8,3,1
5,8,5,8
6,0,0,1
6,0,2,4
6,0,4,2
6,0,6,8
6,0,8,3
6,1,3,5
6,1,4,3
6,1,5,8
6,2,1,8
6,2,7,6
6,3,3,3
6,3,5,5
6,5,3,7
6,5,5,2
6,6,1,3
6,6,7,2
6,7,3,2
6,7,4,7
6,7,5,6
6,8,0,7
6,8,2,2
6,8,4,5
6,8,6,1
6,8,8,4
7,0,0,7
7,0,8,9
7,1,3,1
7,1,4,9
7,1,5,4
7,7,3,5
7,7,4,3
7,7,5,8
7,8,0,3
7,8,8,6
8,0,0,5
8,0,2,8
8,0,4,4
8,0,6,2
8,0,8,6
8,8,0,9
8,8,2,1
8,8,4,2
8,8,6,5
8,8,8,8
