0,1,0,1
0,1,8,3
0,2,1,4
0,2,7,6
0,4,1,1
0,4,7,5
0,6,1,6
0,6,7,8
0,7,0,4
0,7,8,9
1,2,0,9
1,2,2,3
1,2,6,7
1,2,8,5
1,4,2,2
1,4,6,4
1,6,0,7
1,6,2,4
1,6,6,3
1,6,8,2
2,0,4,7
2,1,3,4
2,1,5,1
2,2,2,5
2,2,4,6
2,2,6,3
2,6,2,2
2,6,4,3
2,6,6,5
2,7,3,2
2,7,5,9
2,8,4,8
3,0,3,3
3,0,5,7
3,3,2,2
3,3,4,3
3,3,6,4
3,4,0,3
3,4,2,6
3,4,4,1
3,4,6,9
3,4,8,8
3,5,2,7
3,5,4,8
3,5,6,5
3,8,3,5
3,8,5,8
4,0,2,9
4,0,6,8
4,2,1,8
4,2,7,9
4,6,1,5
4,6,7,7
4,8,2,2
4,8,6,5
5,0,3,6
5,0,5,9
5,3,2,9
5,3,4,6
5,3,6,3
5,4,0,2
5,4,2,5
5,4,4,7
5,4,6,1
5,4,8,6
5,5,2,4
5,5,4,2
5,5,6,8
5,8,3,1
5,8,5,2
6,0,4,3
6,1,3,2
6,1,5,4
6,2,2,7
6,2,4,8
6,2,6,4
6,6,2,8
6,6,4,4
6,6,6,6
6,7,3,1
6,7,5,2
6,8,4,5
7,2,0,4
7,2,2,8
7,2,6,6
7,2,8,9
7,4,2,7
7,4,6,5
7,6,0,6
7,6,2,5
7,6,6,8
7,6,8,7
8,1,0,2
8,1,8,6
8,2,1,3
8,2,7,5
8,4,1,2
8,4,7,1
8,6,1,4
8,6,7,2
8,7,0,8
8,7,8,1
