0,0,1,2
0,0,7,3
0,1,2,6
0,1,6,2
0,2,3,5
0,2,5,2
0,4,0,6
0,4,2,4
0,4,4,8
0,4,6,3
0,4,8,1
0,6,3,1
0,6,5,6
0,7,2,1
0,7,6,9
0,8,1,4
0,8,7,1
1,1,4,2
1,2,0,2
1,2,8,1
1,3,1,8
1,3,7,1
1,4,2,3
1,4,4,4
1,4,6,8
1,5,1,2
1,5,7,3
1,6,0,6
1,6,8,9
1,7,4,9
2,0,1,7
2,0,7,4
2,1,3,4
2,1,4,6
2,1,5,9
2,3,0,9
2,3,8,3
2,4,2,8
2,4,6,4
2,5,0,3
2,5,8,2
2,7,3,6
2,7,4,1
2,7,5,8
2,8,1,8
2,8,7,9
3,0,2,4
3,0,3,5
3,0,5,6
3,0,6,8
3,3,0,4
3,3,2,9
3,3,6,1
3,3,8,6
3,5,0,6
3,5,2,8
3,5,6,3
3,5,8,9
3,8,2,5
3,8,3,6
3,8,5,4
3,8,6,9
4,0,0,2
4,0,8,9
4,1,0,8
4,1,1,7
4,1,3,6
4,1,5,4
4,1,7,3
4,1,8,2
4,2,3,3
4,2,5,9
4,6,3,8
4,6,5,1
4,7,0,6
4,7,1,9
4,7,3,5
4,7,5,2
4,7,7,7
4,7,8,1
4,8,0,4
4,8,8,6
5,0,2,8
5,0,3,9
5,0,5,2
5,0,6,3
5,3,0,8
5,3,2,1
5,3,6,5
5,3,8,2
5,5,0,2
5,5,2,3
5,5,6,4
5,5,8,1
5,8,2,9
5,8,3,2
5,8,5,8
5,8,6,1
6,0,1,8
6,0,7,1
6,1,3,1
6,1,4,4
6,1,5,7
6,3,0,2
6,3,8,9
6,4,2,5
6,4,6,1
6,5,0,9
6,5,8,8
6,7,3,8
6,7,4,7
6,7,5,5
6,8,1,5
6,8,7,6
7,1,4,3
7,2,0,3
7,2,8,7
7,3,1,5
7,3,7,2
7,4,2,9
7,4,4,1
7,4,6,5
7,5,1,8
7,5,7,9
7,6,0,8
7,6,8,2
7,7,4,2
8,0,1,3
8,0,7,9
8,1,2,4
8,1,6,3
8,2,3,7
8,2,5,3
8,4,0,3
8,4,2,1
8,4,4,5
8,4,6,9
8,4,8,7
8,6,3,2
8,6,5,8
8,7,2,2
8,7,6,7
8,8,1,1
8,8,7,2
