0,0,1,4
0,0,3,1
0,0,4,2
0,0,5,5
0,0,7,3
0,1,2,3
0,1,3,7
0,1,5,4
0,1,6,9
0,2,4,9
0,4,1,8
0,4,7,6
0,6,4,4
0,7,2,2
0,7,3,9
0,7,5,3
0,7,6,5
0,8,1,9
0,8,3,2
0,8,4,5
0,8,5,1
0,8,7,7
2,0,4,3
2,1,1,8
2,1,7,6
2,3,0,1
2,3,8,7
2,5,0,4
2,5,8,6
2,7,1,1
2,7,7,8
2,8,4,7
3,0,0,2
3,0,1,9
3,0,7,7
3,0,8,1
3,2,4,8
3,3,1,7
3,3,7,5
3,4,2,9
3,4,6,6
3,5,1,8
3,5,7,1
3,6,4,7
3,8,0,9
3,8,1,6
3,8,7,8
3,8,8,4
4,1,4,4
4,2,2,2
4,2,6,9
4,3,4,7
4,4,1,4
4,4,3,1
4,4,5,9
4,4,7,3
4,5,4,8
4,6,2,6
4,6,6,2
4,7,4,3
5,0,0,3
5,0,1,5
5,0,7,9
5,0,8,8
5,2,4,6
5,3,1,9
5,3,7,7
5,4,2,5
5,4,6,1
5,5,1,6
5,5,7,8
5,6,4,9
5,8,0,5
5,8,1,1
5,8,7,6
5,8,8,2
6,0,4,6
6,1,1,5
6,1,7,9
6,3,0,7
6,3,8,3
6,5,0,6
6,5,8,9
6,7,1,7
6,7,7,5
6,8,4,4
8,0,1,6
8,0,3,9
8,0,4,8
8,0,5,3
8,0,7,1
8,1,2,8
8,1,3,2
8,1,5,1
8,1,6,3
8,2,4,4
8,4,1,7
8,4,7,5
8,6,4,1
8,7,2,1
8,7,3,4
8,7,5,6
8,7,6,2
8,8,1,2
8,8,3,8
8,8,4,3
8,8,5,9
8,8,7,4
