0,0,4,6
0,2,1,2
0,2,7,7
0,3,2,9
0,3,6,1
0,4,0,2
0,4,8,7
0,5,2,3
0,5,6,4
0,6,1,5
0,6,7,6
0,8,4,4
1,1,4,7
1,7,4,1
2,0,0,9
2,0,1,7
2,0,3,5
2,0,5,4
2,0,7,1
2,0,8,3
2,2,3,6
2,2,5,7
2,3,3,8
2,3,5,3
2,5,3,2
2,5,5,5
2,6,3,9
2,6,5,6
2,8,0,5
2,8,1,2
2,8,3,3
2,8,5,1
2,8,7,9
2,8,8,7
3,1,0,5
3,1,4,1
3,1,8,8
3,2,1,7
3,2,7,1
3,3,1,4
3,3,3,3
3,3,5,1
3,3,7,9
3,4,2,7
3,4,6,3
3,5,1,6
3,5,3,8
3,5,5,7
3,5,7,4
3,6,1,8
3,6,7,3
3,7,0,1
3,7,4,8
3,7,8,2
4,0,0,2
4,0,8,9
4,3,2,8
4,3,6,6
4,5,2,2
4,5,6,9
4,8,0,8
4,8,8,1
5,1,0,3
5,1,4,9
5,1,8,2
5,2,1,5
5,2,7,9
5,3,1,3
5,3,3,7
5,3,5,9
5,3,7,2
5,4,2,4
5,4,6,7
5,5,1,8
5,5,3,5
5,5,5,4
5,5,7,3
5,6,1,4
5,6,7,7
5,7,0,9
5,7,4,4
5,7,8,3
6,0,0,3
6,0,1,8
6,0,3,6
6,0,5,7
6,0,7,5
6,0,8,2
6,2,3,1
6,2,5,8
6,3,3,2
6,3,5,5
6,5,3,7
6,5,5,9
6,6,3,3
6,6,5,1
6,8,0,7
6,8,1,6
6,8,3,4
6,8,5,2
6,8,7,3
6,8,8,8
7,1,4,6
7,7,4,3
8,0,4,4
8,2,1,1
8,2,7,2
8,3,2,4
8,3,6,7
8,4,0,3
8,4,8,5
8,5,2,6
8,5,6,8
8,6,1,3
8,6,7,5
8,8,4,1
