0,0,4,8
0,1,2,6
0,1,6,4
0,2,4,3
0,3,0,6
0,3,1,9
0,3,3,2
0,3,5,7
0,3,7,4
0,3,8,3
0,4,4,4
0,5,0,7
0,5,1,4
0,5,3,6
0,5,5,8
0,5,7,5
0,5,8,9
0,6,4,7
0,7,2,4
0,7,6,7
0,8,4,2
1,1,2,3
1,1,4,1
1,1,6,2
1,4,0,8
1,4,8,4
1,7,2,2
1,7,4,3
1,7,6,9
2,2,1,1
2,2,2,4
2,2,6,7
2,2,7,2
2,3,4,3
2,4,1,3
2,4,3,7
2,4,5,6
2,4,7,1
2,5,4,9
2,6,1,4
2,6,2,3
2,6,6,2
2,6,7,5
3,0,1,8
3,0,2,6
3,0,6,4
3,0,7,5
3,3,1,6
3,3,7,1
3,5,1,9
3,5,7,8
3,8,1,2
3,8,2,5
3,8,6,8
3,8,7,3
4,0,0,9
4,0,8,7
4,3,0,4
4,3,8,2
4,5,0,6
4,5,8,5
4,8,0,1
4,8,8,9
5,0,1,2
5,0,2,5
5,0,6,8
5,0,7,3
5,3,1,5
5,3,7,9
5,5,1,7
5,5,7,2
5,8,1,4
5,8,2,3
5,8,6,2
5,8,7,6
6,2,1,2
6,2,2,6
6,2,6,8
6,2,7,3
6,3,4,1
6,4,1,9
6,4,3,4
6,4,5,7
6,4,7,8
6,5,4,8
6,6,1,6
6,6,2,7
6,6,6,3
6,6,7,9
7,1,2,1
7,1,4,8
7,1,6,3
7,4,0,5
7,4,8,6
7,7,2,3
7,7,4,9
7,7,6,8
8,0,4,5
8,1,2,7
8,1,6,6
8,2,4,7
8,3,0,1
8,3,1,2
8,3,3,3
8,3,5,4
8,3,7,6
8,3,8,7
8,4,4,6
8,5,0,8
8,5,1,6
8,5,3,7
8,5,5,5
8,5,7,1
8,5,8,4
8,6,4,8
8,7,2,6
8,7,6,4
8,8,4,3
