0,0,3,6
0,0,5,3
0,2,3,5
0,2,5,8
0,3,2,2
0,3,6,6
0,5,2,4
0,5,6,5
0,6,3,3
0,6,5,2
0,8,3,8
0,8,5,4
1,2,1,5
1,2,4,3
1,2,7,2
1,3,3,1
1,3,5,4
1,4,4,7
1,5,3,3
1,5,5,9
1,6,1,3
1,6,4,9
1,6,7,6
2,2,1,4
2,2,7,8
2,3,4,2
2,4,0,2
2,4,8,4
2,5,4,4
2,6,1,5
2,6,7,2
3,0,2,8
3,0,6,6
3,3,4,9
3,4,1,6
3,4,4,8
3,4,7,9
3,5,4,6
3,8,2,9
3,8,6,8
4,0,2,2
4,0,3,7
4,0,5,5
4,0,6,8
4,3,1,4
4,3,2,9
4,3,6,1
4,3,7,3
4,5,1,7
4,5,2,6
4,5,6,2
4,5,7,4
4,8,2,7
4,8,3,3
4,8,5,1
4,8,6,9
5,0,2,6
5,0,6,2
5,3,4,1
5,4,1,2
5,4,4,5
5,4,7,1
5,5,4,2
5,8,2,8
5,8,6,7
6,2,1,7
6,2,7,4
6,3,4,5
6,4,0,5
6,4,8,7
6,5,4,7
6,6,1,8
6,6,7,5
7,2,1,3
7,2,4,2
7,2,7,5
7,3,3,2
7,3,5,7
7,4,4,3
7,5,3,4
7,5,5,6
7,6,1,9
7,6,4,6
7,6,7,3
8,0,3,1
8,0,5,2
8,2,3,3
8,2,5,4
8,3,2,5
8,3,6,8
8,5,2,7
8,5,6,1
8,6,3,9
8,6,5,5
8,8,3,2
8,8,5,7
