0,0,4,1
0,1,2,5
0,1,6,6
0,2,0,6
0,2,8,5
0,3,1,9
0,3,7,5
0,4,1,4
0,4,2,7
0,4,6,8
0,4,7,9
0,5,1,5
0,5,7,4
0,6,0,5
0,6,8,8
0,7,2,8
0,7,6,5
0,8,4,6
1,0,2,1
1,0,6,5
1,2,1,2
1,2,2,3
1,2,6,4
1,2,7,6
1,6,1,4
1,6,2,7
1,6,6,1
1,6,7,9
1,8,2,6
1,8,6,3
2,0,0,3
2,0,8,6
2,1,1,9
2,1,7,5
2,2,0,8
2,2,2,7
2,2,3,1
2,2,5,6
2,2,6,3
2,2,8,2
2,3,3,5
2,3,5,3
2,4,1,2
2,4,2,8
2,4,6,4
2,4,7,6
2,5,3,4
2,5,5,8
2,6,0,6
2,6,2,9
2,6,3,2
2,6,5,4
2,6,6,7
2,6,8,5
2,7,1,3
2,7,7,1
2,8,0,2
2,8,8,4
3,0,4,4
3,1,1,4
3,1,2,3
3,1,6,7
3,1,7,9
3,2,0,7
3,2,8,8
3,3,1,2
3,3,7,6
3,4,0,8
3,4,4,2
3,4,8,9
3,5,1,7
3,5,7,2
3,6,0,9
3,6,8,6
3,7,1,1
3,7,2,6
3,7,6,9
3,7,7,8
3,8,4,1
4,0,1,3
4,0,2,6
4,0,6,9
4,0,7,1
4,1,3,9
4,1,5,6
4,2,0,9
4,2,1,8
4,2,7,3
4,2,8,6
4,6,0,1
4,6,1,6
4,6,7,7
4,6,8,9
4,7,3,1
4,7,5,9
4,8,1,2
4,8,2,9
4,8,6,1
4,8,7,6
5,0,4,6
5,1,1,2
5,1,2,9
5,1,6,3
5,1,7,6
5,2,0,3
5,2,8,9
5,3,1,3
5,3,7,1
5,4,0,9
5,4,4,3
5,4,8,6
5,5,1,8
5,5,7,3
5,6,0,7
5,6,8,3
5,7,1,9
5,7,2,3
5,7,6,6
5,7,7,5
5,8,4,5
6,0,0,6
6,0,8,5
6,1,1,8
6,1,7,3
6,2,0,2
6,2,2,5
6,2,3,7
6,2,5,9
6,2,6,6
6,2,8,4
6,3,3,1
6,3,5,7
6,4,1,9
6,4,2,6
6,4,6,1
6,4,7,5
6,5,3,3
6,5,5,6
6,6,0,4
6,6,2,3
6,6,3,5
6,6,5,8
6,6,6,9
6,6,8,1
6,7,1,2
6,7,7,6
6,8,0,9
6,8,8,3
7,0,2,7
7,0,6,3
7,2,1,9
7,2,2,6
7,2,6,8
7,2,7,5
7,6,1,1
7,6,2,5
7,6,6,6
7,6,7,8
7,8,2,4
7,8,6,2
8,0,4,7
8,1,2,1
8,1,6,5
8,2,0,4
8,2,8,3
8,3,1,1
8,3,7,8
8,4,1,8
8,4,2,5
8,4,6,6
8,4,7,3
8,5,1,3
8,5,7,1
8,6,0,8
8,6,8,7
8,7,2,7
8,7,6,1
8,8,4,9
