0,0,1,1
0,0,7,5
0,1,0,8
0,1,8,7
0,2,0,7
0,2,2,3
0,2,6,1
0,2,8,6
0,4,2,8
0,4,6,3
0,6,0,4
0,6,2,1
0,6,6,8
0,6,8,2
0,7,0,2
0,7,8,3
0,8,1,9
0,8,7,1
1,1,4,4
1,2,3,7
1,2,5,3
1,3,1,8
1,3,2,9
1,3,4,7
1,3,6,4
1,3,7,5
1,5,1,2
1,5,2,1
1,5,4,3
1,5,6,8
1,5,7,9
1,6,3,4
1,6,5,1
1,7,4,8
2,0,4,5
2,2,3,1
2,2,5,6
2,4,0,2
2,4,2,7
2,4,6,9
2,4,8,8
2,6,3,8
2,6,5,2
2,8,4,1
3,0,4,9
3,1,0,1
3,1,8,9
3,3,2,8
3,3,3,2
3,3,4,6
3,3,5,4
3,3,6,7
3,4,1,7
3,4,7,2
3,5,2,2
3,5,3,9
3,5,4,5
3,5,5,7
3,5,6,1
3,7,0,4
3,7,8,8
3,8,4,4
4,0,0,8
4,0,8,5
4,2,2,2
4,2,4,5
4,2,6,3
4,3,2,5
4,3,6,2
4,4,2,6
4,4,6,8
4,5,2,3
4,5,6,9
4,6,2,4
4,6,4,9
4,6,6,1
4,8,0,9
4,8,8,2
5,0,4,3
5,1,0,4
5,1,8,3
5,3,2,4
5,3,3,7
5,3,4,9
5,3,5,5
5,3,6,3
5,4,1,3
5,4,7,7
5,5,2,7
5,5,3,1
5,5,4,8
5,5,5,3
5,5,6,6
5,7,0,5
5,7,8,6
5,8,4,5
6,0,4,8
6,2,3,4
6,2,5,1
6,4,0,1
6,4,2,2
6,4,6,6
6,4,8,4
6,6,3,9
6,6,5,8
6,8,4,7
7,1,4,1
7,2,3,8
7,2,5,5
7,3,1,2
7,3,2,1
7,3,4,3
7,3,6,8
7,3,7,4
7,5,1,7
7,5,2,5
7,5,4,6
7,5,6,2
7,5,7,1
7,6,3,3
7,6,5,6
7,7,4,5
8,0,1,8
8,0,7,2
8,1,0,3
8,1,8,4
8,2,0,4
8,2,2,1
8,2,6,8
8,2,8,5
8,4,2,3
8,4,6,1
8,6,0,9
8,6,2,8
8,6,6,3
8,6,8,6
8,7,0,6
8,7,8,1
8,8,1,7
8,8,7,8
