0,1,3,9
0,1,5,6
0,4,0,2
0,4,2,4
0,4,6,9
0,4,8,8
0,7,3,7
0,7,5,4
1,0,3,1
1,0,5,2
1,1,4,4
1,2,0,2
1,2,1,1
1,2,7,3
1,2,8,8
1,4,0,5
1,4,2,6
1,4,6,1
1,4,8,2
1,6,0,8
1,6,1,5
1,6,7,6
1,6,8,4
1,7,4,3
1,8,3,4
1,8,5,6
2,0,4,6
2,3,0,1
2,3,1,4
2,3,7,8
2,3,8,9
2,5,0,6
2,5,1,5
2,5,7,1
2,5,8,4
2,8,4,5
3,0,2,5
3,0,3,6
3,0,5,4
3,0,6,1
3,2,0,1
3,2,8,4
3,3,0,4
3,3,4,6
3,3,8,3
3,5,0,5
3,5,4,8
3,5,8,2
3,6,0,7
3,6,8,1
3,8,2,1
3,8,3,7
3,8,5,8
3,8,6,2
4,0,3,5
4,0,5,7
4,3,1,5
4,3,7,9
4,5,1,9
4,5,7,4
4,8,3,1
4,8,5,4
5,0,2,6
5,0,3,3
5,0,5,1
5,0,6,7
5,2,0,7
5,2,8,1
5,3,0,6
5,3,4,3
5,3,8,4
5,5,0,8
5,5,4,2
5,5,8,5
5,6,0,5
5,6,8,7
5,8,2,7
5,8,3,5
5,8,5,2
5,8,6,4
6,0,4,4
6,3,0,5
6,3,1,7
6,3,7,4
6,3,8,2
6,5,0,9
6,5,1,3
6,5,7,5
6,5,8,7
6,8,4,2
7,0,3,9
7,0,5,6
7,1,4,2
7,2,0,6
7,2,1,9
7,2,7,1
7,2,8,5
7,4,0,3
7,4,2,9
7,4,6,5
7,4,8,6
7,6,0,9
7,6,1,2
7,6,7,5
7,6,8,3
7,7,4,1
7,8,3,3
7,8,5,5
8,1,3,3
8,1,5,4
8,4,0,6
8,4,2,7
8,4,6,2
8,4,8,4
8,7,3,8
8,7,5,3
