0,1,0,4
0,1,3,3
0,1,5,7
0,1,8,9
0,2,1,9
0,2,7,2
0,3,2,3
0,3,6,7
0,4,4,3
0,5,2,4
0,5,6,3
0,6,1,4
0,6,7,7
0,7,0,2
0,7,3,4
0,7,5,3
0,7,8,6
1,3,3,1
1,3,5,6
1,4,3,2
1,4,5,5
1,5,3,4
1,5,5,3
2,1,0,5
2,1,2,8
2,1,4,9
2,1,6,2
2,1,8,4
2,2,4,8
2,4,1,9
2,4,7,2
2,6,4,3
2,7,0,7
2,7,2,4
2,7,4,6
2,7,6,3
2,7,8,2
3,0,0,5
3,0,1,7
3,0,2,1
3,0,3,3
3,0,5,6
3,0,6,2
3,0,7,8
3,0,8,4
3,2,4,7
3,3,0,1
3,3,1,4
3,3,7,6
3,3,8,8
3,5,0,9
3,5,1,6
3,5,7,3
3,5,8,5
3,6,4,2
3,8,0,8
3,8,1,5
3,8,2,7
3,8,3,6
3,8,5,9
3,8,6,4
3,8,7,2
3,8,8,3
4,0,1,2
4,0,7,1
4,2,0,6
4,2,3,9
4,2,5,3
4,2,8,7
4,3,0,3
4,3,8,1
4,5,0,4
4,5,8,9
4,6,0,7
4,6,3,5
4,6,5,8
4,6,8,2
4,8,1,9
4,8,7,6
5,0,0,4
5,0,1,6
5,0,2,8
5,0,3,1
5,0,5,2
5,0,6,7
5,0,7,3
5,0,8,9
5,2,4,6
5,3,0,8
5,3,1,9
5,3,7,2
5,3,8,3
5,5,0,5
5,5,1,2
5,5,7,1
5,5,8,4
5,6,4,7
5,8,0,3
5,8,1,4
5,8,2,6
5,8,3,2
5,8,5,5
5,8,6,9
5,8,7,7
5,8,8,1
6,1,0,2
6,1,2,5
6,1,4,7
6,1,6,1
6,1,8,6
6,2,4,5
6,4,1,2
6,4,7,1
6,6,4,9
6,7,0,3
6,7,2,2
6,7,4,8
6,7,6,9
6,7,8,1
7,3,3,4
7,3,5,8
7,4,3,3
7,4,5,2
7,5,3,7
7,5,5,5
8,1,0,7
8,1,3,4
8,1,5,1
8,1,8,2
8,2,1,6
8,2,7,1
8,3,2,5
8,3,6,8
8,4,4,5
8,5,2,6
8,5,6,5
8,6,1,2
8,6,7,8
8,7,0,8
8,7,3,6
8,7,5,9
8,7,8,3
