0,0,3,7
0,0,5,1
0,3,3,9
0,3,5,7
0,4,0,4
0,4,8,3
0,5,3,5
0,5,5,8
0,8,3,2
0,8,5,5
1,0,0,7
1,0,8,4
1,1,1,8
1,1,7,9
1,2,1,5
1,2,2,9
1,2,6,2
1,2,7,1
1,3,0,9
1,3,8,1
1,4,0,1
1,4,3,7
1,4,5,3
1,4,8,5
1,5,0,5
1,5,8,9
1,6,1,7
1,6,2,4
1,6,6,9
1,6,7,3
1,7,1,9
1,7,7,5
1,8,0,2
1,8,8,8
2,4,3,4
2,4,5,5
3,0,3,6
3,0,5,2
3,1,2,8
3,1,6,3
3,4,1,4
3,4,7,5
3,7,2,6
3,7,6,5
3,8,3,9
3,8,5,4
4,1,0,3
4,1,1,1
4,1,7,4
4,1,8,9
4,3,0,1
4,3,2,3
4,3,6,4
4,3,8,6
4,4,4,4
4,5,0,9
4,5,2,4
4,5,6,8
4,5,8,5
4,7,0,5
4,7,1,4
4,7,7,7
4,7,8,8
5,0,3,4
5,0,5,7
5,1,2,9
5,1,6,2
5,4,1,1
5,4,7,4
5,7,2,8
5,7,6,3
5,8,3,6
5,8,5,1
6,4,3,5
6,4,5,1
7,0,0,2
7,0,8,8
7,1,1,5
7,1,7,3
7,2,1,9
7,2,2,3
7,2,6,1
7,2,7,6
7,3,0,3
7,3,8,5
7,4,0,5
7,4,3,9
7,4,5,6
7,4,8,4
7,5,0,4
7,5,8,3
7,6,1,4
7,6,2,8
7,6,6,3
7,6,7,5
7,7,1,3
7,7,7,2
7,8,0,1
7,8,8,6
8,0,3,5
8,0,5,8
8,3,3,2
8,3,5,5
8,4,0,9
8,4,8,1
8,5,3,6
8,5,5,3
8,8,3,4
8,8,5,6
