0,1,0,3
0,1,8,4
0,2,0,9
0,2,8,2
0,3,4,8
0,5,4,6
0,6,0,8
0,6,8,5
0,7,0,4
0,7,8,6
1,3,2,8
1,3,3,7
1,3,5,6
1,3,6,9
1,5,2,6
1,5,3,5
1,5,5,4
1,5,6,3
2,0,4,2
2,3,4,5
2,4,4,7
2,5,4,3
2,8,4,6
3,0,4,4
3,2,1,9
3,2,2,4
3,2,6,3
3,2,7,1
3,3,0,4
3,3,1,5
3,3,7,8
3,3,8,3
3,4,1,8
3,4,7,7
3,5,0,6
3,5,1,7
3,5,7,4
3,5,8,5
3,6,1,6
3,6,2,7
3,6,6,5
3,6,7,9
3,8,4,5
4,0,4,8
4,1,1,4
4,1,7,8
4,2,2,3
4,2,6,2
4,3,1,3
4,3,7,2
4,4,0,7
4,4,8,9
4,5,1,9
4,5,7,3
4,6,2,9
4,6,6,3
4,7,1,1
4,7,7,7
4,8,4,1
5,0,4,7
5,2,1,7
5,2,2,2
5,2,6,9
5,2,7,4
5,3,0,2
5,3,1,6
5,3,7,9
5,3,8,4
5,4,1,4
5,4,7,1
5,5,0,3
5,5,1,1
5,5,7,6
5,5,8,7
5,6,1,8
5,6,2,3
5,6,6,7
5,6,7,2
5,8,4,2
6,0,4,1
6,3,4,6
6,4,4,8
6,5,4,4
6,8,4,3
7,3,2,5
7,3,3,8
7,3,5,1
7,3,6,6
7,5,2,1
7,5,3,6
7,5,5,2
7,5,6,5
8,1,0,5
8,1,8,7
8,2,0,2
8,2,8,1
8,3,4,9
8,5,4,1
8,6,0,9
8,6,8,2
8,7,0,6
8,7,8,3
