0,0,4,4
0,4,0,9
0,4,1,7
0,4,7,4
0,4,8,2
0,8,4,2
1,1,1,2
1,1,7,9
1,2,0,7
1,2,8,8
1,3,0,4
1,3,3,2
1,3,5,9
1,3,8,7
1,4,1,3
1,4,7,5
1,5,0,8
1,5,3,6
1,5,5,1
1,5,8,4
1,6,0,5
1,6,8,3
1,7,1,6
1,7,7,8
2,0,2,1
2,0,6,8
2,2,0,8
2,2,4,7
2,2,8,9
2,3,0,7
2,3,1,8
2,3,2,9
2,3,6,4
2,3,7,2
2,3,8,3
2,4,2,5
2,4,6,7
2,5,0,6
2,5,1,2
2,5,2,3
2,5,6,1
2,5,7,9
2,5,8,5
2,6,0,3
2,6,4,5
2,6,8,4
2,8,2,6
2,8,6,9
3,0,2,3
3,0,6,1
3,1,2,5
3,1,6,7
3,4,4,6
3,7,2,1
3,7,6,8
3,8,2,2
3,8,6,5
4,0,1,1
4,0,7,6
4,2,0,5
4,2,3,6
4,2,5,2
4,2,8,4
4,3,4,9
4,4,3,4
4,4,5,5
4,5,4,2
4,6,0,2
4,6,3,9
4,6,5,7
4,6,8,6
4,8,1,5
4,8,7,8
5,0,2,9
5,0,6,4
5,1,2,1
5,1,6,8
5,4,4,7
5,7,2,4
5,7,6,6
5,8,2,8
5,8,6,3
6,0,2,8
6,0,6,3
6,2,0,3
6,2,4,2
6,2,8,6
6,3,0,2
6,3,1,3
6,3,2,6
6,3,6,9
6,3,7,5
6,3,8,1
6,4,2,7
6,4,6,2
6,5,0,4
6,5,1,5
6,5,2,1
6,5,6,8
6,5,7,6
6,5,8,7
6,6,0,1
6,6,4,7
6,6,8,9
6,8,2,4
6,8,6,6
7,1,1,5
7,1,7,6
7,2,0,2
7,2,8,3
7,3,0,9
7,3,3,5
7,3,5,6
7,3,8,2
7,4,1,1
7,4,7,7
7,5,0,3
7,5,3,4
7,5,5,8
7,5,8,9
7,6,0,7
7,6,8,1
7,7,1,4
7,7,7,3
8,0,4,9
8,4,0,6
8,4,1,2
8,4,7,9
8,4,8,5
8,8,4,5
