0,0,4,1
0,2,0,1
0,2,1,3
0,2,2,6
0,2,6,5
0,2,7,2
0,2,8,8
0,4,0,6
0,4,3,9
0,4,5,7
0,4,8,2
0,6,0,3
0,6,1,6
0,6,2,1
0,6,6,2
0,6,7,8
0,6,8,5
0,8,4,8
1,1,1,6
1,1,2,1
1,1,3,7
1,1,4,9
1,1,5,4
1,1,6,2
1,1,7,8
1,2,2,5
1,2,3,1
1,2,5,6
1,2,6,4
1,4,2,8
1,4,4,1
1,4,6,9
1,6,2,2
1,6,3,3
1,6,5,1
1,6,6,7
1,7,1,7
1,7,2,9
1,7,3,8
1,7,4,5
1,7,5,2
1,7,6,1
1,7,7,3
2,0,0,6
2,0,8,2
2,1,2,2
2,1,6,7
2,3,2,5
2,3,4,3
2,3,6,4
2,4,4,8
2,5,2,1
2,5,4,9
2,5,6,2
2,7,2,6
2,7,6,5
2,8,0,5
2,8,8,7
3,0,1,5
3,0,4,6
3,0,7,9
3,1,1,8
3,1,2,9
3,1,4,7
3,1,6,5
3,1,7,3
3,3,0,5
3,3,3,6
3,3,5,3
3,3,8,2
3,4,1,9
3,4,7,6
3,5,0,2
3,5,3,4
3,5,5,9
3,5,8,8
3,7,1,4
3,7,2,8
3,7,4,1
3,7,6,6
3,7,7,5
3,8,1,6
3,8,4,9
3,8,7,8
4,1,4,5
4,2,1,1
4,2,7,4
4,3,1,4
4,3,7,5
4,4,1,6
4,4,7,8
4,5,1,7
4,5,7,2
4,6,1,8
4,6,7,3
4,7,4,4
5,0,1,6
5,0,4,9
5,0,7,8
5,1,1,7
5,1,2,5
5,1,4,3
5,1,6,4
5,1,7,2
5,3,0,6
5,3,3,9
5,3,5,5
5,3,8,7
5,4,1,5
5,4,7,9
5,5,0,4
5,5,3,1
5,5,5,2
5,5,8,6
5,7,1,1
5,7,2,7
5,7,4,8
5,7,6,9
5,7,7,4
5,8,1,9
5,8,4,2
5,8,7,6
6,0,0,2
6,0,8,9
6,1,2,7
6,1,6,6
6,3,2,4
6,3,4,2
6,3,6,3
6,4,4,7
6,5,2,8
6,5,4,1
6,5,6,9
6,7,2,2
6,7,6,7
6,8,0,4
6,8,8,6
7,1,1,2
7,1,2,8
7,1,3,6
7,1,4,1
7,1,5,3
7,1,6,9
7,1,7,4
7,2,2,4
7,2,3,5
7,2,5,8
7,2,6,3
7,4,2,9
7,4,4,5
7,4,6,1
7,6,2,7
7,6,3,2
7,6,5,5
7,6,6,6
7,7,1,6
7,7,2,1
7,7,3,7
7,7,4,9
7,7,5,4
7,7,6,2
7,7,7,8
8,0,4,5
8,2,0,8
8,2,1,5
8,2,2,2
8,2,6,7
8,2,7,9
8,2,8,4
8,4,0,2
8,4,3,1
8,4,5,6
8,4,8,9
8,6,0,5
8,6,1,2
8,6,2,8
8,6,6,9
8,6,7,4
8,6,8,7
8,8,4,7
