0,1,4,6
0,2,4,8
0,6,4,9
0,7,4,2
1,1,3,2
1,1,5,4
1,2,2,2
1,2,3,3
1,2,5,6
1,2,6,8
1,3,0,9
1,3,8,3
1,4,4,3
1,5,0,3
1,5,8,2
1,6,2,1
1,6,3,5
1,6,5,3
1,6,6,9
1,7,3,7
1,7,5,9
2,0,1,1
2,0,7,8
2,2,0,9
2,2,8,3
2,3,1,3
2,3,7,1
2,4,2,7
2,4,6,3
2,5,1,2
2,5,7,7
2,6,0,7
2,6,8,5
2,8,1,4
2,8,7,2
3,1,4,4
3,3,4,8
3,5,4,3
3,7,4,9
4,0,4,8
4,1,1,9
4,1,4,7
4,1,7,8
4,2,0,4
4,2,2,6
4,2,6,1
4,2,8,5
4,3,1,2
4,3,7,6
4,4,0,8
4,4,1,6
4,4,7,1
4,4,8,7
4,5,1,1
4,5,7,2
4,6,0,6
4,6,2,8
4,6,6,7
4,6,8,1
4,7,1,5
4,7,4,4
4,7,7,3
4,8,4,5
5,1,4,3
5,3,4,9
5,5,4,7
5,7,4,1
6,0,1,2
6,0,7,7
6,2,0,8
6,2,8,6
6,3,1,8
6,3,7,2
6,4,2,9
6,4,6,8
6,5,1,6
6,5,7,9
6,6,0,9
6,6,8,3
6,8,1,5
6,8,7,8
7,1,3,3
7,1,5,6
7,2,2,3
7,2,3,9
7,2,5,8
7,2,6,4
7,3,0,2
7,3,8,9
7,4,4,9
7,5,0,9
7,5,8,3
7,6,2,5
7,6,3,7
7,6,5,9
7,6,6,2
7,7,3,1
7,7,5,2
8,1,4,2
8,2,4,3
8,6,4,5
8,7,4,7
