0,0,3,8
0,0,5,9
0,1,4,5
0,2,4,1
0,6,4,9
0,7,4,3
0,8,3,1
0,8,5,6
1,0,1,4
1,0,7,3
1,1,1,5
1,1,4,8
1,1,7,4
1,3,4,2
1,4,0,3
1,4,1,2
1,4,3,4
1,4,5,8
1,4,7,1
1,4,8,7
1,5,4,3
1,7,1,3
1,7,4,7
1,7,7,6
1,8,1,7
1,8,7,8
2,0,4,3
2,2,2,5
2,2,6,6
2,4,0,7
2,4,8,5
2,6,2,7
2,6,6,4
2,8,4,8
3,0,0,9
3,0,2,3
3,0,4,5
3,0,6,1
3,0,8,4
3,1,1,4
3,1,2,5
3,1,3,7
3,1,5,8
3,1,6,3
3,1,7,9
3,2,0,8
3,2,8,7
3,3,4,9
3,4,1,3
3,4,3,5
3,4,4,6
3,4,5,4
3,4,7,7
3,5,4,8
3,6,0,5
3,6,8,9
3,7,1,8
3,7,2,7
3,7,3,9
3,7,5,3
3,7,6,4
3,7,7,5
3,8,0,3
3,8,2,4
3,8,4,7
3,8,6,2
3,8,8,8
4,0,2,2
4,0,6,7
4,2,0,5
4,2,8,9
4,3,3,2
4,3,5,8
4,5,3,4
4,5,5,6
4,6,0,4
4,6,8,1
4,8,2,8
4,8,6,6
5,0,0,4
5,0,2,6
5,0,4,8
5,0,6,9
5,0,8,3
5,1,1,1
5,1,2,8
5,1,3,3
5,1,5,4
5,1,6,6
5,1,7,7
5,2,0,7
5,2,8,1
5,3,4,4
5,4,1,6
5,4,3,8
5,4,4,2
5,4,5,1
5,4,7,3
5,5,4,7
5,6,0,8
5,6,8,4
5,7,1,4
5,7,2,3
5,7,3,7
5,7,5,6
5,7,6,1
5,7,7,8
5,8,0,6
5,8,2,5
5,8,4,1
5,8,6,3
5,8,8,7
6,0,4,9
6,2,2,7
6,2,6,4
6,4,0,1
6,4,8,4
6,6,2,3
6,6,6,1
6,8,4,6
7,0,1,9
7,0,7,4
7,1,1,3
7,1,4,4
7,1,7,6
7,3,4,6
7,4,0,4
7,4,1,5
7,4,3,9
7,4,5,7
7,4,7,2
7,4,8,6
7,5,4,2
7,7,1,7
7,7,4,9
7,7,7,1
7,8,1,6
7,8,7,7
8,0,3,3
8,0,5,5
8,1,4,6
8,2,4,8
8,6,4,5
8,7,4,1
8,8,3,8
8,8,5,9
