0,1,0,1
0,1,4,5
0,1,8,7
0,2,1,8
0,2,2,9
0,2,6,2
0,2,7,1
0,3,0,3
0,3,8,2
0,5,0,9
0,5,8,1
0,6,1,3
0,6,2,5
0,6,6,7
0,6,7,8
0,7,0,4
0,7,4,6
0,7,8,3
1,0,0,9
1,0,2,8
1,0,6,5
1,0,8,1
1,1,3,1
1,1,5,7
1,2,0,6
1,2,8,9
1,4,3,6
1,4,5,9
1,6,0,2
1,6,8,5
1,7,3,9
1,7,5,1
1,8,0,1
1,8,2,7
1,8,6,3
1,8,8,2
2,1,2,7
2,1,6,1
2,7,2,8
2,7,6,5
3,1,4,2
3,2,1,4
3,2,7,9
3,4,3,8
3,4,5,7
3,6,1,9
3,6,7,5
3,7,4,8
4,1,2,8
4,1,6,9
4,2,3,8
4,2,5,7
4,6,3,3
4,6,5,6
4,7,2,5
4,7,6,6
5,1,4,7
5,2,1,9
5,2,7,5
5,4,3,3
5,4,5,6
5,6,1,5
5,6,7,4
5,7,4,3
6,1,2,4
6,1,6,7
6,7,2,7
6,7,6,1
7,0,0,3
7,0,2,6
7,0,6,8
7,0,8,7
7,1,3,6
7,1,5,4
7,2,0,5
7,2,8,1
7,4,3,4
7,4,5,8
7,6,0,4
7,6,8,8
7,7,3,8
7,7,5,7
7,8,0,6
7,8,2,5
7,8,6,7
7,8,8,4
8,1,0,2
8,1,4,1
8,1,8,4
8,2,1,6
8,2,2,1
8,2,6,9
8,2,7,7
8,3,0,6
8,3,8,5
8,5,0,1
8,5,8,6
8,6,1,2
8,6,2,8
8,6,6,5
8,6,7,6
8,7,0,3
8,7,4,9
8,7,8,7
