0,0,0,3
0,0,1,2
0,0,7,5
0,0,8,9
0,1,0,8
0,1,3,3
0,1,5,7
0,1,8,4
0,2,4,5
0,3,1,9
0,3,7,4
0,4,1,4
0,4,4,9
0,4,7,7
0,5,1,7
0,5,7,9
0,6,4,1
0,7,0,7
0,7,3,4
0,7,5,6
0,7,8,5
0,8,0,9
0,8,1,1
0,8,7,3
0,8,8,6
1,0,2,6
1,0,4,8
1,0,6,7
1,1,3,4
1,1,4,1
1,1,5,6
1,2,0,9
1,2,1,8
1,2,4,3
1,2,7,1
1,2,8,6
1,3,4,6
1,4,0,3
1,4,8,4
1,5,4,5
1,6,0,5
1,6,1,9
1,6,4,7
1,6,7,4
1,6,8,3
1,7,3,5
1,7,4,9
1,7,5,1
1,8,2,8
1,8,4,4
1,8,6,5
2,2,1,7
2,2,3,6
2,2,5,1
2,2,7,9
2,6,1,2
2,6,3,3
2,6,5,4
2,6,7,5
3,1,1,9
3,1,7,3
3,2,1,3
3,2,4,9
3,2,7,6
3,3,1,7
3,3,3,6
3,3,5,2
3,3,7,8
3,5,1,4
3,5,3,1
3,5,5,3
3,5,7,7
3,6,1,1
3,6,4,5
3,6,7,2
3,7,1,2
3,7,7,5
4,0,1,7
4,0,7,1
4,2,2,2
4,2,4,1
4,2,6,9
4,4,2,6
4,4,6,7
4,6,2,4
4,6,4,8
4,6,6,5
4,8,1,8
4,8,7,6
5,1,1,2
5,1,7,5
5,2,1,5
5,2,4,2
5,2,7,8
5,3,1,6
5,3,3,3
5,3,5,8
5,3,7,9
5,5,1,1
5,5,3,5
5,5,5,7
5,5,7,6
5,6,1,7
5,6,4,4
5,6,7,3
5,7,1,3
5,7,7,4
6,2,1,2
6,2,3,1
6,2,5,4
6,2,7,5
6,6,1,8
6,6,3,4
6,6,5,6
6,6,7,1
7,0,2,2
7,0,4,1
7,0,6,9
7,1,3,7
7,1,4,3
7,1,5,2
7,2,0,4
7,2,1,1
7,2,4,8
7,2,7,3
7,2,8,2
7,3,4,2
7,4,0,8
7,4,8,7
7,5,4,6
7,6,0,6
7,6,1,4
7,6,4,9
7,6,7,7
7,6,8,8
7,7,3,6
7,7,4,4
7,7,5,3
7,8,2,1
7,8,4,7
7,8,6,6
8,0,0,6
8,0,1,4
8,0,7,7
8,0,8,3
8,1,0,2
8,1,3,6
8,1,5,1
8,1,8,8
8,2,4,7
8,3,1,1
8,3,7,3
8,4,1,3
8,4,4,1
8,4,7,8
8,5,1,8
8,5,7,1
8,6,4,2
8,7,0,3
8,7,3,1
8,7,5,9
8,7,8,7
8,8,0,8
8,8,1,2
8,8,7,5
8,8,8,9
