0,0,2,9
0,0,6,4
0,1,1,8
0,1,7,6
0,7,1,5
0,7,7,8
0,8,2,2
0,8,6,6
1,0,3,2
1,0,5,4
1,1,2,3
1,1,3,6
1,1,4,8
1,1,5,5
1,1,6,1
1,2,1,2
1,2,7,5
1,3,1,4
1,3,7,3
1,4,0,1
1,4,8,9
1,5,1,9
1,5,7,1
1,6,1,3
1,6,7,6
1,7,2,4
1,7,3,1
1,7,4,9
1,7,5,2
1,7,6,5
1,8,3,3
1,8,5,6
2,0,3,9
2,0,5,1
2,4,0,7
2,4,8,3
2,8,3,2
2,8,5,9
3,0,3,1
3,0,5,7
3,1,1,1
3,1,7,7
3,2,2,9
3,2,3,8
3,2,5,6
3,2,6,4
3,3,1,6
3,3,7,4
3,4,1,7
3,4,4,1
3,4,7,5
3,5,1,2
3,5,7,9
3,6,2,7
3,6,3,4
3,6,5,3
3,6,6,2
3,7,1,9
3,7,7,1
3,8,3,9
3,8,5,1
4,2,1,6
4,2,7,9
4,3,2,2
4,3,4,7
4,3,6,6
4,4,3,5
4,4,5,8
4,5,2,7
4,5,4,6
4,5,6,2
4,6,1,8
4,6,7,7
5,0,3,4
5,0,5,3
5,1,1,9
5,1,7,1
5,2,2,2
5,2,3,9
5,2,5,1
5,2,6,6
5,3,1,8
5,3,7,2
5,4,1,1
5,4,4,4
5,4,7,6
5,5,1,3
5,5,7,7
5,6,2,3
5,6,3,7
5,6,5,5
5,6,6,1
5,7,1,6
5,7,7,5
5,8,3,6
5,8,5,4
6,0,3,3
6,0,5,2
6,4,0,5
6,4,8,6
6,8,3,4
6,8,5,3
7,0,3,5
7,0,5,8
7,1,2,2
7,1,3,9
7,1,4,7
7,1,5,1
7,1,6,6
7,2,1,5
7,2,7,8
7,3,1,1
7,3,7,6
7,4,0,6
7,4,8,1
7,5,1,8
7,5,7,2
7,6,1,6
7,6,7,5
7,7,2,1
7,7,3,6
7,7,4,3
7,7,5,4
7,7,6,8
7,8,3,7
7,8,5,5
8,0,2,8
8,0,6,3
8,1,1,6
8,1,7,9
8,7,1,3
8,7,7,6
8,8,2,4
8,8,6,5
