0,1,2,4
0,1,6,1
0,2,1,5
0,2,7,2
0,3,1,2
0,3,7,9
0,5,1,4
0,5,7,6
0,6,1,7
0,6,7,8
0,7,2,6
0,7,6,9
1,0,1,4
1,0,4,8
1,0,7,6
1,1,1,2
1,1,3,4
1,1,5,1
1,1,7,9
1,2,4,3
1,3,0,5
1,3,8,6
1,5,0,8
1,5,8,1
1,6,4,4
1,7,1,9
1,7,3,6
1,7,5,3
1,7,7,5
1,8,1,8
1,8,4,5
1,8,7,3
2,2,3,1
2,2,5,6
2,6,3,2
2,6,5,5
3,1,0,9
3,1,8,3
3,2,2,7
3,2,3,6
3,2,5,9
3,2,6,4
3,4,4,1
3,6,2,5
3,6,3,7
3,6,5,4
3,6,6,3
3,7,0,6
3,7,8,7
4,0,4,5
4,1,2,1
4,1,6,5
4,2,0,2
4,2,1,9
4,2,7,6
4,2,8,8
4,3,0,9
4,3,3,2
4,3,5,5
4,3,8,3
4,4,0,1
4,4,8,2
4,5,0,5
4,5,3,3
4,5,5,1
4,5,8,6
4,6,0,8
4,6,1,4
4,6,7,7
4,6,8,1
4,7,2,9
4,7,6,2
4,8,4,9
5,1,0,3
5,1,8,4
5,2,2,6
5,2,3,5
5,2,5,3
5,2,6,9
5,4,4,2
5,6,2,7
5,6,3,6
5,6,5,9
5,6,6,4
5,7,0,5
5,7,8,6
6,2,3,9
6,2,5,8
6,6,3,3
6,6,5,1
7,0,1,5
7,0,4,3
7,0,7,2
7,1,1,4
7,1,3,6
7,1,5,9
7,1,7,5
7,2,4,5
7,3,0,1
7,3,8,2
7,5,0,4
7,5,8,3
7,6,4,7
7,7,1,7
7,7,3,1
7,7,5,6
7,7,7,8
7,8,1,9
7,8,4,2
7,8,7,7
8,1,2,5
8,1,6,9
8,2,1,2
8,2,7,4
8,3,1,9
8,3,7,7
8,5,1,7
8,5,7,8
8,6,1,8
8,6,7,9
8,7,2,1
8,7,6,6
