0,1,4,5
0,2,3,7
0,2,4,9
0,2,5,3
0,4,4,6
0,6,3,2
0,6,4,1
0,6,5,5
0,7,4,3
1,0,0,2
1,0,3,3
1,0,5,9
1,0,8,8
1,1,3,8
1,1,5,4
1,2,1,8
1,2,7,7
1,3,2,8
1,3,6,9
1,4,0,1
1,4,8,4
1,5,2,7
1,5,6,1
1,6,1,9
1,6,7,2
1,7,3,5
1,7,5,1
1,8,0,5
1,8,3,7
1,8,5,3
1,8,8,6
2,0,0,6
2,0,8,7
2,1,4,3
2,2,0,9
2,2,4,8
2,2,8,1
2,3,1,9
2,3,7,1
2,5,1,1
2,5,7,8
2,6,0,1
2,6,4,7
2,6,8,8
2,7,4,6
2,8,0,4
2,8,8,9
3,0,1,7
3,0,7,1
3,1,0,1
3,1,2,6
3,1,4,8
3,1,6,4
3,1,8,9
3,2,1,9
3,2,7,5
3,3,1,6
3,3,2,2
3,3,4,1
3,3,6,5
3,3,7,9
3,4,0,9
3,4,8,6
3,5,1,4
3,5,2,1
3,5,4,5
3,5,6,2
3,5,7,3
3,6,1,1
3,6,7,6
3,7,0,4
3,7,2,7
3,7,4,9
3,7,6,3
3,7,8,5
3,8,1,5
3,8,7,4
4,0,0,3
4,0,8,4
4,1,4,1
4,2,4,2
4,4,1,1
4,4,2,7
4,4,6,3
4,4,7,8
4,6,4,6
4,7,4,8
4,8,0,1
4,8,8,7
5,0,1,2
5,0,7,6
5,1,0,4
5,1,2,7
5,1,4,9
5,1,6,3
5,1,8,1
5,2,1,1
5,2,7,4
5,3,1,7
5,3,2,4
5,3,4,6
5,3,6,8
5,3,7,2
5,4,0,2
5,4,8,9
5,5,1,9
5,5,2,8
5,5,4,4
5,5,6,6
5,5,7,1
5,6,1,6
5,6,7,9
5,7,0,9
5,7,2,1
5,7,4,5
5,7,6,2
5,7,8,6
5,8,1,4
5,8,7,3
6,0,0,1
6,0,8,6
6,1,4,4
6,2,0,8
6,2,4,5
6,2,8,3
6,3,1,8
6,3,7,7
6,5,1,7
6,5,7,2
6,6,0,9
6,6,4,8
6,6,8,5
6,7,4,1
6,8,0,2
6,8,8,4
7,0,0,9
7,0,3,4
7,0,5,6
7,0,8,1
7,1,3,5
7,1,5,1
7,2,1,2
7,2,7,6
7,3,2,5
7,3,6,4
7,4,0,7
7,4,8,5
7,5,2,4
7,5,6,7
7,6,1,8
7,6,7,7
7,7,3,3
7,7,5,9
7,8,0,3
7,8,3,8
7,8,5,4
7,8,8,2
8,1,4,7
8,2,3,8
8,2,4,6
8,2,5,4
8,4,4,5
8,6,3,7
8,6,4,9
8,6,5,3
8,7,4,4
