0,0,2,2
0,0,6,8
0,3,0,4
0,3,2,9
0,3,4,3
0,3,6,6
0,3,8,7
0,5,0,1
0,5,2,8
0,5,4,6
0,5,6,9
0,5,8,5
0,8,2,7
0,8,6,3
1,1,1,5
1,1,7,6
1,4,1,8
1,4,3,6
1,4,5,7
1,4,7,5
1,7,1,7
1,7,7,1
2,1,3,9
2,1,5,5
2,2,0,3
2,2,1,8
2,2,7,5
2,2,8,9
2,3,0,8
2,3,8,4
2,4,0,9
2,4,8,2
2,5,0,6
2,5,8,3
2,6,0,7
2,6,1,6
2,6,7,3
2,6,8,8
2,7,3,6
2,7,5,7
3,0,1,4
3,0,4,9
3,0,7,5
3,2,0,2
3,2,8,1
3,6,0,4
3,6,8,6
3,8,1,3
3,8,4,8
3,8,7,1
4,0,1,8
4,0,7,3
4,1,1,3
4,1,7,1
4,2,4,3
4,4,2,3
4,4,6,6
4,6,4,6
4,7,1,6
4,7,7,2
4,8,1,7
4,8,7,6
5,0,1,2
5,0,4,6
5,0,7,7
5,2,0,8
5,2,8,4
5,6,0,6
5,6,8,1
5,8,1,9
5,8,4,5
5,8,7,4
6,1,3,7
6,1,5,2
6,2,0,5
6,2,1,9
6,2,7,2
6,2,8,7
6,3,0,9
6,3,8,2
6,4,0,6
6,4,8,3
6,5,0,8
6,5,8,4
6,6,0,1
6,6,1,3
6,6,7,4
6,6,8,5
6,7,3,1
6,7,5,8
7,1,1,4
7,1,7,7
7,4,1,3
7,4,3,7
7,4,5,2
7,4,7,4
7,7,1,2
7,7,7,8
8,0,2,9
8,0,6,7
8,3,0,3
8,3,2,1
8,3,4,2
8,3,6,4
8,3,8,9
8,5,0,7
8,5,2,2
8,5,4,4
8,5,6,3
8,5,8,1
8,8,2,5
8,8,6,6
