0,0,3,7
0,0,4,9
0,0,5,1
0,1,1,1
0,1,7,9
0,2,1,9
0,2,7,7
0,4,0,5
0,4,3,2
0,4,5,9
0,4,8,1
0,6,1,6
0,6,7,1
0,7,1,2
0,7,7,5
0,8,3,9
0,8,4,8
0,8,5,6
1,1,4,7
1,2,3,9
1,2,5,6
1,3,1,3
1,3,2,5
1,3,6,4
1,3,7,1
1,5,1,9
1,5,2,1
1,5,6,2
1,5,7,7
1,6,3,6
1,6,5,1
1,7,4,3
2,0,2,9
2,0,6,5
2,1,3,1
2,1,5,9
2,2,3,5
2,2,5,7
2,6,3,7
2,6,5,8
2,7,3,2
2,7,5,5
2,8,2,2
2,8,6,8
3,0,1,5
3,0,2,8
3,0,3,4
3,0,5,3
3,0,6,2
3,0,7,6
3,3,2,1
3,3,6,8
3,4,1,7
3,4,4,9
3,4,7,1
3,5,2,6
3,5,6,3
3,8,1,1
3,8,2,7
3,8,3,2
3,8,5,5
3,8,6,6
3,8,7,4
4,1,1,7
4,1,3,3
4,1,5,1
4,1,7,2
4,3,1,4
4,3,3,9
4,3,5,7
4,3,7,3
4,5,1,2
4,5,3,8
4,5,5,5
4,5,7,4
4,7,1,6
4,7,3,7
4,7,5,8
4,7,7,1
5,0,1,4
5,0,2,1
5,0,3,9
5,0,5,7
5,0,6,8
5,0,7,3
5,3,2,2
5,3,6,1
5,4,1,6
5,4,4,5
5,4,7,2
5,5,2,3
5,5,6,7
5,8,1,2
5,8,2,6
5,8,3,8
5,8,5,4
5,8,6,3
5,8,7,9
6,0,2,3
6,0,6,6
6,1,3,5
6,1,5,6
6,2,3,3
6,2,5,1
6,6,3,1
6,6,5,5
6,7,3,4
6,7,5,7
6,8,2,5
6,8,6,4
7,1,4,8
7,2,3,7
7,2,5,2
7,3,1,1
7,3,2,6
7,3,6,7
7,3,7,4
7,5,1,7
7,5,2,9
7,5,6,5
7,5,7,8
7,6,3,2
7,6,5,4
7,7,4,1
8,0,3,2
8,0,4,3
8,0,5,4
8,1,1,5
8,1,7,6
8,2,1,7
8,2,7,2
8,4,0,7
8,4,3,4
8,4,5,6
8,4,8,5
8,6,1,1
8,6,7,4
8,7,1,4
8,7,7,7
8,8,3,7
8,8,4,4
8,8,5,1
