0,0,1,2
0,0,7,4
0,3,1,5
0,3,7,1
0,4,0,3
0,4,8,8
0,5,1,1
0,5,7,2
0,8,1,6
0,8,7,9
1,1,3,6
1,1,5,1
1,2,4,2
1,4,2,5
1,4,3,9
1,4,5,6
1,4,6,7
1,6,4,5
1,7,3,3
1,7,5,9
2,1,4,5
2,2,2,8
2,2,3,3
2,2,5,9
2,2,6,4
2,6,2,7
2,6,3,2
2,6,5,3
2,6,6,1
2,7,4,7
3,0,1,8
3,0,7,2
3,1,1,5
3,1,7,8
3,2,3,5
3,2,4,8
3,2,5,2
3,4,1,3
3,4,7,7
3,6,3,8
3,6,4,7
3,6,5,5
3,7,1,2
3,7,7,5
3,8,1,1
3,8,7,6
4,2,1,2
4,2,2,4
4,2,6,7
4,2,7,5
4,6,1,4
4,6,2,1
4,6,6,5
4,6,7,8
5,0,1,1
5,0,7,7
5,1,1,4
5,1,7,1
5,2,3,4
5,2,4,1
5,2,5,7
5,4,1,8
5,4,7,6
5,6,3,1
5,6,4,6
5,6,5,4
5,7,1,7
5,7,7,4
5,8,1,3
5,8,7,2
6,1,4,8
6,2,2,6
6,2,3,7
6,2,5,3
6,2,6,1
6,6,2,5
6,6,3,9
6,6,5,6
6,6,6,7
6,7,4,4
7,1,3,9
7,1,5,6
7,2,4,4
7,4,2,3
7,4,3,1
7,4,5,9
7,4,6,4
7,6,4,1
7,7,3,6
7,7,5,8
8,0,1,9
8,0,7,1
8,3,1,3
8,3,7,6
8,4,0,6
8,4,8,2
8,5,1,2
8,5,7,4
8,8,1,5
8,8,7,8
