0,0,4,7
0,1,2,3
0,1,6,7
0,2,0,2
0,2,2,7
0,2,4,3
0,2,6,8
0,2,8,1
0,3,1,8
0,3,7,3
0,4,2,5
0,4,6,2
0,5,1,7
0,5,7,8
0,6,0,9
0,6,2,8
0,6,4,6
0,6,6,4
0,6,8,3
0,7,2,4
0,7,6,6
0,8,4,4
1,1,0,1
1,1,4,6
1,1,8,4
1,2,2,5
1,2,6,6
1,4,0,9
1,4,3,6
1,4,5,2
1,4,8,3
1,6,2,2
1,6,6,8
1,7,0,8
1,7,4,2
1,7,8,5
2,1,0,6
2,1,8,8
2,4,0,7
2,4,1,2
2,4,7,9
2,4,8,1
2,7,0,2
2,7,8,9
3,0,2,9
3,0,6,5
3,1,4,2
3,2,2,1
3,2,4,7
3,2,6,3
3,3,3,1
3,3,5,2
3,4,0,8
3,4,8,6
3,5,3,8
3,5,5,6
3,6,2,4
3,6,4,1
3,6,6,6
3,7,4,9
3,8,2,5
3,8,6,7
4,1,1,1
4,1,2,5
4,1,6,6
4,1,7,9
4,2,3,6
4,2,5,3
4,6,3,9
4,6,5,6
4,7,1,5
4,7,2,6
4,7,6,9
4,7,7,3
5,0,2,2
5,0,6,9
5,1,4,3
5,2,2,6
5,2,4,5
5,2,6,1
5,3,3,6
5,3,5,4
5,4,0,6
5,4,8,5
5,5,3,7
5,5,5,5
5,6,2,1
5,6,4,2
5,6,6,3
5,7,4,7
5,8,2,8
5,8,6,4
6,1,0,5
6,1,8,7
6,4,0,4
6,4,1,5
6,4,7,7
6,4,8,2
6,7,0,3
6,7,8,6
7,1,0,8
7,1,4,7
7,1,8,5
7,2,2,3
7,2,6,7
7,4,0,1
7,4,3,7
7,4,5,6
7,4,8,4
7,6,2,6
7,6,6,9
7,7,0,9
7,7,4,6
7,7,8,3
8,0,4,8
8,1,2,6
8,1,6,1
8,2,0,1
8,2,2,9
8,2,4,6
8,2,6,5
8,2,8,4
8,3,1,3
8,3,7,2
8,4,2,7
8,4,6,9
8,5,1,1
8,5,7,5
8,6,0,4
8,6,2,3
8,6,4,9
8,6,6,2
8,6,8,7
8,7,2,2
8,7,6,8
8,8,4,2
