0,0,1,9
0,0,4,5
0,0,7,7
0,1,1,1
0,1,7,3
0,2,3,7
0,2,4,4
0,2,5,3
0,3,0,2
0,3,1,8
0,3,7,1
0,3,8,9
0,4,0,9
0,4,4,2
0,4,8,8
0,5,0,1
0,5,1,7
0,5,7,5
0,5,8,2
0,6,3,9
0,6,4,6
0,6,5,8
0,7,1,5
0,7,7,9
0,8,1,3
0,8,4,1
0,8,7,8
1,1,3,4
1,1,4,3
1,1,5,7
1,2,3,5
1,2,5,1
1,4,2,1
1,4,6,5
1,6,3,7
1,6,5,3
1,7,3,1
1,7,4,5
1,7,5,2
2,0,1,5
2,0,3,3
2,0,5,4
2,0,7,9
2,3,0,4
2,3,3,6
2,3,5,9
2,3,8,5
2,4,1,2
2,4,7,6
2,5,0,3
2,5,3,1
2,5,5,2
2,5,8,4
2,8,1,8
2,8,3,4
2,8,5,7
2,8,7,1
3,0,0,4
3,0,1,3
3,0,3,6
3,0,5,5
3,0,7,1
3,0,8,7
3,1,0,7
3,1,8,3
3,2,2,2
3,2,6,8
3,3,4,6
3,4,1,9
3,4,2,6
3,4,4,5
3,4,6,3
3,4,7,7
3,5,4,3
3,6,2,4
3,6,6,1
3,7,0,6
3,7,8,9
3,8,0,9
3,8,1,2
3,8,3,5
3,8,5,3
3,8,7,6
3,8,8,8
4,0,1,1
4,0,2,5
4,0,4,3
4,0,6,6
4,0,7,8
4,1,0,9
4,1,8,1
4,4,0,3
4,4,8,2
4,7,0,4
4,7,8,5
4,8,1,6
4,8,2,8
4,8,4,2
4,8,6,9
4,8,7,4
5,0,0,6
5,0,1,8
5,0,3,2
5,0,5,9
5,0,7,3
5,0,8,5
5,1,0,5
5,1,8,8
5,2,2,4
5,2,6,1
5,3,4,2
5,4,1,7
5,4,2,2
5,4,4,9
5,4,6,8
5,4,7,5
5,5,4,8
5,6,2,6
5,6,6,3
5,7,0,2
5,7,8,7
5,8,0,7
5,8,1,4
5,8,3,9
5,8,5,8
5,8,7,2
5,8,8,1
6,0,1,2
6,0,3,7
6,0,5,1
6,0,7,6
6,3,0,8
6,3,3,3
6,3,5,6
6,3,8,2
6,4,1,3
6,4,7,8
6,5,0,9
6,5,3,5
6,5,5,8
6,5,8,3
6,8,1,5
6,8,3,1
6,8,5,4
6,8,7,9
7,1,3,1
7,1,4,9
7,1,5,6
7,2,3,4
7,2,5,7
7,4,2,9
7,4,6,4
7,6,3,6
7,6,5,9
7,7,3,7
7,7,4,4
7,7,5,8
8,0,1,4
8,0,4,6
8,0,7,2
8,1,1,5
8,1,7,9
8,2,3,2
8,2,4,1
8,2,5,5
8,3,0,3
8,3,1,9
8,3,7,7
8,3,8,4
8,4,0,4
8,4,4,8
8,4,8,5
8,5,0,5
8,5,1,2
8,5,7,6
8,5,8,1
8,6,3,4
8,6,4,3
8,6,5,7
8,7,1,6
8,7,7,4
8,8,1,7
8,8,4,9
8,8,7,5
