0,0,2,3
0,0,4,8
0,0,6,1
0,1,0,5
0,1,1,2
0,1,7,4
0,1,8,7
0,2,4,1
0,3,4,9
0,4,0,7
0,4,8,1
0,5,4,5
0,6,4,2
0,7,0,8
0,7,1,4
0,7,7,3
0,7,8,9
0,8,2,2
0,8,4,6
0,8,6,7
1,0,1,9
1,0,4,2
1,0,7,3
1,1,3,5
1,1,5,8
1,2,1,5
1,2,7,8
1,3,4,3
1,5,4,8
1,6,1,3
1,6,7,7
1,7,3,3
1,7,5,2
1,8,1,8
1,8,4,5
1,8,7,2
2,0,1,1
2,0,7,7
2,3,3,4
2,3,4,2
2,3,5,8
2,4,0,1
2,4,2,6
2,4,6,2
2,4,8,9
2,5,3,9
2,5,4,6
2,5,5,1
2,8,1,7
2,8,7,5
3,0,0,1
3,0,2,8
3,0,6,9
3,0,8,4
3,1,3,3
3,1,4,8
3,1,5,1
3,2,2,6
3,2,6,8
3,3,4,5
3,4,0,3
3,4,1,8
3,4,7,9
3,4,8,5
3,5,4,1
3,6,2,4
3,6,6,7
3,7,3,4
3,7,4,9
3,7,5,5
3,8,0,8
3,8,2,3
3,8,6,5
3,8,8,9
4,0,2,4
4,0,4,1
4,0,6,7
4,1,0,2
4,1,8,8
4,4,0,4
4,4,8,2
4,7,0,1
4,7,8,5
4,8,2,9
4,8,4,8
4,8,6,2
5,0,0,6
5,0,2,2
5,0,6,3
5,0,8,1
5,1,3,7
5,1,4,2
5,1,5,6
5,2,2,9
5,2,6,2
5,3,4,8
5,4,0,2
5,4,1,6
5,4,7,1
5,4,8,3
5,5,4,7
5,6,2,1
5,6,6,9
5,7,3,8
5,7,4,1
5,7,5,3
5,8,0,7
5,8,2,6
5,8,6,1
5,8,8,8
6,0,1,4
6,0,7,1
6,3,3,6
6,3,4,1
6,3,5,9
6,4,0,9
6,4,2,3
6,4,6,1
6,4,8,6
6,5,3,7
6,5,4,3
6,5,5,5
6,8,1,3
6,8,7,7
7,0,1,2
7,0,4,3
7,0,7,4
7,1,3,2
7,1,5,4
7,2,1,6
7,2,7,9
7,3,4,4
7,5,4,9
7,6,1,4
7,6,7,3
7,7,3,9
7,7,5,8
7,8,1,9
7,8,4,2
7,8,7,8
8,0,2,9
8,0,4,4
8,0,6,5
8,1,0,6
8,1,1,3
8,1,7,2
8,1,8,1
8,2,4,9
8,3,4,7
8,4,0,8
8,4,8,4
8,5,4,2
8,6,4,8
8,7,0,9
8,7,1,7
8,7,7,5
8,7,8,6
8,8,2,8
8,8,4,1
8,8,6,3
