0,0,4,5
0,4,1,2
0,4,3,5
0,4,5,4
0,4,7,6
0,8,4,4
1,0,4,3
1,1,1,8
1,1,7,9
1,2,3,5
1,2,4,8
1,2,5,4
1,4,2,1
1,4,4,2
1,4,6,8
1,6,3,7
1,6,4,1
1,6,5,6
1,7,1,3
1,7,7,1
1,8,4,9
2,0,2,5
2,0,4,7
2,0,6,9
2,1,0,2
2,1,3,8
2,1,5,5
2,1,8,1
2,2,1,7
2,2,4,2
2,2,7,4
2,3,0,7
2,3,2,6
2,3,6,4
2,3,8,8
2,4,1,5
2,4,7,2
2,5,0,9
2,5,2,2
2,5,6,7
2,5,8,6
2,6,1,2
2,6,4,8
2,6,7,6
2,7,0,1
2,7,3,9
2,7,5,2
2,7,8,4
2,8,2,4
2,8,4,6
2,8,6,2
3,1,2,1
3,1,6,3
3,2,0,8
3,2,8,6
3,4,2,5
3,4,6,9
3,6,0,9
3,6,8,4
3,7,2,6
3,7,6,2
4,2,2,5
4,2,6,9
4,6,2,7
4,6,6,5
5,1,2,8
5,1,6,1
5,2,0,9
5,2,8,4
5,4,2,7
5,4,6,5
5,6,0,1
5,6,8,2
5,7,2,4
5,7,6,6
6,0,2,8
6,0,4,1
6,0,6,3
6,1,0,9
6,1,3,4
6,1,5,8
6,1,8,6
6,2,1,1
6,2,4,9
6,2,7,5
6,3,0,1
6,3,2,7
6,3,6,5
6,3,8,4
6,4,1,8
6,4,7,9
6,5,0,3
6,5,2,9
6,5,6,1
6,5,8,7
6,6,1,9
6,6,4,4
6,6,7,7
6,7,0,6
6,7,3,3
6,7,5,9
6,7,8,5
6,8,2,5
6,8,4,7
6,8,6,9
7,0,4,8
7,1,1,6
7,1,7,8
7,2,3,1
7,2,4,6
7,2,5,7
7,4,2,3
7,4,4,4
7,4,6,6
7,6,3,2
7,6,4,9
7,6,5,3
7,7,1,5
7,7,7,2
7,8,4,5
8,0,4,2
8,4,1,1
8,4,3,2
8,4,5,3
8,4,7,5
8,8,4,3
