0,1,2,6
0,1,3,5
0,1,5,4
0,1,6,7
0,2,3,2
0,2,4,1
0,2,5,6
0,3,0,8
0,3,2,2
0,3,4,4
0,3,6,3
0,3,8,7
0,5,0,3
0,5,2,5
0,5,4,9
0,5,6,1
0,5,8,2
0,6,3,6
0,6,4,2
0,6,5,8
0,7,2,8
0,7,3,9
0,7,5,1
0,7,6,6
1,1,4,6
1,4,3,9
1,4,5,8
1,7,4,3
2,1,0,4
2,1,2,1
2,1,6,6
2,1,8,8
2,2,0,6
2,2,1,2
2,2,7,7
2,2,8,1
2,4,1,8
2,4,7,3
2,6,0,1
2,6,1,6
2,6,7,9
2,6,8,7
2,7,0,3
2,7,2,7
2,7,6,1
2,7,8,5
3,1,1,6
3,1,4,4
3,1,7,5
3,2,0,8
3,2,2,7
3,2,6,3
3,2,8,9
3,3,4,3
3,4,3,7
3,4,5,5
3,5,4,1
3,6,0,6
3,6,2,1
3,6,6,5
3,6,8,8
3,7,1,7
3,7,4,2
3,7,7,9
4,0,1,8
4,0,7,3
4,3,4,9
4,4,3,6
4,4,5,3
4,5,4,7
4,8,1,5
4,8,7,4
5,1,1,7
5,1,4,2
5,1,7,9
5,2,0,4
5,2,2,1
5,2,6,6
5,2,8,8
5,3,4,5
5,4,3,1
5,4,5,9
5,5,4,6
5,6,0,7
5,6,2,5
5,6,6,9
5,6,8,4
5,7,1,8
5,7,4,1
5,7,7,3
6,1,0,7
6,1,2,9
6,1,6,5
6,1,8,4
6,2,0,5
6,2,1,1
6,2,7,8
6,2,8,6
6,4,1,4
6,4,7,6
6,6,0,4
6,6,1,5
6,6,7,2
6,6,8,3
6,7,0,6
6,7,2,1
6,7,6,9
6,7,8,8
7,1,4,5
7,4,3,2
7,4,5,6
7,7,4,9
8,1,2,5
8,1,3,3
8,1,5,7
8,1,6,8
8,2,3,8
8,2,4,4
8,2,5,5
8,3,0,4
8,3,2,3
8,3,4,7
8,3,6,6
8,3,8,1
8,5,0,9
8,5,2,1
8,5,4,2
8,5,6,4
8,5,8,8
8,6,3,5
8,6,4,3
8,6,5,4
8,7,2,9
8,7,3,2
8,7,5,6
8,7,6,5
