0,0,1,3
0,0,4,5
0,0,7,6
0,1,1,4
0,1,4,7
0,1,7,3
0,2,3,6
0,2,5,4
0,3,2,3
0,3,6,8
0,5,2,2
0,5,6,7
0,6,3,5
0,6,5,1
0,7,1,6
0,7,4,8
0,7,7,5
0,8,1,8
0,8,4,4
0,8,7,7
1,2,1,1
1,2,2,4
1,2,6,5
1,2,7,2
1,4,0,3
1,4,8,4
1,6,1,2
1,6,2,8
1,6,6,1
1,6,7,9
2,0,4,8
2,8,4,1
3,0,0,1
3,0,3,5
3,0,5,7
3,0,8,4
3,1,1,5
3,1,7,8
3,4,4,7
3,7,1,2
3,7,7,9
3,8,0,3
3,8,3,7
3,8,5,9
3,8,8,2
4,0,3,6
4,0,5,4
4,1,3,8
4,1,4,3
4,1,5,1
4,2,2,1
4,2,3,9
4,2,4,7
4,2,5,5
4,2,6,2
4,3,3,7
4,3,4,5
4,3,5,9
4,4,1,7
4,4,2,5
4,4,3,2
4,4,5,6
4,4,6,3
4,4,7,1
4,5,3,3
4,5,4,1
4,5,5,8
4,6,2,6
4,6,3,1
4,6,4,8
4,6,5,3
4,6,6,9
4,7,3,5
4,7,4,9
4,7,5,7
4,8,3,4
4,8,5,2
5,0,0,6
5,0,3,3
5,0,5,8
5,0,8,7
5,1,1,1
5,1,7,6
5,4,4,8
5,7,1,9
5,7,7,3
5,8,0,4
5,8,3,8
5,8,5,1
5,8,8,9
6,0,4,3
6,8,4,8
7,2,1,8
7,2,2,9
7,2,6,4
7,2,7,6
7,4,0,1
7,4,8,9
7,6,1,6
7,6,2,3
7,6,6,8
7,6,7,5
8,0,1,1
8,0,4,4
8,0,7,7
8,1,1,9
8,1,4,2
8,1,7,1
8,2,3,7
8,2,5,9
8,3,2,1
8,3,6,3
8,5,2,6
8,5,6,2
8,6,3,4
8,6,5,8
8,7,1,7
8,7,4,3
8,7,7,4
8,8,1,3
8,8,4,9
8,8,7,2
