0,1,2,2
0,1,4,9
0,1,6,5
0,2,2,8
0,2,6,3
0,3,0,5
0,3,1,8
0,3,2,6
0,3,3,1
0,3,5,2
0,3,6,7
0,3,7,9
0,3,8,3
0,4,3,6
0,4,5,8
0,5,0,4
0,5,1,2
0,5,2,1
0,5,3,9
0,5,5,7
0,5,6,8
0,5,7,6
0,5,8,5
0,6,2,7
0,6,6,4
0,7,2,5
0,7,4,2
0,7,6,9
1,1,3,5
1,1,5,7
1,2,4,4
1,3,3,7
1,3,4,9
1,3,5,3
1,4,1,5
1,4,2,8
1,4,6,3
1,4,7,7
1,5,3,8
1,5,4,6
1,5,5,5
1,6,4,5
1,7,3,9
1,7,5,6
2,1,0,5
2,1,1,8
2,1,7,9
2,1,8,3
2,4,0,2
2,4,4,7
2,4,8,8
2,7,0,9
2,7,1,3
2,7,7,2
2,7,8,1
3,0,2,3
3,0,6,1
3,1,1,7
3,1,7,5
3,2,2,1
3,2,6,4
3,4,3,8
3,4,5,1
3,6,2,5
3,6,6,8
3,7,1,6
3,7,7,9
3,8,2,8
3,8,6,7
4,0,1,8
4,0,7,4
4,2,0,4
4,2,1,6
4,2,7,3
4,2,8,5
4,6,0,8
4,6,1,2
4,6,7,7
4,6,8,4
4,8,1,4
4,8,7,5
5,0,2,6
5,0,6,5
5,1,1,1
5,1,7,7
5,2,2,5
5,2,6,8
5,4,3,9
5,4,5,5
5,6,2,4
5,6,6,9
5,7,1,8
5,7,7,6
5,8,2,9
5,8,6,2
6,1,0,9
6,1,1,3
6,1,7,2
6,1,8,1
6,4,0,5
6,4,4,6
6,4,8,3
6,7,0,2
6,7,1,1
6,7,7,5
6,7,8,8
7,1,3,9
7,1,5,6
7,2,4,7
7,3,3,6
7,3,4,2
7,3,5,1
7,4,1,9
7,4,2,3
7,4,6,1
7,4,7,6
7,5,3,3
7,5,4,4
7,5,5,9
7,6,4,9
7,7,3,2
7,7,5,4
8,1,2,5
8,1,4,2
8,1,6,9
8,2,2,3
8,2,6,1
8,3,0,9
8,3,1,3
8,3,2,4
8,3,3,8
8,3,5,5
8,3,6,6
8,3,7,2
8,3,8,1
8,4,3,4
8,4,5,3
8,5,0,7
8,5,1,5
8,5,2,8
8,5,3,2
8,5,5,6
8,5,6,3
8,5,7,4
8,5,8,9
8,6,2,6
8,6,6,7
8,7,2,9
8,7,4,5
8,7,6,2
