0,0,1,6
0,0,7,1
0,4,2,1
0,4,4,3
0,4,6,8
0,8,1,8
0,8,7,4
1,0,1,9
1,0,4,1
1,0,7,6
1,1,0,7
1,1,8,5
1,2,3,4
1,2,5,2
1,3,2,2
1,3,3,3
1,3,5,9
1,3,6,6
1,5,2,6
1,5,3,1
1,5,5,5
1,5,6,7
1,6,3,7
1,6,5,8
1,7,0,8
1,7,8,2
1,8,1,6
1,8,4,9
1,8,7,8
2,0,3,3
2,0,5,9
2,1,4,2
2,7,4,3
2,8,3,4
2,8,5,7
3,1,0,6
3,1,1,5
3,1,7,7
3,1,8,9
3,4,1,8
3,4,7,4
3,7,0,1
3,7,1,6
3,7,7,8
3,7,8,7
4,2,3,2
4,2,5,8
4,3,0,2
4,3,3,9
4,3,5,7
4,3,8,5
4,4,4,8
4,5,0,6
4,5,3,5
4,5,5,2
4,5,8,4
4,6,3,8
4,6,5,4
5,1,0,9
5,1,1,8
5,1,7,4
5,1,8,3
5,4,1,2
5,4,7,8
5,7,0,2
5,7,1,5
5,7,7,6
5,7,8,9
6,0,3,6
6,0,5,3
6,1,4,4
6,7,4,2
6,8,3,8
6,8,5,4
7,0,1,5
7,0,4,8
7,0,7,7
7,1,0,2
7,1,8,4
7,2,3,9
7,2,5,6
7,3,2,6
7,3,3,1
7,3,5,5
7,3,6,7
7,5,2,7
7,5,3,8
7,5,5,4
7,5,6,2
7,6,3,2
7,6,5,3
7,7,0,3
7,7,8,6
7,8,1,7
7,8,4,5
7,8,7,3
8,0,1,8
8,0,7,4
8,4,2,5
8,4,4,4
8,4,6,9
8,8,1,4
8,8,7,7
