0,2,1,5
0,2,7,9
0,3,0,2
0,3,3,7
0,3,5,6
0,3,8,8
0,5,0,6
0,5,3,8
0,5,5,9
0,5,8,5
0,6,1,2
0,6,7,3
1,0,0,6
1,0,4,3
1,0,8,9
1,1,1,4
1,1,7,5
1,2,3,5
1,2,5,2
1,6,3,3
1,6,5,8
1,7,1,1
1,7,7,8
1,8,0,8
1,8,4,2
1,8,8,5
2,2,0,1
2,2,1,2
2,2,7,3
2,2,8,5
2,6,0,4
2,6,1,8
2,6,7,6
2,6,8,7
3,2,2,9
3,2,4,6
3,2,6,1
3,3,3,5
3,3,5,8
3,4,0,4
3,4,2,8
3,4,6,5
3,4,8,6
3,5,3,4
3,5,5,6
3,6,2,2
3,6,4,4
3,6,6,7
4,0,0,9
4,0,1,3
4,0,7,1
4,0,8,8
4,1,3,9
4,1,5,8
4,3,0,7
4,3,3,6
4,3,5,2
4,3,8,1
4,4,4,5
4,5,0,8
4,5,3,7
4,5,5,3
4,5,8,2
4,7,3,1
4,7,5,4
4,8,0,1
4,8,1,8
4,8,7,6
4,8,8,4
5,2,2,2
5,2,4,9
5,2,6,7
5,3,3,3
5,3,5,9
5,4,0,3
5,4,2,5
5,4,6,1
5,4,8,9
5,5,3,1
5,5,5,5
5,6,2,8
5,6,4,3
5,6,6,4
6,2,0,8
6,2,1,3
6,2,7,7
6,2,8,9
6,6,0,5
6,6,1,6
6,6,7,1
6,6,8,2
7,0,0,1
7,0,4,7
7,0,8,4
7,1,1,5
7,1,7,9
7,2,3,9
7,2,5,3
7,6,3,7
7,6,5,6
7,7,1,8
7,7,7,6
7,8,0,6
7,8,4,3
7,8,8,9
8,2,1,9
8,2,7,4
8,3,0,3
8,3,3,2
8,3,5,1
8,3,8,6
8,5,0,1
8,5,3,6
8,5,5,4
8,5,8,9
8,6,1,3
8,6,7,7
