0,0,3,8
0,0,5,6
0,3,1,4
0,3,7,1
0,4,0,5
0,4,2,8
0,4,4,1
0,4,6,3
0,4,8,7
0,5,1,1
0,5,7,6
0,8,3,4
0,8,5,3
1,1,0,6
1,1,3,3
1,1,5,7
1,1,8,8
1,2,1,4
1,2,4,6
1,2,7,1
1,4,0,1
1,4,2,7
1,4,6,6
1,4,8,5
1,6,1,5
1,6,4,7
1,6,7,3
1,7,0,9
1,7,3,6
1,7,5,4
1,7,8,7
2,2,4,9
2,3,2,1
2,3,6,8
2,5,2,2
2,5,6,7
2,6,4,4
3,0,4,6
3,1,4,7
3,7,4,8
3,8,4,3
4,0,3,7
4,0,5,5
4,1,2,8
4,1,3,2
4,1,4,1
4,1,5,4
4,1,6,3
4,2,0,5
4,2,1,2
4,2,2,3
4,2,6,1
4,2,7,4
4,2,8,7
4,4,1,5
4,4,7,1
4,6,0,7
4,6,1,3
4,6,2,5
4,6,6,4
4,6,7,6
4,6,8,1
4,7,2,4
4,7,3,3
4,7,4,5
4,7,5,6
4,7,6,9
4,8,3,1
4,8,5,7
5,0,4,4
5,1,4,9
5,7,4,7
5,8,4,2
6,2,4,4
6,3,2,8
6,3,6,3
6,5,2,6
6,5,6,2
6,6,4,5
7,1,0,7
7,1,3,1
7,1,5,2
7,1,8,3
7,2,1,5
7,2,4,7
7,2,7,8
7,4,0,8
7,4,2,2
7,4,6,7
7,4,8,9
7,6,1,9
7,6,4,2
7,6,7,1
7,7,0,4
7,7,3,7
7,7,5,5
7,7,8,2
8,0,3,3
8,0,5,7
8,3,1,5
8,3,7,8
8,4,0,9
8,4,2,3
8,4,4,8
8,4,6,1
8,4,8,2
8,5,1,8
8,5,7,7
8,8,3,5
8,8,5,1
