0,0,1,7
0,0,7,9
0,1,1,6
0,1,7,4
0,2,3,4
0,2,5,6
0,3,4,4
0,4,2,7
0,4,4,1
0,4,6,8
0,5,4,9
0,6,3,5
0,6,5,9
0,7,1,9
0,7,7,5
0,8,1,4
0,8,7,3
1,0,4,7
1,4,0,8
1,4,8,5
1,8,4,9
2,0,1,3
2,0,4,4
2,0,7,7
2,1,0,4
2,1,4,1
2,1,8,9
2,2,3,7
2,2,5,8
2,3,2,8
2,3,4,7
2,3,6,4
2,5,2,3
2,5,4,2
2,5,6,9
2,6,3,1
2,6,5,2
2,7,0,3
2,7,4,5
2,7,8,8
2,8,1,2
2,8,4,3
2,8,7,1
3,0,2,3
3,0,3,5
3,0,5,4
3,0,6,1
3,1,4,2
3,2,3,8
3,2,5,9
3,4,0,1
3,4,4,9
3,4,8,4
3,6,3,9
3,6,5,7
3,7,4,3
3,8,2,4
3,8,3,1
3,8,5,2
3,8,6,6
4,0,1,8
4,0,4,1
4,0,7,6
4,1,4,9
4,4,0,5
4,4,1,2
4,4,7,1
4,4,8,3
4,7,4,2
4,8,1,1
4,8,4,7
4,8,7,8
5,0,2,1
5,0,3,9
5,0,5,7
5,0,6,2
5,1,4,5
5,2,3,1
5,2,5,2
5,4,0,7
5,4,4,2
5,4,8,6
5,6,3,2
5,6,5,8
5,7,4,9
5,8,2,2
5,8,3,6
5,8,5,3
5,8,6,5
6,0,1,4
6,0,4,2
6,0,7,5
6,1,0,6
6,1,4,7
6,1,8,2
6,2,3,5
6,2,5,4
6,3,2,9
6,3,4,8
6,3,6,7
6,5,2,1
6,5,4,3
6,5,6,2
6,6,3,7
6,6,5,5
6,7,0,9
6,7,4,4
6,7,8,1
6,8,1,5
6,8,4,1
6,8,7,6
7,0,4,5
7,4,0,9
7,4,8,1
7,8,4,6
8,0,1,5
8,0,7,2
8,1,1,3
8,1,7,7
8,2,3,2
8,2,5,3
8,3,4,2
8,4,2,8
8,4,4,7
8,4,6,4
8,5,4,6
8,6,3,4
8,6,5,6
8,7,1,7
8,7,7,9
8,8,1,6
8,8,7,4
