0,3,0,8
0,3,4,2
0,3,8,6
0,5,0,3
0,5,4,4
0,5,8,7
1,2,0,8
1,2,1,7
1,2,7,3
1,2,8,6
1,4,0,9
1,4,8,3
1,6,0,7
1,6,1,9
1,6,7,6
1,6,8,4
2,0,3,1
2,0,4,5
2,0,5,2
2,1,0,4
2,1,1,1
2,1,7,2
2,1,8,8
2,2,1,3
2,2,7,9
2,3,4,3
2,4,0,5
2,4,1,2
2,4,3,4
2,4,5,6
2,4,7,7
2,4,8,9
2,5,4,1
2,6,1,5
2,6,7,1
2,7,0,8
2,7,1,7
2,7,7,3
2,7,8,6
2,8,3,7
2,8,4,9
2,8,5,3
3,0,2,1
3,0,6,8
3,1,1,6
3,1,3,4
3,1,5,2
3,1,7,7
3,3,0,3
3,3,2,6
3,3,6,5
3,3,8,7
3,5,0,1
3,5,2,4
3,5,6,6
3,5,8,9
3,7,1,1
3,7,3,3
3,7,5,5
3,7,7,6
3,8,2,9
3,8,6,7
4,0,0,6
4,0,2,9
4,0,6,7
4,0,8,1
4,1,3,1
4,1,5,6
4,3,1,5
4,3,7,2
4,5,1,6
4,5,7,7
4,7,3,2
4,7,5,8
4,8,0,8
4,8,2,5
4,8,6,4
4,8,8,2
5,0,2,5
5,0,6,4
5,1,1,2
5,1,3,7
5,1,5,3
5,1,7,8
5,3,0,4
5,3,2,2
5,3,6,9
5,3,8,8
5,5,0,5
5,5,2,7
5,5,6,2
5,5,8,3
5,7,1,5
5,7,3,6
5,7,5,9
5,7,7,2
5,8,2,1
5,8,6,8
6,0,3,6
6,0,4,4
6,0,5,8
6,1,0,8
6,1,1,7
6,1,7,3
6,1,8,6
6,2,1,6
6,2,7,8
6,3,4,5
6,4,0,4
6,4,1,1
6,4,3,3
6,4,5,9
6,4,7,2
6,4,8,8
6,5,4,6
6,6,1,4
6,6,7,5
6,7,0,5
6,7,1,2
6,7,7,7
6,7,8,9
6,8,3,2
6,8,4,1
6,8,5,5
7,2,0,5
7,2,1,2
7,2,7,7
7,2,8,9
7,4,0,3
7,4,8,7
7,6,0,2
7,6,1,3
7,6,7,9
7,6,8,1
8,3,0,5
8,3,4,8
8,3,8,9
8,5,0,6
8,5,4,3
8,5,8,2
