0,0,4,4
0,2,1,1
0,2,3,3
0,2,5,9
0,2,7,6
0,3,1,7
0,3,4,5
0,3,7,8
0,4,1,2
0,4,7,3
0,5,1,4
0,5,4,9
0,5,7,1
0,6,1,6
0,6,3,5
0,6,5,4
0,6,7,2
0,8,4,1
1,2,1,7
1,2,7,3
1,4,1,5
1,4,3,9
1,4,4,8
1,4,5,2
1,4,7,7
1,6,1,1
1,6,7,5
2,0,0,4
2,0,1,5
2,0,4,3
2,0,7,7
2,0,8,6
2,2,4,8
2,3,4,2
2,4,3,3
2,4,4,4
2,4,5,5
2,5,4,7
2,6,4,9
2,8,0,1
2,8,1,2
2,8,4,6
2,8,7,8
2,8,8,4
3,0,1,9
3,0,3,6
3,0,4,2
3,0,5,1
3,0,7,3
3,1,1,5
3,1,7,1
3,2,0,1
3,2,4,7
3,2,8,9
3,3,0,9
3,3,8,7
3,4,0,5
3,4,2,8
3,4,6,3
3,4,8,2
3,5,0,6
3,5,8,4
3,6,0,4
3,6,4,6
3,6,8,1
3,7,1,1
3,7,7,2
3,8,1,8
3,8,3,1
3,8,4,5
3,8,5,7
3,8,7,4
4,0,3,3
4,0,5,7
4,1,3,1
4,1,5,2
4,2,2,5
4,2,3,8
4,2,4,9
4,2,5,4
4,2,6,6
4,3,0,3
4,3,3,5
4,3,4,7
4,3,5,8
4,3,8,9
4,4,2,4
4,4,3,6
4,4,5,3
4,4,6,7
4,5,0,8
4,5,3,9
4,5,4,4
4,5,5,1
4,5,8,6
4,6,2,8
4,6,3,7
4,6,4,1
4,6,5,5
4,6,6,3
4,7,3,2
4,7,5,6
4,8,3,4
4,8,5,9
5,0,1,7
5,0,3,4
5,0,4,8
5,0,5,9
5,0,7,6
5,1,1,2
5,1,7,9
5,2,0,9
5,2,4,1
5,2,8,7
5,3,0,7
5,3,8,3
5,4,0,2
5,4,2,6
5,4,6,9
5,4,8,1
5,5,0,4
5,5,8,8
5,6,0,1
5,6,4,4
5,6,8,6
5,7,1,6
5,7,7,3
5,8,1,9
5,8,3,6
5,8,4,2
5,8,5,8
5,8,7,1
6,0,0,9
6,0,1,3
6,0,4,7
6,0,7,5
6,0,8,1
6,2,4,4
6,3,4,6
6,4,3,2
6,4,4,9
6,4,5,8
6,5,4,5
6,6,4,3
6,8,0,7
6,8,1,6
6,8,4,8
6,8,7,2
6,8,8,9
7,2,1,5
7,2,7,7
7,4,1,8
7,4,3,1
7,4,4,7
7,4,5,6
7,4,7,5
7,6,1,7
7,6,7,1
8,0,4,9
8,2,1,2
8,2,3,7
8,2,5,8
8,2,7,1
8,3,1,5
8,3,4,8
8,3,7,7
8,4,1,6
8,4,7,2
8,5,1,9
8,5,4,1
8,5,7,4
8,6,1,8
8,6,3,1
8,6,5,9
8,6,7,6
8,8,4,7
