0,0,0,2
0,0,4,5
0,0,8,3
0,8,0,9
0,8,4,6
0,8,8,1
1,0,0,1
1,0,8,7
1,3,1,2
1,3,3,7
1,3,5,5
1,3,7,8
1,4,0,3
1,4,3,4
1,4,5,2
1,4,8,6
1,5,1,5
1,5,3,3
1,5,5,1
1,5,7,4
1,8,0,8
1,8,8,5
2,0,4,8
2,2,0,3
2,2,8,6
2,3,1,1
2,3,2,3
2,3,3,9
2,3,5,4
2,3,6,7
2,3,7,6
2,4,2,6
2,4,6,4
2,5,1,4
2,5,2,9
2,5,3,6
2,5,5,7
2,5,6,8
2,5,7,1
2,6,0,4
2,6,8,8
2,8,4,3
3,0,0,4
3,0,1,9
3,0,7,3
3,0,8,2
3,1,3,3
3,1,5,9
3,3,2,7
3,3,6,8
3,5,2,2
3,5,6,1
3,7,3,5
3,7,5,2
3,8,0,1
3,8,1,4
3,8,7,5
3,8,8,3
4,0,1,8
4,0,7,7
4,1,2,7
4,1,6,8
4,2,0,9
4,2,2,4
4,2,6,3
4,2,8,5
4,6,0,7
4,6,2,3
4,6,6,9
4,6,8,4
4,7,2,1
4,7,6,5
4,8,1,5
4,8,7,1
5,0,0,3
5,0,1,7
5,0,7,9
5,0,8,8
5,1,3,6
5,1,5,7
5,3,2,8
5,3,6,6
5,5,2,1
5,5,6,5
5,7,3,4
5,7,5,3
5,8,0,6
5,8,1,3
5,8,7,4
5,8,8,9
6,0,4,2
6,2,0,2
6,2,8,3
6,3,1,9
6,3,2,2
6,3,3,5
6,3,5,6
6,3,6,1
6,3,7,3
6,4,2,8
6,4,6,6
6,5,1,6
6,5,2,5
6,5,3,1
6,5,5,8
6,5,6,9
6,5,7,2
6,6,0,6
6,6,8,9
6,8,4,9
7,0,0,9
7,0,8,1
7,3,1,7
7,3,3,8
7,3,5,3
7,3,7,9
7,4,0,2
7,4,3,6
7,4,5,7
7,4,8,3
7,5,1,1
7,5,3,9
7,5,5,4
7,5,7,6
7,8,0,4
7,8,8,8
8,0,0,7
8,0,4,3
8,0,8,4
8,8,0,5
8,8,4,1
8,8,8,2
