0,1,3,3
0,1,5,2
0,2,1,6
0,2,2,8
0,2,6,2
0,2,7,3
0,4,1,8
0,4,4,1
0,4,7,4
0,6,1,5
0,6,2,6
0,6,6,9
0,6,7,2
0,7,3,6
0,7,5,9
1,1,4,8
1,2,1,5
1,2,7,6
1,6,1,7
1,6,7,4
1,7,4,1
2,0,1,7
2,0,4,2
2,0,7,9
2,1,3,9
2,1,5,7
2,7,3,3
2,7,5,2
2,8,1,6
2,8,4,4
2,8,7,3
3,0,1,9
3,0,3,3
3,0,5,5
3,0,7,8
3,1,2,8
3,1,6,9
3,2,0,1
3,2,8,6
3,3,1,1
3,3,4,8
3,3,7,4
3,4,1,6
3,4,2,5
3,4,6,7
3,4,7,9
3,5,1,7
3,5,4,2
3,5,7,5
3,6,0,9
3,6,8,4
3,7,2,1
3,7,6,2
3,8,1,2
3,8,3,1
3,8,5,3
3,8,7,7
4,0,0,3
4,0,1,1
4,0,4,8
4,0,7,5
4,0,8,2
4,2,0,8
4,2,3,4
4,2,5,6
4,2,8,3
4,3,4,9
4,4,0,9
4,4,3,7
4,4,5,8
4,4,8,4
4,5,4,4
4,6,0,6
4,6,3,3
4,6,5,9
4,6,8,7
4,8,0,1
4,8,1,5
4,8,4,7
4,8,7,2
4,8,8,6
5,0,1,8
5,0,3,6
5,0,5,2
5,0,7,1
5,1,2,1
5,1,6,2
5,2,0,9
5,2,8,4
5,3,1,5
5,3,4,1
5,3,7,8
5,4,1,4
5,4,2,8
5,4,6,5
5,4,7,3
5,5,1,9
5,5,4,7
5,5,7,2
5,6,0,3
5,6,8,2
5,7,2,4
5,7,6,7
5,8,1,7
5,8,3,5
5,8,5,6
5,8,7,4
6,0,1,3
6,0,4,6
6,0,7,4
6,1,3,4
6,1,5,3
6,7,3,8
6,7,5,6
6,8,1,1
6,8,4,5
6,8,7,8
7,1,4,5
7,2,1,1
7,2,7,8
7,6,1,9
7,6,7,6
7,7,4,7
8,1,3,1
8,1,5,9
8,2,1,9
8,2,2,2
8,2,6,4
8,2,7,1
8,4,1,2
8,4,4,4
8,4,7,7
8,6,1,3
8,6,2,4
8,6,6,7
8,6,7,5
8,7,3,5
8,7,5,3
