0,0,0,3
0,0,2,6
0,0,6,8
0,0,8,2
0,1,2,8
0,1,6,5
0,2,0,9
0,2,2,5
0,2,6,6
0,2,8,4
0,3,0,1
0,3,8,6
0,5,0,2
0,5,8,7
0,6,0,8
0,6,2,2
0,6,6,1
0,6,8,9
0,7,2,1
0,7,6,7
0,8,0,6
0,8,2,7
0,8,6,2
0,8,8,5
1,1,0,6
1,1,4,1
1,1,8,7
1,3,1,2
1,3,7,9
1,5,1,5
1,5,7,4
1,7,0,2
1,7,4,3
1,7,8,4
2,0,1,8
2,0,4,3
2,0,7,1
2,1,3,8
2,1,5,2
2,3,1,3
2,3,4,1
2,3,7,8
2,5,1,9
2,5,4,2
2,5,7,6
2,7,3,1
2,7,5,9
2,8,1,2
2,8,4,6
2,8,7,9
3,0,4,7
3,1,0,8
3,1,3,5
3,1,5,1
3,1,8,4
3,3,4,5
3,5,4,1
3,7,0,1
3,7,3,7
3,7,5,3
3,7,8,5
3,8,4,8
4,0,0,7
4,0,8,6
4,1,1,1
4,1,7,2
4,2,0,3
4,2,8,5
4,3,3,2
4,3,4,8
4,3,5,4
4,4,3,1
4,4,5,9
4,5,3,5
4,5,4,6
4,5,5,3
4,6,0,4
4,6,8,2
4,7,1,3
4,7,7,9
4,8,0,8
4,8,8,7
5,0,4,6
5,1,0,4
5,1,3,2
5,1,5,7
5,1,8,9
5,3,4,9
5,5,4,4
5,7,0,5
5,7,3,9
5,7,5,4
5,7,8,6
5,8,4,7
6,0,1,6
6,0,4,9
6,0,7,2
6,1,3,6
6,1,5,4
6,3,1,9
6,3,4,2
6,3,7,6
6,5,1,4
6,5,4,5
6,5,7,7
6,7,3,2
6,7,5,5
6,8,1,7
6,8,4,4
6,8,7,5
7,1,0,3
7,1,4,5
7,1,8,2
7,3,1,8
7,3,7,1
7,5,1,6
7,5,7,2
7,7,0,8
7,7,4,7
7,7,8,9
8,0,0,8
8,0,2,2
8,0,6,1
8,0,8,9
8,1,2,1
8,1,6,4
8,2,0,6
8,2,2,4
8,2,6,2
8,2,8,7
8,3,0,3
8,3,8,2
8,5,0,9
8,5,8,5
8,6,0,1
8,6,2,9
8,6,6,3
8,6,8,6
8,7,2,3
8,7,6,5
8,8,0,2
8,8,2,5
8,8,6,9
8,8,8,4
