0,1,1,3
0,1,3,8
0,1,5,5
0,1,7,9
0,2,0,1
0,2,8,2
0,3,4,3
0,4,2,2
0,4,6,6
0,5,4,5
0,6,0,6
0,6,8,9
0,7,1,1
0,7,3,3
0,7,5,4
0,7,7,5
1,2,1,4
1,2,2,2
1,2,6,6
1,2,7,7
1,3,1,2
1,3,7,3
1,4,0,6
1,4,8,9
1,5,1,1
1,5,7,5
1,6,1,8
1,6,2,9
1,6,6,5
1,6,7,4
2,2,1,8
2,2,7,4
2,4,3,6
2,4,4,8
2,4,5,3
2,6,1,7
2,6,7,8
3,0,1,7
3,0,7,4
3,3,3,9
3,3,5,4
3,5,3,6
3,5,5,2
3,8,1,8
3,8,7,5
4,0,2,9
4,0,6,5
4,1,1,5
4,1,7,6
4,3,0,9
4,3,1,8
4,3,7,5
4,3,8,3
4,5,0,6
4,5,1,7
4,5,7,4
4,5,8,9
4,7,1,4
4,7,7,3
4,8,2,3
4,8,6,9
5,0,1,4
5,0,7,3
5,3,3,1
5,3,5,3
5,5,3,8
5,5,5,9
5,8,1,5
5,8,7,6
6,2,1,5
6,2,7,6
6,4,3,9
6,4,4,5
6,4,5,7
6,6,1,3
6,6,7,5
7,2,1,3
7,2,2,1
7,2,6,8
7,2,7,5
7,3,1,1
7,3,7,4
7,4,0,8
7,4,8,7
7,5,1,9
7,5,7,2
7,6,1,6
7,6,2,7
7,6,6,2
7,6,7,3
8,1,1,1
8,1,3,3
8,1,5,9
8,1,7,4
8,2,0,8
8,2,8,7
8,3,4,1
8,4,2,7
8,4,6,2
8,5,4,9
8,6,0,2
8,6,8,4
8,7,1,8
8,7,3,1
8,7,5,5
8,7,7,9
