0,1,1,1
0,1,7,8
0,2,4,5
0,3,1,4
0,3,3,8
0,3,5,5
0,3,7,2
0,5,1,5
0,5,3,2
0,5,5,3
0,5,7,6
0,6,4,2
0,7,1,3
0,7,7,1
1,0,0,3
1,0,8,6
1,1,1,8
1,1,4,1
1,1,7,3
1,3,4,2
1,4,1,3
1,4,3,9
1,4,5,7
1,4,7,1
1,5,4,5
1,7,1,1
1,7,4,3
1,7,7,8
1,8,0,4
1,8,8,1
2,0,2,6
2,0,6,8
2,2,4,9
2,3,3,1
2,3,5,9
2,5,3,7
2,5,5,8
2,6,4,7
2,8,2,1
2,8,6,4
3,1,1,2
3,1,3,1
3,1,4,7
3,1,5,9
3,1,7,4
3,2,0,9
3,2,1,1
3,2,7,8
3,2,8,2
3,6,0,7
3,6,1,9
3,6,7,5
3,6,8,3
3,7,1,4
3,7,3,3
3,7,4,2
3,7,5,5
3,7,7,7
5,1,1,4
5,1,3,8
5,1,4,2
5,1,5,6
5,1,7,7
5,2,0,6
5,2,1,8
5,2,7,3
5,2,8,4
5,6,0,2
5,6,1,6
5,6,7,9
5,6,8,1
5,7,1,7
5,7,3,1
5,7,4,4
5,7,5,9
5,7,7,2
6,0,2,7
6,0,6,5
6,2,4,4
6,3,3,5
6,3,5,4
6,5,3,3
6,5,5,9
6,6,4,3
6,8,2,9
6,8,6,3
7,0,0,5
7,0,8,7
7,1,1,6
7,1,4,5
7,1,7,9
7,3,4,1
7,4,1,5
7,4,3,4
7,4,5,3
7,4,7,6
7,5,4,2
7,7,1,9
7,7,4,6
7,7,7,5
7,8,0,1
7,8,8,6
8,1,1,9
8,1,7,5
8,2,4,2
8,3,1,1
8,3,3,9
8,3,5,2
8,3,7,8
8,5,1,2
8,5,3,1
8,5,5,6
8,5,7,7
8,6,4,1
8,7,1,5
8,7,7,6
