0,0,0,1
0,0,1,3
0,0,4,5
0,0,7,6
0,0,8,2
0,1,3,3
0,1,4,8
0,1,5,1
0,2,0,9
0,2,8,3
0,3,4,4
0,4,1,6
0,4,2,2
0,4,3,8
0,4,5,3
0,4,6,5
0,4,7,4
0,5,4,2
0,6,0,8
0,6,8,7
0,7,3,1
0,7,4,3
0,7,5,8
0,8,0,4
0,8,1,9
0,8,4,6
0,8,7,8
0,8,8,1
1,1,1,1
1,1,7,7
1,3,1,5
1,3,7,1
1,4,4,5
1,5,1,7
1,5,7,5
1,7,1,8
1,7,7,6
2,0,3,8
2,0,5,3
2,2,0,3
2,2,8,7
2,3,3,1
2,3,5,8
2,5,3,4
2,5,5,5
2,6,0,7
2,6,8,4
2,8,3,9
2,8,5,4
3,0,2,9
3,0,6,1
3,3,0,1
3,3,2,5
3,3,6,3
3,3,8,9
3,4,4,9
3,5,0,9
3,5,2,7
3,5,6,4
3,5,8,6
3,8,2,2
3,8,6,9
4,0,3,4
4,0,5,2
4,2,3,6
4,2,5,3
4,6,3,5
4,6,5,7
4,8,3,2
4,8,5,1
5,0,2,3
5,0,6,2
5,3,0,7
5,3,2,8
5,3,6,6
5,3,8,1
5,4,4,8
5,5,0,3
5,5,2,4
5,5,6,8
5,5,8,5
5,8,2,9
5,8,6,1
6,0,3,2
6,0,5,6
6,2,0,6
6,2,8,4
6,3,3,6
6,3,5,7
6,5,3,8
6,5,5,3
6,6,0,4
6,6,8,1
6,8,3,1
6,8,5,8
7,1,1,7
7,1,7,4
7,3,1,1
7,3,7,6
7,4,4,3
7,5,1,9
7,5,7,8
7,7,1,6
7,7,7,5
8,0,0,7
8,0,1,6
8,0,4,3
8,0,7,9
8,0,8,5
8,1,3,6
8,1,4,2
8,1,5,7
8,2,0,8
8,2,8,6
8,3,4,8
8,4,1,5
8,4,2,4
8,4,3,7
8,4,5,2
8,4,6,8
8,4,7,1
8,5,4,5
8,6,0,6
8,6,8,9
8,7,3,2
8,7,4,7
8,7,5,6
8,8,0,3
8,8,1,8
8,8,4,4
8,8,7,6
8,8,8,2
