0,0,0,4
0,0,1,5
0,0,2,9
0,0,6,8
0,0,7,1
0,0,8,3
0,1,3,5
0,1,5,4
0,4,1,6
0,4,2,7
0,4,4,8
0,4,6,4
0,4,7,5
0,7,3,6
0,7,5,2
0,8,0,1
0,8,1,3
0,8,2,8
0,8,6,2
0,8,7,6
0,8,8,7
1,2,2,8
1,2,6,6
1,3,0,4
1,3,8,3
1,5,0,7
1,5,8,5
1,6,2,3
1,6,6,7
2,0,0,8
2,0,8,7
2,3,0,6
2,3,3,8
2,3,5,3
2,3,8,4
2,5,0,1
2,5,3,4
2,5,5,9
2,5,8,6
2,8,0,2
2,8,8,5
3,1,1,5
3,1,4,1
3,1,7,6
3,2,4,2
3,6,4,6
3,7,1,2
3,7,4,4
3,7,7,1
4,2,2,1
4,2,4,8
4,2,6,3
4,3,0,1
4,3,2,4
4,3,3,7
4,3,5,8
4,3,6,9
4,3,8,6
4,4,2,3
4,4,6,8
4,5,0,9
4,5,2,7
4,5,3,3
4,5,5,4
4,5,6,2
4,5,8,1
4,6,2,8
4,6,4,3
4,6,6,1
5,1,1,1
5,1,4,6
5,1,7,9
5,2,4,9
5,6,4,5
5,7,1,5
5,7,4,1
5,7,7,2
6,0,0,3
6,0,8,6
6,3,0,2
6,3,3,3
6,3,5,1
6,3,8,9
6,5,0,8
6,5,3,9
6,5,5,5
6,5,8,2
6,8,0,7
6,8,8,4
7,2,2,7
7,2,6,5
7,3,0,3
7,3,8,7
7,5,0,4
7,5,8,3
7,6,2,2
7,6,6,4
8,0,0,7
8,0,1,2
8,0,2,6
8,0,6,4
8,0,7,5
8,0,8,9
8,1,3,6
8,1,5,2
8,4,1,3
8,4,2,8
8,4,4,5
8,4,6,7
8,4,7,2
8,7,3,1
8,7,5,8
8,8,0,4
8,8,1,5
8,8,2,9
8,8,6,8
8,8,7,1
8,8,8,3
