0,0,0,6
0,0,8,5
0,1,3,1
0,1,5,4
0,2,4,2
0,4,0,1
0,4,3,2
0,4,5,6
0,4,8,9
0,6,4,6
0,7,3,8
0,7,5,9
0,8,0,3
0,8,8,2
1,0,4,6
1,1,0,7
1,1,3,3
1,1,5,8
1,1,8,1
1,3,0,6
1,3,8,4
1,5,0,4
1,5,8,3
1,7,0,5
1,7,3,2
1,7,5,6
1,7,8,8
1,8,4,8
2,2,0,2
2,2,8,4
2,3,2,1
2,3,6,3
2,4,0,7
2,4,8,5
2,5,2,9
2,5,6,7
2,6,0,6
2,6,8,1
3,0,3,6
3,0,5,7
3,1,0,6
3,1,8,9
3,2,4,9
3,3,1,7
3,3,7,4
3,4,3,4
3,4,5,9
3,5,1,9
3,5,7,1
3,6,4,4
3,7,0,4
3,7,8,1
3,8,3,8
3,8,5,5
4,0,0,5
4,0,1,8
4,0,7,6
4,0,8,2
4,1,1,9
4,1,3,7
4,1,5,2
4,1,7,1
4,2,0,7
4,2,8,3
4,3,0,4
4,3,1,3
4,3,2,9
4,3,6,5
4,3,7,8
4,3,8,1
4,4,4,1
4,5,0,1
4,5,1,5
4,5,2,8
4,5,6,6
4,5,7,2
4,5,8,7
4,6,0,2
4,6,8,9
4,7,1,1
4,7,3,3
4,7,5,4
4,7,7,7
4,8,0,9
4,8,1,4
4,8,7,5
4,8,8,8
5,0,3,8
5,0,5,5
5,1,0,1
5,1,8,6
5,2,4,7
5,3,1,1
5,3,7,6
5,4,3,7
5,4,5,2
5,5,1,6
5,5,7,3
5,6,4,2
5,7,0,6
5,7,8,3
5,8,3,4
5,8,5,9
6,2,0,1
6,2,8,9
6,3,2,8
6,3,6,6
6,4,0,4
6,4,8,3
6,5,2,7
6,5,6,1
6,6,0,5
6,6,8,8
7,0,4,5
7,1,0,5
7,1,3,6
7,1,5,7
7,1,8,8
7,3,0,1
7,3,8,9
7,5,0,9
7,5,8,6
7,7,0,3
7,7,3,5
7,7,5,1
7,7,8,2
7,8,4,6
8,0,0,4
8,0,8,3
8,1,3,8
8,1,5,9
8,2,4,4
8,4,0,8
8,4,3,1
8,4,5,4
8,4,8,2
8,6,4,1
8,7,3,6
8,7,5,7
8,8,0,6
8,8,8,1
