0,0,3,6
0,0,5,7
0,1,0,4
0,1,8,6
0,2,1,6
0,2,2,2
0,2,6,1
0,2,7,3
0,3,1,2
0,3,7,1
0,4,1,3
0,4,3,2
0,4,5,6
0,4,7,9
0,5,1,9
0,5,7,6
0,6,1,4
0,6,2,5
0,6,6,6
0,6,7,2
0,7,0,2
0,7,8,1
0,8,3,7
0,8,5,2
1,0,0,5
1,0,3,1
1,0,4,3
1,0,5,8
1,0,8,2
1,1,1,2
1,1,7,8
1,2,0,8
1,2,1,1
1,2,7,9
1,2,8,4
1,4,1,4
1,4,7,2
1,6,0,7
1,6,1,6
1,6,7,1
1,6,8,3
1,7,1,3
1,7,7,5
1,8,0,4
1,8,3,3
1,8,4,8
1,8,5,1
1,8,8,6
2,0,3,9
2,0,5,5
2,2,2,5
2,2,6,6
2,3,2,9
2,3,6,2
2,5,2,3
2,5,6,4
2,6,2,1
2,6,6,5
2,8,3,5
2,8,5,4
3,0,2,9
3,0,6,2
3,3,2,8
3,3,4,7
3,3,6,5
3,4,4,2
3,5,2,1
3,5,4,6
3,5,6,9
3,8,2,2
3,8,6,8
4,1,0,9
4,1,8,8
4,2,0,5
4,2,8,3
4,3,0,1
4,3,3,8
4,3,5,6
4,3,8,7
4,5,0,3
4,5,3,1
4,5,5,2
4,5,8,6
4,6,0,2
4,6,8,9
4,7,0,6
4,7,8,5
5,0,2,7
5,0,6,3
5,3,2,5
5,3,4,1
5,3,6,6
5,4,4,8
5,5,2,9
5,5,4,3
5,5,6,2
5,8,2,1
5,8,6,5
6,0,3,2
6,0,5,6
6,2,2,7
6,2,6,3
6,3,2,6
6,3,6,1
6,5,2,5
6,5,6,6
6,6,2,9
6,6,6,2
6,8,3,6
6,8,5,7
7,0,0,7
7,0,3,4
7,0,4,5
7,0,5,9
7,0,8,8
7,1,1,8
7,1,7,5
7,2,0,4
7,2,1,5
7,2,7,7
7,2,8,6
7,4,1,2
7,4,7,1
7,6,0,8
7,6,1,1
7,6,7,4
7,6,8,5
7,7,1,4
7,7,7,2
7,8,0,2
7,8,3,9
7,8,4,4
7,8,5,5
7,8,8,1
8,0,3,3
8,0,5,1
8,1,0,2
8,1,8,3
8,2,1,3
8,2,2,8
8,2,6,9
8,2,7,4
8,3,1,1
8,3,7,5
8,4,1,5
8,4,3,1
8,4,5,8
8,4,7,7
8,5,1,6
8,5,7,8
8,6,1,2
8,6,2,7
8,6,6,1
8,6,7,3
8,7,0,3
8,7,8,4
8,8,3,8
8,8,5,3
