0,1,1,5
0,1,7,6
0,2,2,9
0,2,6,5
0,3,3,3
0,3,5,4
0,4,1,4
0,4,4,8
0,4,7,7
0,5,3,6
0,5,5,1
0,6,2,6
0,6,6,7
0,7,1,9
0,7,7,2
1,1,3,5
1,1,5,6
1,3,3,8
1,3,5,9
1,4,3,4
1,4,5,7
1,5,3,2
1,5,5,3
1,7,3,9
1,7,5,2
2,0,2,2
2,0,6,6
2,1,1,9
2,1,4,1
2,1,7,7
2,2,0,1
2,2,8,2
2,4,0,7
2,4,8,4
2,6,0,9
2,6,8,8
2,7,1,4
2,7,4,8
2,7,7,6
2,8,2,5
2,8,6,4
3,2,2,3
3,2,6,1
3,3,0,3
3,3,8,7
3,5,0,7
3,5,8,5
3,6,2,9
3,6,6,4
4,0,4,4
4,1,1,3
4,1,7,4
4,2,1,4
4,2,3,9
4,2,5,6
4,2,7,2
4,3,1,2
4,3,4,5
4,3,7,8
4,4,0,4
4,4,3,1
4,4,5,9
4,4,8,3
4,5,1,5
4,5,4,8
4,5,7,7
4,6,1,7
4,6,3,6
4,6,5,8
4,6,7,1
4,7,1,1
4,7,7,9
4,8,4,1
5,2,2,8
5,2,6,3
5,3,0,8
5,3,8,2
5,5,0,2
5,5,8,4
5,6,2,5
5,6,6,9
6,0,2,8
6,0,6,3
6,1,1,2
6,1,4,9
6,1,7,8
6,2,0,9
6,2,8,1
6,4,0,3
6,4,8,7
6,6,0,6
6,6,8,4
6,7,1,7
6,7,4,4
6,7,7,3
6,8,2,2
6,8,6,6
7,1,3,2
7,1,5,8
7,3,3,5
7,3,5,2
7,4,3,6
7,4,5,1
7,5,3,3
7,5,5,4
7,7,3,7
7,7,5,3
8,1,1,7
8,1,7,3
8,2,2,2
8,2,6,6
8,3,3,9
8,3,5,6
8,4,1,2
8,4,4,4
8,4,7,8
8,5,3,8
8,5,5,5
8,6,2,1
8,6,6,8
8,7,1,6
8,7,7,1
