0,0,4,5
0,1,0,3
0,1,1,8
0,1,7,6
0,1,8,5
0,3,0,1
0,3,8,8
0,4,3,7
0,4,5,9
0,5,0,2
0,5,8,6
0,7,0,4
0,7,1,1
0,7,7,2
0,7,8,3
0,8,4,4
1,0,3,7
1,0,5,9
1,2,0,6
1,2,1,9
1,2,4,2
1,2,7,1
1,2,8,8
1,3,3,3
1,3,5,7
1,4,0,3
1,4,8,9
1,5,3,2
1,5,5,5
1,6,0,1
1,6,1,8
1,6,4,7
1,6,7,3
1,6,8,5
1,8,3,1
1,8,5,2
2,0,1,5
2,0,7,3
2,1,3,2
2,1,5,5
2,2,2,8
2,2,3,1
2,2,5,7
2,2,6,5
2,3,0,5
2,3,8,7
2,4,0,7
2,4,1,1
2,4,3,6
2,4,5,2
2,4,7,4
2,4,8,3
2,5,0,6
2,5,8,5
2,6,2,5
2,6,3,3
2,6,5,4
2,6,6,9
2,7,3,5
2,7,5,1
2,8,1,4
2,8,7,5
3,0,2,7
3,0,6,9
3,2,3,8
3,2,4,7
3,2,5,6
3,3,0,8
3,3,8,9
3,5,0,5
3,5,8,2
3,6,3,6
3,6,4,4
3,6,5,2
3,8,2,5
3,8,6,4
4,0,0,9
4,0,8,3
4,2,0,2
4,2,4,5
4,2,8,1
4,3,1,5
4,3,7,6
4,4,2,7
4,4,4,2
4,4,6,9
4,5,1,4
4,5,7,3
4,6,0,5
4,6,4,3
4,6,8,2
4,8,0,4
4,8,8,7
5,0,2,6
5,0,6,1
5,2,3,2
5,2,4,1
5,2,5,4
5,3,0,2
5,3,8,3
5,5,0,7
5,5,8,1
5,6,3,5
5,6,4,9
5,6,5,1
5,8,2,7
5,8,6,9
6,0,1,7
6,0,7,9
6,1,3,3
6,1,5,7
6,2,2,2
6,2,3,9
6,2,5,1
6,2,6,7
6,3,0,7
6,3,8,6
6,4,0,1
6,4,1,9
6,4,3,5
6,4,5,6
6,4,7,3
6,4,8,8
6,5,0,8
6,5,8,7
6,6,2,7
6,6,3,8
6,6,5,3
6,6,6,4
6,7,3,7
6,7,5,5
6,8,1,1
6,8,7,7
7,0,3,5
7,0,5,3
7,2,0,7
7,2,1,1
7,2,4,8
7,2,7,4
7,2,8,3
7,3,3,7
7,3,5,5
7,4,0,2
7,4,8,1
7,5,3,8
7,5,5,1
7,6,0,4
7,6,1,3
7,6,4,5
7,6,7,2
7,6,8,6
7,8,3,2
7,8,5,8
8,0,4,9
8,1,0,1
8,1,1,5
8,1,7,3
8,1,8,9
8,3,0,6
8,3,8,5
8,4,3,2
8,4,5,8
8,5,0,4
8,5,8,3
8,7,0,7
8,7,1,6
8,7,7,4
8,7,8,1
8,8,4,7
