0,0,3,9
0,0,5,2
0,2,1,5
0,2,7,9
0,6,1,3
0,6,7,5
0,8,3,8
0,8,5,3
1,0,2,5
1,0,6,1
1,1,0,7
1,1,1,3
1,1,7,5
1,1,8,8
1,2,2,6
1,2,6,3
1,4,2,2
1,4,6,5
1,6,2,7
1,6,6,9
1,7,0,1
1,7,1,6
1,7,7,2
1,7,8,5
1,8,2,8
1,8,6,7
2,0,4,5
2,2,0,1
2,2,8,5
2,3,3,5
2,3,5,2
2,5,3,6
2,5,5,4
2,6,0,8
2,6,8,3
2,8,4,4
3,0,2,3
3,0,3,1
3,0,5,9
3,0,6,4
3,1,0,1
3,1,1,2
3,1,7,7
3,1,8,9
3,3,3,3
3,3,5,7
3,4,0,9
3,4,8,6
3,5,3,9
3,5,5,6
3,7,0,6
3,7,1,3
3,7,7,5
3,7,8,4
3,8,2,1
3,8,3,2
3,8,5,4
3,8,6,6
4,1,2,4
4,1,4,5
4,1,6,2
4,4,1,2
4,4,7,7
4,7,2,7
4,7,4,4
4,7,6,9
5,0,2,6
5,0,3,5
5,0,5,7
5,0,6,3
5,1,0,3
5,1,1,8
5,1,7,4
5,1,8,6
5,3,3,6
5,3,5,1
5,4,0,6
5,4,8,8
5,5,3,2
5,5,5,8
5,7,0,4
5,7,1,2
5,7,7,7
5,7,8,3
5,8,2,3
5,8,3,1
5,8,5,9
5,8,6,4
6,0,4,7
6,2,0,3
6,2,8,6
6,3,3,2
6,3,5,4
6,5,3,8
6,5,5,9
6,6,0,9
6,6,8,7
6,8,4,9
7,0,2,4
7,0,6,6
7,1,0,9
7,1,1,1
7,1,7,8
7,1,8,2
7,2,2,5
7,2,6,4
7,4,2,9
7,4,6,8
7,6,2,3
7,6,6,1
7,7,0,2
7,7,1,9
7,7,7,3
7,7,8,8
7,8,2,7
7,8,6,9
8,0,3,3
8,0,5,6
8,2,1,9
8,2,7,3
8,6,1,5
8,6,7,9
8,8,3,4
8,8,5,5
