0,3,1,6
0,3,7,5
0,5,1,5
0,5,7,8
1,1,2,7
1,1,3,3
1,1,5,1
1,1,6,5
1,3,3,2
1,3,5,7
1,5,3,9
1,5,5,5
1,7,2,2
1,7,3,1
1,7,5,8
1,7,6,4
2,0,0,8
2,0,2,3
2,0,6,6
2,0,8,2
2,4,0,5
2,4,1,9
2,4,7,1
2,4,8,3
2,8,0,2
2,8,2,7
2,8,6,9
2,8,8,5
3,0,2,1
3,0,4,8
3,0,6,3
3,2,1,7
3,2,4,5
3,2,7,1
3,3,0,7
3,3,8,5
3,4,4,7
3,5,0,1
3,5,8,7
3,6,1,4
3,6,4,3
3,6,7,7
3,8,2,9
3,8,4,4
3,8,6,5
4,0,2,9
4,0,6,5
4,1,2,8
4,1,6,1
4,3,2,4
4,3,3,7
4,3,5,3
4,3,6,9
4,5,2,7
4,5,3,1
4,5,5,4
4,5,6,2
4,7,2,3
4,7,6,8
4,8,2,6
4,8,6,7
5,0,2,7
5,0,4,6
5,0,6,2
5,2,1,9
5,2,4,1
5,2,7,7
5,3,0,5
5,3,8,3
5,4,4,4
5,5,0,2
5,5,8,9
5,6,1,3
5,6,4,7
5,6,7,5
5,8,2,1
5,8,4,8
5,8,6,3
6,0,0,7
6,0,2,6
6,0,6,4
6,0,8,9
6,4,0,1
6,4,1,3
6,4,7,6
6,4,8,7
6,8,0,9
6,8,2,5
6,8,6,1
6,8,8,8
7,1,2,2
7,1,3,8
7,1,5,3
7,1,6,9
7,3,3,6
7,3,5,2
7,5,3,4
7,5,5,9
7,7,2,6
7,7,3,3
7,7,5,1
7,7,6,5
8,3,1,8
8,3,7,7
8,5,1,2
8,5,7,4
