0,1,0,5
0,1,3,4
0,1,5,1
0,1,8,2
0,4,3,8
0,4,5,2
0,7,0,1
0,7,3,5
0,7,5,7
0,7,8,8
1,0,3,8
1,0,5,2
1,1,3,3
1,1,4,9
1,1,5,5
1,3,2,2
1,3,6,9
1,4,0,8
1,4,8,3
1,5,2,6
1,5,6,7
1,7,3,4
1,7,4,2
1,7,5,8
1,8,3,7
1,8,5,3
2,1,4,8
2,2,1,4
2,2,3,5
2,2,5,9
2,2,7,6
2,4,2,7
2,4,3,4
2,4,5,3
2,4,6,8
2,6,1,2
2,6,3,3
2,6,5,5
2,6,7,8
2,7,4,9
3,1,1,6
3,1,4,7
3,1,7,1
3,2,0,4
3,2,2,1
3,2,3,3
3,2,5,5
3,2,6,6
3,2,8,7
3,3,0,3
3,3,8,1
3,4,4,3
3,5,0,8
3,5,8,3
3,6,0,2
3,6,2,9
3,6,3,7
3,6,5,3
3,6,6,8
3,6,8,6
3,7,1,8
3,7,4,6
3,7,7,7
4,0,4,3
4,2,4,8
4,4,0,6
4,4,2,4
4,4,4,2
4,4,6,1
4,4,8,5
4,6,4,4
4,8,4,9
5,1,1,1
5,1,4,5
5,1,7,7
5,2,0,5
5,2,2,7
5,2,3,4
5,2,5,1
5,2,6,3
5,2,8,2
5,3,0,7
5,3,8,9
5,4,4,7
5,5,0,4
5,5,8,7
5,6,0,8
5,6,2,5
5,6,3,6
5,6,5,9
5,6,6,7
5,6,8,3
5,7,1,7
5,7,4,8
5,7,7,5
6,1,4,2
6,2,1,1
6,2,3,9
6,2,5,3
6,2,7,7
6,4,2,1
6,4,3,3
6,4,5,5
6,4,6,6
6,6,1,9
6,6,3,5
6,6,5,7
6,6,7,6
6,7,4,1
7,0,3,3
7,0,5,5
7,1,3,1
7,1,4,4
7,1,5,6
7,3,2,5
7,3,6,4
7,4,0,3
7,4,8,1
7,5,2,2
7,5,6,9
7,7,3,7
7,7,4,5
7,7,5,3
7,8,3,9
7,8,5,1
8,1,0,1
8,1,3,5
8,1,5,9
8,1,8,8
8,4,3,7
8,4,5,1
8,7,0,7
8,7,3,8
8,7,5,2
8,7,8,9
