0,0,2,8
0,0,6,6
0,3,1,5
0,3,3,7
0,3,5,9
0,3,7,2
0,4,1,9
0,4,7,6
0,5,1,4
0,5,3,6
0,5,5,5
0,5,7,7
0,8,2,4
0,8,6,3
1,0,0,1
1,0,8,8
1,2,0,3
1,2,2,2
1,2,4,8
1,2,6,5
1,2,8,1
1,3,0,2
1,3,1,3
1,3,4,6
1,3,7,9
1,3,8,7
1,4,0,6
1,4,8,2
1,5,0,7
1,5,1,8
1,5,4,2
1,5,7,5
1,5,8,6
1,6,0,4
1,6,2,8
1,6,4,5
1,6,6,6
1,6,8,9
1,8,0,9
1,8,8,5
2,1,1,1
2,1,7,9
2,3,1,7
2,3,2,8
2,3,6,6
2,3,7,3
2,4,2,3
2,4,6,7
2,5,1,6
2,5,2,1
2,5,6,2
2,5,7,8
2,7,1,4
2,7,7,6
3,0,0,3
3,0,3,9
3,0,5,7
3,0,8,1
3,1,3,1
3,1,5,5
3,2,1,1
3,2,2,7
3,2,6,8
3,2,7,6
3,4,4,3
3,6,1,5
3,6,2,1
3,6,6,4
3,6,7,8
3,7,3,7
3,7,5,8
3,8,0,8
3,8,3,4
3,8,5,6
3,8,8,3
4,1,2,9
4,1,3,4
4,1,5,2
4,1,6,6
4,7,2,8
4,7,3,1
4,7,5,4
4,7,6,5
5,0,0,7
5,0,3,3
5,0,5,4
5,0,8,6
5,1,3,7
5,1,5,8
5,2,1,2
5,2,2,4
5,2,6,7
5,2,7,9
5,4,4,6
5,6,1,8
5,6,2,2
5,6,6,3
5,6,7,7
5,7,3,9
5,7,5,2
5,8,0,6
5,8,3,8
5,8,5,5
5,8,8,2
6,1,1,9
6,1,7,7
6,3,1,1
6,3,2,5
6,3,6,8
6,3,7,4
6,4,2,9
6,4,6,3
6,5,1,3
6,5,2,4
6,5,6,1
6,5,7,9
6,7,1,6
6,7,7,8
7,0,0,9
7,0,8,5
7,2,0,5
7,2,2,8
7,2,4,9
7,2,6,6
7,2,8,4
7,3,0,8
7,3,1,9
7,3,4,1
7,3,7,6
7,3,8,3
7,4,0,3
7,4,8,1
7,5,0,1
7,5,1,5
7,5,4,3
7,5,7,2
7,5,8,8
7,6,0,6
7,6,2,9
7,6,4,7
7,6,6,8
7,6,8,2
7,8,0,2
7,8,8,7
8,0,2,4
8,0,6,8
8,3,1,2
8,3,3,8
8,3,5,6
8,3,7,1
8,4,1,6
8,4,7,8
8,5,1,7
8,5,3,1
8,5,5,2
8,5,7,3
8,8,2,6
8,8,6,5
