0,0,3,2
0,0,5,8
0,1,0,4
0,1,8,6
0,2,3,6
0,2,4,3
0,2,5,4
0,3,0,6
0,3,1,3
0,3,7,7
0,3,8,1
0,5,0,7
0,5,1,9
0,5,7,2
0,5,8,3
0,6,3,4
0,6,4,2
0,6,5,3
0,7,0,9
0,7,8,4
0,8,3,5
0,8,5,9
1,0,3,9
1,0,5,7
1,3,1,8
1,3,4,7
1,3,7,9
1,5,1,4
1,5,4,2
1,5,7,1
1,8,3,2
1,8,5,4
2,1,3,8
2,1,4,2
2,1,5,1
2,4,1,6
2,4,7,8
2,7,3,3
2,7,4,4
2,7,5,2
3,0,2,5
3,0,3,1
3,0,5,2
3,0,6,4
3,3,1,4
3,3,7,1
3,4,2,9
3,4,4,1
3,4,6,3
3,5,1,1
3,5,7,6
3,8,2,2
3,8,3,8
3,8,5,1
3,8,6,6
4,0,2,1
4,0,3,6
4,0,5,4
4,0,6,9
4,1,0,2
4,1,8,1
4,2,4,2
4,3,1,9
4,3,7,2
4,4,2,2
4,4,4,7
4,4,6,6
4,5,1,6
4,5,7,8
4,6,4,6
4,7,0,5
4,7,8,6
4,8,2,8
4,8,3,3
4,8,5,2
4,8,6,5
5,0,2,2
5,0,3,5
5,0,5,9
5,0,6,6
5,3,1,2
5,3,7,5
5,4,2,4
5,4,4,5
5,4,6,8
5,5,1,5
5,5,7,3
5,8,2,3
5,8,3,6
5,8,5,5
5,8,6,1
6,1,3,5
6,1,4,7
6,1,5,9
6,4,1,2
6,4,7,5
6,7,3,1
6,7,4,8
6,7,5,7
7,0,3,7
7,0,5,5
7,3,1,1
7,3,4,4
7,3,7,6
7,5,1,3
7,5,4,5
7,5,7,7
7,8,3,4
7,8,5,3
8,0,3,3
8,0,5,6
8,1,0,6
8,1,8,3
8,2,3,9
8,2,4,5
8,2,5,7
8,3,0,9
8,3,1,5
8,3,7,3
8,3,8,4
8,5,0,1
8,5,1,8
8,5,7,9
8,5,8,5
8,6,3,6
8,6,4,9
8,6,5,5
8,7,0,8
8,7,8,7
8,8,3,7
8,8,5,8
