0,0,0,1
0,0,8,6
0,1,0,9
0,1,8,2
0,2,2,2
0,2,6,1
0,4,3,4
0,4,4,2
0,4,5,9
0,6,2,5
0,6,6,2
0,7,0,2
0,7,8,4
0,8,0,7
0,8,8,5
1,0,4,9
1,2,3,7
1,2,5,3
1,4,3,1
1,4,5,6
1,6,3,3
1,6,5,1
1,8,4,6
2,1,3,4
2,1,5,9
2,2,4,2
2,6,4,5
2,7,3,1
2,7,5,2
3,0,2,1
3,0,3,5
3,0,5,6
3,0,6,2
3,2,1,2
3,2,7,5
3,3,0,2
3,3,8,6
3,5,0,6
3,5,8,7
3,6,1,9
3,6,7,7
3,8,2,7
3,8,3,6
3,8,5,9
3,8,6,8
4,0,3,7
4,0,5,8
4,1,0,1
4,1,2,7
4,1,4,5
4,1,6,9
4,1,8,3
4,2,3,2
4,2,5,9
4,3,0,8
4,3,8,9
4,4,1,2
4,4,7,1
4,5,0,9
4,5,8,4
4,6,3,9
4,6,5,3
4,7,0,6
4,7,2,9
4,7,4,2
4,7,6,5
4,7,8,7
4,8,3,4
4,8,5,5
5,0,2,4
5,0,3,9
5,0,5,3
5,0,6,1
5,2,1,1
5,2,7,9
5,3,0,3
5,3,8,5
5,5,0,5
5,5,8,1
5,6,1,2
5,6,7,3
5,8,2,3
5,8,3,1
5,8,5,2
5,8,6,7
6,1,3,7
6,1,5,3
6,2,4,9
6,6,4,7
6,7,3,5
6,7,5,8
7,0,4,3
7,2,3,8
7,2,5,2
7,4,3,5
7,4,5,8
7,6,3,6
7,6,5,5
7,8,4,9
8,0,0,5
8,0,8,1
8,1,0,3
8,1,8,9
8,2,2,9
8,2,6,5
8,4,3,6
8,4,4,1
8,4,5,3
8,6,2,7
8,6,6,8
8,7,0,8
8,7,8,2
8,8,0,1
8,8,8,7
