0,3,0,7
0,3,8,2
0,5,0,8
0,5,8,6
1,0,0,4
1,0,3,3
1,0,5,1
1,0,8,7
1,1,1,5
1,1,7,6
1,3,2,9
1,3,6,6
1,5,2,4
1,5,6,5
1,7,1,4
1,7,7,9
1,8,0,1
1,8,3,7
1,8,5,2
1,8,8,6
2,1,0,8
2,1,2,2
2,1,6,7
2,1,8,5
2,3,1,2
2,3,2,1
2,3,6,9
2,3,7,5
2,5,1,6
2,5,2,7
2,5,6,4
2,5,7,2
2,7,0,6
2,7,2,3
2,7,6,2
2,7,8,4
3,0,1,9
3,0,7,3
3,1,0,5
3,1,2,6
3,1,4,8
3,1,6,9
3,1,8,2
3,3,1,1
3,3,7,8
3,5,1,5
3,5,7,9
3,7,0,4
3,7,2,7
3,7,4,9
3,7,6,6
3,7,8,1
3,8,1,8
3,8,7,7
4,2,2,7
4,2,6,2
4,6,2,8
4,6,6,4
5,0,1,6
5,0,7,2
5,1,0,4
5,1,2,8
5,1,4,9
5,1,6,6
5,1,8,7
5,3,1,9
5,3,7,3
5,5,1,4
5,5,7,6
5,7,0,8
5,7,2,9
5,7,4,6
5,7,6,7
5,7,8,3
5,8,1,5
5,8,7,9
6,1,0,2
6,1,2,4
6,1,6,5
6,1,8,9
6,3,1,4
6,3,2,2
6,3,6,8
6,3,7,9
6,5,1,3
6,5,2,6
6,5,6,1
6,5,7,4
6,7,0,3
6,7,2,8
6,7,6,4
6,7,8,7
7,0,0,9
7,0,3,4
7,0,5,8
7,0,8,1
7,1,1,6
7,1,7,2
7,3,2,3
7,3,6,2
7,5,2,9
7,5,6,6
7,7,1,9
7,7,7,3
7,8,0,8
7,8,3,1
7,8,5,5
7,8,8,2
8,3,0,9
8,3,8,7
8,5,0,4
8,5,8,8
