0,0,2,3
0,0,4,7
0,0,6,5
0,1,0,4
0,1,1,2
0,1,7,7
0,1,8,1
0,2,3,9
0,2,5,8
0,3,0,1
0,3,8,6
0,5,0,8
0,5,8,7
0,6,3,6
0,6,5,5
0,7,0,7
0,7,1,1
0,7,7,3
0,7,8,4
0,8,2,9
0,8,4,1
0,8,6,2
1,0,0,2
1,0,4,3
1,0,8,9
1,2,0,6
1,2,2,9
1,2,6,2
1,2,8,5
1,6,0,1
1,6,2,7
1,6,6,3
1,6,8,6
1,8,0,8
1,8,4,5
1,8,8,7
2,1,2,6
2,1,6,8
2,3,1,8
2,3,2,4
2,3,6,7
2,3,7,1
2,5,1,3
2,5,2,9
2,5,6,2
2,5,7,8
2,7,2,8
2,7,6,9
3,0,4,5
3,1,0,2
3,1,8,6
3,2,1,9
3,2,7,5
3,3,0,6
3,3,3,3
3,3,5,4
3,3,8,5
3,4,0,1
3,4,8,9
3,5,0,3
3,5,3,1
3,5,5,9
3,5,8,4
3,6,1,3
3,6,7,6
3,7,0,9
3,7,8,8
3,8,4,6
4,0,2,2
4,0,6,4
4,1,4,3
4,3,3,7
4,3,5,6
4,4,1,5
4,4,7,4
4,5,3,2
4,5,5,3
4,7,4,7
4,8,2,5
4,8,6,6
5,0,4,2
5,1,0,1
5,1,8,9
5,2,1,2
5,2,7,7
5,3,0,5
5,3,3,9
5,3,5,8
5,3,8,7
5,4,0,9
5,4,8,8
5,5,0,4
5,5,3,5
5,5,5,7
5,5,8,2
5,6,1,4
5,6,7,9
5,7,0,2
5,7,8,6
5,8,4,4
6,1,2,1
6,1,6,4
6,3,1,9
6,3,2,6
6,3,6,8
6,3,7,5
6,5,1,5
6,5,2,7
6,5,6,3
6,5,7,4
6,7,2,9
6,7,6,2
7,0,0,3
7,0,4,4
7,0,8,2
7,2,0,1
7,2,2,7
7,2,6,3
7,2,8,6
7,6,0,4
7,6,2,8
7,6,6,9
7,6,8,1
7,8,0,9
7,8,4,7
7,8,8,8
8,0,2,5
8,0,4,8
8,0,6,6
8,1,0,6
8,1,1,3
8,1,7,8
8,1,8,5
8,2,3,6
8,2,5,5
8,3,0,4
8,3,8,1
8,5,0,9
8,5,8,8
8,6,3,1
8,6,5,7
8,7,0,8
8,7,1,4
8,7,7,9
8,7,8,7
8,8,2,7
8,8,4,9
8,8,6,3
