0,0,1,9
0,0,7,4
0,1,3,2
0,1,5,3
0,3,2,2
0,3,3,6
0,3,4,9
0,3,5,4
0,3,6,3
0,5,2,4
0,5,3,3
0,5,4,2
0,5,5,8
0,5,6,9
0,7,3,4
0,7,5,9
0,8,1,3
0,8,7,2
1,1,0,2
1,1,2,1
1,1,4,6
1,1,6,5
1,1,8,7
1,2,0,9
1,2,8,8
1,4,0,5
1,4,1,4
1,4,4,8
1,4,7,6
1,4,8,9
1,6,0,8
1,6,8,5
1,7,0,3
1,7,2,9
1,7,4,1
1,7,6,2
1,7,8,4
2,1,2,9
2,1,6,2
2,2,1,5
2,2,7,1
2,4,3,4
2,4,5,9
2,6,1,9
2,6,7,4
2,7,2,7
2,7,6,1
3,0,0,7
3,0,8,6
3,1,0,6
3,1,8,5
3,2,0,5
3,2,1,4
3,2,2,9
3,2,6,1
3,2,7,8
3,2,8,7
3,3,4,4
3,5,4,1
3,6,0,9
3,6,1,5
3,6,2,4
3,6,6,7
3,6,7,1
3,6,8,8
3,7,0,8
3,7,8,2
3,8,0,2
3,8,8,9
4,0,2,6
4,0,6,9
4,1,1,9
4,1,7,7
4,7,1,1
4,7,7,9
4,8,2,9
4,8,6,1
5,0,0,9
5,0,8,8
5,1,0,8
5,1,8,2
5,2,0,2
5,2,1,6
5,2,2,1
5,2,6,5
5,2,7,3
5,2,8,9
5,3,4,5
5,5,4,6
5,6,0,1
5,6,1,2
5,6,2,6
5,6,6,9
5,6,7,5
5,6,8,3
5,7,0,4
5,7,8,1
5,8,0,3
5,8,8,4
6,1,2,8
6,1,6,7
6,2,1,9
6,2,7,4
6,4,3,3
6,4,5,8
6,6,1,8
6,6,7,3
6,7,2,6
6,7,6,4
7,1,0,7
7,1,2,4
7,1,4,2
7,1,6,9
7,1,8,6
7,2,0,8
7,2,8,5
7,4,0,9
7,4,1,3
7,4,4,5
7,4,7,2
7,4,8,8
7,6,0,5
7,6,8,9
7,7,0,1
7,7,2,8
7,7,4,4
7,7,6,7
7,7,8,3
8,0,1,8
8,0,7,3
8,1,3,7
8,1,5,1
8,3,2,7
8,3,3,2
8,3,4,8
8,3,5,3
8,3,6,1
8,5,2,3
8,5,3,1
8,5,4,7
8,5,5,5
8,5,6,8
8,7,3,3
8,7,5,8
8,8,1,1
8,8,7,7
