0,0,2,7
0,0,3,9
0,0,5,2
0,0,6,5
0,1,2,2
0,1,3,5
0,1,4,3
0,1,5,6
0,1,6,4
0,2,4,8
0,6,4,6
0,7,2,4
0,7,3,8
0,7,4,7
0,7,5,9
0,7,6,3
0,8,2,9
0,8,3,1
0,8,5,5
0,8,6,8
1,1,4,9
1,2,3,6
1,2,4,5
1,2,5,3
1,3,2,4
1,3,4,6
1,3,6,1
1,5,2,5
1,5,4,2
1,5,6,8
1,6,3,5
1,6,4,1
1,6,5,2
1,7,4,3
2,2,2,4
2,2,4,2
2,2,6,8
2,4,1,8
2,4,3,9
2,4,4,3
2,4,5,6
2,4,7,1
2,6,2,1
2,6,4,9
2,6,6,2
3,1,4,4
3,2,0,7
3,2,8,9
3,4,1,2
3,4,7,4
3,6,0,2
3,6,8,4
3,7,4,6
4,1,4,1
4,2,0,9
4,2,2,5
4,2,3,2
4,2,5,6
4,2,6,3
4,2,8,8
4,3,3,1
4,3,4,8
4,3,5,3
4,4,1,9
4,4,3,7
4,4,5,2
4,4,7,8
4,5,3,9
4,5,4,4
4,5,5,5
4,6,0,4
4,6,2,9
4,6,3,6
4,6,5,7
4,6,6,8
4,6,8,1
4,7,4,9
5,1,4,6
5,2,0,1
5,2,8,7
5,4,1,3
5,4,7,7
5,6,0,3
5,6,8,2
5,7,4,1
6,2,2,7
6,2,4,1
6,2,6,5
6,4,1,4
6,4,3,6
6,4,4,9
6,4,5,3
6,4,7,5
6,6,2,4
6,6,4,7
6,6,6,3
7,1,4,5
7,2,3,7
7,2,4,4
7,2,5,8
7,3,2,9
7,3,4,7
7,3,6,3
7,5,2,4
7,5,4,6
7,5,6,1
7,6,3,4
7,6,4,3
7,6,5,6
7,7,4,8
8,0,2,5
8,0,3,8
8,0,5,4
8,0,6,3
8,1,2,4
8,1,3,1
8,1,4,2
8,1,5,9
8,1,6,8
8,2,4,6
8,6,4,5
8,7,2,8
8,7,3,6
8,7,4,4
8,7,5,3
8,7,6,7
8,8,2,1
8,8,3,7
8,8,5,8
8,8,6,2
