0,1,1,6
0,1,7,3
0,3,3,4
0,3,5,2
0,5,3,9
0,5,5,6
0,7,1,5
0,7,7,8
1,0,0,9
1,0,3,3
1,0,5,4
1,0,8,1
1,2,3,5
1,2,5,9
1,3,0,1
1,3,8,7
1,4,1,7
1,4,7,1
1,5,0,3
1,5,8,2
1,6,3,8
1,6,5,6
1,8,0,6
1,8,3,4
1,8,5,7
1,8,8,8
2,1,3,4
2,1,5,6
2,2,2,3
2,2,6,5
2,3,2,6
2,3,4,7
2,3,6,2
2,4,2,2
2,4,6,7
2,5,2,7
2,5,4,2
2,5,6,6
2,6,2,9
2,6,6,8
2,7,3,6
2,7,5,1
3,0,1,1
3,0,7,6
3,2,1,9
3,2,3,1
3,2,4,3
3,2,5,6
3,2,7,7
3,3,2,1
3,3,6,9
3,5,2,9
3,5,6,8
3,6,1,3
3,6,3,4
3,6,4,6
3,6,5,8
3,6,7,9
3,8,1,5
3,8,7,8
5,0,1,2
5,0,7,4
5,2,1,6
5,2,3,7
5,2,4,9
5,2,5,5
5,2,7,3
5,3,2,7
5,3,6,6
5,5,2,2
5,5,6,7
5,6,1,9
5,6,3,1
5,6,4,3
5,6,5,7
5,6,7,2
5,8,1,8
5,8,7,6
6,1,3,6
6,1,5,3
6,2,2,4
6,2,6,9
6,3,2,3
6,3,4,1
6,3,6,5
6,4,2,1
6,4,6,3
6,5,2,5
6,5,4,3
6,5,6,1
6,6,2,6
6,6,6,2
6,7,3,1
6,7,5,8
7,0,0,4
7,0,3,1
7,0,5,8
7,0,8,5
7,2,3,3
7,2,5,4
7,3,0,5
7,3,8,6
7,4,1,6
7,4,7,5
7,5,0,1
7,5,8,7
7,6,3,9
7,6,5,2
7,8,0,2
7,8,3,8
7,8,5,6
7,8,8,9
8,1,1,4
8,1,7,6
8,3,3,5
8,3,5,9
8,5,3,1
8,5,5,8
8,7,1,7
8,7,7,3
