0,0,0,1
0,0,4,2
0,0,8,7
0,2,3,3
0,2,5,9
0,3,0,2
0,3,8,8
0,5,0,5
0,5,8,3
0,6,3,9
0,6,5,5
0,8,0,6
0,8,4,1
0,8,8,5
1,0,2,3
1,0,6,5
1,1,2,8
1,1,4,9
1,1,6,2
1,2,2,1
1,2,6,4
1,4,0,9
1,4,8,4
1,6,2,9
1,6,6,3
1,7,2,6
1,7,4,4
1,7,6,8
1,8,2,7
1,8,6,1
2,0,1,8
2,0,7,1
2,1,3,6
2,1,5,2
2,2,0,6
2,2,8,5
2,4,1,2
2,4,7,5
2,6,0,2
2,6,8,8
2,7,3,5
2,7,5,3
2,8,1,9
2,8,7,7
3,3,4,5
3,5,4,8
4,0,0,5
4,0,8,3
4,1,4,3
4,2,2,6
4,2,6,8
4,3,1,3
4,3,7,8
4,4,1,5
4,4,7,9
4,5,1,7
4,5,7,6
4,6,2,7
4,6,6,1
4,7,4,7
4,8,0,4
4,8,8,9
5,3,4,6
5,5,4,9
6,0,1,2
6,0,7,5
6,1,3,3
6,1,5,9
6,2,0,1
6,2,8,7
6,4,1,9
6,4,7,7
6,6,0,9
6,6,8,4
6,7,3,7
6,7,5,4
6,8,1,8
6,8,7,1
7,0,2,5
7,0,6,7
7,1,2,2
7,1,4,1
7,1,6,9
7,2,2,4
7,2,6,6
7,4,0,8
7,4,8,6
7,6,2,8
7,6,6,2
7,7,2,1
7,7,4,6
7,7,6,4
7,8,2,3
7,8,6,5
8,0,0,4
8,0,4,9
8,0,8,1
8,2,3,4
8,2,5,1
8,3,0,9
8,3,8,4
8,5,0,7
8,5,8,2
8,6,3,1
8,6,5,7
8,8,0,1
8,8,4,2
8,8,8,7
