0,0,3,5
0,0,5,8
0,1,0,5
0,1,8,4
0,2,3,6
0,2,5,4
0,3,3,9
0,3,5,2
0,4,0,9
0,4,8,5
0,5,3,7
0,5,5,5
0,6,3,4
0,6,5,1
0,7,0,4
0,7,8,9
0,8,3,3
0,8,5,9
1,0,0,7
1,0,4,6
1,0,8,3
1,1,3,8
1,1,5,3
1,2,2,3
1,2,6,9
1,4,0,4
1,4,2,1
1,4,6,3
1,4,8,9
1,6,2,4
1,6,6,1
1,7,3,1
1,7,5,7
1,8,0,1
1,8,4,2
1,8,8,8
2,1,4,5
2,3,1,2
2,3,4,3
2,3,7,9
2,4,4,9
2,5,1,9
2,5,4,2
2,5,7,3
2,7,4,4
3,0,3,3
3,0,5,9
3,1,0,6
3,1,8,3
3,2,3,2
3,2,5,6
3,3,0,8
3,3,8,1
3,4,0,3
3,4,8,7
3,5,0,5
3,5,8,4
3,6,3,6
3,6,5,4
3,7,0,7
3,7,8,6
3,8,3,1
3,8,5,7
4,0,0,1
4,0,8,2
4,2,1,7
4,2,7,8
4,3,2,3
4,3,6,4
4,5,2,8
4,5,6,3
4,6,1,4
4,6,7,6
4,8,0,5
4,8,8,4
5,0,3,6
5,0,5,5
5,1,0,7
5,1,8,6
5,2,3,8
5,2,5,7
5,3,0,1
5,3,8,2
5,4,0,6
5,4,8,3
5,5,0,4
5,5,8,9
5,6,3,7
5,6,5,9
5,7,0,3
5,7,8,7
5,8,3,2
5,8,5,3
6,1,4,2
6,3,1,7
6,3,4,4
6,3,7,1
6,4,4,1
6,5,1,1
6,5,4,7
6,5,7,4
6,7,4,8
7,0,0,4
7,0,4,5
7,0,8,9
7,1,3,6
7,1,5,9
7,2,2,9
7,2,6,8
7,4,0,2
7,4,2,3
7,4,6,5
7,4,8,1
7,6,2,8
7,6,6,3
7,7,3,3
7,7,5,5
7,8,0,3
7,8,4,7
7,8,8,6
8,0,3,2
8,0,5,6
8,1,0,2
8,1,8,1
8,2,3,9
8,2,5,1
8,3,3,1
8,3,5,7
8,4,0,1
8,4,8,8
8,5,3,4
8,5,5,8
8,6,3,8
8,6,5,3
8,7,0,8
8,7,8,2
8,8,3,5
8,8,5,2
