0,0,0,4
0,0,2,2
0,0,6,9
0,0,8,7
0,1,1,1
0,1,7,8
0,2,0,5
0,2,8,2
0,3,1,3
0,3,7,2
0,4,0,6
0,4,3,8
0,4,4,3
0,4,5,9
0,4,8,4
0,5,1,7
0,5,7,3
0,6,0,7
0,6,8,8
0,7,1,4
0,7,7,9
0,8,0,2
0,8,2,6
0,8,6,7
0,8,8,1
2,1,0,8
2,1,8,4
2,2,1,2
2,2,4,3
2,2,7,7
2,6,1,8
2,6,4,1
2,6,7,6
2,7,0,9
2,7,8,7
3,2,0,3
3,2,3,5
3,2,5,1
3,2,8,6
3,3,1,8
3,3,4,5
3,3,7,7
3,5,1,3
3,5,4,9
3,5,7,2
3,6,0,1
3,6,3,6
3,6,5,9
3,6,8,7
4,0,1,4
4,0,7,8
4,1,0,7
4,1,1,9
4,1,4,1
4,1,7,6
4,1,8,2
4,2,2,8
4,2,6,9
4,3,2,5
4,3,4,3
4,3,6,1
4,4,1,7
4,4,3,9
4,4,5,1
4,4,7,5
4,5,2,9
4,5,4,6
4,5,6,7
4,6,2,2
4,6,6,8
4,7,0,5
4,7,1,3
4,7,4,4
4,7,7,2
4,7,8,9
4,8,1,8
4,8,7,7
5,2,0,4
5,2,3,7
5,2,5,3
5,2,8,5
5,3,1,4
5,3,4,1
5,3,7,6
5,5,1,5
5,5,4,7
5,5,7,8
5,6,0,3
5,6,3,4
5,6,5,1
5,6,8,6
6,1,0,4
6,1,8,7
6,2,1,1
6,2,4,6
6,2,7,8
6,6,1,9
6,6,4,4
6,6,7,5
6,7,0,7
6,7,8,8
8,0,0,7
8,0,2,1
8,0,6,3
8,0,8,8
8,1,1,5
8,1,7,4
8,2,0,2
8,2,8,1
8,3,1,6
8,3,7,1
8,4,0,4
8,4,3,5
8,4,4,6
8,4,5,2
8,4,8,3
8,5,1,8
8,5,7,6
8,6,0,8
8,6,8,9
8,7,1,2
8,7,7,7
8,8,0,1
8,8,2,5
8,8,6,8
8,8,8,4
