0,0,0,6
0,0,2,5
0,0,6,3
0,0,8,2
0,3,0,8
0,3,2,2
0,3,6,5
0,3,8,3
0,4,2,6
0,4,6,4
0,5,0,1
0,5,2,7
0,5,6,9
0,5,8,8
0,8,0,5
0,8,2,1
0,8,6,2
0,8,8,4
1,0,0,9
1,0,8,5
1,1,2,8
1,1,6,2
1,2,4,5
1,4,1,8
1,4,7,5
1,6,4,3
1,7,2,7
1,7,6,9
1,8,0,3
1,8,8,1
2,0,3,2
2,0,5,5
2,1,4,3
2,2,1,5
2,2,7,2
2,6,1,3
2,6,7,5
2,7,4,7
2,8,3,5
2,8,5,1
3,1,0,8
3,1,8,3
3,3,1,8
3,3,7,5
3,4,3,2
3,4,5,5
3,5,1,6
3,5,7,1
3,7,0,3
3,7,8,1
4,0,1,9
4,0,3,6
4,0,4,3
4,0,5,4
4,0,7,7
4,1,0,4
4,1,8,9
4,2,2,5
4,2,6,3
4,4,0,9
4,4,8,5
4,6,2,7
4,6,6,9
4,7,0,5
4,7,8,4
4,8,1,3
4,8,3,4
4,8,4,6
4,8,5,8
4,8,7,5
5,1,0,2
5,1,8,7
5,3,1,7
5,3,7,8
5,4,3,9
5,4,5,8
5,5,1,9
5,5,7,7
5,7,0,7
5,7,8,6
6,0,3,7
6,0,5,9
6,1,4,8
6,2,1,9
6,2,7,7
6,6,1,8
6,6,7,9
6,7,4,6
6,8,3,9
6,8,5,3
7,0,0,2
7,0,8,7
7,1,2,5
7,1,6,3
7,2,4,2
7,4,1,9
7,4,7,7
7,6,4,9
7,7,2,8
7,7,6,6
7,8,0,9
7,8,8,5
8,0,0,4
8,0,2,3
8,0,6,6
8,0,8,9
8,3,0,6
8,3,2,5
8,3,6,1
8,3,8,2
8,4,2,4
8,4,6,8
8,5,0,2
8,5,2,9
8,5,6,3
8,5,8,7
8,8,0,8
8,8,2,7
8,8,6,9
8,8,8,3
