0,0,0,4
0,0,1,6
0,0,2,5
0,0,3,8
0,0,5,3
0,0,6,7
0,0,7,2
0,0,8,9
0,1,0,9
0,1,1,7
0,1,7,8
0,1,8,1
0,7,0,5
0,7,1,4
0,7,7,7
0,7,8,2
0,8,0,2
0,8,1,9
0,8,2,7
0,8,3,6
0,8,5,4
0,8,6,8
0,8,7,1
0,8,8,3
1,1,0,5
1,1,8,2
1,2,1,9
1,2,7,3
1,3,2,5
1,3,6,7
1,5,2,1
1,5,6,6
1,6,1,2
1,6,7,8
1,7,0,1
1,7,8,6
2,0,4,6
2,2,1,5
2,2,7,9
2,4,3,8
2,4,4,1
2,4,5,3
2,6,1,6
2,6,7,2
2,8,4,9
3,1,0,4
3,1,8,9
3,2,0,9
3,2,8,2
3,3,3,2
3,3,4,8
3,3,5,7
3,4,2,9
3,4,3,4
3,4,5,5
3,4,6,7
3,5,3,9
3,5,4,1
3,5,5,6
3,6,0,6
3,6,8,7
3,7,0,7
3,7,8,5
4,1,0,8
4,1,4,1
4,1,8,3
4,4,1,2
4,4,7,3
4,7,0,4
4,7,4,2
4,7,8,9
5,1,0,7
5,1,8,5
5,2,0,5
5,2,8,6
5,3,3,6
5,3,4,9
5,3,5,1
5,4,2,5
5,4,3,7
5,4,5,8
5,4,6,1
5,5,3,5
5,5,4,4
5,5,5,3
5,6,0,8
5,6,8,3
5,7,0,3
5,7,8,1
6,0,4,4
6,2,1,6
6,2,7,2
6,4,3,3
6,4,4,8
6,4,5,1
6,6,1,4
6,6,7,7
6,8,4,2
7,1,0,2
7,1,8,8
7,2,1,1
7,2,7,6
7,3,2,2
7,3,6,8
7,5,2,5
7,5,6,7
7,6,1,3
7,6,7,4
7,7,0,6
7,7,8,7
8,0,0,3
8,0,1,8
8,0,2,1
8,0,3,9
8,0,5,2
8,0,6,5
8,0,7,4
8,0,8,6
8,1,0,6
8,1,1,5
8,1,7,9
8,1,8,7
8,7,0,8
8,7,1,1
8,7,7,5
8,7,8,4
8,8,0,4
8,8,1,6
8,8,2,5
8,8,3,3
8,8,5,1
8,8,6,7
8,8,7,2
8,8,8,9
