0,1,1,1
0,1,2,9
0,1,6,6
0,1,7,7
0,4,0,9
0,4,2,1
0,4,6,7
0,4,8,6
0,7,1,9
0,7,2,8
0,7,6,2
0,7,7,6
1,0,0,2
1,0,4,1
1,0,8,5
1,2,0,9
1,2,8,7
1,3,1,7
1,3,7,4
1,5,1,9
1,5,7,7
1,6,0,7
1,6,8,4
1,8,0,8
1,8,4,3
1,8,8,6
2,1,0,7
2,1,8,3
2,2,0,4
2,2,8,9
2,4,2,7
2,4,4,9
2,4,6,3
2,6,0,9
2,6,8,2
2,7,0,6
2,7,8,5
3,1,0,1
3,1,1,4
3,1,7,8
3,1,8,6
3,3,2,8
3,3,6,6
3,4,4,3
3,5,2,5
3,5,6,7
3,7,0,4
3,7,1,2
3,7,7,7
3,7,8,9
4,1,4,1
4,3,1,2
4,3,3,8
4,3,4,6
4,3,5,9
4,3,7,7
4,4,1,7
4,4,3,4
4,4,5,1
4,4,7,6
4,5,1,6
4,5,3,5
4,5,4,7
4,5,5,3
4,5,7,2
4,7,4,4
5,1,0,5
5,1,1,6
5,1,7,2
5,1,8,1
5,3,2,6
5,3,6,9
5,4,4,8
5,5,2,7
5,5,6,3
5,7,0,7
5,7,1,3
5,7,7,1
5,7,8,4
6,1,0,6
6,1,8,4
6,2,0,5
6,2,8,1
6,4,2,6
6,4,4,1
6,4,6,4
6,6,0,1
6,6,8,7
6,7,0,2
6,7,8,3
7,0,0,3
7,0,4,6
7,0,8,8
7,2,0,2
7,2,8,5
7,3,1,3
7,3,7,1
7,5,1,7
7,5,7,4
7,6,0,5
7,6,8,1
7,8,0,7
7,8,4,9
7,8,8,4
8,1,1,3
8,1,2,5
8,1,6,8
8,1,7,1
8,4,0,5
8,4,2,3
8,4,6,9
8,4,8,1
8,7,1,5
8,7,2,4
8,7,6,1
8,7,7,9
