0,2,1,4
0,2,4,6
0,2,7,7
0,4,2,5
0,4,4,3
0,4,6,8
0,6,1,5
0,6,4,2
0,6,7,8
1,1,4,4
1,2,0,2
1,2,8,5
1,3,0,1
1,3,2,8
1,3,6,3
1,3,8,6
1,4,0,6
1,4,1,3
1,4,4,1
1,4,7,5
1,4,8,4
1,5,0,5
1,5,2,9
1,5,6,7
1,5,8,1
1,6,0,3
1,6,8,9
1,7,4,3
2,0,0,3
2,0,8,9
2,8,0,5
2,8,8,7
3,0,0,5
3,0,2,3
3,0,3,1
3,0,4,6
3,0,5,4
3,0,6,2
3,0,8,8
3,2,0,4
3,2,8,1
3,4,4,7
3,6,0,8
3,6,8,3
3,8,0,1
3,8,2,5
3,8,3,6
3,8,4,4
3,8,5,8
3,8,6,9
3,8,8,2
4,0,0,1
4,0,8,3
4,1,2,4
4,1,4,9
4,1,6,5
4,3,0,5
4,3,1,8
4,3,7,9
4,3,8,1
4,4,1,7
4,4,7,4
4,5,0,4
4,5,1,1
4,5,7,5
4,5,8,7
4,7,2,1
4,7,4,8
4,7,6,7
4,8,0,6
4,8,8,4
5,0,0,2
5,0,2,8
5,0,3,9
5,0,4,7
5,0,5,3
5,0,6,1
5,0,8,5
5,2,0,6
5,2,8,4
5,4,4,9
5,6,0,5
5,6,8,7
5,8,0,4
5,8,2,2
5,8,3,1
5,8,4,3
5,8,5,9
5,8,6,6
5,8,8,8
6,0,0,6
6,0,8,4
6,8,0,9
6,8,8,1
7,1,4,7
7,2,0,9
7,2,8,7
7,3,0,6
7,3,2,2
7,3,6,9
7,3,8,4
7,4,0,5
7,4,1,4
7,4,4,6
7,4,7,8
7,4,8,1
7,5,0,1
7,5,2,8
7,5,6,3
7,5,8,6
7,6,0,4
7,6,8,8
7,7,4,5
8,2,1,2
8,2,4,1
8,2,7,4
8,4,2,3
8,4,4,8
8,4,6,4
8,6,1,3
8,6,4,7
8,6,7,5
