0,0,3,9
0,0,5,8
0,2,1,3
0,2,3,1
0,2,5,2
0,2,7,7
0,3,3,7
0,3,5,4
0,4,4,9
0,5,3,5
0,5,5,1
0,6,1,1
0,6,3,8
0,6,5,7
0,6,7,6
0,8,3,2
0,8,5,9
1,1,4,2
1,3,2,7
1,3,4,6
1,3,6,2
1,4,1,6
1,4,4,1
1,4,7,9
1,5,2,9
1,5,4,4
1,5,6,5
1,7,4,9
2,1,4,9
2,4,0,1
2,4,8,5
2,7,4,8
3,3,1,7
3,3,2,6
3,3,4,4
3,3,6,8
3,3,7,3
3,5,1,3
3,5,2,2
3,5,4,7
3,5,6,4
3,5,7,9
4,0,4,3
4,1,4,7
4,2,0,1
4,2,8,2
4,4,0,6
4,4,1,1
4,4,7,8
4,4,8,3
4,6,0,7
4,6,8,8
4,7,4,2
4,8,4,6
5,3,1,4
5,3,2,9
5,3,4,2
5,3,6,7
5,3,7,6
5,5,1,6
5,5,2,1
5,5,4,9
5,5,6,3
5,5,7,2
6,1,4,4
6,4,0,8
6,4,8,9
6,7,4,3
7,1,4,6
7,3,2,2
7,3,4,7
7,3,6,6
7,4,1,7
7,4,4,8
7,4,7,4
7,5,2,4
7,5,4,5
7,5,6,9
7,7,4,4
8,0,3,4
8,0,5,3
8,2,1,1
8,2,3,8
8,2,5,6
8,2,7,2
8,3,3,2
8,3,5,5
8,4,4,4
8,5,3,9
8,5,5,8
8,6,1,8
8,6,3,3
8,6,5,2
8,6,7,7
8,8,3,6
8,8,5,4
