0,1,3,4
0,1,5,9
0,2,0,4
0,2,8,2
0,3,3,5
0,3,5,8
0,4,1,9
0,4,4,3
0,4,7,4
0,5,3,9
0,5,5,7
0,6,0,6
0,6,8,1
0,7,3,8
0,7,5,6
2,0,2,5
2,0,6,8
2,2,1,7
2,2,2,9
2,2,6,3
2,2,7,6
2,3,2,3
2,3,6,4
2,5,2,1
2,5,6,7
2,6,1,4
2,6,2,7
2,6,6,2
2,6,7,3
2,8,2,6
2,8,6,5
3,0,0,7
3,0,2,4
3,0,6,9
3,0,8,5
3,1,3,1
3,1,5,7
3,4,3,6
3,4,5,3
3,7,3,9
3,7,5,5
3,8,0,1
3,8,2,7
3,8,6,2
3,8,8,9
4,2,0,1
4,2,8,9
4,3,0,7
4,3,1,1
4,3,7,8
4,3,8,5
4,5,0,6
4,5,1,4
4,5,7,7
4,5,8,1
4,6,0,3
4,6,8,7
5,0,0,3
5,0,2,2
5,0,6,1
5,0,8,7
5,1,3,6
5,1,5,3
5,4,3,9
5,4,5,5
5,7,3,1
5,7,5,7
5,8,0,6
5,8,2,3
5,8,6,8
5,8,8,1
6,0,2,1
6,0,6,5
6,2,1,6
6,2,2,4
6,2,6,1
6,2,7,2
6,3,2,6
6,3,6,3
6,5,2,2
6,5,6,6
6,6,1,5
6,6,2,9
6,6,6,7
6,6,7,6
6,8,2,8
6,8,6,9
8,1,3,3
8,1,5,8
8,2,0,3
8,2,8,5
8,3,3,1
8,3,5,3
8,4,1,2
8,4,4,9
8,4,7,5
8,5,3,8
8,5,5,6
8,6,0,4
8,6,8,2
8,7,3,5
8,7,5,2
