0,2,0,3
0,2,8,2
0,3,0,4
0,3,8,1
0,4,1,2
0,4,7,4
0,5,0,1
0,5,8,8
0,6,0,5
0,6,8,6
1,0,3,3
1,0,5,1
1,1,1,1
1,1,3,5
1,1,5,4
1,1,7,2
1,2,1,5
1,2,4,7
1,2,7,3
1,3,0,2
1,3,8,9
1,4,3,9
1,4,5,5
1,5,0,5
1,5,8,3
1,6,1,2
1,6,4,1
1,6,7,9
1,7,1,3
1,7,3,4
1,7,5,9
1,7,7,7
1,8,3,7
1,8,5,2
2,1,4,8
2,2,2,7
2,2,6,4
2,6,2,1
2,6,6,7
2,7,4,2
3,0,1,9
3,0,7,2
3,3,2,5
3,3,6,7
3,5,2,3
3,5,6,4
3,8,1,6
3,8,7,9
4,3,4,4
4,4,3,8
4,4,5,7
4,5,4,3
5,0,1,1
5,0,7,9
5,3,2,1
5,3,6,9
5,5,2,8
5,5,6,3
5,8,1,2
5,8,7,3
6,1,4,6
6,2,2,3
6,2,6,8
6,6,2,5
6,6,6,3
6,7,4,1
7,0,3,4
7,0,5,9
7,1,1,4
7,1,3,8
7,1,5,7
7,1,7,1
7,2,1,7
7,2,4,3
7,2,7,9
7,3,0,1
7,3,8,8
7,4,3,7
7,4,5,2
7,5,0,8
7,5,8,5
7,6,1,1
7,6,4,4
7,6,7,2
7,7,1,9
7,7,3,2
7,7,5,8
7,7,7,3
7,8,3,3
7,8,5,1
8,2,0,5
8,2,8,1
8,3,0,7
8,3,8,4
8,4,1,1
8,4,7,2
8,5,0,9
8,5,8,6
8,6,0,2
8,6,8,5
