0,1,2,3
0,1,4,6
0,1,6,9
0,2,1,8
0,2,7,7
0,4,3,2
0,4,5,6
0,6,1,7
0,6,7,3
0,7,2,1
0,7,4,2
0,7,6,8
1,0,0,9
1,0,8,7
1,1,3,4
1,1,4,8
1,1,5,9
1,2,2,1
1,2,4,7
1,2,6,8
1,3,3,1
1,3,5,5
1,4,0,2
1,4,8,1
1,5,3,6
1,5,5,7
1,6,2,4
1,6,4,5
1,6,6,2
1,7,3,9
1,7,4,4
1,7,5,8
1,8,0,1
1,8,8,9
2,0,4,2
2,2,1,7
2,2,2,6
2,2,6,5
2,2,7,1
2,3,2,1
2,3,6,8
2,4,1,4
2,4,7,7
2,5,2,7
2,5,6,1
2,6,1,1
2,6,2,3
2,6,6,9
2,6,7,4
2,8,4,9
3,0,1,1
3,0,3,4
3,0,5,9
3,0,7,3
3,1,0,4
3,1,8,6
3,2,0,6
3,2,1,3
3,2,7,2
3,2,8,9
3,3,0,9
3,3,8,1
3,5,0,7
3,5,8,3
3,6,0,3
3,6,1,8
3,6,7,9
3,6,8,4
3,7,0,1
3,7,8,2
3,8,1,9
3,8,3,3
3,8,5,6
3,8,7,7
4,1,3,9
4,1,5,6
4,2,1,4
4,2,7,5
4,3,0,1
4,3,1,7
4,3,7,8
4,3,8,6
4,5,0,3
4,5,1,8
4,5,7,9
4,5,8,4
4,6,1,2
4,6,7,1
4,7,3,5
4,7,5,2
5,0,1,9
5,0,3,3
5,0,5,2
5,0,7,6
5,1,0,3
5,1,8,4
5,2,0,1
5,2,1,2
5,2,7,8
5,2,8,7
5,3,0,2
5,3,8,9
5,5,0,4
5,5,8,2
5,6,0,6
5,6,1,5
5,6,7,2
5,6,8,3
5,7,0,9
5,7,8,1
5,8,1,7
5,8,3,2
5,8,5,1
5,8,7,4
6,0,4,4
6,2,1,9
6,2,2,4
6,2,6,7
6,2,7,6
6,3,2,7
6,3,6,1
6,4,1,5
6,4,7,9
6,5,2,8
6,5,6,2
6,6,1,6
6,6,2,2
6,6,6,3
6,6,7,5
6,8,4,3
7,0,0,4
7,0,8,6
7,1,3,8
7,1,4,9
7,1,5,4
7,2,2,3
7,2,4,6
7,2,6,9
7,3,3,3
7,3,5,1
7,4,0,7
7,4,8,3
7,5,3,2
7,5,5,6
7,6,2,8
7,6,4,1
7,6,6,7
7,7,3,4
7,7,4,8
7,7,5,9
7,8,0,3
7,8,8,4
8,1,2,8
8,1,4,1
8,1,6,6
8,2,1,6
8,2,7,3
8,4,3,1
8,4,5,5
8,6,1,3
8,6,7,8
8,7,2,4
8,7,4,5
8,7,6,2
