0,1,0,9
0,1,8,3
0,2,3,8
0,2,5,5
0,3,0,1
0,3,8,7
0,4,0,8
0,4,4,9
0,4,8,2
0,5,0,3
0,5,8,6
0,6,3,4
0,6,5,6
0,7,0,6
0,7,8,9
1,1,2,1
1,1,6,8
1,2,2,8
1,2,6,3
1,3,0,9
1,3,8,1
1,5,0,5
1,5,8,3
1,6,2,5
1,6,6,4
1,7,2,9
1,7,6,5
2,0,1,6
2,0,7,3
2,1,3,2
2,1,4,5
2,1,5,8
2,2,1,2
2,2,7,8
2,3,2,8
2,3,4,1
2,3,6,3
2,4,0,7
2,4,2,3
2,4,6,1
2,4,8,5
2,5,2,1
2,5,4,3
2,5,6,8
2,6,1,8
2,6,7,9
2,7,3,8
2,7,4,2
2,7,5,9
2,8,1,1
2,8,7,5
3,0,0,2
3,0,2,1
3,0,6,8
3,0,8,4
3,1,0,6
3,1,8,5
3,2,2,3
3,2,6,1
3,3,1,1
3,3,7,9
3,4,4,7
3,5,1,3
3,5,7,5
3,6,2,9
3,6,6,5
3,7,0,8
3,7,8,2
3,8,0,3
3,8,2,5
3,8,6,4
3,8,8,6
4,1,0,1
4,1,3,6
4,1,5,3
4,1,8,7
4,2,1,6
4,2,2,9
4,2,6,5
4,2,7,3
4,6,1,3
4,6,2,7
4,6,6,6
4,6,7,4
4,7,0,9
4,7,3,3
4,7,5,4
4,7,8,8
5,0,0,9
5,0,2,6
5,0,6,2
5,0,8,3
5,1,0,4
5,1,8,1
5,2,2,2
5,2,6,7
5,3,1,6
5,3,7,3
5,4,4,4
5,5,1,2
5,5,7,8
5,6,2,8
5,6,6,3
5,7,0,7
5,7,8,4
5,8,0,2
5,8,2,1
5,8,6,8
5,8,8,5
6,0,1,3
6,0,7,9
6,1,3,3
6,1,4,6
6,1,5,9
6,2,1,8
6,2,7,5
6,3,2,9
6,3,4,4
6,3,6,5
6,4,0,1
6,4,2,4
6,4,6,9
6,4,8,7
6,5,2,5
6,5,4,9
6,5,6,4
6,6,1,5
6,6,7,6
6,7,3,4
6,7,4,3
6,7,5,6
6,8,1,4
6,8,7,2
7,1,2,9
7,1,6,5
7,2,2,4
7,2,6,9
7,3,0,2
7,3,8,9
7,5,0,7
7,5,8,5
7,6,2,2
7,6,6,7
7,7,2,6
7,7,6,2
8,1,0,7
8,1,8,9
8,2,3,9
8,2,5,6
8,3,0,5
8,3,8,3
8,4,0,9
8,4,4,2
8,4,8,1
8,5,0,4
8,5,8,8
8,6,3,7
8,6,5,1
8,7,0,3
8,7,8,6
