0,1,2,8
0,1,6,9
0,3,2,9
0,3,6,6
0,5,2,6
0,5,6,3
0,7,2,1
0,7,6,4
1,0,1,3
1,0,7,8
1,1,0,4
1,1,1,2
1,1,7,7
1,1,8,3
1,7,0,5
1,7,1,6
1,7,7,2
1,7,8,8
1,8,1,9
1,8,7,4
2,0,0,6
2,0,3,7
2,0,5,4
2,0,8,9
2,1,2,3
2,1,6,4
2,3,0,2
2,3,2,4
2,3,6,7
2,3,8,5
2,4,2,1
2,4,6,9
2,5,0,8
2,5,2,7
2,5,6,1
2,5,8,6
2,7,2,8
2,7,6,5
2,8,0,3
2,8,3,1
2,8,5,7
2,8,8,2
3,1,2,2
3,1,6,3
3,3,0,5
3,3,8,8
3,5,0,2
3,5,8,9
3,7,2,6
3,7,6,8
4,0,2,3
4,0,6,5
4,1,2,6
4,1,3,3
4,1,5,2
4,1,6,1
4,2,1,1
4,2,7,3
4,6,1,6
4,6,7,7
4,7,2,7
4,7,3,8
4,7,5,6
4,7,6,3
4,8,2,4
4,8,6,6
5,1,2,7
5,1,6,8
5,3,0,9
5,3,8,1
5,5,0,7
5,5,8,4
5,7,2,2
5,7,6,1
6,0,0,1
6,0,3,8
6,0,5,2
6,0,8,6
6,1,2,5
6,1,6,7
6,3,0,8
6,3,2,6
6,3,6,1
6,3,8,2
6,4,2,4
6,4,6,6
6,5,0,5
6,5,2,1
6,5,6,9
6,5,8,3
6,7,2,9
6,7,6,2
6,8,0,4
6,8,3,9
6,8,5,3
6,8,8,1
7,0,1,9
7,0,7,4
7,1,0,6
7,1,1,1
7,1,7,3
7,1,8,5
7,7,0,7
7,7,1,3
7,7,7,8
7,7,8,9
7,8,1,2
7,8,7,7
8,1,2,9
8,1,6,6
8,3,2,2
8,3,6,8
8,5,2,8
8,5,6,4
8,7,2,4
8,7,6,7
