0,0,3,1
0,0,5,3
0,1,0,3
0,1,1,1
0,1,7,8
0,1,8,2
0,2,2,5
0,2,6,6
0,3,2,4
0,3,6,3
0,4,0,2
0,4,8,9
0,5,2,3
0,5,6,8
0,6,2,1
0,6,6,2
0,7,0,4
0,7,1,5
0,7,7,6
0,7,8,3
0,8,3,3
0,8,5,6
1,0,3,8
1,0,5,7
1,3,4,9
1,5,4,6
1,8,3,7
1,8,5,2
2,0,4,9
2,1,2,9
2,1,6,3
2,2,2,8
2,2,6,9
2,3,4,1
2,4,2,1
2,4,6,2
2,5,4,2
2,6,2,4
2,6,6,6
2,7,2,7
2,7,6,4
2,8,4,4
3,0,4,1
3,8,4,7
4,0,1,1
4,0,2,2
4,0,4,5
4,0,6,3
4,0,7,8
4,1,3,6
4,1,5,8
4,2,2,3
4,2,6,5
4,3,2,8
4,3,6,4
4,4,0,1
4,4,8,3
4,5,2,4
4,5,6,7
4,6,2,9
4,6,6,1
4,7,3,7
4,7,5,2
4,8,1,7
4,8,2,1
4,8,4,9
4,8,6,6
4,8,7,3
5,0,4,8
5,8,4,3
6,0,4,7
6,1,2,7
6,1,6,5
6,2,2,6
6,2,6,7
6,3,4,4
6,4,2,4
6,4,6,3
6,5,4,3
6,6,2,2
6,6,6,9
6,7,2,1
6,7,6,2
6,8,4,2
7,0,3,6
7,0,5,1
7,3,4,2
7,5,4,5
7,8,3,1
7,8,5,3
8,0,3,9
8,0,5,5
8,1,0,5
8,1,1,9
8,1,7,6
8,1,8,3
8,2,2,2
8,2,6,4
8,3,2,7
8,3,6,9
8,4,0,3
8,4,8,2
8,5,2,9
8,5,6,6
8,6,2,5
8,6,6,3
8,7,0,2
8,7,1,7
8,7,7,9
8,7,8,4
8,8,3,4
8,8,5,9
