0,0,0,7
0,0,1,8
0,0,7,4
0,0,8,9
0,1,0,4
0,1,3,7
0,1,5,3
0,1,8,2
0,3,1,6
0,3,2,1
0,3,4,9
0,3,6,3
0,3,7,7
0,4,0,3
0,4,3,2
0,4,5,1
0,4,8,4
0,5,1,4
0,5,2,9
0,5,4,7
0,5,6,2
0,5,7,6
0,7,0,1
0,7,3,5
0,7,5,9
0,7,8,7
0,8,0,8
0,8,1,3
0,8,7,9
0,8,8,5
1,1,1,7
1,1,7,5
1,2,2,9
1,2,4,7
1,2,6,2
1,3,2,4
1,3,3,8
1,3,5,7
1,3,6,1
1,5,2,7
1,5,3,1
1,5,5,6
1,5,6,4
1,6,2,3
1,6,4,1
1,6,6,5
1,7,1,9
1,7,7,1
2,0,0,9
2,0,4,3
2,0,8,6
2,1,3,5
2,1,5,9
2,2,4,2
2,4,1,9
2,4,7,1
2,6,4,9
2,7,3,2
2,7,5,1
2,8,0,5
2,8,4,7
2,8,8,1
3,0,0,5
3,0,8,3
3,1,4,9
3,2,2,6
3,2,6,9
3,3,4,2
3,4,3,6
3,4,4,1
3,4,5,7
3,5,4,4
3,6,2,2
3,6,6,7
3,7,4,3
3,8,0,4
3,8,8,2
4,0,1,3
4,0,2,2
4,0,4,5
4,0,6,7
4,0,7,6
4,2,3,7
4,2,5,1
4,3,3,1
4,3,5,6
4,4,0,2
4,4,8,6
4,5,3,2
4,5,5,3
4,6,3,3
4,6,5,8
4,8,1,2
4,8,2,8
4,8,4,4
4,8,6,6
4,8,7,1
5,0,0,6
5,0,8,5
5,1,4,1
5,2,2,8
5,2,6,6
5,3,4,5
5,4,3,8
5,4,4,3
5,4,5,2
5,5,4,6
5,6,2,9
5,6,6,2
5,7,4,9
5,8,0,1
5,8,8,4
6,0,0,4
6,0,4,8
6,0,8,2
6,1,3,9
6,1,5,4
6,2,4,1
6,4,1,4
6,4,7,6
6,6,4,4
6,7,3,1
6,7,5,6
6,8,0,9
6,8,4,3
6,8,8,6
7,1,1,4
7,1,7,6
7,2,2,1
7,2,4,9
7,2,6,3
7,3,2,6
7,3,3,5
7,3,5,9
7,3,6,8
7,5,2,4
7,5,3,8
7,5,5,7
7,5,6,1
7,6,2,5
7,6,4,8
7,6,6,6
7,7,1,1
7,7,7,8
8,0,0,1
8,0,1,2
8,0,7,3
8,0,8,7
8,1,0,8
8,1,3,1
8,1,5,6
8,1,8,5
8,3,1,9
8,3,2,5
8,3,4,8
8,3,6,6
8,3,7,1
8,4,0,6
8,4,3,9
8,4,5,4
8,4,8,3
8,5,1,8
8,5,2,3
8,5,4,1
8,5,6,5
8,5,7,4
8,7,0,5
8,7,3,3
8,7,5,8
8,7,8,1
8,8,0,2
8,8,1,6
8,8,7,7
8,8,8,8
