0,1,3,2
0,1,5,1
0,2,0,6
0,2,8,5
0,3,3,6
0,3,4,4
0,3,5,8
0,5,3,1
0,5,4,7
0,5,5,5
0,6,0,2
0,6,8,9
0,7,3,8
0,7,5,4
1,0,3,5
1,0,5,2
1,3,2,7
1,3,6,6
1,4,4,5
1,5,2,1
1,5,6,3
1,8,3,1
1,8,5,5
2,4,3,8
2,4,5,4
3,0,0,4
3,0,2,8
3,0,6,1
3,0,8,7
3,1,2,1
3,1,6,3
3,2,4,1
3,3,0,2
3,3,2,5
3,3,3,8
3,3,5,6
3,3,6,4
3,3,8,3
3,4,2,9
3,4,6,5
3,5,0,7
3,5,2,4
3,5,3,3
3,5,5,2
3,5,6,9
3,5,8,1
3,6,4,6
3,7,2,6
3,7,6,2
3,8,0,1
3,8,2,7
3,8,6,6
3,8,8,4
4,0,2,5
4,0,3,8
4,0,4,9
4,0,5,7
4,0,6,4
4,1,1,3
4,1,7,6
4,2,0,2
4,2,1,8
4,2,7,7
4,2,8,1
4,3,3,4
4,3,5,1
4,4,0,8
4,4,8,9
4,5,3,9
4,5,5,8
4,6,0,4
4,6,1,6
4,6,7,9
4,6,8,2
4,7,1,7
4,7,7,4
4,8,2,3
4,8,3,6
4,8,4,1
4,8,5,4
4,8,6,8
5,0,0,3
5,0,2,7
5,0,6,6
5,0,8,5
5,1,2,2
5,1,6,7
5,2,4,7
5,3,0,4
5,3,2,8
5,3,3,2
5,3,5,5
5,3,6,1
5,3,8,6
5,4,2,1
5,4,6,3
5,5,0,9
5,5,2,3
5,5,3,7
5,5,5,4
5,5,6,8
5,5,8,2
5,6,4,9
5,7,2,9
5,7,6,5
5,8,0,6
5,8,2,4
5,8,6,9
5,8,8,1
6,4,3,3
6,4,5,5
7,0,3,9
7,0,5,6
7,3,2,2
7,3,6,7
7,4,4,9
7,5,2,8
7,5,6,1
7,8,3,8
7,8,5,9
8,1,3,6
8,1,5,8
8,2,0,7
8,2,8,9
8,3,3,7
8,3,4,5
8,3,5,3
8,5,3,8
8,5,4,2
8,5,5,9
8,6,0,6
8,6,8,4
8,7,3,3
8,7,5,5
