0,1,2,6
0,1,6,5
0,3,0,1
0,3,8,3
0,4,3,1
0,4,5,9
0,5,0,6
0,5,8,9
0,7,2,2
0,7,6,8
1,1,0,9
1,1,1,8
1,1,4,6
1,1,7,4
1,1,8,7
1,2,3,9
1,2,5,5
1,6,3,6
1,6,5,4
1,7,0,5
1,7,1,7
1,7,4,2
1,7,7,1
1,7,8,4
2,0,2,9
2,0,6,4
2,2,3,4
2,2,5,1
2,3,3,3
2,3,5,7
2,4,3,5
2,4,5,8
2,5,3,9
2,5,5,4
2,6,3,2
2,6,5,3
2,8,2,3
2,8,6,7
3,0,4,2
3,1,1,3
3,1,7,2
3,3,0,8
3,3,2,5
3,3,3,2
3,3,5,4
3,3,6,3
3,3,8,1
3,4,0,3
3,4,2,1
3,4,6,2
3,4,8,4
3,5,0,2
3,5,2,4
3,5,3,3
3,5,5,1
3,5,6,8
3,5,8,5
3,7,1,1
3,7,7,4
3,8,4,1
4,0,3,8
4,0,5,5
4,2,0,8
4,2,8,1
4,6,0,1
4,6,8,9
4,8,3,4
4,8,5,9
5,0,4,1
5,1,1,5
5,1,7,1
5,3,0,4
5,3,2,7
5,3,3,1
5,3,5,6
5,3,6,5
5,3,8,9
5,4,0,5
5,4,2,9
5,4,6,1
5,4,8,6
5,5,0,1
5,5,2,6
5,5,3,5
5,5,5,9
5,5,6,4
5,5,8,7
5,7,1,6
5,7,7,7
5,8,4,6
6,0,2,6
6,0,6,5
6,2,3,5
6,2,5,3
6,3,3,8
6,3,5,9
6,4,3,2
6,4,5,1
6,5,3,6
6,5,5,5
6,6,3,4
6,6,5,8
6,8,2,8
6,8,6,9
7,1,0,6
7,1,1,1
7,1,4,7
7,1,7,5
7,1,8,9
7,2,3,6
7,2,5,2
7,6,3,7
7,6,5,5
7,7,0,2
7,7,1,9
7,7,4,4
7,7,7,3
7,7,8,5
8,1,2,7
8,1,6,2
8,3,0,3
8,3,8,8
8,4,3,3
8,4,5,6
8,5,0,7
8,5,8,6
8,7,2,4
8,7,6,1
