0,0,0,6
0,0,8,1
0,3,2,7
0,3,6,5
0,5,2,3
0,5,6,6
0,8,0,5
0,8,8,7
1,1,1,6
1,1,7,7
1,7,1,8
1,7,7,1
2,4,0,9
2,4,2,2
2,4,3,5
2,4,5,7
2,4,6,4
2,4,8,6
3,0,1,1
3,0,7,3
3,1,0,3
3,1,4,4
3,1,8,7
3,2,2,8
3,2,3,5
3,2,4,7
3,2,5,3
3,2,6,4
3,3,2,2
3,3,4,5
3,3,6,3
3,4,2,3
3,4,6,5
3,5,2,5
3,5,4,3
3,5,6,7
3,6,2,1
3,6,3,4
3,6,4,2
3,6,5,8
3,6,6,9
3,7,0,2
3,7,4,1
3,7,8,4
3,8,1,4
3,8,7,5
4,1,2,1
4,1,6,5
4,2,0,6
4,2,2,5
4,2,6,7
4,2,8,9
4,6,0,7
4,6,2,4
4,6,6,2
4,6,8,5
4,7,2,6
4,7,6,3
5,0,1,6
5,0,7,7
5,1,0,2
5,1,4,3
5,1,8,4
5,2,2,7
5,2,3,8
5,2,4,9
5,2,5,6
5,2,6,3
5,3,2,4
5,3,4,1
5,3,6,2
5,4,2,6
5,4,6,1
5,5,2,1
5,5,4,7
5,5,6,4
5,6,2,2
5,6,3,1
5,6,4,5
5,6,5,7
5,6,6,8
5,7,0,4
5,7,4,6
5,7,8,1
5,8,1,1
5,8,7,3
6,4,0,6
6,4,2,1
6,4,3,2
6,4,5,8
6,4,6,7
6,4,8,3
7,1,1,9
7,1,7,4
7,7,1,2
7,7,7,6
8,0,0,2
8,0,8,3
8,3,2,6
8,3,6,4
8,5,2,8
8,5,6,2
8,8,0,4
8,8,8,6
