0,0,0,6
0,0,8,3
0,1,4,7
0,2,0,5
0,2,3,8
0,2,5,6
0,2,8,2
0,3,1,7
0,3,2,4
0,3,6,3
0,3,7,2
0,4,1,3
0,4,7,9
0,5,1,5
0,5,2,9
0,5,6,6
0,5,7,4
0,6,0,4
0,6,3,5
0,6,5,7
0,6,8,6
0,7,4,4
0,8,0,9
0,8,8,4
1,0,2,9
1,0,3,7
1,0,5,3
1,0,6,6
1,4,2,2
1,4,6,8
1,8,2,8
1,8,3,1
1,8,5,4
1,8,6,9
2,0,1,8
2,0,7,5
2,2,0,4
2,2,8,6
2,6,0,8
2,6,8,7
2,8,1,7
2,8,7,2
3,0,3,5
3,0,5,6
3,2,0,3
3,2,8,8
3,3,4,4
3,5,4,1
3,6,0,9
3,6,8,5
3,8,3,7
3,8,5,3
4,0,0,5
4,0,1,9
4,0,7,3
4,0,8,7
4,2,1,7
4,2,2,4
4,2,4,6
4,2,6,9
4,2,7,2
4,3,4,8
4,4,2,5
4,4,3,1
4,4,5,4
4,4,6,3
4,5,4,9
4,6,1,6
4,6,2,8
4,6,4,2
4,6,6,1
4,6,7,7
4,8,0,7
4,8,1,5
4,8,7,8
4,8,8,3
5,0,3,8
5,0,5,7
5,2,0,9
5,2,8,4
5,3,4,5
5,5,4,3
5,6,0,1
5,6,8,8
5,8,3,2
5,8,5,9
6,0,1,6
6,0,7,7
6,2,0,7
6,2,8,1
6,6,0,2
6,6,8,3
6,8,1,9
6,8,7,1
7,0,2,4
7,0,3,1
7,0,5,5
7,0,6,9
7,4,2,9
7,4,6,6
7,8,2,2
7,8,3,8
7,8,5,7
7,8,6,4
8,0,0,9
8,0,8,4
8,1,4,9
8,2,0,2
8,2,3,7
8,2,5,1
8,2,8,9
8,3,1,9
8,3,2,2
8,3,6,4
8,3,7,1
8,4,1,4
8,4,7,8
8,5,1,6
8,5,2,8
8,5,6,9
8,5,7,7
8,6,0,6
8,6,3,2
8,6,5,3
8,6,8,1
8,7,4,7
8,8,0,8
8,8,8,2
