0,0,2,7
0,0,6,6
0,4,0,4
0,4,1,2
0,4,7,1
0,4,8,8
0,8,2,1
0,8,6,9
1,0,1,2
1,0,3,5
1,0,5,9
1,0,7,1
1,1,1,9
1,1,4,1
1,1,7,6
1,2,2,8
1,2,4,4
1,2,6,9
1,3,0,9
1,3,8,6
1,4,1,3
1,4,7,7
1,5,0,6
1,5,8,1
1,6,2,3
1,6,4,2
1,6,6,7
1,7,1,6
1,7,4,5
1,7,7,8
1,8,1,7
1,8,3,1
1,8,5,3
1,8,7,4
2,0,0,8
2,0,8,5
2,2,1,7
2,2,7,2
2,4,0,7
2,4,8,2
2,6,1,5
2,6,7,6
2,8,0,4
2,8,8,8
3,0,3,4
3,0,5,8
3,2,4,7
3,4,1,8
3,4,7,3
3,6,4,4
3,8,3,3
3,8,5,9
4,0,1,4
4,0,7,6
4,1,3,8
4,1,5,5
4,2,1,2
4,2,7,4
4,3,2,1
4,3,3,2
4,3,5,3
4,3,6,6
4,5,2,8
4,5,3,6
4,5,5,1
4,5,6,4
4,6,1,1
4,6,7,8
4,7,3,7
4,7,5,4
4,8,1,8
4,8,7,3
5,0,3,9
5,0,5,6
5,2,4,8
5,4,1,4
5,4,7,6
5,6,4,5
5,8,3,4
5,8,5,8
6,0,0,5
6,0,8,6
6,2,1,4
6,2,7,3
6,4,0,2
6,4,8,3
6,6,1,2
6,6,7,1
6,8,0,3
6,8,8,9
7,0,1,6
7,0,3,7
7,0,5,5
7,0,7,8
7,1,1,5
7,1,4,8
7,1,7,4
7,2,2,3
7,2,4,2
7,2,6,5
7,3,0,5
7,3,8,4
7,4,1,1
7,4,7,9
7,5,0,4
7,5,8,8
7,6,2,1
7,6,4,6
7,6,6,9
7,7,1,4
7,7,4,7
7,7,7,3
7,8,1,9
7,8,3,8
7,8,5,1
7,8,7,2
8,0,2,8
8,0,6,9
8,4,0,9
8,4,1,5
8,4,7,2
8,4,8,6
8,8,2,4
8,8,6,1
