0,1,3,6
0,1,5,7
0,4,0,3
0,4,8,5
0,7,3,2
0,7,5,6
1,0,0,1
1,0,8,5
1,1,0,4
1,1,8,6
1,2,2,6
1,2,3,4
1,2,5,5
1,2,6,1
1,4,4,1
1,6,2,1
1,6,3,7
1,6,5,2
1,6,6,5
1,7,0,5
1,7,8,2
1,8,0,7
1,8,8,1
2,0,2,4
2,0,6,7
2,2,1,8
2,2,2,1
2,2,3,7
2,2,4,6
2,2,5,2
2,2,6,9
2,2,7,5
2,3,3,1
2,3,5,8
2,4,3,5
2,4,5,9
2,5,3,2
2,5,5,6
2,6,1,9
2,6,2,5
2,6,3,8
2,6,4,1
2,6,5,3
2,6,6,6
2,6,7,2
2,8,2,3
2,8,6,4
3,0,1,8
3,0,7,5
3,1,4,4
3,3,2,8
3,3,6,5
3,4,0,7
3,4,1,1
3,4,2,3
3,4,6,2
3,4,7,8
3,4,8,6
3,5,2,4
3,5,6,1
3,7,4,5
3,8,1,4
3,8,7,1
4,0,0,5
4,0,1,4
4,0,7,3
4,0,8,7
4,1,2,8
4,1,4,7
4,1,6,4
4,2,0,7
4,2,2,3
4,2,6,2
4,2,8,6
4,4,1,6
4,4,4,3
4,4,7,5
4,6,0,9
4,6,2,4
4,6,6,3
4,6,8,1
4,7,2,6
4,7,4,1
4,7,6,5
4,8,0,1
4,8,1,3
4,8,7,6
4,8,8,2
5,0,1,7
5,0,7,2
5,1,4,8
5,3,2,7
5,3,6,8
5,4,0,5
5,4,1,4
5,4,2,9
5,4,6,3
5,4,7,7
5,4,8,1
5,5,2,6
5,5,6,4
5,7,4,6
5,8,1,2
5,8,7,5
6,0,2,2
6,0,6,3
6,2,1,5
6,2,2,4
6,2,3,3
6,2,4,8
6,2,5,1
6,2,6,7
6,2,7,6
6,3,3,5
6,3,5,9
6,4,3,2
6,4,5,6
6,5,3,1
6,5,5,8
6,6,1,2
6,6,2,7
6,6,3,4
6,6,4,9
6,6,5,5
6,6,6,8
6,6,7,1
6,8,2,5
6,8,6,6
7,0,0,8
7,0,8,9
7,1,0,5
7,1,8,7
7,2,2,7
7,2,3,5
7,2,5,9
7,2,6,8
7,4,4,8
7,6,2,8
7,6,3,2
7,6,5,6
7,6,6,9
7,7,0,9
7,7,8,6
7,8,0,2
7,8,8,8
8,1,3,4
8,1,5,5
8,4,0,6
8,4,8,3
8,7,3,5
8,7,5,9
