0,1,0,2
0,1,1,6
0,1,7,3
0,1,8,1
0,3,1,8
0,3,7,5
0,4,3,8
0,4,5,1
0,5,1,2
0,5,7,1
0,7,0,8
0,7,1,3
0,7,7,7
0,7,8,5
1,0,0,6
1,0,4,5
1,0,8,8
1,1,3,2
1,1,5,9
1,3,0,7
1,3,8,2
1,4,0,2
1,4,1,6
1,4,7,8
1,4,8,3
1,5,0,8
1,5,8,7
1,7,3,1
1,7,5,3
1,8,0,9
1,8,4,4
1,8,8,1
2,0,0,8
2,0,8,4
2,8,0,1
2,8,8,7
3,0,0,1
3,0,1,8
3,0,7,7
3,0,8,5
3,1,3,8
3,1,5,1
3,2,3,7
3,2,5,4
3,3,1,6
3,3,2,9
3,3,3,4
3,3,5,5
3,3,6,1
3,3,7,8
3,4,0,8
3,4,8,7
3,5,1,5
3,5,2,4
3,5,3,3
3,5,5,8
3,5,6,6
3,5,7,9
3,6,3,1
3,6,5,3
3,7,3,5
3,7,5,7
3,8,0,3
3,8,1,1
3,8,7,5
3,8,8,4
4,0,4,1
4,1,0,9
4,1,8,3
4,2,1,3
4,2,2,1
4,2,6,7
4,2,7,5
4,4,0,5
4,4,8,6
4,6,1,6
4,6,2,9
4,6,6,3
4,6,7,1
4,7,0,1
4,7,8,7
4,8,4,3
5,0,0,2
5,0,1,6
5,0,7,3
5,0,8,1
5,1,3,9
5,1,5,6
5,2,3,1
5,2,5,3
5,3,1,7
5,3,2,5
5,3,3,8
5,3,5,1
5,3,6,2
5,3,7,6
5,4,0,9
5,4,8,8
5,5,1,8
5,5,2,3
5,5,3,6
5,5,5,2
5,5,6,7
5,5,7,5
5,6,3,2
5,6,5,9
5,7,3,3
5,7,5,8
5,8,0,6
5,8,1,9
5,8,7,8
5,8,8,3
6,0,0,3
6,0,8,7
6,8,0,8
6,8,8,5
7,0,0,5
7,0,4,3
7,0,8,6
7,1,3,7
7,1,5,4
7,3,0,8
7,3,8,7
7,4,0,7
7,4,1,5
7,4,7,9
7,4,8,2
7,5,0,2
7,5,8,3
7,7,3,6
7,7,5,2
7,8,0,4
7,8,4,8
7,8,8,9
8,1,0,8
8,1,1,3
8,1,7,5
8,1,8,4
8,3,1,4
8,3,7,2
8,4,3,7
8,4,5,4
8,5,1,1
8,5,7,7
8,7,0,7
8,7,1,5
8,7,7,9
8,7,8,2
