0,1,1,3
0,1,2,5
0,1,6,1
0,1,7,7
0,3,4,1
0,4,3,9
0,4,5,4
0,5,4,8
0,7,1,6
0,7,2,8
0,7,6,2
0,7,7,3
1,0,0,3
1,0,8,1
1,1,3,6
1,1,5,5
1,2,0,1
1,2,2,9
1,2,6,5
1,2,8,8
1,3,3,3
1,3,5,9
1,4,1,2
1,4,4,5
1,4,7,1
1,5,3,1
1,5,5,2
1,6,0,6
1,6,2,5
1,6,6,3
1,6,8,2
1,7,3,5
1,7,5,3
1,8,0,9
1,8,8,6
2,0,2,8
2,0,3,1
2,0,5,6
2,0,6,9
2,3,0,2
2,3,1,3
2,3,3,5
2,3,5,8
2,3,7,4
2,3,8,9
2,4,2,4
2,4,6,3
2,5,0,6
2,5,1,1
2,5,3,4
2,5,5,3
2,5,7,7
2,5,8,2
2,8,2,6
2,8,3,9
2,8,5,4
2,8,6,7
3,1,1,4
3,1,2,3
3,1,6,2
3,1,7,1
3,2,2,8
3,2,6,7
3,4,3,6
3,4,5,3
3,6,2,7
3,6,6,5
3,7,1,5
3,7,2,4
3,7,6,9
3,7,7,2
4,0,0,8
4,0,2,2
4,0,4,1
4,0,6,6
4,0,8,3
4,2,0,3
4,2,4,8
4,2,8,1
4,3,1,2
4,3,7,1
4,4,0,6
4,4,2,8
4,4,6,4
4,4,8,5
4,5,1,4
4,5,7,8
4,6,0,2
4,6,4,4
4,6,8,7
4,8,0,4
4,8,2,5
4,8,4,7
4,8,6,3
4,8,8,2
5,1,1,8
5,1,2,9
5,1,6,3
5,1,7,6
5,2,2,6
5,2,6,8
5,4,3,4
5,4,5,5
5,6,2,8
5,6,6,2
5,7,1,2
5,7,2,1
5,7,6,7
5,7,7,8
6,0,2,7
6,0,3,5
6,0,5,1
6,0,6,3
6,3,0,3
6,3,1,7
6,3,3,6
6,3,5,5
6,3,7,9
6,3,8,1
6,4,2,9
6,4,6,5
6,5,0,1
6,5,1,5
6,5,3,9
6,5,5,4
6,5,7,2
6,5,8,8
6,8,2,8
6,8,3,1
6,8,5,9
6,8,6,2
7,0,0,1
7,0,8,8
7,1,3,9
7,1,5,4
7,2,0,8
7,2,2,2
7,2,6,4
7,2,8,3
7,3,3,1
7,3,5,2
7,4,1,6
7,4,4,4
7,4,7,8
7,5,3,8
7,5,5,6
7,6,0,9
7,6,2,4
7,6,6,1
7,6,8,6
7,7,3,4
7,7,5,1
7,8,0,2
7,8,8,9
8,1,1,2
8,1,2,8
8,1,6,9
8,1,7,3
8,3,4,9
8,4,3,5
8,4,5,8
8,5,4,2
8,7,1,7
8,7,2,2
8,7,6,4
8,7,7,9
