0,3,3,7
0,3,5,2
0,5,3,3
0,5,5,8
1,1,3,5
1,1,5,9
1,2,0,7
1,2,8,5
1,6,0,3
1,6,8,7
1,7,3,3
1,7,5,8
2,0,0,2
2,0,1,7
2,0,3,3
2,0,4,1
2,0,5,8
2,0,7,4
2,0,8,9
2,3,0,1
2,3,8,7
2,4,4,8
2,5,0,9
2,5,8,3
2,8,0,7
2,8,1,6
2,8,3,8
2,8,4,3
2,8,5,1
2,8,7,5
2,8,8,4
3,0,1,4
3,0,4,5
3,0,7,9
3,2,0,6
3,2,8,8
3,3,3,4
3,3,5,7
3,4,2,6
3,4,6,9
3,5,3,9
3,5,5,6
3,6,0,1
3,6,8,4
3,8,1,2
3,8,4,7
3,8,7,6
4,0,2,9
4,0,6,8
4,2,0,1
4,2,3,8
4,2,5,9
4,2,8,4
4,6,0,4
4,6,3,5
4,6,5,7
4,6,8,6
4,8,2,7
4,8,6,5
5,0,1,1
5,0,4,8
5,0,7,3
5,2,0,4
5,2,8,2
5,3,3,3
5,3,5,5
5,4,2,5
5,4,6,3
5,5,3,1
5,5,5,4
5,6,0,7
5,6,8,8
5,8,1,5
5,8,4,9
5,8,7,4
6,0,0,6
6,0,1,2
6,0,3,8
6,0,4,3
6,0,5,1
6,0,7,5
6,0,8,4
6,3,0,3
6,3,8,2
6,4,4,1
6,5,0,4
6,5,8,8
6,8,0,2
6,8,1,7
6,8,3,1
6,8,4,8
6,8,5,3
6,8,7,9
6,8,8,5
7,1,3,1
7,1,5,3
7,2,0,9
7,2,8,3
7,6,0,6
7,6,8,9
7,7,3,6
7,7,5,7
8,3,3,1
8,3,5,3
8,5,3,5
8,5,5,9
