0,0,2,7
0,0,6,6
0,2,0,9
0,2,8,5
0,3,1,7
0,3,3,9
0,3,5,3
0,3,7,4
0,5,1,2
0,5,3,5
0,5,5,7
0,5,7,9
0,6,0,7
0,6,8,2
0,8,2,6
0,8,6,4
1,1,1,4
1,1,3,8
1,1,5,5
1,1,7,6
1,2,3,6
1,2,5,9
1,3,3,7
1,3,5,1
1,5,3,2
1,5,5,6
1,6,3,9
1,6,5,7
1,7,1,7
1,7,3,4
1,7,5,3
1,7,7,5
2,1,4,1
2,4,0,2
2,4,2,6
2,4,6,9
2,4,8,3
2,7,4,9
3,0,0,3
3,0,8,7
3,1,1,9
3,1,7,8
3,2,1,4
3,2,2,1
3,2,4,3
3,2,6,9
3,2,7,6
3,4,1,6
3,4,7,3
3,6,1,3
3,6,2,4
3,6,4,6
3,6,6,7
3,6,7,9
3,7,1,2
3,7,7,4
3,8,0,1
3,8,8,6
4,4,4,2
5,0,0,9
5,0,8,5
5,1,1,1
5,1,7,2
5,2,1,8
5,2,2,3
5,2,4,9
5,2,6,1
5,2,7,7
5,4,1,7
5,4,7,4
5,6,1,5
5,6,2,6
5,6,4,7
5,6,6,4
5,6,7,8
5,7,1,9
5,7,7,6
5,8,0,3
5,8,8,7
6,1,4,4
6,4,0,6
6,4,2,4
6,4,6,3
6,4,8,8
6,7,4,7
7,1,1,5
7,1,3,6
7,1,5,9
7,1,7,1
7,2,3,1
7,2,5,4
7,3,3,3
7,3,5,8
7,5,3,7
7,5,5,1
7,6,3,4
7,6,5,3
7,7,1,3
7,7,3,5
7,7,5,2
7,7,7,9
8,0,2,9
8,0,6,3
8,2,0,8
8,2,8,1
8,3,1,4
8,3,3,1
8,3,5,5
8,3,7,8
8,5,1,9
8,5,3,6
8,5,5,4
8,5,7,1
8,6,0,5
8,6,8,4
8,8,2,3
8,8,6,1
