0,1,4,2
0,2,4,3
0,3,0,9
0,3,2,1
0,3,6,2
0,3,8,8
0,4,1,5
0,4,2,8
0,4,3,9
0,4,5,1
0,4,6,3
0,4,7,6
0,5,0,3
0,5,2,7
0,5,6,9
0,5,8,1
0,6,4,8
0,7,4,7
1,0,1,4
1,0,2,1
1,0,6,5
1,0,7,8
1,1,1,8
1,1,7,7
1,4,0,1
1,4,2,4
1,4,6,8
1,4,8,5
1,7,1,6
1,7,7,1
1,8,1,1
1,8,2,9
1,8,6,2
1,8,7,5
2,0,3,2
2,0,5,8
2,1,0,1
2,1,8,8
2,2,1,5
2,2,4,9
2,2,7,6
2,4,0,6
2,4,8,9
2,6,1,4
2,6,4,3
2,6,7,2
2,7,0,8
2,7,8,6
2,8,3,8
2,8,5,5
3,0,0,1
3,0,8,8
3,1,1,5
3,1,2,9
3,1,4,8
3,1,6,3
3,1,7,2
3,2,1,4
3,2,7,9
3,6,1,2
3,6,7,8
3,7,1,1
3,7,2,6
3,7,4,9
3,7,6,2
3,7,7,4
3,8,0,9
3,8,8,5
4,0,2,6
4,0,6,2
4,1,0,4
4,1,4,3
4,1,8,5
4,2,2,1
4,2,3,6
4,2,5,9
4,2,6,7
4,4,1,1
4,4,7,4
4,6,2,5
4,6,3,9
4,6,5,8
4,6,6,4
4,7,0,7
4,7,4,2
4,7,8,1
4,8,2,3
4,8,6,8
5,0,0,7
5,0,8,9
5,1,1,1
5,1,2,3
5,1,4,9
5,1,6,8
5,1,7,4
5,2,1,6
5,2,7,3
5,6,1,9
5,6,7,1
5,7,1,3
5,7,2,2
5,7,4,6
5,7,6,9
5,7,7,7
5,8,0,6
5,8,8,4
6,0,3,1
6,0,5,4
6,1,0,3
6,1,8,4
6,2,1,9
6,2,4,6
6,2,7,5
6,4,0,5
6,4,8,3
6,6,1,3
6,6,4,2
6,6,7,4
6,7,0,9
6,7,8,5
6,8,3,9
6,8,5,1
7,0,1,1
7,0,2,9
7,0,6,8
7,0,7,2
7,1,1,2
7,1,7,3
7,4,0,9
7,4,2,1
7,4,6,2
7,4,8,8
7,7,1,7
7,7,7,9
7,8,1,9
7,8,2,4
7,8,6,5
7,8,7,8
8,1,4,7
8,2,4,4
8,3,0,8
8,3,2,5
8,3,6,7
8,3,8,6
8,4,1,3
8,4,2,6
8,4,3,8
8,4,5,5
8,4,6,1
8,4,7,9
8,5,0,1
8,5,2,4
8,5,6,8
8,5,8,5
8,6,4,6
8,7,4,1
