0,1,0,4
0,1,3,5
0,1,5,6
0,1,8,8
0,2,1,6
0,2,7,7
0,3,0,7
0,3,1,4
0,3,3,6
0,3,5,9
0,3,7,8
0,3,8,1
0,4,4,1
0,5,0,1
0,5,1,3
0,5,3,2
0,5,5,4
0,5,7,6
0,5,8,5
0,6,1,5
0,6,7,4
0,7,0,3
0,7,3,4
0,7,5,7
0,7,8,6
1,1,3,2
1,1,5,4
1,3,4,2
1,4,0,2
1,4,8,8
1,5,4,8
1,7,3,8
1,7,5,3
2,0,2,4
2,0,3,9
2,0,5,5
2,0,6,3
2,2,3,4
2,2,5,7
2,3,1,6
2,3,4,3
2,3,7,7
2,4,2,1
2,4,6,6
2,5,1,2
2,5,4,9
2,5,7,1
2,6,3,2
2,6,5,4
2,8,2,6
2,8,3,3
2,8,5,1
2,8,6,4
3,0,1,2
3,0,7,3
3,4,1,3
3,4,3,5
3,4,5,1
3,4,7,6
3,8,1,5
3,8,7,4
4,0,4,1
4,1,0,1
4,1,8,3
4,4,0,6
4,4,8,5
4,7,0,2
4,7,8,9
4,8,4,9
5,0,1,8
5,0,7,6
5,4,1,5
5,4,3,2
5,4,5,6
5,4,7,4
5,8,1,2
5,8,7,8
6,0,2,8
6,0,3,4
6,0,5,7
6,0,6,5
6,2,3,8
6,2,5,3
6,3,1,2
6,3,4,9
6,3,7,1
6,4,2,5
6,4,6,2
6,5,1,8
6,5,4,4
6,5,7,5
6,6,3,3
6,6,5,1
6,8,2,2
6,8,3,6
6,8,5,9
6,8,6,1
7,1,3,7
7,1,5,2
7,3,4,7
7,4,0,7
7,4,8,1
7,5,4,1
7,7,3,1
7,7,5,8
8,1,0,5
8,1,3,1
8,1,5,8
8,1,8,7
8,2,1,8
8,2,7,6
8,3,0,6
8,3,1,5
8,3,3,3
8,3,5,1
8,3,7,4
8,3,8,2
8,4,4,2
8,5,0,2
8,5,1,7
8,5,3,9
8,5,5,5
8,5,7,3
8,5,8,8
8,6,1,3
8,6,7,5
8,7,0,4
8,7,3,5
8,7,5,6
8,7,8,1
