1,1,0,7
1,1,1,4
1,1,4,8
1,1,7,6
1,1,8,2
1,2,0,1
1,2,8,3
1,4,3,5
1,4,5,7
1,6,0,3
1,6,8,6
1,7,0,4
1,7,1,1
1,7,4,5
1,7,7,7
1,7,8,9
2,0,0,4
2,0,2,8
2,0,3,2
2,0,5,1
2,0,6,6
2,0,8,9
2,1,2,1
2,1,6,5
2,2,1,7
2,2,7,4
2,3,4,8
2,5,4,9
2,6,1,2
2,6,7,9
2,7,2,7
2,7,6,1
2,8,0,8
2,8,2,3
2,8,3,1
2,8,5,9
2,8,6,4
2,8,8,7
3,0,0,7
3,0,1,9
3,0,7,6
3,0,8,2
3,2,2,2
3,2,3,7
3,2,5,1
3,2,6,3
3,3,1,2
3,3,7,9
3,4,4,4
3,5,1,5
3,5,7,1
3,6,2,8
3,6,3,2
3,6,5,6
3,6,6,1
3,8,0,1
3,8,1,7
3,8,7,5
3,8,8,6
4,0,0,2
4,0,2,6
4,0,4,7
4,0,6,9
4,0,8,8
4,1,2,9
4,1,6,2
4,4,0,4
4,4,8,9
4,7,2,3
4,7,6,4
4,8,0,6
4,8,2,4
4,8,4,1
4,8,6,8
4,8,8,3
5,0,0,8
5,0,1,5
5,0,7,1
5,0,8,7
5,2,2,7
5,2,3,8
5,2,5,3
5,2,6,6
5,3,1,7
5,3,7,5
5,4,4,9
5,5,1,4
5,5,7,3
5,6,2,2
5,6,3,7
5,6,5,1
5,6,6,3
5,8,0,3
5,8,1,8
5,8,7,4
5,8,8,1
6,0,0,3
6,0,2,4
6,0,3,5
6,0,5,8
6,0,6,2
6,0,8,6
6,1,2,8
6,1,6,3
6,2,1,5
6,2,7,1
6,3,4,5
6,5,4,6
6,6,1,4
6,6,7,3
6,7,2,9
6,7,6,8
6,8,0,5
6,8,2,7
6,8,3,8
6,8,5,1
6,8,6,6
6,8,8,4
7,1,0,5
7,1,1,6
7,1,4,9
7,1,7,2
7,1,8,4
7,2,0,8
7,2,8,7
7,4,3,6
7,4,5,9
7,6,0,7
7,6,8,2
7,7,0,3
7,7,1,8
7,7,4,1
7,7,7,4
7,7,8,6
