0,0,0,2
0,0,8,5
0,1,0,3
0,1,8,8
0,2,2,8
0,2,6,2
0,3,4,2
0,4,3,4
0,4,5,6
0,5,4,9
0,6,2,5
0,6,6,9
0,7,0,4
0,7,8,7
0,8,0,6
0,8,8,4
1,1,1,8
1,1,2,5
1,1,3,6
1,1,5,3
1,1,6,9
1,1,7,7
1,2,1,3
1,2,7,5
1,3,0,5
1,3,8,7
1,4,1,4
1,4,3,9
1,4,5,8
1,4,7,6
1,5,0,7
1,5,8,8
1,6,1,2
1,6,7,1
1,7,1,7
1,7,2,6
1,7,3,1
1,7,5,5
1,7,6,8
1,7,7,4
2,1,1,2
2,1,7,3
2,2,2,6
2,2,4,2
2,2,6,8
2,3,2,2
2,3,6,6
2,4,0,6
2,4,8,4
2,5,2,5
2,5,6,9
2,6,2,9
2,6,4,5
2,6,6,4
2,7,1,3
2,7,7,9
3,0,2,4
3,0,4,9
3,0,6,5
3,1,4,8
3,2,3,4
3,2,5,6
3,3,0,6
3,3,3,9
3,3,5,2
3,3,8,5
3,4,4,5
3,5,0,5
3,5,3,7
3,5,5,4
3,5,8,3
3,6,3,1
3,6,5,9
3,7,4,7
3,8,2,5
3,8,4,4
3,8,6,9
4,0,0,7
4,0,8,6
4,1,4,6
4,2,2,1
4,2,6,3
4,3,3,4
4,3,5,8
4,4,1,8
4,4,7,3
4,5,3,3
4,5,5,5
4,6,2,2
4,6,6,6
4,7,4,3
4,8,0,3
4,8,8,8
5,0,2,9
5,0,4,5
5,0,6,4
5,1,4,2
5,2,3,9
5,2,5,8
5,3,0,8
5,3,3,5
5,3,5,6
5,3,8,4
5,4,4,4
5,5,0,4
5,5,3,1
5,5,5,9
5,5,8,7
5,6,3,3
5,6,5,5
5,7,4,1
5,8,2,4
5,8,4,9
5,8,6,5
6,1,1,9
6,1,7,6
6,2,2,5
6,2,4,4
6,2,6,9
6,3,2,9
6,3,6,4
6,4,0,5
6,4,8,3
6,5,2,1
6,5,6,7
6,6,2,7
6,6,4,1
6,6,6,3
6,7,1,8
6,7,7,7
7,1,1,4
7,1,2,1
7,1,3,9
7,1,5,2
7,1,6,7
7,1,7,8
7,2,1,8
7,2,7,1
7,3,0,1
7,3,8,8
7,4,1,3
7,4,3,7
7,4,5,5
7,4,7,4
7,5,0,2
7,5,8,9
7,6,1,9
7,6,7,2
7,7,1,2
7,7,2,5
7,7,3,8
7,7,5,1
7,7,6,9
7,7,7,3
8,0,0,9
8,0,8,1
8,1,0,8
8,1,8,9
8,2,2,4
8,2,6,5
8,3,4,4
8,4,3,3
8,4,5,9
8,5,4,7
8,6,2,1
8,6,6,7
8,7,0,3
8,7,8,8
8,8,0,5
8,8,8,3
