0,1,1,2
0,1,3,5
0,1,5,7
0,1,7,4
0,2,0,3
0,2,8,1
0,3,2,7
0,3,6,3
0,4,1,1
0,4,7,6
0,5,2,6
0,5,6,1
0,6,0,7
0,6,8,2
0,7,1,9
0,7,3,3
0,7,5,5
0,7,7,8
1,2,2,8
1,2,3,1
1,2,5,4
1,2,6,9
1,3,4,3
1,5,4,1
1,6,2,2
1,6,3,7
1,6,5,3
1,6,6,8
2,0,4,9
2,1,4,4
2,2,2,2
2,2,6,8
2,3,3,8
2,3,5,9
2,5,3,3
2,5,5,5
2,6,2,4
2,6,6,7
2,7,4,1
2,8,4,3
3,2,0,4
3,2,2,6
3,2,6,2
3,2,8,5
3,3,1,6
3,3,3,1
3,3,5,3
3,3,7,5
3,5,1,8
3,5,3,5
3,5,5,7
3,5,7,4
3,6,0,8
3,6,2,1
3,6,6,4
3,6,8,6
4,2,0,2
4,2,1,7
4,2,2,5
4,2,6,1
4,2,7,8
4,2,8,3
4,3,3,9
4,3,5,4
4,5,3,8
4,5,5,1
4,6,0,4
4,6,1,9
4,6,2,6
4,6,6,2
4,6,7,7
4,6,8,5
5,2,0,8
5,2,2,1
5,2,6,4
5,2,8,6
5,3,1,1
5,3,3,7
5,3,5,2
5,3,7,6
5,5,1,2
5,5,3,6
5,5,5,9
5,5,7,1
5,6,0,2
5,6,2,5
5,6,6,1
5,6,8,3
6,0,4,6
6,1,4,7
6,2,2,3
6,2,6,5
6,3,3,4
6,3,5,6
6,5,3,9
6,5,5,2
6,6,2,7
6,6,6,3
6,7,4,5
6,8,4,9
7,2,2,9
7,2,3,5
7,2,5,7
7,2,6,6
7,3,4,9
7,5,4,5
7,6,2,3
7,6,3,8
7,6,5,9
7,6,6,5
8,1,1,3
8,1,3,2
8,1,5,8
8,1,7,7
8,2,0,5
8,2,8,9
8,3,2,1
8,3,6,4
8,4,1,4
8,4,7,1
8,5,2,8
8,5,6,9
8,6,0,1
8,6,8,8
8,7,1,6
8,7,3,9
8,7,5,2
8,7,7,5
