0,0,0,7
0,0,8,9
0,2,4,1
0,3,0,6
0,3,4,3
0,3,8,4
0,4,2,4
0,4,6,5
0,5,0,5
0,5,4,9
0,5,8,6
0,6,4,8
0,8,0,3
0,8,8,2
1,1,2,8
1,1,4,9
1,1,6,2
1,2,4,3
1,3,0,9
1,3,8,5
1,4,4,4
1,5,0,2
1,5,8,1
1,6,4,7
1,7,2,3
1,7,4,1
1,7,6,6
2,2,4,2
2,3,1,5
2,3,7,2
2,5,1,1
2,5,7,5
2,6,4,9
3,0,0,6
3,0,4,3
3,0,8,5
3,1,3,7
3,1,5,2
3,4,4,2
3,7,3,2
3,7,5,6
3,8,0,9
3,8,4,1
3,8,8,7
4,1,3,8
4,1,5,1
4,2,0,2
4,2,4,9
4,2,8,1
4,4,2,3
4,4,6,6
4,6,0,1
4,6,4,6
4,6,8,9
4,7,3,1
4,7,5,5
5,0,0,9
5,0,4,1
5,0,8,7
5,1,3,9
5,1,5,3
5,4,4,3
5,7,3,3
5,7,5,4
5,8,0,8
5,8,4,2
5,8,8,4
6,2,4,5
6,3,1,9
6,3,7,3
6,5,1,2
6,5,7,9
6,6,4,2
7,1,2,1
7,1,4,2
7,1,6,3
7,2,4,4
7,3,0,7
7,3,8,9
7,4,4,7
7,5,0,8
7,5,8,7
7,6,4,3
7,7,2,4
7,7,4,6
7,7,6,5
8,0,0,5
8,0,8,6
8,2,4,6
8,3,0,3
8,3,4,4
8,3,8,2
8,4,2,6
8,4,6,9
8,5,0,9
8,5,4,2
8,5,8,5
8,6,4,1
8,8,0,4
8,8,8,3
