0,0,2,3
0,0,3,6
0,0,4,1
0,0,5,8
0,0,6,7
0,1,0,6
0,1,2,8
0,1,4,2
0,1,6,9
0,1,8,3
0,3,0,4
0,3,4,9
0,3,8,5
0,4,1,9
0,4,7,7
0,5,0,8
0,5,4,7
0,5,8,2
0,7,0,5
0,7,2,7
0,7,4,3
0,7,6,1
0,7,8,6
0,8,2,9
0,8,3,5
0,8,4,8
0,8,5,6
0,8,6,2
1,2,3,1
1,2,5,6
1,3,1,5
1,3,7,1
1,4,2,8
1,4,6,9
1,5,1,2
1,5,7,5
1,6,3,3
1,6,5,2
2,0,3,3
2,0,5,5
2,1,4,6
2,2,2,5
2,2,3,4
2,2,4,7
2,2,5,2
2,2,6,3
2,6,2,3
2,6,3,6
2,6,4,5
2,6,5,8
2,6,6,7
2,7,4,1
2,8,3,9
2,8,5,3
3,3,2,5
3,3,6,9
3,4,2,9
3,4,4,1
3,4,6,6
3,5,2,6
3,5,6,2
4,3,0,2
4,3,3,1
4,3,5,4
4,3,8,6
4,4,4,8
4,5,0,4
4,5,3,6
4,5,5,7
4,5,8,9
5,3,2,7
5,3,6,4
5,4,2,4
5,4,4,7
5,4,6,1
5,5,2,2
5,5,6,7
6,0,3,1
6,0,5,6
6,1,4,4
6,2,2,7
6,2,3,5
6,2,4,3
6,2,5,9
6,2,6,2
6,6,2,2
6,6,3,4
6,6,4,7
6,6,5,1
6,6,6,3
6,7,4,9
6,8,3,8
6,8,5,5
7,2,3,7
7,2,5,4
7,3,1,6
7,3,7,9
7,4,2,2
7,4,6,8
7,5,1,9
7,5,7,7
7,6,3,5
7,6,5,6
8,0,2,5
8,0,3,4
8,0,4,7
8,0,5,2
8,0,6,3
8,1,0,4
8,1,2,1
8,1,4,9
8,1,6,8
8,1,8,2
8,3,0,5
8,3,4,8
8,3,8,7
8,4,1,8
8,4,7,3
8,5,0,2
8,5,4,3
8,5,8,6
8,7,0,9
8,7,2,3
8,7,4,5
8,7,6,7
8,7,8,4
8,8,2,8
8,8,3,7
8,8,4,1
8,8,5,4
8,8,6,9
