0,0,1,5
0,0,4,7
0,0,7,2
0,8,1,1
0,8,4,8
0,8,7,3
1,1,0,7
1,1,8,1
1,2,2,1
1,2,4,9
1,2,6,2
1,6,2,4
1,6,4,7
1,6,6,1
1,7,0,1
1,7,8,9
2,0,0,9
2,0,8,5
2,2,3,4
2,2,4,1
2,2,5,5
2,3,3,1
2,3,5,9
2,5,3,8
2,5,5,6
2,6,3,5
2,6,4,4
2,6,5,8
2,8,0,5
2,8,8,1
3,0,2,6
3,0,6,5
3,1,3,7
3,1,5,6
3,2,1,8
3,2,2,3
3,2,6,7
3,2,7,2
3,3,3,9
3,3,4,5
3,3,5,4
3,4,1,7
3,4,3,8
3,4,5,1
3,4,7,5
3,5,3,6
3,5,4,7
3,5,5,2
3,6,1,9
3,6,2,5
3,6,6,3
3,6,7,1
3,7,3,4
3,7,5,5
3,8,2,7
3,8,6,4
4,3,3,3
4,3,5,8
4,5,3,5
4,5,5,9
5,0,2,8
5,0,6,6
5,1,3,3
5,1,5,8
5,2,1,5
5,2,2,4
5,2,6,3
5,2,7,1
5,3,3,2
5,3,4,6
5,3,5,7
5,4,1,8
5,4,3,4
5,4,5,5
5,4,7,6
5,5,3,1
5,5,4,8
5,5,5,3
5,6,1,2
5,6,2,6
5,6,6,5
5,6,7,4
5,7,3,7
5,7,5,6
5,8,2,1
5,8,6,7
6,0,0,5
6,0,8,3
6,2,3,2
6,2,4,6
6,2,5,3
6,3,3,4
6,3,5,5
6,5,3,9
6,5,5,7
6,6,3,1
6,6,4,2
6,6,5,6
6,8,0,1
6,8,8,9
7,1,0,1
7,1,8,6
7,2,2,6
7,2,4,5
7,2,6,8
7,6,2,2
7,6,4,8
7,6,6,9
7,7,0,9
7,7,8,5
8,0,1,3
8,0,4,1
8,0,7,8
8,8,1,9
8,8,4,6
8,8,7,4
