0,1,3,3
0,1,5,8
0,2,0,9
0,2,8,3
0,3,0,3
0,3,3,2
0,3,5,6
0,3,8,1
0,5,0,4
0,5,3,1
0,5,5,7
0,5,8,6
0,6,0,5
0,6,8,4
0,7,3,8
0,7,5,4
1,1,0,5
1,1,2,3
1,1,6,2
1,1,8,4
1,7,0,3
1,7,2,8
1,7,6,4
1,7,8,1
2,1,0,4
2,1,8,6
2,3,4,3
2,4,1,9
2,4,7,6
2,5,4,6
2,7,0,9
2,7,8,3
3,0,0,4
3,0,8,6
3,1,0,1
3,1,1,5
3,1,7,7
3,1,8,3
3,2,2,6
3,2,6,9
3,4,0,6
3,4,2,3
3,4,3,1
3,4,5,2
3,4,6,7
3,4,8,5
3,6,2,2
3,6,6,5
3,7,0,8
3,7,1,9
3,7,7,6
3,7,8,7
3,8,0,5
3,8,8,4
4,0,4,4
4,2,2,5
4,2,6,1
4,3,1,3
4,3,3,5
4,3,5,1
4,3,7,6
4,4,0,5
4,4,4,6
4,4,8,4
4,5,1,6
4,5,3,2
4,5,5,4
4,5,7,7
4,6,2,7
4,6,6,4
4,8,4,5
5,0,0,5
5,0,8,4
5,1,0,9
5,1,1,6
5,1,7,2
5,1,8,1
5,2,2,4
5,2,6,3
5,4,0,4
5,4,2,1
5,4,3,9
5,4,5,8
5,4,6,2
5,4,8,6
5,6,2,8
5,6,6,6
5,7,0,7
5,7,1,3
5,7,7,4
5,7,8,2
5,8,0,6
5,8,8,5
6,1,0,7
6,1,8,8
6,3,4,5
6,4,1,5
6,4,7,8
6,5,4,8
6,7,0,5
6,7,8,4
7,1,0,2
7,1,2,6
7,1,6,1
7,1,8,7
7,7,0,6
7,7,2,3
7,7,6,7
7,7,8,5
8,1,3,5
8,1,5,1
8,2,0,5
8,2,8,4
8,3,0,6
8,3,3,3
8,3,5,8
8,3,8,5
8,5,0,7
8,5,3,6
8,5,5,9
8,5,8,8
8,6,0,2
8,6,8,7
8,7,3,1
8,7,5,7
