0,0,2,8
0,0,6,3
0,1,4,9
0,7,4,2
0,8,2,1
0,8,6,9
1,0,0,6
1,0,4,3
1,0,8,9
1,1,2,9
1,1,3,6
1,1,5,5
1,1,6,2
1,3,0,5
1,3,8,7
1,5,0,4
1,5,8,3
1,7,2,2
1,7,3,1
1,7,5,8
1,7,6,7
1,8,0,7
1,8,4,9
1,8,8,8
2,0,2,3
2,0,3,9
2,0,5,1
2,0,6,5
2,1,3,4
2,1,5,3
2,2,3,5
2,2,5,7
2,3,1,4
2,3,7,5
2,4,2,2
2,4,6,7
2,5,1,9
2,5,7,4
2,6,3,2
2,6,5,9
2,7,3,6
2,7,5,4
2,8,2,9
2,8,3,8
2,8,5,5
2,8,6,6
3,1,2,1
3,1,6,6
3,2,1,2
3,2,7,4
3,6,1,6
3,6,7,3
3,7,2,9
3,7,6,1
5,1,2,6
5,1,6,4
5,2,1,7
5,2,7,1
5,6,1,9
5,6,7,8
5,7,2,1
5,7,6,6
6,0,2,6
6,0,3,3
6,0,5,2
6,0,6,1
6,1,3,7
6,1,5,6
6,2,3,1
6,2,5,8
6,3,1,3
6,3,7,7
6,4,2,9
6,4,6,8
6,5,1,1
6,5,7,3
6,6,3,4
6,6,5,7
6,7,3,5
6,7,5,1
6,8,2,7
6,8,3,9
6,8,5,3
6,8,6,5
7,0,0,9
7,0,4,6
7,0,8,3
7,1,2,3
7,1,3,9
7,1,5,1
7,1,6,5
7,3,0,7
7,3,8,8
7,5,0,3
7,5,8,6
7,7,2,4
7,7,3,2
7,7,5,9
7,7,6,8
7,8,0,8
7,8,4,7
7,8,8,9
8,0,2,4
8,0,6,6
8,1,4,3
8,7,4,4
8,8,2,2
8,8,6,7
