0,0,2,2
0,0,4,8
0,0,6,1
0,1,0,8
0,1,8,9
0,2,4,9
0,4,0,1
0,4,8,4
0,6,4,7
0,7,0,3
0,7,8,7
0,8,2,4
0,8,4,3
0,8,6,8
1,0,3,6
1,0,5,2
1,1,3,9
1,1,5,3
1,3,2,1
1,3,3,5
1,3,4,2
1,3,5,6
1,3,6,9
1,5,2,5
1,5,3,4
1,5,4,7
1,5,5,8
1,5,6,6
1,7,3,3
1,7,5,1
1,8,3,7
1,8,5,4
2,1,0,2
2,1,8,3
2,7,0,5
2,7,8,1
3,1,2,8
3,1,6,1
3,3,2,6
3,3,6,2
3,4,0,5
3,4,4,9
3,4,8,7
3,5,2,4
3,5,6,8
3,7,2,3
3,7,6,6
4,1,4,5
4,2,4,7
4,3,2,3
4,3,4,1
4,3,6,6
4,4,1,8
4,4,2,9
4,4,3,3
4,4,5,7
4,4,6,5
4,4,7,2
4,5,2,2
4,5,4,8
4,5,6,7
4,6,4,3
4,7,4,6
5,1,2,2
5,1,6,7
5,3,2,5
5,3,6,4
5,4,0,3
5,4,4,2
5,4,8,8
5,5,2,8
5,5,6,1
5,7,2,6
5,7,6,2
6,1,0,3
6,1,8,7
6,7,0,1
6,7,8,4
7,0,3,2
7,0,5,5
7,1,3,3
7,1,5,1
7,3,2,8
7,3,3,6
7,3,4,5
7,3,5,2
7,3,6,7
7,5,2,9
7,5,3,8
7,5,4,4
7,5,5,7
7,5,6,3
7,7,3,1
7,7,5,9
7,8,3,4
7,8,5,8
8,0,2,6
8,0,4,1
8,0,6,2
8,1,0,5
8,1,8,1
8,2,4,5
8,4,0,2
8,4,8,3
8,6,4,9
8,7,0,9
8,7,8,6
8,8,2,3
8,8,4,6
8,8,6,4
