0,1,3,1
0,1,5,4
0,3,1,4
0,3,2,8
0,3,4,6
0,3,6,2
0,3,7,5
0,5,1,5
0,5,2,1
0,5,4,4
0,5,6,9
0,5,7,6
0,7,3,6
0,7,5,9
1,0,4,8
1,3,1,2
1,3,7,9
1,4,1,7
1,4,7,2
1,5,1,9
1,5,7,7
1,8,4,6
2,1,1,4
2,1,3,9
2,1,5,8
2,1,7,5
2,2,0,9
2,2,8,8
2,4,2,2
2,4,6,6
2,6,0,1
2,6,8,5
2,7,1,9
2,7,3,1
2,7,5,5
2,7,7,7
3,1,4,8
3,2,1,2
3,2,7,9
3,3,4,2
3,5,4,3
3,6,1,8
3,6,7,3
3,7,4,9
4,1,1,5
4,1,7,7
4,2,0,7
4,2,8,6
4,3,0,4
4,3,2,6
4,3,6,5
4,3,8,2
4,5,0,9
4,5,2,3
4,5,6,6
4,5,8,1
4,6,0,6
4,6,8,8
4,7,1,3
4,7,7,1
5,1,4,2
5,2,1,4
5,2,7,5
5,3,4,4
5,5,4,9
5,6,1,2
5,6,7,9
5,7,4,5
6,1,1,7
6,1,3,8
6,1,5,6
6,1,7,2
6,2,0,1
6,2,8,4
6,4,2,1
6,4,6,9
6,6,0,4
6,6,8,2
6,7,1,8
6,7,3,5
6,7,5,2
6,7,7,3
7,0,4,3
7,3,1,7
7,3,7,2
7,4,1,9
7,4,7,7
7,5,1,2
7,5,7,9
7,8,4,5
8,1,3,2
8,1,5,3
8,3,1,1
8,3,2,2
8,3,4,3
8,3,6,6
8,3,7,8
8,5,1,3
8,5,2,9
8,5,4,8
8,5,6,4
8,5,7,1
8,7,3,8
8,7,5,4
