0,0,2,6
0,0,6,4
0,2,3,1
0,2,5,6
0,3,0,3
0,3,4,5
0,3,8,1
0,4,2,5
0,4,6,3
0,5,0,8
0,5,4,2
0,5,8,9
0,6,3,6
0,6,5,8
0,8,2,3
0,8,6,6
1,0,2,5
1,0,3,6
1,0,5,8
1,0,6,2
1,1,2,8
1,1,6,5
1,2,2,3
1,2,6,6
1,3,4,3
1,5,4,8
1,6,2,7
1,6,6,8
1,7,2,4
1,7,6,3
1,8,2,1
1,8,3,3
1,8,5,7
1,8,6,4
2,1,4,6
2,7,4,5
3,0,0,6
3,0,1,1
3,0,7,2
3,0,8,7
3,1,1,7
3,1,4,5
3,1,7,3
3,4,2,1
3,4,3,3
3,4,5,9
3,4,6,7
3,7,1,9
3,7,4,2
3,7,7,1
3,8,0,1
3,8,1,4
3,8,7,7
3,8,8,9
5,0,0,5
5,0,1,3
5,0,7,4
5,0,8,6
5,1,1,6
5,1,4,8
5,1,7,5
5,4,2,3
5,4,3,5
5,4,5,7
5,4,6,6
5,7,1,7
5,7,4,9
5,7,7,3
5,8,0,3
5,8,1,8
5,8,7,6
5,8,8,1
6,1,4,3
6,7,4,1
7,0,2,1
7,0,3,3
7,0,5,7
7,0,6,9
7,1,2,7
7,1,6,8
7,2,2,9
7,2,6,3
7,3,4,4
7,5,4,7
7,6,2,5
7,6,6,7
7,7,2,6
7,7,6,5
7,8,2,2
7,8,3,9
7,8,5,4
7,8,6,1
8,0,2,3
8,0,6,6
8,2,3,2
8,2,5,3
8,3,0,5
8,3,4,8
8,3,8,2
8,4,2,6
8,4,6,9
8,5,0,7
8,5,4,9
8,5,8,6
8,6,3,3
8,6,5,7
8,8,2,4
8,8,6,3
