0,0,2,4
0,0,6,9
0,1,0,9
0,1,8,6
0,4,0,3
0,4,8,9
0,7,0,6
0,7,8,8
0,8,2,3
0,8,6,5
1,1,1,7
1,1,7,3
1,3,0,4
1,3,8,1
1,5,0,2
1,5,8,8
1,7,1,3
1,7,7,1
2,0,0,7
2,0,8,8
2,1,2,3
2,1,3,2
2,1,5,7
2,1,6,5
2,2,3,8
2,2,5,4
2,3,2,5
2,3,6,2
2,5,2,4
2,5,6,9
2,6,3,6
2,6,5,2
2,7,2,9
2,7,3,4
2,7,5,3
2,7,6,7
2,8,0,2
2,8,8,4
3,0,0,3
3,0,1,6
3,0,7,7
3,0,8,9
3,2,1,7
3,2,7,2
3,4,2,3
3,4,6,2
3,6,1,8
3,6,7,3
3,8,0,1
3,8,1,3
3,8,7,4
3,8,8,6
4,0,2,7
4,0,4,3
4,0,6,1
4,1,1,3
4,1,7,4
4,3,0,8
4,3,3,4
4,3,5,1
4,3,8,5
4,4,0,4
4,4,8,1
4,5,0,3
4,5,3,8
4,5,5,5
4,5,8,9
4,7,1,9
4,7,7,5
4,8,2,4
4,8,4,9
4,8,6,7
5,0,0,2
5,0,1,9
5,0,7,5
5,0,8,3
5,2,1,1
5,2,7,9
5,4,2,6
5,4,6,5
5,6,1,6
5,6,7,7
5,8,0,8
5,8,1,7
5,8,7,2
5,8,8,5
6,0,0,9
6,0,8,6
6,1,2,7
6,1,3,9
6,1,5,5
6,1,6,4
6,2,3,6
6,2,5,2
6,3,2,8
6,3,6,1
6,5,2,6
6,5,6,8
6,6,3,5
6,6,5,1
6,7,2,3
6,7,3,7
6,7,5,6
6,7,6,5
6,8,0,5
6,8,8,7
7,1,1,9
7,1,7,7
7,3,0,6
7,3,8,3
7,5,0,9
7,5,8,7
7,7,1,6
7,7,7,3
8,0,2,2
8,0,6,8
8,1,0,3
8,1,8,9
8,4,0,2
8,4,8,8
8,7,0,9
8,7,8,2
8,8,2,6
8,8,6,4
