0,1,1,6
0,1,7,7
0,4,1,5
0,4,7,3
0,7,1,1
0,7,7,4
1,1,3,5
1,1,5,7
1,2,1,7
1,2,7,5
1,3,0,5
1,3,8,4
1,4,2,2
1,4,6,8
1,5,0,9
1,5,8,5
1,6,1,5
1,6,7,6
1,7,3,6
1,7,5,5
2,0,1,4
2,0,7,6
2,1,1,9
2,1,2,8
2,1,6,5
2,1,7,3
2,2,3,3
2,2,5,9
2,3,3,5
2,3,5,1
2,4,1,1
2,4,7,5
2,5,3,9
2,5,5,2
2,6,3,2
2,6,5,6
2,7,1,6
2,7,2,2
2,7,6,8
2,7,7,7
2,8,1,3
2,8,7,2
3,3,3,3
3,3,5,2
3,5,3,6
3,5,5,7
4,0,1,7
4,0,3,3
4,0,5,2
4,0,7,8
4,8,1,6
4,8,3,9
4,8,5,3
4,8,7,4
5,3,3,9
5,3,5,8
5,5,3,4
5,5,5,3
6,0,1,6
6,0,7,7
6,1,1,3
6,1,2,1
6,1,6,6
6,1,7,2
6,2,3,2
6,2,5,6
6,3,3,6
6,3,5,9
6,4,1,4
6,4,7,8
6,5,3,8
6,5,5,4
6,6,3,9
6,6,5,7
6,7,1,7
6,7,2,4
6,7,6,1
6,7,7,9
6,8,1,2
6,8,7,5
7,1,3,3
7,1,5,9
7,2,1,4
7,2,7,6
7,3,0,3
7,3,8,6
7,4,2,5
7,4,6,1
7,5,0,6
7,5,8,8
7,6,1,6
7,6,7,7
7,7,3,7
7,7,5,8
8,1,1,7
8,1,7,5
8,4,1,3
8,4,7,2
8,7,1,9
8,7,7,8
