0,0,0,2
0,0,1,5
0,0,4,3
0,0,7,6
0,0,8,1
0,8,0,8
0,8,1,7
0,8,4,5
0,8,7,3
0,8,8,2
1,0,3,1
1,0,5,6
1,1,2,1
1,1,3,7
1,1,4,5
1,1,5,9
1,1,6,4
1,2,0,5
1,2,2,6
1,2,6,7
1,2,8,8
1,3,1,7
1,3,7,9
1,5,1,5
1,5,7,7
1,6,0,4
1,6,2,7
1,6,6,2
1,6,8,9
1,7,2,8
1,7,3,5
1,7,4,9
1,7,5,7
1,7,6,3
1,8,3,2
1,8,5,3
2,0,0,6
2,0,8,4
2,2,0,4
2,2,8,9
2,6,0,1
2,6,8,3
2,8,0,3
2,8,8,6
3,4,0,8
3,4,2,5
3,4,4,1
3,4,6,4
3,4,8,2
4,1,3,4
4,1,5,7
4,2,1,7
4,2,3,6
4,2,4,5
4,2,5,8
4,2,7,3
4,3,1,5
4,3,7,7
4,4,2,1
4,4,4,4
4,4,6,5
4,5,1,8
4,5,7,1
4,6,1,6
4,6,3,2
4,6,4,1
4,6,5,3
4,6,7,9
4,7,3,8
4,7,5,4
5,4,0,9
5,4,2,4
5,4,4,5
5,4,6,1
5,4,8,7
6,0,0,3
6,0,8,7
6,2,0,2
6,2,8,4
6,6,0,6
6,6,8,1
6,8,0,1
6,8,8,8
7,0,3,7
7,0,5,3
7,1,2,6
7,1,3,8
7,1,4,2
7,1,5,5
7,1,6,7
7,2,0,7
7,2,2,8
7,2,6,3
7,2,8,1
7,3,1,9
7,3,7,5
7,5,1,7
7,5,7,3
7,6,0,2
7,6,2,9
7,6,6,8
7,6,8,5
7,7,2,1
7,7,3,2
7,7,4,5
7,7,5,8
7,7,6,4
7,8,3,9
7,8,5,4
8,0,0,8
8,0,1,7
8,0,4,5
8,0,7,3
8,0,8,2
8,8,0,4
8,8,1,3
8,8,4,2
8,8,7,5
8,8,8,9
