0,3,2,2
0,3,6,7
0,4,0,5
0,4,8,3
0,5,2,1
0,5,6,2
1,0,0,3
1,0,1,8
1,0,3,7
1,0,5,5
1,0,7,2
1,0,8,9
1,1,2,6
1,1,4,3
1,1,6,5
1,3,3,2
1,3,5,6
1,5,3,3
1,5,5,1
1,7,2,4
1,7,4,2
1,7,6,3
1,8,0,1
1,8,1,3
1,8,3,4
1,8,5,7
1,8,7,9
1,8,8,6
2,2,3,4
2,2,4,5
2,2,5,7
2,3,2,8
2,3,6,6
2,4,1,9
2,4,2,6
2,4,6,5
2,4,7,7
2,5,2,7
2,5,6,3
2,6,3,2
2,6,4,9
2,6,5,6
3,1,0,9
3,1,8,5
3,4,0,1
3,4,3,2
3,4,5,8
3,4,8,9
3,7,0,7
3,7,8,3
4,1,0,3
4,1,8,9
4,3,2,1
4,3,6,3
4,5,2,4
4,5,6,5
4,7,0,9
4,7,8,5
5,1,0,7
5,1,8,1
5,4,0,9
5,4,3,7
5,4,5,6
5,4,8,5
5,7,0,8
5,7,8,9
6,2,3,2
6,2,4,9
6,2,5,6
6,3,2,4
6,3,6,8
6,4,1,8
6,4,2,1
6,4,6,2
6,4,7,9
6,5,2,2
6,5,6,7
6,6,3,3
6,6,4,8
6,6,5,1
7,0,0,5
7,0,1,7
7,0,3,6
7,0,5,9
7,0,7,3
7,0,8,8
7,1,2,3
7,1,4,5
7,1,6,2
7,3,3,8
7,3,5,3
7,5,3,7
7,5,5,5
7,7,2,9
7,7,4,3
7,7,6,4
7,8,0,7
7,8,1,4
7,8,3,2
7,8,5,6
7,8,7,1
7,8,8,3
8,3,2,3
8,3,6,9
8,4,0,6
8,4,8,7
8,5,2,5
8,5,6,1
