0,2,3,6
0,2,5,8
0,3,1,3
0,3,7,1
0,4,1,1
0,4,7,8
0,5,1,8
0,5,7,3
0,6,3,1
0,6,5,4
1,1,4,8
1,2,3,9
1,2,5,2
1,3,1,2
1,3,3,3
1,3,5,9
1,3,7,7
1,4,1,7
1,4,2,9
1,4,6,3
1,4,7,6
1,5,1,6
1,5,3,8
1,5,5,5
1,5,7,2
1,6,3,2
1,6,5,8
1,7,4,9
2,2,3,1
2,2,5,4
2,6,3,9
2,6,5,7
3,0,1,6
3,0,3,1
3,0,4,7
3,0,5,4
3,0,7,2
3,2,1,7
3,2,7,6
3,4,3,5
3,4,5,7
3,6,1,9
3,6,7,5
3,8,1,5
3,8,3,7
3,8,4,9
3,8,5,3
3,8,7,4
4,0,4,3
4,1,0,9
4,1,1,8
4,1,7,3
4,1,8,2
4,2,4,8
4,4,0,7
4,4,2,8
4,4,4,4
4,4,6,6
4,4,8,3
4,6,4,7
4,7,0,8
4,7,1,2
4,7,7,7
4,7,8,5
4,8,4,2
5,0,1,4
5,0,3,6
5,0,4,5
5,0,5,8
5,0,7,9
5,2,1,9
5,2,7,5
5,4,3,3
5,4,5,9
5,6,1,3
5,6,7,1
5,8,1,8
5,8,3,4
5,8,4,1
5,8,5,6
5,8,7,3
6,2,3,2
6,2,5,3
6,6,3,8
6,6,5,5
7,1,4,7
7,2,3,8
7,2,5,5
7,3,1,4
7,3,3,7
7,3,5,8
7,3,7,9
7,4,1,5
7,4,2,1
7,4,6,7
7,4,7,4
7,5,1,9
7,5,3,2
7,5,5,1
7,5,7,5
7,6,3,4
7,6,5,6
7,7,4,8
8,2,3,4
8,2,5,7
8,3,1,7
8,3,7,6
8,4,1,6
8,4,7,2
8,5,1,2
8,5,7,7
8,6,3,7
8,6,5,3
