0,0,2,3
0,0,6,1
0,4,4,6
0,8,2,2
0,8,6,9
1,0,0,9
1,0,8,7
1,1,0,1
1,1,2,7
1,1,6,5
1,1,8,2
1,2,3,8
1,2,5,7
1,4,0,3
1,4,8,4
1,6,3,6
1,6,5,9
1,7,0,8
1,7,2,5
1,7,6,6
1,7,8,9
1,8,0,6
1,8,8,8
2,0,0,4
2,0,8,6
2,3,1,7
2,3,3,6
2,3,5,2
2,3,7,4
2,4,1,4
2,4,2,5
2,4,6,6
2,4,7,3
2,5,1,1
2,5,3,3
2,5,5,5
2,5,7,7
2,8,0,5
2,8,8,1
3,0,3,8
3,0,4,2
3,0,5,5
3,1,3,6
3,1,5,4
3,2,0,3
3,2,8,4
3,3,4,4
3,5,4,5
3,6,0,5
3,6,8,1
3,7,3,5
3,7,5,2
3,8,3,4
3,8,4,6
3,8,5,8
4,0,2,2
4,0,3,1
4,0,5,7
4,0,6,4
4,1,4,8
4,3,3,3
4,3,5,5
4,4,1,7
4,4,7,2
4,5,3,9
4,5,5,8
4,7,4,3
4,8,2,6
4,8,3,2
4,8,5,1
4,8,6,7
5,0,3,3
5,0,4,4
5,0,5,6
5,1,3,7
5,1,5,9
5,2,0,1
5,2,8,9
5,3,4,9
5,5,4,6
5,6,0,6
5,6,8,8
5,7,3,6
5,7,5,4
5,8,3,9
5,8,4,7
5,8,5,3
6,0,0,3
6,0,8,9
6,3,1,4
6,3,3,9
6,3,5,1
6,3,7,3
6,4,1,1
6,4,2,2
6,4,6,9
6,4,7,5
6,5,1,5
6,5,3,7
6,5,5,2
6,5,7,4
6,8,0,2
6,8,8,5
7,0,0,8
7,0,8,4
7,1,0,6
7,1,2,4
7,1,6,2
7,1,8,8
7,2,3,6
7,2,5,4
7,4,0,5
7,4,8,1
7,6,3,9
7,6,5,8
7,7,0,7
7,7,2,2
7,7,6,9
7,7,8,3
7,8,0,9
7,8,8,6
8,0,2,6
8,0,6,7
8,4,4,9
8,8,2,3
8,8,6,1
