0,0,1,7
0,0,2,4
0,0,6,3
0,0,7,8
0,1,0,1
0,1,8,6
0,2,0,6
0,2,1,8
0,2,7,4
0,2,8,2
0,3,2,7
0,3,3,2
0,3,5,4
0,3,6,5
0,4,1,1
0,4,3,5
0,4,5,8
0,4,7,9
0,5,2,8
0,5,3,6
0,5,5,7
0,5,6,2
0,6,0,7
0,6,1,6
0,6,7,5
0,6,8,4
0,7,0,4
0,7,8,9
0,8,1,5
0,8,2,3
0,8,6,6
0,8,7,2
1,0,3,3
1,0,4,9
1,0,5,7
1,2,3,5
1,2,5,8
1,3,3,7
1,3,5,9
1,5,3,8
1,5,5,3
1,6,3,9
1,6,5,4
1,8,3,6
1,8,4,8
1,8,5,5
2,2,3,6
2,2,5,1
2,3,0,1
2,3,2,2
2,3,6,9
2,3,8,4
2,5,0,9
2,5,2,3
2,5,6,6
2,5,8,5
2,6,3,5
2,6,5,8
3,1,2,3
3,1,6,6
3,4,4,1
3,7,2,5
3,7,6,8
4,0,2,5
4,0,4,7
4,0,6,8
4,1,2,8
4,1,6,7
4,2,2,7
4,2,4,8
4,2,6,5
4,3,4,3
4,4,0,1
4,4,2,3
4,4,3,7
4,4,4,4
4,4,5,9
4,4,6,6
4,4,8,8
4,5,4,6
4,6,2,2
4,6,4,1
4,6,6,9
4,7,2,9
4,7,6,1
4,8,2,1
4,8,4,9
4,8,6,2
5,1,2,1
5,1,6,2
5,4,4,8
5,7,2,3
5,7,6,6
6,2,3,4
6,2,5,7
6,3,0,7
6,3,2,9
6,3,6,8
6,3,8,3
6,5,0,8
6,5,2,6
6,5,6,4
6,5,8,1
6,6,3,1
6,6,5,2
7,0,3,6
7,0,4,8
7,0,5,5
7,2,3,1
7,2,5,2
7,3,3,5
7,3,5,8
7,5,3,2
7,5,5,6
7,6,3,8
7,6,5,3
7,8,3,4
7,8,4,2
7,8,5,1
8,0,1,5
8,0,2,3
8,0,6,6
8,0,7,2
8,1,0,7
8,1,8,4
8,2,0,4
8,2,1,2
8,2,7,3
8,2,8,9
8,3,2,5
8,3,3,9
8,3,5,3
8,3,6,1
8,4,1,7
8,4,3,1
8,4,5,2
8,4,7,8
8,5,2,2
8,5,3,4
8,5,5,5
8,5,6,9
8,6,0,5
8,6,1,4
8,6,7,1
8,6,8,3
8,7,0,3
8,7,8,8
8,8,1,1
8,8,2,6
8,8,6,4
8,8,7,9
