0,1,3,1
0,1,5,3
0,3,3,7
0,3,5,5
0,4,2,1
0,4,6,8
0,5,3,3
0,5,5,9
0,7,3,4
0,7,5,8
1,0,4,3
1,1,4,7
1,3,2,9
1,3,6,5
1,5,2,4
1,5,6,9
1,7,4,6
1,8,4,1
2,0,0,5
2,0,1,3
2,0,2,6
2,0,3,7
2,0,5,9
2,0,6,1
2,0,7,4
2,0,8,2
2,1,2,1
2,1,4,6
2,1,6,8
2,7,2,4
2,7,4,5
2,7,6,9
2,8,0,3
2,8,1,6
2,8,2,9
2,8,3,8
2,8,5,7
2,8,6,5
2,8,7,2
2,8,8,1
3,0,0,3
3,0,8,1
3,1,0,7
3,1,1,1
3,1,4,5
3,1,7,3
3,1,8,8
3,7,0,9
3,7,1,3
3,7,4,8
3,7,7,5
3,7,8,2
3,8,0,5
3,8,8,3
4,0,0,9
4,0,2,8
4,0,3,3
4,0,5,4
4,0,6,6
4,0,8,7
4,1,3,7
4,1,5,9
4,2,0,4
4,2,2,1
4,2,6,8
4,2,8,3
4,3,1,6
4,3,7,2
4,5,1,8
4,5,7,7
4,6,0,1
4,6,2,7
4,6,6,3
4,6,8,4
4,7,3,5
4,7,5,1
4,8,0,6
4,8,2,3
4,8,3,4
4,8,5,8
4,8,6,2
4,8,8,5
5,0,0,1
5,0,8,9
5,1,0,8
5,1,1,9
5,1,4,3
5,1,7,6
5,1,8,5
5,7,0,7
5,7,1,1
5,7,4,9
5,7,7,3
5,7,8,8
5,8,0,2
5,8,8,6
6,0,0,2
6,0,1,8
6,0,2,9
6,0,3,1
6,0,5,3
6,0,6,5
6,0,7,7
6,0,8,6
6,1,2,5
6,1,4,9
6,1,6,4
6,7,2,7
6,7,4,2
6,7,6,3
6,8,0,8
6,8,1,4
6,8,2,2
6,8,3,5
6,8,5,1
6,8,6,7
6,8,7,6
6,8,8,9
7,0,4,6
7,1,4,1
7,3,2,3
7,3,6,2
7,5,2,2
7,5,6,7
7,7,4,4
7,8,4,9
8,1,3,5
8,1,5,6
8,3,3,1
8,3,5,3
8,4,2,4
8,4,6,9
8,5,3,6
8,5,5,2
8,7,3,3
8,7,5,5
