0,0,1,2
0,0,7,8
0,1,0,4
0,1,8,2
0,2,1,3
0,2,7,4
0,3,3,7
0,3,5,2
0,5,3,3
0,5,5,1
0,6,1,4
0,6,7,7
0,7,0,3
0,7,8,4
0,8,1,9
0,8,7,1
1,1,4,9
1,2,2,9
1,2,6,8
1,3,0,7
1,3,8,1
1,5,0,1
1,5,8,4
1,6,2,3
1,6,6,6
1,7,4,6
2,0,1,1
2,0,7,6
2,1,3,4
2,1,4,5
2,1,5,6
2,2,1,4
2,2,7,7
2,3,3,1
2,3,4,3
2,3,5,8
2,5,3,5
2,5,4,6
2,5,5,4
2,6,1,7
2,6,7,8
2,7,3,8
2,7,4,1
2,7,5,3
2,8,1,3
2,8,7,5
3,1,0,2
3,1,1,4
3,1,7,1
3,1,8,5
3,4,4,8
3,7,0,4
3,7,1,3
3,7,7,5
3,7,8,6
4,1,0,1
4,1,8,3
4,2,4,2
4,4,2,7
4,4,6,8
4,6,4,1
4,7,0,7
4,7,8,2
5,1,0,6
5,1,1,3
5,1,7,7
5,1,8,9
5,4,4,2
5,7,0,1
5,7,1,5
5,7,7,9
5,7,8,3
6,0,1,3
6,0,7,4
6,1,3,5
6,1,4,6
6,1,5,4
6,2,1,5
6,2,7,9
6,3,3,3
6,3,4,8
6,3,5,1
6,5,3,6
6,5,4,4
6,5,5,5
6,6,1,9
6,6,7,1
6,7,3,1
6,7,4,3
6,7,5,8
6,8,1,8
6,8,7,6
7,1,4,3
7,2,2,1
7,2,6,4
7,3,0,1
7,3,8,4
7,5,0,6
7,5,8,9
7,6,2,6
7,6,6,7
7,7,4,7
8,0,1,4
8,0,7,7
8,1,0,8
8,1,8,4
8,2,1,9
8,2,7,3
8,3,3,5
8,3,5,4
8,5,3,2
8,5,5,9
8,6,1,3
8,6,7,5
8,7,0,2
8,7,8,1
8,8,1,6
8,8,7,2
