0,0,3,1
0,0,5,5
0,1,3,6
0,1,4,8
0,1,5,2
0,2,0,2
0,2,4,9
0,2,8,1
0,4,1,5
0,4,7,7
0,6,0,9
0,6,4,5
0,6,8,8
0,7,3,8
0,7,4,2
0,7,5,6
0,8,3,9
0,8,5,7
1,1,4,1
1,3,1,8
1,3,7,1
1,5,1,3
1,5,7,4
1,7,4,3
2,1,3,9
2,1,5,7
2,3,3,6
2,3,5,2
2,5,3,1
2,5,5,5
2,7,3,4
2,7,5,9
3,3,3,3
3,3,5,8
3,5,3,9
3,5,5,7
4,0,1,1
4,0,7,9
4,2,1,3
4,2,3,4
4,2,5,9
4,2,7,2
4,3,2,8
4,3,3,7
4,3,5,4
4,3,6,2
4,4,4,3
4,5,2,9
4,5,3,5
4,5,5,2
4,5,6,6
4,6,1,9
4,6,3,1
4,6,5,5
4,6,7,3
4,8,1,5
4,8,7,7
5,3,3,2
5,3,5,1
5,5,3,6
5,5,5,3
6,1,3,8
6,1,5,6
6,3,3,1
6,3,5,5
6,5,3,7
6,5,5,4
6,7,3,2
6,7,5,8
7,1,4,3
7,3,1,2
7,3,7,3
7,5,1,5
7,5,7,7
7,7,4,5
8,0,3,2
8,0,5,8
8,1,3,4
8,1,4,7
8,1,5,9
8,2,0,4
8,2,4,1
8,2,8,2
8,4,1,8
8,4,7,1
8,6,0,5
8,6,4,8
8,6,8,4
8,7,3,7
8,7,4,9
8,7,5,4
8,8,3,1
8,8,5,5
