0,1,4,6
0,2,0,4
0,2,8,6
0,3,0,7
0,3,3,8
0,3,5,6
0,3,8,9
0,4,1,5
0,4,7,8
0,5,0,2
0,5,3,4
0,5,5,5
0,5,8,7
0,6,0,5
0,6,8,8
0,7,4,5
1,0,0,1
1,0,1,7
1,0,7,4
1,0,8,9
1,1,1,5
1,1,2,4
1,1,3,3
1,1,4,1
1,1,5,7
1,1,6,2
1,1,7,6
1,2,1,2
1,2,4,9
1,2,7,3
1,3,4,3
1,4,4,5
1,5,4,6
1,6,1,6
1,6,4,4
1,6,7,1
1,7,1,3
1,7,2,1
1,7,3,8
1,7,4,2
1,7,5,6
1,7,6,9
1,7,7,5
1,8,0,4
1,8,1,9
1,8,7,8
1,8,8,2
2,1,4,5
2,4,3,6
2,4,4,8
2,4,5,2
2,7,4,3
3,0,0,3
3,0,8,7
3,1,3,4
3,1,5,1
3,2,2,9
3,2,4,7
3,2,6,1
3,6,2,1
3,6,4,5
3,6,6,7
3,7,3,1
3,7,5,3
3,8,0,5
3,8,8,9
4,0,3,2
4,0,4,5
4,0,5,7
4,1,4,9
4,2,2,2
4,2,6,6
4,3,2,4
4,3,6,1
4,4,0,3
4,4,1,1
4,4,7,9
4,4,8,7
4,5,2,9
4,5,6,8
4,6,2,6
4,6,6,9
4,7,4,8
4,8,3,3
4,8,4,1
4,8,5,9
5,0,0,2
5,0,8,8
5,1,3,7
5,1,5,5
5,2,2,3
5,2,4,8
5,2,6,5
5,6,2,4
5,6,4,3
5,6,6,8
5,7,3,4
5,7,5,2
5,8,0,3
5,8,8,7
6,1,4,4
6,4,3,8
6,4,4,2
6,4,5,6
6,7,4,1
7,0,0,8
7,0,1,2
7,0,7,3
7,0,8,1
7,1,1,7
7,1,2,3
7,1,3,6
7,1,4,8
7,1,5,2
7,1,6,5
7,1,7,4
7,2,1,5
7,2,4,1
7,2,7,6
7,3,4,6
7,4,4,3
7,5,4,5
7,6,1,9
7,6,4,7
7,6,7,8
7,7,1,6
7,7,2,8
7,7,3,5
7,7,4,4
7,7,5,9
7,7,6,3
7,7,7,1
7,8,0,7
7,8,1,3
7,8,7,5
7,8,8,4
8,1,4,7
8,2,0,2
8,2,8,7
8,3,0,4
8,3,3,3
8,3,5,7
8,3,8,8
8,4,1,2
8,4,7,3
8,5,0,1
8,5,3,6
8,5,5,2
8,5,8,4
8,6,0,6
8,6,8,3
8,7,4,6
