0,3,2,7
0,3,3,6
0,3,5,1
0,3,6,3
0,4,2,4
0,4,3,9
0,4,5,2
0,4,6,7
0,5,2,3
0,5,3,8
0,5,5,5
0,5,6,4
1,2,2,5
1,2,6,7
1,3,0,3
1,3,8,1
1,4,4,6
1,5,0,4
1,5,8,5
1,6,2,2
1,6,6,1
2,0,2,6
2,0,6,8
2,1,4,8
2,4,1,3
2,4,7,6
2,7,4,7
2,8,2,7
2,8,6,3
3,0,1,6
3,0,3,9
3,0,5,2
3,0,7,5
3,1,2,5
3,1,4,1
3,1,6,2
3,3,1,1
3,3,3,2
3,3,5,3
3,3,7,7
3,5,1,3
3,5,3,7
3,5,5,8
3,5,7,6
3,7,2,8
3,7,4,6
3,7,6,4
3,8,1,4
3,8,3,8
3,8,5,9
3,8,7,1
4,2,0,6
4,2,8,7
4,3,4,1
4,4,3,4
4,4,5,7
4,5,4,3
4,6,0,9
4,6,8,4
5,0,1,3
5,0,3,7
5,0,5,8
5,0,7,6
5,1,2,6
5,1,4,9
5,1,6,8
5,3,1,5
5,3,3,8
5,3,5,4
5,3,7,1
5,5,1,4
5,5,3,1
5,5,5,9
5,5,7,3
5,7,2,5
5,7,4,3
5,7,6,7
5,8,1,7
5,8,3,5
5,8,5,6
5,8,7,4
6,0,2,7
6,0,6,3
6,1,4,3
6,4,1,1
6,4,7,7
6,7,4,2
6,8,2,2
6,8,6,1
7,2,2,4
7,2,6,2
7,3,0,1
7,3,8,8
7,4,4,7
7,5,0,9
7,5,8,4
7,6,2,6
7,6,6,8
8,3,2,2
8,3,3,7
8,3,5,8
8,3,6,1
8,4,2,9
8,4,3,5
8,4,5,6
8,4,6,2
8,5,2,1
8,5,3,3
8,5,5,4
8,5,6,9
