0,2,2,3
0,2,6,7
0,6,2,2
0,6,6,9
1,0,4,6
1,2,1,9
1,2,7,1
1,3,1,8
1,3,7,4
1,4,0,4
1,4,8,5
1,5,1,5
1,5,7,8
1,6,1,3
1,6,7,2
1,8,4,7
2,2,3,8
2,2,5,1
2,6,3,2
2,6,5,7
3,1,0,5
3,1,3,6
3,1,4,3
3,1,5,7
3,1,8,4
3,2,1,1
3,2,7,3
3,3,2,6
3,3,3,1
3,3,5,9
3,3,6,8
3,4,1,4
3,4,2,9
3,4,6,1
3,4,7,7
3,5,2,5
3,5,3,8
3,5,5,6
3,5,6,3
3,6,1,5
3,6,7,9
3,7,0,7
3,7,3,4
3,7,4,9
3,7,5,3
3,7,8,1
4,1,0,1
4,1,3,8
4,1,5,9
4,1,8,5
4,2,1,4
4,2,3,1
4,2,4,2
4,2,5,5
4,2,7,7
4,4,2,1
4,4,6,4
4,6,1,8
4,6,3,9
4,6,4,3
4,6,5,4
4,6,7,1
4,7,0,9
4,7,3,5
4,7,5,2
4,7,8,7
5,1,0,4
5,1,3,2
5,1,4,5
5,1,5,1
5,1,8,8
5,2,1,5
5,2,7,9
5,3,2,2
5,3,3,6
5,3,5,7
5,3,6,9
5,4,1,3
5,4,2,7
5,4,6,5
5,4,7,8
5,5,2,4
5,5,3,5
5,5,5,2
5,5,6,6
5,6,1,4
5,6,7,7
5,7,0,3
5,7,3,1
5,7,4,7
5,7,5,6
5,7,8,9
6,2,3,4
6,2,5,2
6,6,3,5
6,6,5,6
7,0,4,3
7,2,1,3
7,2,7,4
7,3,1,4
7,3,7,9
7,4,0,9
7,4,8,8
7,5,1,1
7,5,7,2
7,6,1,2
7,6,7,5
7,8,4,6
8,2,2,4
8,2,6,6
8,6,2,5
8,6,6,8
