0,2,4,2
0,6,4,7
1,0,2,7
1,0,6,2
1,2,0,2
1,2,8,9
1,4,0,6
1,4,8,8
1,6,0,7
1,6,8,5
1,8,2,8
1,8,6,9
2,1,0,8
2,1,1,4
2,1,7,9
2,1,8,1
2,2,4,8
2,3,0,5
2,3,8,3
2,4,2,8
2,4,6,9
2,5,0,7
2,5,8,5
2,6,4,9
2,7,0,2
2,7,1,8
2,7,7,6
2,7,8,9
3,0,0,1
3,0,8,9
3,1,3,6
3,1,5,8
3,2,0,6
3,2,2,5
3,2,3,3
3,2,5,2
3,2,6,8
3,2,8,1
3,3,0,8
3,3,8,6
3,4,0,7
3,4,8,3
3,5,0,3
3,5,8,8
3,6,0,2
3,6,2,8
3,6,3,1
3,6,5,7
3,6,6,9
3,6,8,4
3,7,3,8
3,7,5,3
3,8,0,5
3,8,8,7
4,0,0,7
4,0,8,4
4,1,0,4
4,1,1,5
4,1,7,1
4,1,8,8
4,7,0,6
4,7,1,1
4,7,7,7
4,7,8,3
4,8,0,3
4,8,8,9
5,0,0,5
5,0,8,7
5,1,3,4
5,1,5,7
5,2,0,3
5,2,2,7
5,2,3,8
5,2,5,1
5,2,6,2
5,2,8,5
5,3,0,6
5,3,8,4
5,4,0,4
5,4,8,9
5,5,0,9
5,5,8,2
5,6,0,1
5,6,2,6
5,6,3,9
5,6,5,4
5,6,6,7
5,6,8,8
5,7,3,7
5,7,5,5
5,8,0,7
5,8,8,1
6,1,0,1
6,1,1,2
6,1,7,3
6,1,8,6
6,2,4,1
6,3,0,3
6,3,8,7
6,4,2,4
6,4,6,1
6,5,0,5
6,5,8,3
6,6,4,4
6,7,0,9
6,7,1,3
6,7,7,5
6,7,8,4
7,0,2,1
7,0,6,3
7,2,0,4
7,2,8,7
7,4,0,1
7,4,8,2
7,6,0,3
7,6,8,6
7,8,2,6
7,8,6,7
8,2,4,7
8,6,4,6
