0,0,1,2
0,0,7,3
0,1,1,4
0,1,3,7
0,1,5,2
0,1,7,9
0,2,3,1
0,2,5,5
0,3,2,6
0,3,6,9
0,5,2,3
0,5,6,8
0,6,3,5
0,6,5,6
0,7,1,8
0,7,3,3
0,7,5,4
0,7,7,7
0,8,1,6
0,8,7,8
1,1,2,7
1,1,6,4
1,3,3,5
1,3,5,6
1,5,3,2
1,5,5,8
1,7,2,3
1,7,6,8
2,1,3,8
2,1,5,4
2,2,1,6
2,2,7,1
2,3,0,3
2,3,1,2
2,3,3,9
2,3,5,1
2,3,7,8
2,3,8,6
2,4,0,6
2,4,2,1
2,4,6,3
2,4,8,5
2,5,0,7
2,5,1,8
2,5,3,3
2,5,5,5
2,5,7,4
2,5,8,1
2,6,1,3
2,6,7,5
2,7,3,6
2,7,5,8
3,0,1,4
3,0,7,9
3,2,1,7
3,2,2,3
3,2,6,8
3,2,7,2
3,4,1,6
3,4,7,3
3,6,1,8
3,6,2,2
3,6,6,6
3,6,7,7
3,8,1,3
3,8,7,5
4,0,3,6
4,0,4,5
4,0,5,1
4,3,2,2
4,3,6,6
4,4,0,7
4,4,8,1
4,5,2,6
4,5,6,9
4,8,3,5
4,8,4,8
4,8,5,6
5,0,1,1
5,0,7,7
5,2,1,8
5,2,2,6
5,2,6,9
5,2,7,5
5,4,1,5
5,4,7,6
5,6,1,9
5,6,2,7
5,6,6,4
5,6,7,3
5,8,1,2
5,8,7,1
6,1,3,9
6,1,5,8
6,2,1,4
6,2,7,9
6,3,0,2
6,3,1,5
6,3,3,4
6,3,5,9
6,3,7,6
6,3,8,7
6,4,0,4
6,4,2,6
6,4,6,9
6,4,8,3
6,5,0,8
6,5,1,9
6,5,3,6
6,5,5,3
6,5,7,1
6,5,8,2
6,6,1,6
6,6,7,8
6,7,3,5
6,7,5,6
7,1,2,6
7,1,6,9
7,3,3,2
7,3,5,8
7,5,3,1
7,5,5,4
7,7,2,5
7,7,6,7
8,0,1,6
8,0,7,1
8,1,1,7
8,1,3,5
8,1,5,6
8,1,7,2
8,2,3,8
8,2,5,4
8,3,2,9
8,3,6,2
8,5,2,1
8,5,6,3
8,6,3,4
8,6,5,9
8,7,1,3
8,7,3,1
8,7,5,7
8,7,7,5
8,8,1,9
8,8,7,3
