0,1,3,8
0,1,5,1
0,2,4,2
0,3,3,4
0,3,5,6
0,4,0,2
0,4,1,1
0,4,3,3
0,4,5,8
0,4,7,7
0,4,8,5
0,5,3,2
0,5,5,5
0,6,4,6
0,7,3,7
0,7,5,3
1,1,4,6
1,3,2,7
1,3,6,6
1,4,4,4
1,5,2,1
1,5,6,5
1,7,4,1
2,0,0,2
2,0,1,7
2,0,7,9
2,0,8,5
2,1,1,9
2,1,2,8
2,1,6,3
2,1,7,1
2,3,2,2
2,3,3,9
2,3,5,3
2,3,6,7
2,4,2,4
2,4,6,9
2,5,2,3
2,5,3,7
2,5,5,4
2,5,6,1
2,7,1,4
2,7,2,1
2,7,6,6
2,7,7,3
2,8,0,5
2,8,1,3
2,8,7,2
2,8,8,9
3,0,2,7
3,0,3,8
3,0,4,3
3,0,5,1
3,0,6,5
3,1,4,2
3,2,3,6
3,2,5,9
3,3,0,7
3,3,8,3
3,4,4,6
3,5,0,1
3,5,8,4
3,6,3,4
3,6,5,6
3,7,4,7
3,8,2,8
3,8,3,2
3,8,4,9
3,8,5,5
3,8,6,3
4,1,0,7
4,1,8,4
4,2,2,4
4,2,6,1
4,3,0,2
4,3,8,5
4,4,4,1
4,5,0,3
4,5,8,8
4,6,2,1
4,6,6,6
4,7,0,5
4,7,8,9
5,0,2,8
5,0,3,2
5,0,4,7
5,0,5,5
5,0,6,3
5,1,4,9
5,2,3,3
5,2,5,8
5,3,0,5
5,3,8,1
5,4,4,3
5,5,0,8
5,5,8,9
5,6,3,7
5,6,5,3
5,7,4,5
5,8,2,3
5,8,3,1
5,8,4,6
5,8,5,4
5,8,6,9
6,0,0,3
6,0,1,1
6,0,7,7
6,0,8,8
6,1,1,7
6,1,2,6
6,1,6,4
6,1,7,9
6,3,2,3
6,3,3,7
6,3,5,4
6,3,6,1
6,4,2,2
6,4,6,7
6,5,2,4
6,5,3,1
6,5,5,2
6,5,6,9
6,7,1,2
6,7,2,9
6,7,6,5
6,7,7,4
6,8,0,8
6,8,1,4
6,8,7,3
6,8,8,7
7,1,4,4
7,3,2,8
7,3,6,3
7,4,4,7
7,5,2,6
7,5,6,4
7,7,4,6
8,1,3,7
8,1,5,2
8,2,4,6
8,3,3,8
8,3,5,9
8,4,0,8
8,4,1,4
8,4,3,5
8,4,5,1
8,4,7,3
8,4,8,9
8,5,3,6
8,5,5,7
8,6,4,7
8,7,3,2
8,7,5,5
