0,0,1,5
0,0,2,3
0,0,4,6
0,0,6,8
0,0,7,1
0,1,1,7
0,1,3,2
0,1,5,3
0,1,7,6
0,2,4,8
0,6,4,3
0,7,1,9
0,7,3,8
0,7,5,7
0,7,7,3
0,8,1,3
0,8,2,2
0,8,4,9
0,8,6,1
0,8,7,7
1,1,1,2
1,1,2,5
1,1,3,9
1,1,5,6
1,1,6,7
1,1,7,8
1,3,4,3
1,5,4,9
1,7,1,7
1,7,2,8
1,7,3,2
1,7,5,3
1,7,6,4
1,7,7,6
2,1,1,9
2,1,2,4
2,1,6,5
2,1,7,3
2,7,1,2
2,7,2,5
2,7,6,7
2,7,7,8
3,2,3,9
3,2,5,6
3,3,2,7
3,3,4,9
3,3,6,2
3,4,3,4
3,4,5,2
3,5,2,4
3,5,4,5
3,5,6,7
3,6,3,3
3,6,5,5
4,0,2,2
4,0,3,3
4,0,5,5
4,0,6,9
4,1,0,7
4,1,8,4
4,3,4,2
4,4,3,5
4,4,5,8
4,5,4,1
4,7,0,9
4,7,8,5
4,8,2,4
4,8,3,8
4,8,5,3
4,8,6,7
5,2,3,8
5,2,5,3
5,3,2,2
5,3,4,8
5,3,6,9
5,4,3,1
5,4,5,9
5,5,2,8
5,5,4,4
5,5,6,5
5,6,3,7
5,6,5,4
6,1,1,6
6,1,2,9
6,1,6,2
6,1,7,5
6,7,1,3
6,7,2,2
6,7,6,1
6,7,7,7
7,1,1,1
7,1,2,7
7,1,3,3
7,1,5,5
7,1,6,9
7,1,7,4
7,3,4,1
7,5,4,3
7,7,1,6
7,7,2,9
7,7,3,7
7,7,5,1
7,7,6,2
7,7,7,5
8,0,1,9
8,0,2,4
8,0,4,1
8,0,6,5
8,0,7,3
8,1,1,3
8,1,3,6
8,1,5,4
8,1,7,7
8,2,4,3
8,6,4,4
8,7,1,1
8,7,3,3
8,7,5,5
8,7,7,4
8,8,1,4
8,8,2,6
8,8,4,7
8,8,6,3
8,8,7,2
