0,0,0,2
0,0,8,1
0,4,3,1
0,4,4,4
0,4,5,8
0,8,0,8
0,8,8,6
1,0,1,1
1,0,7,3
1,2,2,3
1,2,6,2
1,3,2,8
1,3,4,2
1,3,6,3
1,4,0,2
1,4,8,1
1,5,2,6
1,5,4,1
1,5,6,7
1,6,2,1
1,6,6,6
1,8,1,6
1,8,7,2
2,0,1,6
2,0,2,5
2,0,3,1
2,0,5,8
2,0,6,9
2,0,7,2
2,1,3,2
2,1,5,5
2,2,1,4
2,2,7,1
2,3,0,6
2,3,1,9
2,3,7,7
2,3,8,4
2,4,4,9
2,5,0,5
2,5,1,2
2,5,7,9
2,5,8,8
2,6,1,3
2,6,7,5
2,7,3,4
2,7,5,7
2,8,1,7
2,8,2,9
2,8,3,6
2,8,5,3
2,8,6,4
2,8,7,8
3,0,1,4
3,0,4,8
3,0,7,6
3,2,1,2
3,2,7,4
3,3,2,7
3,3,3,2
3,3,5,4
3,3,6,6
3,5,2,4
3,5,3,7
3,5,5,8
3,5,6,9
3,6,1,7
3,6,7,8
3,8,1,9
3,8,4,2
3,8,7,1
4,2,2,1
4,2,6,7
4,3,2,6
4,3,6,1
4,4,4,2
4,5,2,5
4,5,6,4
4,6,2,9
4,6,6,5
5,0,1,9
5,0,4,2
5,0,7,7
5,2,1,3
5,2,7,9
5,3,2,1
5,3,3,3
5,3,5,9
5,3,6,7
5,5,2,9
5,5,3,1
5,5,5,2
5,5,6,5
5,6,1,1
5,6,7,2
5,8,1,5
5,8,4,3
5,8,7,6
6,0,1,2
6,0,2,6
6,0,3,3
6,0,5,9
6,0,6,7
6,0,7,5
6,1,3,4
6,1,5,7
6,2,1,7
6,2,7,3
6,3,0,2
6,3,1,6
6,3,7,8
6,3,8,7
6,4,4,7
6,5,0,7
6,5,1,4
6,5,7,1
6,5,8,5
6,6,1,9
6,6,7,7
6,7,3,7
6,7,5,8
6,8,1,8
6,8,2,7
6,8,3,2
6,8,5,4
6,8,6,1
6,8,7,9
7,0,1,3
7,0,7,4
7,2,2,5
7,2,6,9
7,3,2,4
7,3,4,9
7,3,6,5
7,4,0,5
7,4,8,3
7,5,2,2
7,5,4,3
7,5,6,8
7,6,2,3
7,6,6,2
7,8,1,2
7,8,7,5
8,0,0,5
8,0,8,3
8,4,3,3
8,4,4,6
8,4,5,9
8,8,0,9
8,8,8,2
