0,0,3,5
0,0,5,2
0,1,0,3
0,1,8,9
0,7,0,6
0,7,8,3
0,8,3,9
0,8,5,7
1,1,1,9
1,1,7,4
1,3,1,8
1,3,2,6
1,3,4,1
1,3,6,5
1,3,7,3
1,4,4,7
1,5,1,5
1,5,2,1
1,5,4,4
1,5,6,2
1,5,7,9
1,7,1,1
1,7,7,8
2,0,4,4
2,3,0,1
2,3,1,7
2,3,3,3
2,3,5,4
2,3,7,2
2,3,8,9
2,5,0,9
2,5,1,3
2,5,3,5
2,5,5,7
2,5,7,1
2,5,8,6
2,8,4,5
3,0,3,9
3,0,5,1
3,4,2,6
3,4,4,4
3,4,6,3
3,8,3,2
3,8,5,5
4,1,1,3
4,1,7,1
4,2,0,6
4,2,8,5
4,3,1,6
4,3,7,7
4,5,1,2
4,5,7,6
4,6,0,3
4,6,8,6
4,7,1,9
4,7,7,4
5,0,3,8
5,0,5,7
5,4,2,4
5,4,4,8
5,4,6,6
5,8,3,4
5,8,5,8
6,0,4,7
6,3,0,9
6,3,1,3
6,3,3,5
6,3,5,6
6,3,7,1
6,3,8,2
6,5,0,2
6,5,1,4
6,5,3,7
6,5,5,1
6,5,7,5
6,5,8,3
6,8,4,6
7,1,1,8
7,1,7,3
7,3,1,2
7,3,2,4
7,3,4,7
7,3,6,3
7,3,7,6
7,4,4,5
7,5,1,1
7,5,2,6
7,5,4,3
7,5,6,9
7,5,7,8
7,7,1,6
7,7,7,7
8,0,3,4
8,0,5,6
8,1,0,1
8,1,8,5
8,7,0,7
8,7,8,1
8,8,3,5
8,8,5,2
