0,1,1,2
0,1,7,1
0,2,3,4
0,2,5,2
0,4,0,9
0,4,8,1
0,6,3,2
0,6,5,1
0,7,1,5
0,7,7,2
1,0,2,9
1,0,3,2
1,0,5,3
1,0,6,5
1,2,3,8
1,2,5,5
1,3,4,7
1,4,0,8
1,4,8,7
1,5,4,8
1,6,3,5
1,6,5,6
1,8,2,5
1,8,3,7
1,8,5,8
1,8,6,4
2,3,4,4
2,5,4,6
3,0,4,5
3,3,3,7
3,3,4,8
3,3,5,4
3,4,2,6
3,4,3,2
3,4,5,5
3,4,6,4
3,5,3,6
3,5,4,3
3,5,5,9
3,8,4,2
4,0,1,3
4,0,3,9
4,0,5,1
4,0,7,5
4,1,1,8
4,1,2,5
4,1,3,4
4,1,5,3
4,1,6,1
4,1,7,9
4,2,0,6
4,2,8,7
4,4,4,9
4,6,0,3
4,6,8,8
4,7,1,9
4,7,2,6
4,7,3,2
4,7,5,5
4,7,6,4
4,7,7,7
4,8,1,4
4,8,3,6
4,8,5,9
4,8,7,2
5,0,4,3
5,3,3,9
5,3,4,6
5,3,5,3
5,4,2,5
5,4,3,4
5,4,5,8
5,4,6,3
5,5,3,5
5,5,4,2
5,5,5,1
5,8,4,4
6,3,4,2
6,5,4,1
7,0,2,8
7,0,3,4
7,0,5,7
7,0,6,3
7,2,3,2
7,2,5,3
7,3,4,9
7,4,0,7
7,4,8,9
7,5,4,7
7,6,3,1
7,6,5,5
7,8,2,1
7,8,3,9
7,8,5,6
7,8,6,8
8,1,1,6
8,1,7,3
8,2,3,9
8,2,5,6
8,4,0,5
8,4,8,3
8,6,3,6
8,6,5,3
8,7,1,4
8,7,7,6
