0,1,4,7
0,7,4,8
1,1,2,5
1,1,3,3
1,1,5,9
1,1,6,6
1,4,1,7
1,4,2,1
1,4,6,3
1,4,7,6
1,7,2,7
1,7,3,2
1,7,5,1
1,7,6,4
2,0,3,7
2,0,5,5
2,1,2,1
2,1,6,3
2,2,2,8
2,2,3,9
2,2,5,2
2,2,6,1
2,3,4,7
2,5,4,9
2,6,2,6
2,6,3,8
2,6,5,7
2,6,6,2
2,7,2,2
2,7,6,5
2,8,3,1
2,8,5,9
3,0,0,3
3,0,8,2
3,1,4,4
3,2,2,7
3,2,4,9
3,2,6,4
3,3,2,6
3,3,6,2
3,5,2,5
3,5,6,6
3,6,2,1
3,6,4,8
3,6,6,3
3,7,4,3
3,8,0,5
3,8,8,4
4,0,4,8
4,3,1,2
4,3,2,9
4,3,6,7
4,3,7,8
4,4,0,1
4,4,8,6
4,5,1,6
4,5,2,4
4,5,6,9
4,5,7,1
4,8,4,5
5,0,0,7
5,0,8,1
5,1,4,5
5,2,2,2
5,2,4,6
5,2,6,5
5,3,2,1
5,3,6,3
5,5,2,3
5,5,6,8
5,6,2,7
5,6,4,9
5,6,6,4
5,7,4,7
5,8,0,8
5,8,8,5
6,0,3,6
6,0,5,8
6,1,2,7
6,1,6,4
6,2,2,4
6,2,3,5
6,2,5,1
6,2,6,9
6,3,4,6
6,5,4,5
6,6,2,8
6,6,3,4
6,6,5,6
6,6,6,1
6,7,2,3
6,7,6,8
6,8,3,7
6,8,5,5
7,1,2,3
7,1,3,7
7,1,5,5
7,1,6,8
7,4,1,6
7,4,2,4
7,4,6,9
7,4,7,1
7,7,2,6
7,7,3,8
7,7,5,7
7,7,6,2
8,1,4,6
8,7,4,4
