0,0,0,8
0,0,8,1
0,1,1,7
0,1,2,3
0,1,3,1
0,1,5,6
0,1,6,2
0,1,7,8
0,3,3,3
0,3,4,4
0,3,5,7
0,4,3,5
0,4,5,1
0,5,3,2
0,5,4,8
0,5,5,9
0,7,1,9
0,7,2,7
0,7,3,6
0,7,5,4
0,7,6,5
0,7,7,2
0,8,0,4
0,8,8,9
1,1,4,7
1,2,4,1
1,4,3,7
1,4,5,4
1,6,4,8
1,7,4,9
2,0,0,7
2,0,1,3
2,0,7,4
2,0,8,2
2,2,1,2
2,2,7,1
2,3,0,3
2,3,4,1
2,3,8,8
2,4,0,5
2,4,2,1
2,4,6,7
2,4,8,4
2,5,0,2
2,5,4,7
2,5,8,6
2,6,1,7
2,6,7,8
2,8,0,8
2,8,1,5
2,8,7,6
2,8,8,1
3,0,1,2
3,0,7,5
3,1,3,3
3,1,5,2
3,2,1,7
3,2,7,3
3,3,3,2
3,3,5,6
3,4,1,8
3,4,7,2
3,5,3,7
3,5,5,8
3,6,1,1
3,6,7,6
3,7,3,8
3,7,5,1
3,8,1,9
3,8,7,8
4,0,0,4
4,0,1,5
4,0,3,6
4,0,5,3
4,0,7,8
4,0,8,7
4,1,2,8
4,1,6,3
4,2,1,3
4,2,7,9
4,3,4,5
4,4,3,1
4,4,4,8
4,4,5,7
4,5,4,6
4,6,1,6
4,6,7,5
4,7,2,5
4,7,6,8
4,8,0,1
4,8,1,8
4,8,3,5
4,8,5,4
4,8,7,2
4,8,8,3
5,0,1,8
5,0,7,2
5,1,3,7
5,1,5,8
5,2,1,9
5,2,7,7
5,3,3,8
5,3,5,1
5,4,1,4
5,4,7,8
5,5,3,5
5,5,5,4
5,6,1,5
5,6,7,1
5,7,3,9
5,7,5,5
5,8,1,2
5,8,7,9
6,0,0,2
6,0,1,1
6,0,7,9
6,0,8,6
6,2,1,6
6,2,7,8
6,3,0,1
6,3,4,8
6,3,8,3
6,4,0,4
6,4,2,8
6,4,6,2
6,4,8,9
6,5,0,6
6,5,4,2
6,5,8,7
6,6,1,2
6,6,7,3
6,8,0,3
6,8,1,4
6,8,7,7
6,8,8,8
7,1,4,2
7,2,4,8
7,4,3,2
7,4,5,9
7,6,4,3
7,7,4,5
8,0,0,3
8,0,8,8
8,1,1,2
8,1,2,1
8,1,3,8
8,1,5,7
8,1,6,6
8,1,7,3
8,3,3,1
8,3,4,9
8,3,5,2
8,4,3,4
8,4,5,8
8,5,3,6
8,5,4,3
8,5,5,5
8,7,1,5
8,7,2,2
8,7,3,7
8,7,5,9
8,7,6,4
8,7,7,6
8,8,0,9
8,8,8,5
