0,2,0,9
0,2,3,4
0,2,4,5
0,2,5,3
0,2,8,2
0,3,3,9
0,3,5,5
0,4,1,9
0,4,3,3
0,4,5,6
0,4,7,5
0,5,3,1
0,5,5,7
0,6,0,8
0,6,3,7
0,6,4,3
0,6,5,4
0,6,8,6
1,4,4,7
2,2,0,5
2,2,1,1
2,2,4,8
2,2,7,6
2,2,8,3
2,3,3,7
2,3,4,1
2,3,5,2
2,4,2,1
2,4,3,5
2,4,4,9
2,4,5,8
2,4,6,3
2,5,3,6
2,5,4,3
2,5,5,4
2,6,0,1
2,6,1,2
2,6,4,6
2,6,7,3
2,6,8,4
3,1,0,3
3,1,3,2
3,1,5,8
3,1,8,1
3,3,1,3
3,3,7,6
3,4,1,8
3,4,7,7
3,5,1,9
3,5,7,5
3,7,0,1
3,7,3,7
3,7,5,4
3,7,8,6
4,0,0,5
4,0,1,8
4,0,7,6
4,0,8,3
4,3,0,1
4,3,8,5
4,5,0,2
4,5,8,7
4,8,0,9
4,8,1,1
4,8,7,8
4,8,8,2
5,1,0,2
5,1,3,7
5,1,5,1
5,1,8,6
5,3,1,2
5,3,7,3
5,4,1,1
5,4,7,8
5,5,1,4
5,5,7,9
5,7,0,6
5,7,3,8
5,7,5,5
5,7,8,9
6,2,0,6
6,2,1,9
6,2,4,4
6,2,7,7
6,2,8,1
6,3,3,5
6,3,4,9
6,3,5,8
6,4,2,9
6,4,3,6
6,4,4,3
6,4,5,4
6,4,6,1
6,5,3,7
6,5,4,1
6,5,5,2
6,6,0,9
6,6,1,8
6,6,4,7
6,6,7,1
6,6,8,2
7,4,4,2
8,2,0,2
8,2,3,7
8,2,4,9
8,2,5,8
8,2,8,6
8,3,3,2
8,3,5,1
8,4,1,2
8,4,3,8
8,4,5,9
8,4,7,3
8,5,3,4
8,5,5,3
8,6,0,7
8,6,3,9
8,6,4,8
8,6,5,6
8,6,8,3
