0,0,1,1
0,0,3,9
0,0,5,3
0,0,7,4
0,2,0,5
0,2,1,3
0,2,2,9
0,2,6,1
0,2,7,2
0,2,8,6
0,4,2,1
0,4,6,8
0,6,0,7
0,6,1,4
0,6,2,8
0,6,6,9
0,6,7,5
0,6,8,3
0,8,1,2
0,8,3,5
0,8,5,9
0,8,7,8
1,0,1,5
1,0,3,6
1,0,5,2
1,0,7,1
1,1,1,9
1,1,7,6
1,3,2,2
1,3,4,1
1,3,6,7
1,4,1,7
1,4,7,9
1,5,2,9
1,5,4,8
1,5,6,4
1,7,1,6
1,7,7,7
1,8,1,8
1,8,3,4
1,8,5,6
1,8,7,3
2,0,3,7
2,0,5,8
2,2,2,7
2,2,6,4
2,4,2,4
2,4,6,2
2,6,2,2
2,6,6,7
2,8,3,1
2,8,5,7
3,1,0,6
3,1,8,9
3,2,3,9
3,2,5,8
3,4,3,1
3,4,5,7
3,6,3,8
3,6,5,5
3,7,0,1
3,7,8,7
4,0,1,7
4,0,7,9
4,2,0,9
4,2,8,4
4,3,1,9
4,3,2,6
4,3,3,4
4,3,5,5
4,3,6,8
4,3,7,3
4,5,1,5
4,5,2,4
4,5,3,9
4,5,5,8
4,5,6,7
4,5,7,6
4,6,0,8
4,6,8,6
4,8,1,1
4,8,7,5
5,1,0,1
5,1,8,3
5,2,3,3
5,2,5,4
5,4,3,5
5,4,5,9
5,6,3,4
5,6,5,6
5,7,0,5
5,7,8,9
6,0,3,5
6,0,5,9
6,2,2,5
6,2,6,6
6,4,2,6
6,4,6,7
6,6,2,7
6,6,6,5
6,8,3,8
6,8,5,5
7,0,1,2
7,0,3,3
7,0,5,7
7,0,7,8
7,1,1,1
7,1,7,3
7,3,2,7
7,3,4,8
7,3,6,5
7,4,1,5
7,4,7,1
7,5,2,1
7,5,4,9
7,5,6,6
7,7,1,3
7,7,7,5
7,8,1,9
7,8,3,6
7,8,5,3
7,8,7,4
8,0,1,8
8,0,3,1
8,0,5,4
8,0,7,6
8,2,0,2
8,2,1,4
8,2,2,1
8,2,6,8
8,2,7,7
8,2,8,3
8,4,2,8
8,4,6,9
8,6,0,5
8,6,1,6
8,6,2,9
8,6,6,1
8,6,7,2
8,6,8,4
8,8,1,7
8,8,3,2
8,8,5,1
8,8,7,9
