0,0,1,9
0,0,7,2
0,2,1,8
0,2,2,3
0,2,6,1
0,2,7,7
0,6,1,4
0,6,2,7
0,6,6,2
0,6,7,8
0,8,1,1
0,8,7,5
1,0,0,3
1,0,8,7
1,1,2,9
1,1,3,6
1,1,5,3
1,1,6,5
1,2,3,7
1,2,4,9
1,2,5,1
1,3,4,2
1,4,3,4
1,4,5,5
1,5,4,7
1,6,3,8
1,6,4,3
1,6,5,2
1,7,2,4
1,7,3,9
1,7,5,6
1,7,6,3
1,8,0,2
1,8,8,9
2,0,1,4
2,0,7,8
2,1,1,3
2,1,3,4
2,1,5,5
2,1,7,9
2,3,1,9
2,3,2,1
2,3,6,4
2,3,7,6
2,4,0,6
2,4,8,8
2,5,1,8
2,5,2,3
2,5,6,1
2,5,7,2
2,7,1,6
2,7,3,2
2,7,5,3
2,7,7,4
2,8,1,7
2,8,7,3
3,1,4,4
3,2,4,3
3,3,4,1
3,5,4,5
3,6,4,7
3,7,4,2
4,0,0,8
4,0,1,5
4,0,7,9
4,0,8,2
4,1,0,4
4,1,3,3
4,1,5,2
4,1,8,6
4,2,0,3
4,2,8,7
4,3,0,1
4,3,3,9
4,3,5,3
4,3,8,8
4,5,0,5
4,5,3,1
4,5,5,4
4,5,8,3
4,6,0,7
4,6,8,1
4,7,0,2
4,7,3,6
4,7,5,1
4,7,8,9
4,8,0,6
4,8,1,4
4,8,7,8
4,8,8,5
5,1,4,6
5,2,4,7
5,3,4,8
5,5,4,3
5,6,4,1
5,7,4,9
6,0,1,8
6,0,7,7
6,1,1,9
6,1,3,8
6,1,5,6
6,1,7,2
6,3,1,6
6,3,2,5
6,3,6,8
6,3,7,3
6,4,0,3
6,4,8,2
6,5,1,2
6,5,2,9
6,5,6,5
6,5,7,4
6,7,1,4
6,7,3,1
6,7,5,9
6,7,7,8
6,8,1,3
6,8,7,9
7,0,0,9
7,0,8,4
7,1,2,2
7,1,3,1
7,1,5,9
7,1,6,6
7,2,3,4
7,2,4,2
7,2,5,5
7,3,4,4
7,4,3,8
7,4,5,7
7,5,4,1
7,6,3,6
7,6,4,9
7,6,5,1
7,7,2,8
7,7,3,7
7,7,5,4
7,7,6,9
7,8,0,1
7,8,8,7
8,0,1,2
8,0,7,3
8,2,1,7
8,2,2,9
8,2,6,5
8,2,7,4
8,6,1,8
8,6,2,3
8,6,6,1
8,6,7,6
8,8,1,5
8,8,7,2
