0,0,2,5
0,0,6,6
0,1,1,2
0,1,4,1
0,1,7,8
0,2,3,2
0,2,5,7
0,3,0,8
0,3,8,4
0,4,1,5
0,4,7,2
0,5,0,2
0,5,8,3
0,6,3,5
0,6,5,1
0,7,1,3
0,7,4,2
0,7,7,4
0,8,2,1
0,8,6,2
1,0,3,7
1,0,5,6
1,2,0,6
1,2,8,8
1,3,0,7
1,3,1,2
1,3,7,8
1,3,8,9
1,5,0,4
1,5,1,1
1,5,7,7
1,5,8,2
1,6,0,1
1,6,8,6
1,8,3,6
1,8,5,2
2,0,0,2
2,0,8,3
2,2,0,1
2,2,3,8
2,2,5,3
2,2,8,6
2,3,1,4
2,3,7,6
2,5,1,3
2,5,7,4
2,6,0,3
2,6,3,2
2,6,5,7
2,6,8,5
2,8,0,7
2,8,8,9
3,0,0,7
3,0,2,6
3,0,3,4
3,0,5,8
3,0,6,3
3,0,8,9
3,1,0,3
3,1,1,5
3,1,7,1
3,1,8,8
3,3,0,6
3,3,8,5
3,4,0,9
3,4,3,7
3,4,5,6
3,4,8,1
3,5,0,8
3,5,8,7
3,7,0,5
3,7,1,9
3,7,7,8
3,7,8,4
3,8,0,1
3,8,2,4
3,8,3,5
3,8,5,3
3,8,6,7
3,8,8,6
4,0,0,5
4,0,8,4
4,1,0,1
4,1,8,6
4,7,0,8
4,7,8,7
4,8,0,6
4,8,8,5
5,0,0,8
5,0,2,1
5,0,3,9
5,0,5,5
5,0,6,2
5,0,8,7
5,1,0,6
5,1,1,7
5,1,7,3
5,1,8,5
5,3,0,1
5,3,8,6
5,4,0,2
5,4,3,1
5,4,5,4
5,4,8,3
5,5,0,5
5,5,8,4
5,7,0,7
5,7,1,2
5,7,7,5
5,7,8,9
5,8,0,3
5,8,2,9
5,8,3,2
5,8,5,7
5,8,6,4
5,8,8,8
6,0,0,3
6,0,8,5
6,2,0,7
6,2,3,4
6,2,5,5
6,2,8,9
6,3,1,6
6,3,7,9
6,5,1,5
6,5,7,2
6,6,0,5
6,6,3,9
6,6,5,8
6,6,8,7
6,8,0,9
6,8,8,1
7,0,3,8
7,0,5,3
7,2,0,8
7,2,8,4
7,3,0,9
7,3,1,3
7,3,7,4
7,3,8,1
7,5,0,6
7,5,1,7
7,5,7,3
7,5,8,8
7,6,0,7
7,6,8,9
7,8,3,3
7,8,5,9
8,0,2,2
8,0,6,9
8,1,1,3
8,1,4,2
8,1,7,4
8,2,3,9
8,2,5,8
8,3,0,4
8,3,8,2
8,4,1,2
8,4,7,8
8,5,0,3
8,5,8,5
8,6,3,6
8,6,5,2
8,7,1,5
8,7,4,9
8,7,7,2
8,8,2,7
8,8,6,8
