0,0,0,9
0,0,8,7
0,1,1,5
0,1,3,8
0,1,4,9
0,1,5,4
0,1,7,3
0,2,1,2
0,2,2,3
0,2,4,7
0,2,6,4
0,2,7,8
0,3,0,4
0,3,3,6
0,3,5,8
0,3,8,5
0,5,0,2
0,5,3,7
0,5,5,3
0,5,8,4
0,6,1,9
0,6,2,4
0,6,4,1
0,6,6,7
0,6,7,5
0,7,1,7
0,7,3,4
0,7,4,3
0,7,5,9
0,7,7,2
0,8,0,1
0,8,8,3
1,0,0,5
1,0,8,2
1,3,1,7
1,3,2,5
1,3,6,6
1,3,7,2
1,5,1,9
1,5,2,4
1,5,6,7
1,5,7,5
1,8,0,9
1,8,8,7
2,0,0,3
2,0,8,8
2,2,2,5
2,2,6,6
2,6,2,6
2,6,6,3
2,8,0,5
2,8,8,2
3,3,0,9
3,3,8,2
3,5,0,6
3,5,8,9
4,1,2,5
4,1,6,1
4,2,0,9
4,2,8,2
4,4,4,5
4,6,0,8
4,6,8,1
4,7,2,2
4,7,6,5
5,3,0,8
5,3,8,1
5,5,0,3
5,5,8,8
6,0,0,4
6,0,8,5
6,2,2,6
6,2,6,8
6,6,2,3
6,6,6,5
6,8,0,6
6,8,8,9
7,0,0,6
7,0,8,9
7,3,1,8
7,3,2,6
7,3,6,1
7,3,7,9
7,5,1,3
7,5,2,7
7,5,6,8
7,5,7,6
7,8,0,8
7,8,8,1
8,0,0,1
8,0,8,3
8,1,1,6
8,1,3,5
8,1,4,1
8,1,5,7
8,1,7,4
8,2,1,9
8,2,2,4
8,2,4,3
8,2,6,7
8,2,7,5
8,3,0,7
8,3,3,1
8,3,5,4
8,3,8,6
8,5,0,9
8,5,3,8
8,5,5,2
8,5,8,7
8,6,1,8
8,6,2,7
8,6,4,4
8,6,6,1
8,6,7,6
8,7,1,1
8,7,3,7
8,7,4,5
8,7,5,8
8,7,7,9
8,8,0,4
8,8,8,5
