0,0,1,4
0,0,4,6
0,0,7,7
0,2,4,5
0,3,4,2
0,4,3,3
0,4,5,6
0,5,4,8
0,6,4,9
0,8,1,1
0,8,4,3
0,8,7,4
1,0,3,7
1,0,4,4
1,0,5,8
1,2,1,1
1,2,7,5
1,6,1,8
1,6,7,9
1,8,3,9
1,8,4,8
1,8,5,7
2,0,2,7
2,0,6,3
2,1,2,4
2,1,4,9
2,1,6,5
2,2,4,8
2,3,3,7
2,3,5,8
2,5,3,6
2,5,5,4
2,6,4,6
2,7,2,3
2,7,4,7
2,7,6,2
2,8,2,5
2,8,6,9
3,2,2,1
3,2,6,8
3,3,0,1
3,3,4,3
3,3,8,5
3,4,2,7
3,4,6,1
3,5,0,6
3,5,4,5
3,5,8,7
3,6,2,8
3,6,6,7
4,1,1,1
4,1,7,6
4,2,3,9
4,2,5,8
4,3,0,3
4,3,2,5
4,3,3,8
4,3,5,6
4,3,6,9
4,3,8,1
4,5,0,4
4,5,2,1
4,5,3,3
4,5,5,9
4,5,6,8
4,5,8,6
4,6,3,4
4,6,5,7
4,7,1,3
4,7,7,4
5,2,2,5
5,2,6,9
5,3,0,9
5,3,4,1
5,3,8,3
5,4,2,4
5,4,6,5
5,5,0,7
5,5,4,6
5,5,8,9
5,6,2,9
5,6,6,4
6,0,2,9
6,0,6,4
6,1,2,1
6,1,4,6
6,1,6,8
6,2,4,2
6,3,3,5
6,3,5,2
6,5,3,7
6,5,5,6
6,6,4,7
6,7,2,4
6,7,4,9
6,7,6,5
6,8,2,8
6,8,6,6
7,0,3,6
7,0,4,7
7,0,5,9
7,2,1,9
7,2,7,7
7,6,1,4
7,6,7,3
7,8,3,7
7,8,4,5
7,8,5,6
8,0,1,5
8,0,4,8
8,0,7,3
8,2,4,9
8,3,4,7
8,4,3,2
8,4,5,8
8,5,4,1
8,6,4,4
8,8,1,6
8,8,4,2
8,8,7,5
