0,1,3,9
0,1,5,1
0,2,2,8
0,2,6,6
0,3,3,1
0,3,5,7
0,4,1,9
0,4,3,6
0,4,5,5
0,4,7,7
0,5,3,4
0,5,5,8
0,6,2,9
0,6,6,1
0,7,3,8
0,7,5,6
1,0,4,1
1,2,0,5
1,2,3,8
1,2,5,6
1,2,8,9
1,3,0,9
1,3,8,4
1,5,0,2
1,5,8,7
1,6,0,7
1,6,3,4
1,6,5,8
1,6,8,6
1,8,4,3
2,1,0,7
2,1,8,6
2,7,0,9
2,7,8,4
3,0,0,7
3,0,8,2
3,2,4,8
3,6,4,5
3,8,0,2
3,8,8,6
4,0,2,5
4,0,6,8
4,1,0,9
4,1,8,4
4,2,2,6
4,2,4,3
4,2,6,5
4,4,2,9
4,4,6,1
4,6,2,8
4,6,4,4
4,6,6,6
4,7,0,3
4,7,8,8
4,8,2,4
4,8,6,3
5,0,0,6
5,0,8,7
5,2,4,1
5,6,4,9
5,8,0,7
5,8,8,2
6,1,0,3
6,1,8,8
6,7,0,2
6,7,8,7
7,0,4,4
7,2,0,2
7,2,3,5
7,2,5,1
7,2,8,7
7,3,0,7
7,3,8,6
7,5,0,8
7,5,8,1
7,6,0,3
7,6,3,2
7,6,5,5
7,6,8,8
7,8,4,9
8,1,3,2
8,1,5,5
8,2,2,5
8,2,6,3
8,3,3,5
8,3,5,3
8,4,1,7
8,4,3,8
8,4,5,2
8,4,7,3
8,5,3,7
8,5,5,9
8,6,2,2
8,6,6,9
8,7,3,9
8,7,5,1
