0,0,1,7
0,0,3,8
0,0,5,4
0,0,7,5
0,1,2,9
0,1,4,6
0,1,6,8
0,3,2,5
0,3,6,4
0,4,2,3
0,4,6,7
0,5,2,7
0,5,6,9
0,7,2,2
0,7,4,4
0,7,6,5
0,8,1,9
0,8,3,6
0,8,5,7
0,8,7,4
1,0,3,9
1,0,5,5
1,1,3,4
1,1,4,8
1,1,5,3
1,2,1,1
1,2,2,5
1,2,4,7
1,2,6,4
1,2,7,8
1,6,1,5
1,6,2,9
1,6,4,6
1,6,6,8
1,6,7,3
1,7,3,1
1,7,4,5
1,7,5,9
1,8,3,8
1,8,5,4
2,2,0,7
2,2,8,1
2,4,4,3
2,6,0,6
2,6,8,5
3,0,3,4
3,0,5,1
3,1,4,5
3,3,4,2
3,5,4,4
3,7,4,1
3,8,3,5
3,8,5,2
4,0,3,7
4,0,5,3
4,1,2,2
4,1,6,5
4,3,3,6
4,3,5,4
4,5,3,3
4,5,5,8
4,7,2,6
4,7,6,1
4,8,3,4
4,8,5,1
5,0,3,5
5,0,5,2
5,1,4,7
5,3,4,3
5,5,4,5
5,7,4,2
5,8,3,7
5,8,5,3
6,2,0,1
6,2,8,4
6,4,4,7
6,6,0,5
6,6,8,8
7,0,3,3
7,0,5,8
7,1,3,6
7,1,4,2
7,1,5,7
7,2,1,4
7,2,2,8
7,2,4,9
7,2,6,2
7,2,7,7
7,6,1,8
7,6,2,3
7,6,4,1
7,6,6,7
7,6,7,6
7,7,3,4
7,7,4,8
7,7,5,3
7,8,3,2
7,8,5,6
8,0,1,1
8,0,3,2
8,0,5,6
8,0,7,8
8,1,2,3
8,1,4,1
8,1,6,7
8,3,2,8
8,3,6,2
8,4,2,2
8,4,6,5
8,5,2,1
8,5,6,3
8,7,2,9
8,7,4,6
8,7,6,8
8,8,1,3
8,8,3,1
8,8,5,9
8,8,7,2
