0,0,0,1
0,0,8,8
0,2,3,8
0,2,5,2
0,3,0,2
0,3,8,7
0,5,0,3
0,5,8,1
0,6,3,3
0,6,5,4
0,8,0,7
0,8,8,4
1,0,4,8
1,1,0,2
1,1,1,1
1,1,7,9
1,1,8,7
1,2,0,6
1,2,1,4
1,2,2,8
1,2,6,2
1,2,7,3
1,2,8,5
1,3,4,2
1,4,1,2
1,4,7,8
1,5,4,1
1,6,0,9
1,6,1,7
1,6,2,3
1,6,6,4
1,6,7,1
1,6,8,6
1,7,0,1
1,7,1,5
1,7,7,7
1,7,8,8
1,8,4,7
2,0,1,5
2,0,7,2
2,1,1,3
2,1,7,5
2,3,2,5
2,3,6,3
2,4,0,6
2,4,2,3
2,4,3,8
2,4,5,2
2,4,6,4
2,4,8,5
2,5,2,2
2,5,6,6
2,7,1,6
2,7,7,4
2,8,1,1
2,8,7,6
3,0,3,1
3,0,5,2
3,2,2,6
3,2,6,1
3,3,2,7
3,3,6,6
3,5,2,8
3,5,6,4
3,6,2,5
3,6,6,8
3,8,3,2
3,8,5,5
4,0,1,7
4,0,7,1
4,1,0,3
4,1,1,5
4,1,7,7
4,1,8,8
4,2,3,6
4,2,5,8
4,3,0,8
4,3,8,1
4,5,0,9
4,5,8,5
4,6,3,5
4,6,5,3
4,7,0,5
4,7,1,2
4,7,7,8
4,7,8,6
4,8,1,9
4,8,7,2
5,0,3,8
5,0,5,7
5,2,2,5
5,2,6,8
5,3,2,4
5,3,6,5
5,5,2,3
5,5,6,2
5,6,2,9
5,6,6,3
5,8,3,7
5,8,5,9
6,0,1,1
6,0,7,6
6,1,1,7
6,1,7,3
6,3,2,1
6,3,6,2
6,4,0,8
6,4,2,7
6,4,3,2
6,4,5,6
6,4,6,9
6,4,8,3
6,5,2,6
6,5,6,1
6,7,1,8
6,7,7,9
6,8,1,2
6,8,7,1
7,0,4,4
7,1,0,9
7,1,1,4
7,1,7,1
7,1,8,6
7,2,0,1
7,2,1,5
7,2,2,7
7,2,6,9
7,2,7,4
7,2,8,8
7,3,4,9
7,4,1,9
7,4,7,2
7,5,4,2
7,6,0,8
7,6,1,6
7,6,2,2
7,6,6,5
7,6,7,7
7,6,8,3
7,7,0,4
7,7,1,3
7,7,7,6
7,7,8,2
7,8,4,6
8,0,0,7
8,0,8,4
8,2,3,7
8,2,5,5
8,3,0,5
8,3,8,9
8,5,0,4
8,5,8,2
8,6,3,2
8,6,5,6
8,8,0,9
8,8,8,6
