0,0,2,1
0,0,3,2
0,0,5,7
0,0,6,9
0,1,1,2
0,1,4,9
0,1,7,5
0,2,2,9
0,2,6,6
0,6,2,2
0,6,6,5
0,7,1,9
0,7,4,5
0,7,7,6
0,8,2,5
0,8,3,7
0,8,5,6
0,8,6,3
1,0,0,9
1,0,8,7
1,2,0,6
1,2,8,5
1,3,2,6
1,3,6,5
1,5,2,5
1,5,6,3
1,6,0,5
1,6,8,8
1,8,0,3
1,8,8,6
2,0,0,2
2,0,2,7
2,0,3,9
2,0,4,3
2,0,5,8
2,0,6,5
2,0,8,1
2,1,4,5
2,3,4,2
2,5,4,1
2,7,4,6
2,8,0,7
2,8,2,6
2,8,3,3
2,8,4,8
2,8,5,9
2,8,6,4
2,8,8,5
3,0,1,2
3,0,7,9
3,3,4,7
3,5,4,4
3,8,1,7
3,8,7,4
4,3,2,3
4,3,3,8
4,3,5,4
4,3,6,6
4,4,4,6
4,5,2,6
4,5,3,5
4,5,5,1
4,5,6,9
5,0,1,5
5,0,7,2
5,3,4,5
5,5,4,2
5,8,1,3
5,8,7,7
6,0,0,4
6,0,2,5
6,0,3,6
6,0,4,7
6,0,5,2
6,0,6,3
6,0,8,9
6,1,4,3
6,3,4,1
6,5,4,9
6,7,4,4
6,8,0,1
6,8,2,4
6,8,3,2
6,8,4,6
6,8,5,7
6,8,6,8
6,8,8,3
7,0,0,3
7,0,8,2
7,2,0,7
7,2,8,4
7,3,2,7
7,3,6,4
7,5,2,4
7,5,6,8
7,6,0,4
7,6,8,9
7,8,0,8
7,8,8,7
8,0,2,2
8,0,3,3
8,0,5,9
8,0,6,4
8,1,1,3
8,1,4,4
8,1,7,6
8,2,2,4
8,2,6,8
8,6,2,9
8,6,6,7
8,7,1,4
8,7,4,7
8,7,7,3
8,8,2,7
8,8,3,8
8,8,5,3
8,8,6,1
