0,0,1,7
0,0,7,3
0,1,0,1
0,1,8,4
0,2,2,6
0,2,6,2
0,3,3,8
0,3,4,7
0,3,5,2
0,4,4,5
0,5,3,3
0,5,4,4
0,5,5,6
0,6,2,1
0,6,6,8
0,7,0,7
0,7,8,9
0,8,1,9
0,8,7,4
1,0,0,5
1,0,8,6
1,2,0,7
1,2,1,2
1,2,2,8
1,2,6,3
1,2,7,5
1,2,8,9
1,4,2,2
1,4,6,9
1,6,0,2
1,6,1,3
1,6,2,7
1,6,6,5
1,6,7,9
1,6,8,1
1,8,0,6
1,8,8,8
2,0,4,5
2,2,3,3
2,2,5,2
2,3,1,2
2,3,2,1
2,3,6,8
2,3,7,5
2,5,1,6
2,5,2,8
2,5,6,3
2,5,7,7
2,6,3,7
2,6,5,1
2,8,4,6
3,1,1,7
3,1,7,2
3,2,1,6
3,2,2,3
3,2,6,1
3,2,7,9
3,6,1,1
3,6,2,2
3,6,6,9
3,6,7,4
3,7,1,3
3,7,7,7
4,0,2,5
4,0,4,9
4,0,6,2
4,3,0,2
4,3,1,6
4,3,3,7
4,3,5,5
4,3,7,9
4,3,8,4
4,4,0,9
4,4,8,7
4,5,0,5
4,5,1,7
4,5,3,4
4,5,5,9
4,5,7,2
4,5,8,6
4,8,2,6
4,8,4,7
4,8,6,4
5,1,1,9
5,1,7,3
5,2,1,5
5,2,2,7
5,2,6,6
5,2,7,8
5,6,1,7
5,6,2,8
5,6,6,3
5,6,7,2
5,7,1,6
5,7,7,9
6,0,4,4
6,2,3,8
6,2,5,9
6,3,1,9
6,3,2,3
6,3,6,1
6,3,7,4
6,5,1,2
6,5,2,1
6,5,6,8
6,5,7,5
6,6,3,5
6,6,5,3
6,8,4,2
7,0,0,1
7,0,8,4
7,2,0,8
7,2,1,7
7,2,2,2
7,2,6,9
7,2,7,3
7,2,8,5
7,4,2,7
7,4,6,5
7,6,0,7
7,6,1,2
7,6,2,3
7,6,6,1
7,6,7,5
7,6,8,9
7,8,0,4
7,8,8,2
8,0,1,6
8,0,7,7
8,1,0,7
8,1,8,9
8,2,2,1
8,2,6,8
8,3,3,4
8,3,4,6
8,3,5,3
8,4,4,2
8,5,3,5
8,5,4,9
8,5,5,1
8,6,2,5
8,6,6,4
8,7,0,6
8,7,8,8
8,8,1,3
8,8,7,9
