0,0,2,9
0,0,4,1
0,0,6,5
0,1,0,5
0,1,8,4
0,3,1,9
0,3,4,4
0,3,7,7
0,4,2,5
0,4,6,3
0,5,1,4
0,5,4,7
0,5,7,9
0,7,0,7
0,7,8,1
0,8,2,8
0,8,4,5
0,8,6,9
1,0,2,5
1,0,6,8
1,2,1,9
1,2,7,7
1,3,3,9
1,3,5,1
1,5,3,4
1,5,5,8
1,6,1,3
1,6,7,1
1,8,2,9
1,8,6,5
2,0,3,7
2,0,5,8
2,4,2,9
2,4,4,8
2,4,6,5
2,8,3,8
2,8,5,2
3,1,1,7
3,1,7,2
3,2,0,3
3,2,8,4
3,6,0,2
3,6,8,3
3,7,1,4
3,7,7,9
4,1,1,6
4,1,2,3
4,1,4,9
4,1,6,5
4,1,7,4
4,2,2,8
4,2,4,6
4,2,6,7
4,4,1,5
4,4,2,4
4,4,6,1
4,4,7,7
4,6,2,5
4,6,4,3
4,6,6,9
4,7,1,3
4,7,2,7
4,7,4,8
4,7,6,6
4,7,7,1
5,1,1,8
5,1,7,3
5,2,0,9
5,2,8,2
5,6,0,3
5,6,8,6
5,7,1,2
5,7,7,5
6,0,3,4
6,0,5,1
6,4,2,7
6,4,4,1
6,4,6,6
6,8,3,1
6,8,5,5
7,0,2,7
7,0,6,6
7,2,1,8
7,2,7,3
7,3,3,1
7,3,5,2
7,5,3,8
7,5,5,6
7,6,1,5
7,6,7,6
7,8,2,1
7,8,6,7
8,0,2,6
8,0,4,7
8,0,6,1
8,1,0,8
8,1,8,5
8,3,1,6
8,3,4,5
8,3,7,2
8,4,2,3
8,4,6,7
8,5,1,5
8,5,4,2
8,5,7,6
8,7,0,2
8,7,8,7
8,8,2,7
8,8,4,8
8,8,6,6
