0,2,0,5
0,2,3,4
0,2,5,3
0,2,8,6
0,6,0,3
0,6,3,2
0,6,5,4
0,6,8,8
1,2,2,6
1,2,6,4
1,3,3,4
1,3,5,8
1,4,0,6
1,4,2,9
1,4,6,8
1,4,8,2
1,5,3,9
1,5,5,3
1,6,2,8
1,6,6,2
2,0,1,5
2,0,7,1
2,2,3,1
2,2,5,6
2,3,0,3
2,3,3,5
2,3,5,7
2,3,8,8
2,5,0,1
2,5,3,2
2,5,5,4
2,5,8,3
2,6,3,9
2,6,5,8
2,8,1,8
2,8,7,4
3,0,3,5
3,0,5,6
3,1,3,7
3,1,5,9
3,3,4,7
3,4,0,5
3,4,8,7
3,5,4,5
3,7,3,2
3,7,5,5
3,8,3,4
3,8,5,7
4,1,3,3
4,1,5,8
4,2,4,6
4,3,1,6
4,3,7,7
4,4,2,7
4,4,6,3
4,5,1,3
4,5,7,5
4,6,4,5
4,7,3,9
4,7,5,4
5,0,3,1
5,0,5,3
5,1,3,6
5,1,5,2
5,3,4,6
5,4,0,3
5,4,8,6
5,5,4,3
5,7,3,3
5,7,5,8
5,8,3,5
5,8,5,6
6,0,1,3
6,0,7,7
6,2,3,7
6,2,5,8
6,3,0,7
6,3,3,8
6,3,5,2
6,3,8,9
6,5,0,4
6,5,3,3
6,5,5,6
6,5,8,7
6,6,3,5
6,6,5,7
6,8,1,7
6,8,7,6
7,2,2,8
7,2,6,6
7,3,3,6
7,3,5,9
7,4,0,1
7,4,2,5
7,4,6,9
7,4,8,3
7,5,3,5
7,5,5,7
7,6,2,7
7,6,6,8
8,2,0,3
8,2,3,6
8,2,5,9
8,2,8,8
8,6,0,4
8,6,3,8
8,6,5,6
8,6,8,7
