0,1,1,1
0,1,2,4
0,1,6,5
0,1,7,3
0,2,3,7
0,2,5,4
0,3,1,9
0,3,7,6
0,5,1,5
0,5,7,9
0,6,3,3
0,6,5,5
0,7,1,4
0,7,2,2
0,7,6,3
0,7,7,7
1,0,1,4
1,0,7,7
1,1,0,3
1,1,4,4
1,1,8,9
1,2,3,3
1,2,5,5
1,3,1,1
1,3,7,3
1,5,1,7
1,5,7,1
1,6,3,8
1,6,5,6
1,7,0,6
1,7,4,7
1,7,8,2
1,8,1,9
1,8,7,6
2,1,0,8
2,1,8,1
2,2,3,8
2,2,5,6
2,4,3,3
2,4,4,2
2,4,5,5
2,6,3,7
2,6,5,4
2,7,0,9
2,7,8,4
3,1,4,3
3,3,2,6
3,3,6,3
3,4,1,1
3,4,7,7
3,5,2,9
3,5,6,1
3,7,4,9
4,1,0,7
4,1,8,5
4,3,1,5
4,3,7,1
4,4,4,4
4,5,1,8
4,5,7,6
4,7,0,2
4,7,8,3
5,1,4,2
5,3,2,8
5,3,6,7
5,4,1,9
5,4,7,8
5,5,2,7
5,5,6,9
5,7,4,6
6,1,0,5
6,1,8,8
6,2,3,5
6,2,5,7
6,4,3,4
6,4,4,6
6,4,5,1
6,6,3,2
6,6,5,9
6,7,0,3
6,7,8,9
7,0,1,9
7,0,7,2
7,1,0,4
7,1,4,9
7,1,8,3
7,2,3,4
7,2,5,1
7,3,1,8
7,3,7,4
7,5,1,2
7,5,7,8
7,6,3,5
7,6,5,7
7,7,0,7
7,7,4,2
7,7,8,6
7,8,1,3
7,8,7,7
8,1,1,8
8,1,2,9
8,1,6,1
8,1,7,4
8,2,3,2
8,2,5,9
8,3,1,3
8,3,7,7
8,5,1,1
8,5,7,3
8,6,3,4
8,6,5,1
8,7,1,9
8,7,2,6
8,7,6,4
8,7,7,2
