0,0,0,8
0,0,8,2
0,2,0,1
0,2,8,7
0,6,0,9
0,6,8,8
0,8,0,5
0,8,8,1
1,0,1,4
1,0,7,6
1,1,0,6
1,1,8,9
1,4,1,3
1,4,3,1
1,4,5,4
1,4,7,9
1,7,0,8
1,7,8,2
1,8,1,2
1,8,7,8
2,1,3,3
2,1,5,5
2,3,1,2
2,3,2,5
2,3,6,9
2,3,7,8
2,4,1,6
2,4,7,3
2,5,1,7
2,5,2,4
2,5,6,5
2,5,7,1
2,7,3,5
2,7,5,7
3,2,0,5
3,2,3,8
3,2,5,4
3,2,8,3
3,3,2,9
3,3,6,4
3,5,2,5
3,5,6,9
3,6,0,2
3,6,3,5
3,6,5,7
3,6,8,4
4,0,3,7
4,0,5,1
4,2,2,9
4,2,6,4
4,3,3,9
4,3,5,6
4,5,3,5
4,5,5,2
4,6,2,6
4,6,6,7
4,8,3,1
4,8,5,5
5,2,0,2
5,2,3,9
5,2,5,7
5,2,8,5
5,3,2,2
5,3,6,6
5,5,2,7
5,5,6,2
5,6,0,8
5,6,3,6
5,6,5,3
5,6,8,2
6,1,3,6
6,1,5,3
6,3,1,5
6,3,2,3
6,3,6,8
6,3,7,6
6,4,1,9
6,4,7,7
6,5,1,4
6,5,2,8
6,5,6,1
6,5,7,2
6,7,3,1
6,7,5,5
7,0,1,9
7,0,7,2
7,1,0,2
7,1,8,5
7,4,1,8
7,4,3,3
7,4,5,9
7,4,7,5
7,7,0,1
7,7,8,7
7,8,1,7
7,8,7,1
8,0,0,4
8,0,8,8
8,2,0,9
8,2,8,1
8,6,0,6
8,6,8,5
8,8,0,2
8,8,8,4
