0,0,4,1
0,2,2,9
0,2,4,4
0,2,6,5
0,3,0,4
0,3,8,1
0,4,1,2
0,4,4,9
0,4,7,8
0,5,0,6
0,5,8,5
0,6,2,4
0,6,4,5
0,6,6,9
0,8,4,7
1,0,1,8
1,0,7,5
1,1,2,4
1,1,3,2
1,1,5,1
1,1,6,9
1,2,4,8
1,6,4,1
1,7,2,7
1,7,3,8
1,7,5,5
1,7,6,6
1,8,1,2
1,8,7,1
2,0,4,9
2,1,3,4
2,1,5,7
2,4,1,1
2,4,3,8
2,4,5,4
2,4,7,5
2,7,3,7
2,7,5,1
2,8,4,8
3,1,2,5
3,1,3,6
3,1,4,8
3,1,5,4
3,1,6,2
3,2,0,6
3,2,8,5
3,3,4,5
3,4,1,5
3,4,2,9
3,4,6,3
3,4,7,7
3,5,4,7
3,6,0,7
3,6,8,3
3,7,2,1
3,7,3,4
3,7,4,6
3,7,5,3
3,7,6,7
4,0,4,4
4,1,1,4
4,1,4,7
4,1,7,5
4,3,1,9
4,3,3,4
4,3,5,1
4,3,7,2
4,4,0,4
4,4,1,6
4,4,7,9
4,4,8,8
4,5,1,2
4,5,3,5
4,5,5,8
4,5,7,6
4,7,1,3
4,7,4,8
4,7,7,1
4,8,4,1
5,1,2,1
5,1,3,5
5,1,4,9
5,1,5,3
5,1,6,4
5,2,0,5
5,2,8,1
5,3,4,3
5,4,1,3
5,4,2,7
5,4,6,6
5,4,7,1
5,5,4,1
5,6,0,3
5,6,8,9
5,7,2,2
5,7,3,1
5,7,4,5
5,7,5,9
5,7,6,3
6,0,4,6
6,1,3,7
6,1,5,8
6,4,1,9
6,4,3,4
6,4,5,7
6,4,7,2
6,7,3,3
6,7,5,4
6,8,4,5
7,0,1,7
7,0,7,1
7,1,2,3
7,1,3,9
7,1,5,6
7,1,6,8
7,2,4,7
7,6,4,2
7,7,2,5
7,7,3,6
7,7,5,8
7,7,6,4
7,8,1,9
7,8,7,2
8,0,4,8
8,2,2,5
8,2,4,9
8,2,6,4
8,3,0,9
8,3,8,8
8,4,1,7
8,4,4,5
8,4,7,3
8,5,0,2
8,5,8,4
8,6,2,9
8,6,4,4
8,6,6,5
8,8,4,6
