0,2,2,3
0,2,6,1
0,6,2,2
0,6,6,7
1,0,0,4
1,0,8,8
1,2,0,6
1,2,8,4
1,4,3,7
1,4,5,5
1,6,0,7
1,6,8,3
1,8,0,5
1,8,8,7
2,2,2,4
2,2,6,5
2,4,1,4
2,4,7,6
2,6,2,1
2,6,6,6
3,1,2,4
3,1,6,5
3,2,1,7
3,2,3,2
3,2,5,3
3,2,7,6
3,3,1,4
3,3,3,9
3,3,5,2
3,3,7,8
3,4,0,2
3,4,2,1
3,4,3,5
3,4,5,8
3,4,6,6
3,4,8,4
3,5,1,5
3,5,3,4
3,5,5,7
3,5,7,2
3,6,1,1
3,6,3,3
3,6,5,5
3,6,7,4
3,7,2,7
3,7,6,8
4,0,0,9
4,0,3,3
4,0,4,2
4,0,5,5
4,0,8,6
4,2,3,6
4,2,4,7
4,2,5,9
4,3,0,6
4,3,8,2
4,4,0,3
4,4,2,4
4,4,6,5
4,4,8,8
4,5,0,1
4,5,8,7
4,6,3,9
4,6,4,6
4,6,5,8
4,8,0,7
4,8,3,4
4,8,4,1
4,8,5,2
4,8,8,9
5,1,2,1
5,1,6,6
5,2,1,5
5,2,3,4
5,2,5,8
5,2,7,7
5,3,1,1
5,3,3,3
5,3,5,5
5,3,7,4
5,4,0,5
5,4,2,8
5,4,3,1
5,4,5,4
5,4,6,2
5,4,8,3
5,5,1,3
5,5,3,6
5,5,5,9
5,5,7,5
5,6,1,7
5,6,3,2
5,6,5,1
5,6,7,3
5,7,2,4
5,7,6,5
6,2,2,7
6,2,6,8
6,4,1,2
6,4,7,5
6,6,2,4
6,6,6,5
7,0,0,1
7,0,8,4
7,2,0,8
7,2,8,3
7,4,3,4
7,4,5,1
7,6,0,5
7,6,8,7
7,8,0,3
7,8,8,5
8,2,2,1
8,2,6,6
8,6,2,7
8,6,6,8
