0,1,1,1
0,1,7,8
0,2,2,7
0,2,6,4
0,4,0,5
0,4,4,6
0,4,8,7
0,6,2,1
0,6,6,5
0,7,1,3
0,7,7,4
1,1,0,2
1,1,1,7
1,1,4,3
1,1,7,1
1,1,8,4
1,3,0,9
1,3,8,8
1,4,3,3
1,4,4,2
1,4,5,7
1,5,0,7
1,5,8,3
1,7,0,8
1,7,1,5
1,7,4,4
1,7,7,6
1,7,8,2
2,0,0,7
2,0,1,8
2,0,4,5
2,0,7,4
2,0,8,6
2,1,0,9
2,1,2,5
2,1,6,2
2,1,8,3
2,2,0,4
2,2,3,6
2,2,4,2
2,2,5,7
2,2,8,8
2,4,1,2
2,4,7,3
2,6,0,5
2,6,3,4
2,6,4,3
2,6,5,1
2,6,8,7
2,7,0,1
2,7,2,6
2,7,6,3
2,7,8,9
2,8,0,2
2,8,1,7
2,8,4,6
2,8,7,1
2,8,8,4
3,2,1,6
3,2,2,4
3,2,6,9
3,2,7,1
3,4,4,1
3,6,1,1
3,6,2,3
3,6,6,8
3,6,7,7
4,2,0,3
4,2,1,7
4,2,7,8
4,2,8,4
4,6,0,2
4,6,1,8
4,6,7,1
4,6,8,6
5,2,1,1
5,2,2,8
5,2,6,6
5,2,7,7
5,4,4,7
5,6,1,7
5,6,2,5
5,6,6,2
5,6,7,3
6,0,0,9
6,0,1,6
6,0,4,1
6,0,7,7
6,0,8,3
6,1,0,4
6,1,2,1
6,1,6,5
6,1,8,8
6,2,0,7
6,2,3,3
6,2,4,5
6,2,5,9
6,2,8,6
6,4,1,5
6,4,7,8
6,6,0,1
6,6,3,7
6,6,4,8
6,6,5,2
6,6,8,9
6,7,0,2
6,7,2,3
6,7,6,8
6,7,8,4
6,8,0,5
6,8,1,9
6,8,4,3
6,8,7,2
6,8,8,7
7,1,0,8
7,1,1,2
7,1,4,9
7,1,7,6
7,1,8,1
7,3,0,5
7,3,8,7
7,4,3,7
7,4,4,3
7,4,5,2
7,5,0,2
7,5,8,4
7,7,0,9
7,7,1,8
7,7,4,1
7,7,7,7
7,7,8,6
8,1,1,9
8,1,7,2
8,2,2,3
8,2,6,8
8,4,0,7
8,4,4,5
8,4,8,3
8,6,2,9
8,6,6,7
8,7,1,1
8,7,7,3
