0,1,2,1
0,1,6,2
0,2,2,4
0,2,6,9
0,4,1,1
0,4,7,8
0,6,2,7
0,6,6,4
0,7,2,5
0,7,6,8
1,0,0,3
1,0,8,2
1,1,1,4
1,1,7,1
1,3,0,1
1,3,2,7
1,3,6,8
1,3,8,3
1,4,2,5
1,4,3,8
1,4,5,3
1,4,6,1
1,5,0,8
1,5,2,3
1,5,6,4
1,5,8,5
1,7,1,3
1,7,7,5
1,8,0,2
1,8,8,4
2,0,0,4
2,0,1,6
2,0,7,9
2,0,8,3
2,1,2,5
2,1,6,4
2,2,0,1
2,2,1,9
2,2,7,2
2,2,8,5
2,3,3,2
2,3,5,8
2,5,3,6
2,5,5,4
2,6,0,3
2,6,1,4
2,6,7,1
2,6,8,9
2,7,2,2
2,7,6,3
2,8,0,5
2,8,1,1
2,8,7,8
2,8,8,2
3,0,4,6
3,1,0,2
3,1,8,3
3,4,0,1
3,4,1,5
3,4,4,3
3,4,7,7
3,4,8,6
3,7,0,3
3,7,8,9
3,8,4,1
4,0,2,2
4,0,6,9
4,2,4,9
4,3,1,2
4,3,2,1
4,3,3,3
4,3,5,4
4,3,6,7
4,3,7,6
4,4,2,7
4,4,6,8
4,5,1,3
4,5,2,8
4,5,3,9
4,5,5,6
4,5,6,1
4,5,7,5
4,6,4,4
4,8,2,4
4,8,6,3
5,0,4,1
5,1,0,4
5,1,8,2
5,4,0,3
5,4,1,8
5,4,4,6
5,4,7,2
5,4,8,1
5,7,0,8
5,7,8,3
5,8,4,7
6,0,0,8
6,0,1,2
6,0,7,6
6,0,8,7
6,1,2,3
6,1,6,8
6,2,0,4
6,2,1,6
6,2,7,9
6,2,8,3
6,3,3,9
6,3,5,1
6,5,3,2
6,5,5,8
6,6,0,7
6,6,1,8
6,6,7,4
6,6,8,6
6,7,2,9
6,7,6,7
6,8,0,3
6,8,1,4
6,8,7,1
6,8,8,9
7,0,0,9
7,0,8,8
7,1,1,7
7,1,7,3
7,3,0,7
7,3,2,9
7,3,6,3
7,3,8,2
7,4,2,6
7,4,3,3
7,4,5,2
7,4,6,7
7,5,0,3
7,5,2,2
7,5,6,5
7,5,8,6
7,7,1,6
7,7,7,9
7,8,0,8
7,8,8,3
8,1,2,2
8,1,6,7
8,2,2,9
8,2,6,5
8,4,1,2
8,4,7,6
8,6,2,4
8,6,6,9
8,7,2,8
8,7,6,6
