0,0,1,9
0,0,2,3
0,0,6,7
0,0,7,6
0,1,3,7
0,1,5,2
0,3,4,2
0,4,1,2
0,4,7,5
0,5,4,4
0,7,3,4
0,7,5,5
0,8,1,5
0,8,2,4
0,8,6,1
0,8,7,9
1,0,3,9
1,0,5,1
1,1,4,8
1,2,4,7
1,3,2,3
1,3,6,7
1,4,4,6
1,5,2,2
1,5,6,4
1,6,4,2
1,7,4,9
1,8,3,5
1,8,5,8
2,0,4,2
2,1,3,1
2,1,4,9
2,1,5,3
2,2,1,3
2,2,2,1
2,2,4,4
2,2,6,6
2,2,7,2
2,6,1,9
2,6,2,3
2,6,4,5
2,6,6,7
2,6,7,6
2,7,3,7
2,7,4,6
2,7,5,2
2,8,4,1
3,3,4,1
3,4,2,6
3,4,4,5
3,4,6,3
3,5,4,6
4,1,1,9
4,1,2,5
4,1,4,3
4,1,6,7
4,1,7,6
4,2,4,9
4,3,0,7
4,3,8,3
4,4,1,8
4,4,2,3
4,4,4,2
4,4,6,5
4,4,7,4
4,5,0,5
4,5,8,6
4,6,4,1
4,7,1,7
4,7,2,6
4,7,4,5
4,7,6,3
4,7,7,1
5,3,4,7
5,4,2,5
5,4,4,3
5,4,6,7
5,5,4,9
6,0,4,8
6,1,3,2
6,1,4,7
6,1,5,6
6,2,1,7
6,2,2,6
6,2,4,3
6,2,6,5
6,2,7,4
6,6,1,2
6,6,2,7
6,6,4,9
6,6,6,8
6,6,7,5
6,7,3,5
6,7,4,4
6,7,5,8
6,8,4,2
7,0,3,7
7,0,5,2
7,1,4,1
7,2,4,5
7,3,2,7
7,3,6,8
7,4,4,4
7,5,2,5
7,5,6,3
7,6,4,8
7,7,4,7
7,8,3,9
7,8,5,1
8,0,1,2
8,0,2,7
8,0,6,8
8,0,7,5
8,1,3,5
8,1,5,8
8,3,4,8
8,4,1,5
8,4,7,9
8,5,4,3
8,7,3,3
8,7,5,9
8,8,1,9
8,8,2,3
8,8,6,7
8,8,7,6
