0,0,0,2
0,0,8,6
0,1,3,5
0,1,5,8
0,2,4,6
0,3,2,6
0,3,6,9
0,4,1,9
0,4,7,2
0,5,2,2
0,5,6,4
0,6,4,4
0,7,3,1
0,7,5,7
0,8,0,4
0,8,8,9
1,0,0,9
1,0,8,5
1,1,0,5
1,1,4,9
1,1,8,4
1,2,1,6
1,2,7,1
1,3,4,7
1,4,2,4
1,4,3,5
1,4,5,1
1,4,6,3
1,5,4,6
1,6,1,4
1,6,7,7
1,7,0,3
1,7,4,8
1,7,8,1
1,8,0,8
1,8,8,3
2,0,2,6
2,0,6,9
2,1,3,6
2,1,5,4
2,3,0,9
2,3,8,5
2,4,1,2
2,4,7,1
2,5,0,4
2,5,8,9
2,7,3,5
2,7,5,3
2,8,2,9
2,8,6,1
3,0,3,5
3,0,5,4
3,1,2,9
3,1,6,4
3,7,2,2
3,7,6,1
3,8,3,2
3,8,5,5
4,0,1,9
4,0,2,7
4,0,4,1
4,0,6,5
4,0,7,2
4,2,4,4
4,4,0,7
4,4,2,9
4,4,6,4
4,4,8,2
4,6,4,9
4,8,1,7
4,8,2,6
4,8,4,3
4,8,6,2
4,8,7,4
5,0,3,6
5,0,5,7
5,1,2,3
5,1,6,7
5,7,2,9
5,7,6,4
5,8,3,9
5,8,5,6
6,0,2,9
6,0,6,3
6,1,3,9
6,1,5,3
6,3,0,3
6,3,8,1
6,4,1,4
6,4,7,7
6,5,0,1
6,5,8,8
6,7,3,8
6,7,5,6
6,8,2,8
6,8,6,6
7,0,0,1
7,0,8,8
7,1,0,3
7,1,4,8
7,1,8,1
7,2,1,9
7,2,7,2
7,3,4,5
7,4,2,1
7,4,3,3
7,4,5,6
7,4,6,2
7,5,4,9
7,6,1,3
7,6,7,5
7,7,0,2
7,7,4,7
7,7,8,6
7,8,0,6
7,8,8,7
8,0,0,4
8,0,8,9
8,1,3,1
8,1,5,6
8,2,4,9
8,3,2,9
8,3,6,8
8,4,1,3
8,4,7,4
8,5,2,4
8,5,6,3
8,6,4,1
8,7,3,2
8,7,5,5
8,8,0,3
8,8,8,1
