0,0,0,2
0,0,2,9
0,0,6,7
0,0,8,6
0,1,1,8
0,1,3,7
0,1,5,6
0,1,7,4
0,3,1,2
0,3,7,7
0,4,0,3
0,4,2,8
0,4,6,9
0,4,8,4
0,5,1,7
0,5,7,3
0,7,1,3
0,7,3,5
0,7,5,7
0,7,7,9
0,8,0,5
0,8,2,7
0,8,6,1
0,8,8,3
1,0,2,5
1,0,6,8
1,1,3,1
1,1,5,3
1,7,3,8
1,7,5,1
1,8,2,3
1,8,6,2
2,0,2,1
2,0,6,4
2,1,0,5
2,1,1,6
2,1,7,8
2,1,8,3
2,4,3,2
2,4,5,9
2,7,0,6
2,7,1,7
2,7,7,3
2,7,8,1
2,8,2,4
2,8,6,6
3,3,0,6
3,3,8,2
3,5,0,7
3,5,8,4
4,0,3,3
4,0,5,5
4,8,3,5
4,8,5,7
5,3,0,2
5,3,8,1
5,5,0,4
5,5,8,8
6,0,2,3
6,0,6,2
6,1,0,7
6,1,1,5
6,1,7,1
6,1,8,8
6,4,3,9
6,4,5,4
6,7,0,5
6,7,1,6
6,7,7,8
6,7,8,3
6,8,2,2
6,8,6,5
7,0,2,4
7,0,6,6
7,1,3,6
7,1,5,5
7,7,3,7
7,7,5,6
7,8,2,6
7,8,6,3
8,0,0,5
8,0,2,7
8,0,6,1
8,0,8,3
8,1,1,9
8,1,3,3
8,1,5,8
8,1,7,6
8,3,1,5
8,3,7,1
8,4,0,2
8,4,2,9
8,4,6,7
8,4,8,6
8,5,1,8
8,5,7,4
8,7,1,2
8,7,3,1
8,7,5,3
8,7,7,7
8,8,0,3
8,8,2,8
8,8,6,9
8,8,8,4
