0,0,0,5
0,0,8,3
0,2,4,3
0,3,3,3
0,3,5,1
0,5,3,5
0,5,5,4
0,6,4,4
0,8,0,4
0,8,8,1
1,2,2,6
1,2,6,9
1,6,2,5
1,6,6,1
2,0,0,6
2,0,2,3
2,0,4,2
2,0,6,8
2,0,8,7
2,1,3,3
2,1,5,1
2,2,1,4
2,2,7,3
2,4,1,3
2,4,4,4
2,4,7,2
2,6,1,6
2,6,7,4
2,7,3,8
2,7,5,6
2,8,0,3
2,8,2,1
2,8,4,5
2,8,6,6
2,8,8,9
3,0,1,6
3,0,7,8
3,1,1,4
3,1,3,9
3,1,5,8
3,1,7,7
3,2,1,9
3,2,3,6
3,2,5,7
3,2,7,1
3,3,2,7
3,3,6,9
3,5,2,9
3,5,6,4
3,6,1,7
3,6,3,5
3,6,5,4
3,6,7,9
3,7,1,5
3,7,3,3
3,7,5,9
3,7,7,2
3,8,1,3
3,8,7,4
4,0,2,1
4,0,4,8
4,0,6,7
4,2,3,5
4,2,5,4
4,3,1,4
4,3,4,3
4,3,7,2
4,4,0,8
4,4,3,7
4,4,5,2
4,4,8,4
4,5,1,7
4,5,4,5
4,5,7,8
4,6,3,8
4,6,5,3
4,8,2,2
4,8,4,4
4,8,6,9
5,0,1,8
5,0,7,5
5,1,1,7
5,1,3,1
5,1,5,5
5,1,7,3
5,2,1,1
5,2,3,8
5,2,5,3
5,2,7,2
5,3,2,8
5,3,6,1
5,5,2,1
5,5,6,2
5,6,1,9
5,6,3,2
5,6,5,6
5,6,7,1
5,7,1,2
5,7,3,4
5,7,5,1
5,7,7,8
5,8,1,4
5,8,7,6
6,0,0,9
6,0,2,8
6,0,4,3
6,0,6,2
6,0,8,5
6,1,3,8
6,1,5,7
6,2,1,6
6,2,7,8
6,4,1,8
6,4,4,7
6,4,7,5
6,6,1,5
6,6,7,2
6,7,3,7
6,7,5,5
6,8,0,8
6,8,2,6
6,8,4,1
6,8,6,5
6,8,8,4
7,2,2,9
7,2,6,4
7,6,2,1
7,6,6,6
8,0,0,1
8,0,8,8
8,2,4,8
8,3,3,8
8,3,5,2
8,5,3,1
8,5,5,7
8,6,4,2
8,8,0,2
8,8,8,6
