0,1,0,9
0,1,8,8
0,3,0,4
0,3,1,8
0,3,7,9
0,3,8,3
0,4,0,6
0,4,1,9
0,4,2,3
0,4,6,1
0,4,7,2
0,4,8,5
0,5,0,1
0,5,1,7
0,5,7,8
0,5,8,6
0,7,0,8
0,7,8,7
1,1,1,8
1,1,2,2
1,1,6,7
1,1,7,4
1,2,2,3
1,2,6,1
1,3,1,3
1,3,2,6
1,3,6,2
1,3,7,5
1,4,1,5
1,4,7,6
1,5,1,2
1,5,2,4
1,5,6,9
1,5,7,3
1,6,2,8
1,6,6,3
1,7,1,6
1,7,2,5
1,7,6,4
1,7,7,1
2,0,4,9
2,1,4,7
2,2,0,7
2,2,8,5
2,3,3,3
2,3,5,9
2,4,2,8
2,4,3,5
2,4,5,6
2,4,6,3
2,5,3,7
2,5,5,8
2,6,0,6
2,6,8,4
2,7,4,5
2,8,4,6
3,0,4,3
3,1,1,2
3,1,7,1
3,2,4,6
3,4,2,6
3,4,3,8
3,4,5,9
3,4,6,7
3,6,4,7
3,7,1,5
3,7,7,2
3,8,4,9
4,0,4,1
4,1,1,6
4,1,2,4
4,1,6,5
4,1,7,8
4,2,2,2
4,2,6,6
4,4,0,5
4,4,8,8
4,6,2,6
4,6,6,7
4,7,1,9
4,7,2,1
4,7,6,8
4,7,7,6
4,8,4,4
5,0,4,8
5,1,1,7
5,1,7,3
5,2,4,2
5,4,2,2
5,4,3,1
5,4,5,5
5,4,6,6
5,6,4,6
5,7,1,4
5,7,7,7
5,8,4,5
6,0,4,7
6,1,4,3
6,2,0,8
6,2,8,7
6,3,3,5
6,3,5,6
6,4,2,9
6,4,3,7
6,4,5,8
6,4,6,5
6,5,3,3
6,5,5,9
6,6,0,1
6,6,8,6
6,7,4,6
6,8,4,8
7,1,1,5
7,1,2,8
7,1,6,3
7,1,7,7
7,2,2,4
7,2,6,9
7,3,1,9
7,3,2,3
7,3,6,1
7,3,7,2
7,4,1,7
7,4,7,8
7,5,1,8
7,5,2,2
7,5,6,7
7,5,7,9
7,6,2,9
7,6,6,5
7,7,1,3
7,7,2,6
7,7,6,2
7,7,7,4
8,1,0,6
8,1,8,9
8,3,0,7
8,3,1,5
8,3,7,6
8,3,8,4
8,4,0,8
8,4,1,2
8,4,2,4
8,4,6,9
8,4,7,3
8,4,8,7
8,5,0,9
8,5,1,3
8,5,7,5
8,5,8,1
8,7,0,4
8,7,8,8
