0,0,1,3
0,0,7,7
0,1,0,6
0,1,2,2
0,1,6,1
0,1,8,9
0,2,2,9
0,2,6,3
0,4,2,3
0,4,6,2
0,6,2,6
0,6,6,9
0,7,0,9
0,7,2,4
0,7,6,8
0,7,8,3
0,8,1,8
0,8,7,2
1,0,3,5
1,0,5,8
1,2,2,5
1,2,6,7
1,6,2,9
1,6,6,5
1,8,3,3
1,8,5,5
2,2,3,3
2,2,5,5
2,3,1,2
2,3,3,5
2,3,5,8
2,3,7,4
2,4,2,9
2,4,6,8
2,5,1,8
2,5,3,1
2,5,5,9
2,5,7,2
2,6,3,4
2,6,5,1
3,0,1,5
3,0,3,7
3,0,4,2
3,0,5,6
3,0,7,4
3,1,0,2
3,1,3,4
3,1,5,1
3,1,8,5
3,4,0,3
3,4,8,1
3,7,0,4
3,7,3,3
3,7,5,5
3,7,8,6
3,8,1,3
3,8,3,2
3,8,4,6
3,8,5,7
3,8,7,1
4,1,0,1
4,1,3,3
4,1,5,5
4,1,8,6
4,2,2,8
4,2,6,4
4,6,2,4
4,6,6,2
4,7,0,3
4,7,3,6
4,7,5,2
4,7,8,9
5,0,1,9
5,0,3,8
5,0,4,5
5,0,5,3
5,0,7,6
5,1,0,3
5,1,3,6
5,1,5,2
5,1,8,4
5,4,0,9
5,4,8,6
5,7,0,2
5,7,3,9
5,7,5,4
5,7,8,5
5,8,1,4
5,8,3,5
5,8,4,3
5,8,5,8
5,8,7,7
6,2,3,7
6,2,5,6
6,3,1,1
6,3,3,6
6,3,5,2
6,3,7,8
6,4,2,8
6,4,6,6
6,5,1,7
6,5,3,8
6,5,5,3
6,5,7,1
6,6,3,3
6,6,5,5
7,0,3,6
7,0,5,2
7,2,2,2
7,2,6,1
7,6,2,5
7,6,6,7
7,8,3,7
7,8,5,6
8,0,1,6
8,0,7,1
8,1,0,9
8,1,2,4
8,1,6,5
8,1,8,8
8,2,2,3
8,2,6,2
8,4,2,6
8,4,6,1
8,6,2,1
8,6,6,3
8,7,0,5
8,7,2,8
8,7,6,6
8,7,8,2
8,8,1,7
8,8,7,9
