1,0,0,8
1,0,8,7
1,1,3,8
1,1,5,1
1,2,1,5
1,2,2,4
1,2,6,8
1,2,7,2
1,4,1,4
1,4,7,1
1,6,1,6
1,6,2,8
1,6,6,1
1,6,7,7
1,7,3,4
1,7,5,8
1,8,0,5
1,8,8,8
2,2,0,2
2,2,1,1
2,2,4,4
2,2,7,7
2,2,8,3
2,3,0,4
2,3,8,2
2,4,1,5
2,4,3,4
2,4,4,6
2,4,5,7
2,4,7,3
2,5,0,8
2,5,8,7
2,6,0,7
2,6,1,2
2,6,4,8
2,6,7,9
2,6,8,5
3,0,1,4
3,0,7,6
3,1,1,6
3,1,7,2
3,2,4,6
3,3,2,9
3,3,6,2
3,4,2,1
3,4,4,5
3,4,6,4
3,5,2,3
3,5,6,6
3,6,4,9
3,7,1,3
3,7,7,9
3,8,1,9
3,8,7,1
4,0,0,5
4,0,8,4
4,2,3,7
4,2,5,4
4,6,3,4
4,6,5,3
4,8,0,4
4,8,8,9
5,0,1,8
5,0,7,5
5,1,1,5
5,1,7,7
5,2,4,5
5,3,2,2
5,3,6,8
5,4,2,4
5,4,4,1
5,4,6,5
5,5,2,6
5,5,6,7
5,6,4,2
5,7,1,6
5,7,7,2
5,8,1,2
5,8,7,4
6,2,0,9
6,2,1,8
6,2,4,1
6,2,7,3
6,2,8,6
6,3,0,1
6,3,8,9
6,4,1,2
6,4,3,1
6,4,4,7
6,4,5,4
6,4,7,6
6,5,0,3
6,5,8,4
6,6,0,2
6,6,1,9
6,6,4,4
6,6,7,5
6,6,8,3
7,0,0,1
7,0,8,9
7,1,3,1
7,1,5,4
7,2,1,6
7,2,2,7
7,2,6,1
7,2,7,5
7,4,1,8
7,4,7,4
7,6,1,3
7,6,2,6
7,6,6,4
7,6,7,1
7,7,3,5
7,7,5,6
7,8,0,9
7,8,8,6
