0,0,3,6
0,0,5,3
0,2,0,3
0,2,8,7
0,3,0,6
0,3,8,2
0,4,0,7
0,4,8,4
0,5,0,5
0,5,8,9
0,6,0,4
0,6,8,1
0,8,3,1
0,8,5,9
1,1,2,7
1,1,6,5
1,2,1,8
1,2,7,9
1,4,2,9
1,4,3,5
1,4,5,1
1,4,6,2
1,6,1,2
1,6,7,5
1,7,2,3
1,7,6,1
2,0,1,4
2,0,3,2
2,0,5,7
2,0,7,6
2,3,1,3
2,3,7,4
2,5,1,8
2,5,7,2
2,8,1,5
2,8,3,7
2,8,5,8
2,8,7,1
3,0,4,2
3,2,0,1
3,2,8,5
3,3,2,9
3,3,6,6
3,5,2,4
3,5,6,5
3,6,0,9
3,6,8,8
3,8,4,7
4,0,1,5
4,0,2,3
4,0,3,4
4,0,5,1
4,0,6,9
4,0,7,7
4,1,3,9
4,1,5,8
4,7,3,7
4,7,5,9
4,8,1,3
4,8,2,9
4,8,3,5
4,8,5,2
4,8,6,6
4,8,7,8
5,0,4,8
5,2,0,5
5,2,8,9
5,3,2,3
5,3,6,2
5,5,2,8
5,5,6,9
5,6,0,8
5,6,8,5
5,8,4,4
6,0,1,6
6,0,3,5
6,0,5,8
6,0,7,1
6,3,1,4
6,3,7,6
6,5,1,2
6,5,7,5
6,8,1,1
6,8,3,3
6,8,5,4
6,8,7,2
7,1,2,8
7,1,6,3
7,2,1,9
7,2,7,7
7,4,2,7
7,4,3,8
7,4,5,9
7,4,6,5
7,6,1,5
7,6,7,1
7,7,2,9
7,7,6,2
8,0,3,1
8,0,5,2
8,2,0,2
8,2,8,8
8,3,0,3
8,3,8,5
8,4,0,1
8,4,8,6
8,5,0,8
8,5,8,7
8,6,0,6
8,6,8,2
8,8,3,2
8,8,5,7
