0,2,2,5
0,2,4,6
0,2,6,4
0,3,3,8
0,3,5,6
0,5,3,5
0,5,5,2
0,6,2,4
0,6,4,5
0,6,6,6
1,3,1,6
1,3,2,1
1,3,6,8
1,3,7,9
1,4,4,2
1,5,1,7
1,5,2,5
1,5,6,4
1,5,7,1
2,0,2,9
2,0,4,2
2,0,6,7
2,1,4,4
2,2,4,3
2,3,2,4
2,3,6,6
2,4,4,8
2,5,2,2
2,5,6,9
2,6,4,1
2,7,4,9
2,8,2,5
2,8,4,6
2,8,6,4
3,2,3,4
3,2,5,8
3,6,3,2
3,6,5,7
4,0,2,2
4,0,3,9
4,0,4,3
4,0,5,5
4,0,6,8
4,1,1,9
4,1,7,5
4,2,1,1
4,2,7,4
4,3,4,4
4,4,0,9
4,4,3,8
4,4,5,1
4,4,8,2
4,5,4,5
4,6,1,5
4,6,7,8
4,7,1,4
4,7,7,2
4,8,2,1
4,8,3,4
4,8,4,7
4,8,5,2
4,8,6,9
5,2,3,3
5,2,5,9
5,6,3,1
5,6,5,5
6,0,2,7
6,0,4,9
6,0,6,2
6,1,4,5
6,2,4,8
6,3,2,5
6,3,6,4
6,4,4,1
6,5,2,9
6,5,6,7
6,6,4,3
6,7,4,7
6,8,2,6
6,8,4,4
6,8,6,5
7,3,1,4
7,3,2,3
7,3,6,1
7,3,7,7
7,4,4,9
7,5,1,2
7,5,2,6
7,5,6,5
7,5,7,3
8,2,2,6
8,2,4,4
8,2,6,5
8,3,3,1
8,3,5,4
8,5,3,6
8,5,5,9
8,6,2,5
8,6,4,6
8,6,6,4
