0,1,1,6
0,1,7,3
0,2,2,7
0,2,3,2
0,2,4,1
0,2,5,5
0,2,6,4
0,3,4,5
0,4,0,8
0,4,1,4
0,4,7,2
0,4,8,1
0,5,4,2
0,6,2,2
0,6,3,6
0,6,4,8
0,6,5,4
0,6,6,9
0,7,1,3
0,7,7,4
1,1,3,1
1,1,5,6
1,3,1,7
1,3,4,4
1,3,7,1
1,4,0,1
1,4,8,3
1,5,1,3
1,5,4,7
1,5,7,5
1,7,3,4
1,7,5,3
2,0,2,5
2,0,6,8
2,2,0,1
2,2,8,3
2,3,0,4
2,3,3,8
2,3,5,7
2,3,8,5
2,4,4,1
2,5,0,2
2,5,3,5
2,5,5,3
2,5,8,7
2,6,0,8
2,6,8,1
2,8,2,3
2,8,6,7
3,0,1,7
3,0,7,1
3,1,0,8
3,1,2,6
3,1,3,7
3,1,4,1
3,1,5,5
3,1,6,4
3,1,8,3
3,2,1,1
3,2,7,9
3,3,2,2
3,3,4,3
3,3,6,5
3,5,2,8
3,5,4,4
3,5,6,2
3,6,1,8
3,6,7,5
3,7,0,9
3,7,2,1
3,7,3,3
3,7,4,5
3,7,5,6
3,7,6,7
3,7,8,4
3,8,1,5
3,8,7,6
4,2,2,4
4,2,6,3
4,4,4,7
4,6,2,9
4,6,6,1
5,0,1,2
5,0,7,3
5,1,0,1
5,1,2,7
5,1,3,2
5,1,4,3
5,1,5,9
5,1,6,5
5,1,8,8
5,2,1,3
5,2,7,4
5,3,2,6
5,3,4,8
5,3,6,9
5,5,2,1
5,5,4,5
5,5,6,6
5,6,1,1
5,6,7,9
5,7,0,4
5,7,2,3
5,7,3,8
5,7,4,9
5,7,5,7
5,7,6,2
5,7,8,5
5,8,1,9
5,8,7,7
6,0,2,2
6,0,6,4
6,2,0,5
6,2,8,9
6,3,0,2
6,3,3,4
6,3,5,8
6,3,8,7
6,4,4,5
6,5,0,8
6,5,3,2
6,5,5,9
6,5,8,1
6,6,0,4
6,6,8,5
6,8,2,9
6,8,6,8
7,1,3,4
7,1,5,8
7,3,1,3
7,3,4,2
7,3,7,4
7,4,0,4
7,4,8,5
7,5,1,5
7,5,4,8
7,5,7,2
7,7,3,6
7,7,5,5
8,1,1,3
8,1,7,4
8,2,2,8
8,2,3,3
8,2,4,9
8,2,5,6
8,2,6,7
8,3,4,7
8,4,0,5
8,4,1,7
8,4,7,3
8,4,8,9
8,5,4,1
8,6,2,3
8,6,3,1
8,6,4,5
8,6,5,7
8,6,6,2
8,7,1,4
8,7,7,6
