0,0,0,3
0,0,4,2
0,0,8,9
0,1,1,5
0,1,4,6
0,1,7,1
0,2,0,4
0,2,8,5
0,3,1,1
0,3,2,3
0,3,6,4
0,3,7,9
0,5,1,6
0,5,2,4
0,5,6,7
0,5,7,5
0,6,0,1
0,6,8,4
0,7,1,7
0,7,4,9
0,7,7,8
0,8,0,6
0,8,4,1
0,8,8,7
1,1,0,9
1,1,8,2
1,3,3,4
1,3,5,6
1,5,3,7
1,5,5,2
1,7,0,4
1,7,8,5
2,0,4,1
2,3,0,4
2,3,8,5
2,4,4,2
2,5,0,7
2,5,8,3
2,8,4,4
3,0,3,2
3,0,5,8
3,1,2,9
3,1,6,6
3,2,3,3
3,2,5,4
3,3,4,5
3,5,4,2
3,6,3,6
3,6,5,3
3,7,2,4
3,7,6,7
3,8,3,1
3,8,5,5
4,0,3,1
4,0,5,5
4,1,4,4
4,2,2,4
4,2,6,7
4,3,2,8
4,3,6,9
4,4,1,1
4,4,7,7
4,5,2,9
4,5,6,6
4,6,2,1
4,6,6,5
4,7,4,5
4,8,3,4
4,8,5,6
5,0,3,4
5,0,5,6
5,1,2,1
5,1,6,5
5,2,3,7
5,2,5,1
5,3,4,8
5,5,4,4
5,6,3,5
5,6,5,7
5,7,2,8
5,7,6,9
5,8,3,2
5,8,5,8
6,0,4,5
6,3,0,3
6,3,8,9
6,4,4,6
6,5,0,4
6,5,8,5
6,8,4,8
7,1,0,4
7,1,8,5
7,3,3,6
7,3,5,9
7,5,3,2
7,5,5,5
7,7,0,6
7,7,8,7
8,0,0,9
8,0,4,8
8,0,8,2
8,1,1,1
8,1,4,7
8,1,7,9
8,2,0,5
8,2,8,8
8,3,1,4
8,3,2,9
8,3,6,5
8,3,7,2
8,5,1,7
8,5,2,5
8,5,6,3
8,5,7,8
8,6,0,4
8,6,8,5
8,7,1,8
8,7,4,2
8,7,7,4
8,8,0,7
8,8,4,6
8,8,8,3
