0,0,2,8
0,0,6,6
0,2,4,1
0,4,1,3
0,4,2,2
0,4,4,7
0,4,6,4
0,4,7,5
0,6,4,8
0,8,2,9
0,8,6,1
1,0,1,2
1,0,2,6
1,0,3,7
1,0,4,8
1,0,5,1
1,0,6,4
1,0,7,5
1,2,1,9
1,2,7,7
1,4,3,3
1,4,5,6
1,6,1,4
1,6,7,1
1,8,1,8
1,8,2,1
1,8,3,4
1,8,4,5
1,8,5,9
1,8,6,3
1,8,7,2
2,0,3,2
2,0,4,6
2,0,5,3
2,1,4,7
2,2,3,5
2,2,5,4
2,3,1,2
2,3,7,9
2,5,1,4
2,5,7,7
2,6,3,9
2,6,5,5
2,7,4,2
2,8,3,8
2,8,4,1
2,8,5,7
3,0,2,4
3,0,6,3
3,2,4,4
3,4,4,9
3,6,4,5
3,8,2,7
3,8,6,5
4,1,0,4
4,1,1,5
4,1,2,9
4,1,6,8
4,1,7,3
4,1,8,2
4,2,0,6
4,2,8,5
4,6,0,7
4,6,8,9
4,7,0,3
4,7,1,2
4,7,2,8
4,7,6,6
4,7,7,1
4,7,8,7
5,0,2,1
5,0,6,5
5,2,4,7
5,4,4,6
5,6,4,1
5,8,2,2
5,8,6,7
6,0,3,9
6,0,4,4
6,0,5,5
6,1,4,3
6,2,3,7
6,2,5,1
6,3,1,5
6,3,7,8
6,5,1,7
6,5,7,3
6,6,3,1
6,6,5,8
6,7,4,5
6,8,3,2
6,8,4,6
6,8,5,3
7,0,1,4
7,0,2,5
7,0,3,3
7,0,4,2
7,0,5,6
7,0,6,7
7,0,7,8
7,2,1,7
7,2,7,3
7,4,3,9
7,4,5,5
7,6,1,1
7,6,7,6
7,8,1,2
7,8,2,6
7,8,3,7
7,8,4,8
7,8,5,1
7,8,6,9
7,8,7,4
8,0,2,2
8,0,6,9
8,2,4,6
8,4,1,4
8,4,2,5
8,4,4,3
8,4,6,1
8,4,7,7
8,6,4,2
8,8,2,8
8,8,6,6
