0,1,3,6
0,1,5,2
0,2,3,1
0,2,5,8
0,3,0,2
0,3,1,6
0,3,2,7
0,3,4,1
0,3,6,5
0,3,7,4
0,3,8,9
0,4,3,5
0,4,5,9
0,5,0,5
0,5,1,4
0,5,2,9
0,5,4,6
0,5,6,1
0,5,7,3
0,5,8,8
0,6,3,7
0,6,5,6
0,7,3,3
0,7,5,1
1,0,0,2
1,0,2,7
1,0,3,8
1,0,5,3
1,0,6,4
1,0,8,5
1,4,0,7
1,4,1,2
1,4,7,5
1,4,8,4
1,8,0,6
1,8,2,2
1,8,3,1
1,8,5,8
1,8,6,5
1,8,8,9
2,1,1,2
2,1,4,8
2,1,7,4
2,2,4,4
2,6,4,1
2,7,1,8
2,7,4,5
2,7,7,6
3,0,2,1
3,0,3,6
3,0,5,5
3,0,6,3
3,1,1,7
3,1,7,5
3,2,0,5
3,2,8,2
3,3,1,8
3,3,7,6
3,5,1,1
3,5,7,7
3,6,0,3
3,6,8,5
3,7,1,5
3,7,7,3
3,8,2,7
3,8,3,5
3,8,5,3
3,8,6,6
4,0,0,3
4,0,1,5
4,0,2,6
4,0,6,2
4,0,7,8
4,0,8,9
4,1,1,9
4,1,4,6
4,1,7,3
4,2,0,8
4,2,1,4
4,2,7,1
4,2,8,5
4,4,1,7
4,4,7,9
4,6,0,7
4,6,1,8
4,6,7,6
4,6,8,1
4,7,1,3
4,7,4,9
4,7,7,2
4,8,0,2
4,8,1,1
4,8,2,5
4,8,6,9
4,8,7,7
4,8,8,3
5,0,2,4
5,0,3,3
5,0,5,2
5,0,6,5
5,1,1,3
5,1,7,2
5,2,0,2
5,2,8,3
5,3,1,9
5,3,7,8
5,5,1,5
5,5,7,1
5,6,0,5
5,6,8,7
5,7,1,7
5,7,7,4
5,8,2,3
5,8,3,7
5,8,5,9
5,8,6,8
6,1,1,4
6,1,4,2
6,1,7,1
6,2,4,8
6,6,4,6
6,7,1,6
6,7,4,1
6,7,7,5
7,0,0,6
7,0,2,2
7,0,3,1
7,0,5,8
7,0,6,9
7,0,8,4
7,4,0,2
7,4,1,6
7,4,7,4
7,4,8,9
7,8,0,7
7,8,2,6
7,8,3,3
7,8,5,1
7,8,6,4
7,8,8,5
8,1,3,8
8,1,5,3
8,2,3,4
8,2,5,5
8,3,0,1
8,3,1,3
8,3,2,8
8,3,4,5
8,3,6,7
8,3,7,2
8,3,8,6
8,4,3,7
8,4,5,6
8,5,0,7
8,5,1,2
8,5,2,6
8,5,4,8
8,5,6,9
8,5,7,5
8,5,8,4
8,6,3,1
8,6,5,8
8,7,3,5
8,7,5,9
