0,0,3,8
0,0,5,1
0,1,3,7
0,1,5,4
0,3,1,9
0,3,7,1
0,4,2,5
0,4,6,2
0,5,1,1
0,5,7,3
0,7,3,3
0,7,5,6
0,8,3,1
0,8,5,9
1,2,0,6
1,2,4,1
1,2,8,7
1,3,3,1
1,3,4,8
1,3,5,9
1,5,3,3
1,5,4,4
1,5,5,6
1,6,0,7
1,6,4,6
1,6,8,1
2,0,2,2
2,0,6,1
2,1,3,1
2,1,5,9
2,2,4,7
2,3,1,5
2,3,7,6
2,4,0,7
2,4,4,6
2,4,8,1
2,5,1,6
2,5,7,2
2,6,4,1
2,7,3,2
2,7,5,7
2,8,2,7
2,8,6,4
3,0,1,3
3,0,7,9
3,1,2,8
3,1,4,9
3,1,6,7
3,3,3,8
3,3,5,7
3,4,3,6
3,4,5,4
3,5,3,9
3,5,5,3
3,7,2,9
3,7,4,6
3,7,6,3
3,8,1,7
3,8,7,8
4,0,3,5
4,0,5,8
4,1,4,4
4,3,1,7
4,3,3,3
4,3,5,1
4,3,7,2
4,4,1,9
4,4,7,1
4,5,1,3
4,5,3,4
4,5,5,2
4,5,7,9
4,7,4,7
4,8,3,8
4,8,5,6
5,0,1,8
5,0,7,5
5,1,2,2
5,1,4,5
5,1,6,6
5,3,3,2
5,3,5,6
5,4,3,1
5,4,5,9
5,5,3,5
5,5,5,8
5,7,2,5
5,7,4,1
5,7,6,8
5,8,1,6
5,8,7,2
6,0,2,1
6,0,6,4
6,1,3,4
6,1,5,2
6,2,4,9
6,3,1,2
6,3,7,4
6,4,0,5
6,4,4,4
6,4,8,9
6,5,1,4
6,5,7,1
6,6,4,5
6,7,3,1
6,7,5,4
6,8,2,4
6,8,6,2
7,2,0,9
7,2,4,5
7,2,8,4
7,3,3,4
7,3,4,6
7,3,5,8
7,5,3,7
7,5,4,3
7,5,5,5
7,6,0,5
7,6,4,4
7,6,8,9
8,0,3,6
8,0,5,9
8,1,3,5
8,1,5,8
8,3,1,8
8,3,7,5
8,4,2,2
8,4,6,1
8,5,1,5
8,5,7,7
8,7,3,7
8,7,5,5
8,8,3,4
8,8,5,3
