0,0,3,5
0,0,5,7
0,3,1,9
0,3,7,5
0,5,1,5
0,5,7,8
0,8,3,6
0,8,5,5
1,0,3,1
1,0,5,9
1,1,2,9
1,1,6,6
1,2,4,7
1,3,3,5
1,3,5,7
1,4,0,5
1,4,8,4
1,5,3,3
1,5,5,8
1,6,4,8
1,7,2,4
1,7,6,2
1,8,3,2
1,8,5,1
2,0,1,9
2,0,7,5
2,1,2,3
2,1,6,2
2,2,1,5
2,2,7,3
2,6,1,4
2,6,7,1
2,7,2,7
2,7,6,4
2,8,1,1
2,8,7,6
3,1,3,5
3,1,5,7
3,2,3,9
3,2,5,2
3,3,2,4
3,3,4,9
3,3,6,1
3,4,2,3
3,4,6,7
3,5,2,8
3,5,4,5
3,5,6,2
3,6,3,8
3,6,5,5
3,7,3,4
3,7,5,9
4,0,0,3
4,0,8,9
4,8,0,1
4,8,8,3
5,1,3,1
5,1,5,8
5,2,3,7
5,2,5,4
5,3,2,6
5,3,4,7
5,3,6,4
5,4,2,5
5,4,6,3
5,5,2,9
5,5,4,1
5,5,6,8
5,6,3,6
5,6,5,1
5,7,3,5
5,7,5,7
6,0,1,8
6,0,7,9
6,1,2,6
6,1,6,8
6,2,1,9
6,2,7,5
6,6,1,6
6,6,7,8
6,7,2,2
6,7,6,5
6,8,1,4
6,8,7,1
7,0,3,9
7,0,5,2
7,1,2,2
7,1,6,5
7,2,4,6
7,3,3,7
7,3,5,6
7,4,0,7
7,4,8,3
7,5,3,8
7,5,5,4
7,6,4,4
7,7,2,3
7,7,6,1
7,8,3,1
7,8,5,9
8,0,3,8
8,0,5,4
8,3,1,6
8,3,7,3
8,5,1,8
8,5,7,1
8,8,3,4
8,8,5,3
