0,1,0,7
0,1,2,3
0,1,6,6
0,1,8,5
0,4,4,1
0,7,0,4
0,7,2,5
0,7,6,8
0,7,8,2
1,0,1,9
1,0,7,4
1,4,1,8
1,4,4,4
1,4,7,5
1,8,1,4
1,8,7,8
2,0,0,2
2,0,8,6
2,2,0,4
2,2,4,6
2,2,8,2
2,3,3,1
2,3,5,2
2,4,0,5
2,4,1,4
2,4,3,8
2,4,5,6
2,4,7,3
2,4,8,9
2,5,3,3
2,5,5,4
2,6,0,3
2,6,4,1
2,6,8,8
2,8,0,8
2,8,8,1
3,0,1,7
3,0,4,1
3,0,7,6
3,1,0,5
3,1,8,9
3,2,4,2
3,3,2,4
3,3,6,9
3,4,1,6
3,4,7,8
3,5,2,7
3,5,6,1
3,6,4,3
3,7,0,7
3,7,8,5
3,8,1,3
3,8,4,6
3,8,7,9
4,0,1,6
4,0,7,3
4,2,1,5
4,2,3,6
4,2,5,7
4,2,7,2
4,3,4,9
4,4,3,7
4,4,5,8
4,5,4,1
4,6,1,4
4,6,3,1
4,6,5,6
4,6,7,8
4,8,1,7
4,8,7,6
5,0,1,8
5,0,4,6
5,0,7,9
5,1,0,1
5,1,8,3
5,2,4,9
5,3,2,9
5,3,6,8
5,4,1,7
5,4,7,6
5,5,2,1
5,5,6,2
5,6,4,4
5,7,0,3
5,7,8,8
5,8,1,6
5,8,4,5
5,8,7,1
6,0,0,8
6,0,8,1
6,2,0,1
6,2,4,8
6,2,8,3
6,3,3,9
6,3,5,3
6,4,0,6
6,4,1,3
6,4,3,5
6,4,5,1
6,4,7,7
6,4,8,4
6,5,3,7
6,5,5,8
6,6,0,9
6,6,4,5
6,6,8,7
6,8,0,7
6,8,8,5
7,0,1,2
7,0,7,8
7,4,1,5
7,4,4,8
7,4,7,2
7,8,1,8
7,8,7,7
8,1,0,4
8,1,2,5
8,1,6,1
8,1,8,2
8,4,4,9
8,7,0,8
8,7,2,6
8,7,6,7
8,7,8,1
