0,1,0,3
0,1,1,9
0,1,2,4
0,1,6,1
0,1,7,5
0,1,8,8
0,2,4,9
0,4,0,4
0,4,4,7
0,4,8,1
0,6,4,5
0,7,0,9
0,7,1,4
0,7,2,3
0,7,6,8
0,7,7,1
0,7,8,5
1,0,0,5
1,0,8,7
1,1,0,7
1,1,8,9
1,3,2,5
1,3,6,7
1,4,1,7
1,4,2,2
1,4,3,5
1,4,4,8
1,4,5,1
1,4,6,9
1,4,7,4
1,5,2,3
1,5,6,1
1,7,0,2
1,7,8,4
1,8,0,3
1,8,8,1
2,0,0,9
2,0,8,1
2,2,0,6
2,2,8,3
2,6,0,4
2,6,8,8
2,8,0,7
2,8,8,9
3,0,4,1
3,1,3,2
3,1,5,9
3,4,3,9
3,4,5,5
3,7,3,1
3,7,5,2
3,8,4,3
4,0,4,7
4,2,1,5
4,2,7,3
4,3,4,3
4,4,0,3
4,4,3,8
4,4,5,6
4,4,8,9
4,5,4,9
4,6,1,9
4,6,7,2
4,8,4,1
5,0,4,9
5,1,3,5
5,1,5,7
5,4,3,7
5,4,5,3
5,7,3,3
5,7,5,8
5,8,4,6
6,0,0,3
6,0,8,8
6,2,0,2
6,2,8,4
6,6,0,9
6,6,8,5
6,8,0,6
6,8,8,3
7,0,0,7
7,0,8,9
7,1,0,4
7,1,8,5
7,3,2,2
7,3,6,9
7,4,1,4
7,4,2,3
7,4,3,2
7,4,4,6
7,4,5,7
7,4,6,1
7,4,7,5
7,5,2,5
7,5,6,7
7,7,0,3
7,7,8,1
7,8,0,1
7,8,8,2
8,1,0,6
8,1,1,7
8,1,2,2
8,1,6,9
8,1,7,4
8,1,8,3
8,2,4,6
8,4,0,2
8,4,4,5
8,4,8,4
8,6,4,3
8,7,0,7
8,7,1,2
8,7,2,6
8,7,6,4
8,7,7,3
8,7,8,9
