0,0,4,8
0,1,0,8
0,1,1,1
0,1,7,2
0,1,8,4
0,2,1,3
0,2,7,9
0,3,3,3
0,3,5,4
0,4,0,2
0,4,1,4
0,4,7,3
0,4,8,6
0,5,3,1
0,5,5,7
0,6,1,9
0,6,7,4
0,7,0,1
0,7,1,6
0,7,7,8
0,7,8,3
0,8,4,1
1,0,2,8
1,0,6,2
1,2,1,2
1,2,7,7
1,3,3,9
1,3,5,5
1,5,3,2
1,5,5,3
1,6,1,7
1,6,7,3
1,8,2,5
1,8,6,4
2,1,4,9
2,3,0,3
2,3,8,5
2,4,3,4
2,4,4,3
2,4,5,2
2,5,0,1
2,5,8,3
2,7,4,7
3,0,2,1
3,0,3,5
3,0,4,4
3,0,5,9
3,0,6,6
3,1,3,1
3,1,4,2
3,1,5,6
3,3,1,5
3,3,4,6
3,3,7,7
3,5,1,3
3,5,4,9
3,5,7,2
3,7,3,9
3,7,4,3
3,7,5,4
3,8,2,9
3,8,3,6
3,8,4,5
3,8,5,2
3,8,6,7
4,1,4,8
4,3,2,6
4,3,6,4
4,4,1,7
4,4,7,6
4,5,2,9
4,5,6,7
4,7,4,2
5,0,2,6
5,0,3,8
5,0,4,3
5,0,5,7
5,0,6,4
5,1,3,9
5,1,4,5
5,1,5,4
5,3,1,8
5,3,4,4
5,3,7,5
5,5,1,6
5,5,4,7
5,5,7,3
5,7,3,7
5,7,4,8
5,7,5,1
5,8,2,7
5,8,3,4
5,8,4,9
5,8,5,3
5,8,6,1
6,1,4,4
6,3,0,2
6,3,8,6
6,4,3,1
6,4,4,6
6,4,5,7
6,5,0,6
6,5,8,9
6,7,4,1
7,0,2,5
7,0,6,7
7,2,1,7
7,2,7,5
7,3,3,4
7,3,5,2
7,5,3,7
7,5,5,6
7,6,1,5
7,6,7,2
7,8,2,2
7,8,6,5
8,0,4,1
8,1,0,5
8,1,1,2
8,1,7,7
8,1,8,1
8,2,1,9
8,2,7,4
8,3,3,6
8,3,5,1
8,4,0,7
8,4,1,5
8,4,7,9
8,4,8,8
8,5,3,9
8,5,5,5
8,6,1,4
8,6,7,5
8,7,0,9
8,7,1,8
8,7,7,1
8,7,8,2
8,8,4,2
