0,1,1,5
0,1,3,8
0,1,5,3
0,1,7,6
0,4,2,4
0,4,3,9
0,4,5,8
0,4,6,7
0,7,1,4
0,7,3,3
0,7,5,9
0,7,7,7
1,0,0,5
1,0,8,2
1,1,2,9
1,1,6,1
1,2,4,5
1,3,3,3
1,3,4,8
1,3,5,9
1,4,0,8
1,4,1,9
1,4,2,3
1,4,6,4
1,4,7,5
1,4,8,1
1,5,3,5
1,5,4,1
1,5,5,4
1,6,4,9
1,7,2,8
1,7,6,5
1,8,0,6
1,8,8,9
2,0,0,8
2,0,8,1
2,3,4,2
2,4,2,7
2,4,4,4
2,4,6,3
2,5,4,9
2,8,0,5
2,8,8,7
3,0,0,4
3,0,3,5
3,0,4,9
3,0,5,6
3,0,8,7
3,3,1,6
3,3,7,2
3,4,0,3
3,4,8,5
3,5,1,7
3,5,7,6
3,8,0,2
3,8,3,6
3,8,4,1
3,8,5,3
3,8,8,8
4,0,0,6
4,0,2,9
4,0,6,2
4,0,8,8
4,1,1,4
4,1,7,1
4,3,1,9
4,3,3,1
4,3,5,2
4,3,7,8
4,4,4,9
4,5,1,3
4,5,3,4
4,5,5,6
4,5,7,9
4,7,1,7
4,7,7,6
4,8,0,3
4,8,2,1
4,8,6,9
4,8,8,5
5,0,0,3
5,0,3,8
5,0,4,2
5,0,5,4
5,0,8,5
5,3,1,1
5,3,7,5
5,4,0,7
5,4,8,8
5,5,1,4
5,5,7,1
5,8,0,4
5,8,3,5
5,8,4,9
5,8,5,2
5,8,8,6
6,0,0,2
6,0,8,3
6,3,4,1
6,4,2,5
6,4,4,8
6,4,6,2
6,5,4,7
6,8,0,9
6,8,8,4
7,0,0,9
7,0,8,4
7,1,2,6
7,1,6,3
7,2,4,9
7,3,3,2
7,3,4,6
7,3,5,7
7,4,0,6
7,4,1,7
7,4,2,2
7,4,6,8
7,4,7,9
7,4,8,3
7,5,3,9
7,5,4,3
7,5,5,8
7,6,4,2
7,7,2,7
7,7,6,9
7,8,0,1
7,8,8,2
8,1,1,9
8,1,3,2
8,1,5,7
8,1,7,5
8,4,2,8
8,4,3,7
8,4,5,6
8,4,6,5
8,7,1,8
8,7,3,6
8,7,5,2
8,7,7,4
