0,0,2,6
0,0,3,3
0,0,5,8
0,0,6,4
0,1,1,9
0,1,7,8
0,2,1,3
0,2,3,4
0,2,5,5
0,2,7,2
0,3,4,4
0,4,2,7
0,4,6,5
0,5,4,7
0,6,1,5
0,6,3,6
0,6,5,7
0,6,7,1
0,7,1,8
0,7,7,7
0,8,2,2
0,8,3,8
0,8,5,1
0,8,6,9
1,0,2,3
1,0,4,4
1,0,6,7
1,2,3,2
1,2,5,6
1,4,3,9
1,4,5,4
1,6,3,1
1,6,5,3
1,8,2,8
1,8,4,9
1,8,6,6
2,1,0,3
2,1,8,6
2,2,2,2
2,2,4,8
2,2,6,9
2,3,0,2
2,3,4,3
2,3,8,5
2,5,0,1
2,5,4,9
2,5,8,7
2,6,2,1
2,6,4,4
2,6,6,7
2,7,0,6
2,7,8,9
3,2,1,7
3,2,3,3
3,2,5,9
3,2,7,6
3,3,3,7
3,3,5,3
3,4,0,7
3,4,4,9
3,4,8,1
3,5,3,6
3,5,5,1
3,6,1,8
3,6,3,9
3,6,5,2
3,6,7,3
5,2,1,8
5,2,3,5
5,2,5,7
5,2,7,3
5,3,3,1
5,3,5,4
5,4,0,1
5,4,4,7
5,4,8,4
5,5,3,8
5,5,5,9
5,6,1,9
5,6,3,7
5,6,5,8
5,6,7,4
6,1,0,2
6,1,8,5
6,2,2,5
6,2,4,6
6,2,6,1
6,3,0,5
6,3,4,7
6,3,8,1
6,5,0,6
6,5,4,8
6,5,8,9
6,6,2,2
6,6,4,3
6,6,6,9
6,7,0,9
6,7,8,8
7,0,2,2
7,0,4,8
7,0,6,9
7,2,3,9
7,2,5,4
7,4,3,8
7,4,5,1
7,6,3,2
7,6,5,6
7,8,2,7
7,8,4,1
7,8,6,5
8,0,2,9
8,0,3,2
8,0,5,6
8,0,6,3
8,1,1,8
8,1,7,6
8,2,1,2
8,2,3,8
8,2,5,1
8,2,7,4
8,3,4,1
8,4,2,4
8,4,6,1
8,5,4,5
8,6,1,1
8,6,3,4
8,6,5,5
8,6,7,2
8,7,1,7
8,7,7,9
8,8,2,5
8,8,3,7
8,8,5,2
8,8,6,8
