0,1,2,5
0,1,6,3
0,2,3,9
0,2,5,3
0,3,0,9
0,3,8,3
0,4,4,3
0,5,0,3
0,5,8,4
0,6,3,3
0,6,5,2
0,7,2,3
0,7,6,9
1,1,0,2
1,1,8,6
1,2,0,3
1,2,3,1
1,2,4,6
1,2,5,2
1,2,8,5
1,3,4,7
1,5,4,8
1,6,0,5
1,6,3,4
1,6,4,1
1,6,5,7
1,6,8,9
1,7,0,1
1,7,8,4
2,0,1,7
2,0,2,2
2,0,4,9
2,0,6,1
2,0,7,6
2,1,1,4
2,1,7,5
2,2,2,6
2,2,6,2
2,4,3,8
2,4,5,2
2,6,2,1
2,6,6,6
2,7,1,8
2,7,7,1
2,8,1,6
2,8,2,5
2,8,4,7
2,8,6,8
2,8,7,9
3,3,1,9
3,3,7,7
3,5,1,2
3,5,7,4
4,0,1,2
4,0,7,4
4,1,0,4
4,1,8,3
4,3,0,7
4,3,3,9
4,3,5,5
4,3,8,4
4,4,4,2
4,5,0,5
4,5,3,4
4,5,5,1
4,5,8,8
4,7,0,9
4,7,8,5
4,8,1,5
4,8,7,2
5,3,1,5
5,3,7,2
5,5,1,8
5,5,7,1
6,0,1,9
6,0,2,5
6,0,4,6
6,0,6,3
6,0,7,7
6,1,1,2
6,1,7,4
6,2,2,7
6,2,6,5
6,4,3,1
6,4,5,5
6,6,2,3
6,6,6,7
6,7,1,1
6,7,7,3
6,8,1,7
6,8,2,4
6,8,4,9
6,8,6,1
6,8,7,6
7,1,0,5
7,1,8,7
7,2,0,8
7,2,3,3
7,2,4,7
7,2,5,5
7,2,8,4
7,3,4,9
7,5,4,1
7,6,0,4
7,6,3,2
7,6,4,3
7,6,5,9
7,6,8,6
7,7,0,3
7,7,8,2
8,1,2,4
8,1,6,8
8,2,3,6
8,2,5,8
8,3,0,6
8,3,8,8
8,4,4,8
8,5,0,8
8,5,8,2
8,6,3,8
8,6,5,5
8,7,2,8
8,7,6,6
