0,0,4,7
0,1,1,7
0,1,2,5
0,1,4,6
0,1,6,8
0,1,7,9
0,3,1,1
0,3,4,5
0,3,7,3
0,4,4,3
0,5,1,3
0,5,4,1
0,5,7,5
0,7,1,2
0,7,2,7
0,7,4,4
0,7,6,6
0,7,7,8
0,8,4,8
1,0,0,7
1,0,4,3
1,0,8,8
1,1,0,6
1,1,8,1
1,2,1,2
1,2,7,3
1,3,0,5
1,3,8,9
1,4,1,4
1,4,2,2
1,4,4,8
1,4,6,5
1,4,7,6
1,5,0,1
1,5,8,2
1,6,1,7
1,6,7,9
1,7,0,4
1,7,8,5
1,8,0,8
1,8,4,7
1,8,8,3
2,0,0,3
2,0,8,7
2,8,0,7
2,8,8,8
3,2,0,7
3,2,3,1
3,2,5,5
3,2,8,3
3,4,1,7
3,4,3,9
3,4,5,8
3,4,7,5
3,6,0,5
3,6,3,8
3,6,5,1
3,6,8,9
4,1,1,6
4,1,7,8
4,2,1,5
4,2,7,2
4,3,3,2
4,3,5,9
4,5,3,8
4,5,5,1
4,6,1,1
4,6,7,7
4,7,1,9
4,7,7,6
5,2,0,3
5,2,3,2
5,2,5,9
5,2,8,8
5,4,1,3
5,4,3,4
5,4,5,7
5,4,7,9
5,6,0,9
5,6,3,7
5,6,5,2
5,6,8,4
6,0,0,9
6,0,8,4
6,8,0,4
6,8,8,5
7,0,0,4
7,0,4,9
7,0,8,5
7,1,0,7
7,1,8,8
7,2,1,3
7,2,7,9
7,3,0,2
7,3,8,6
7,4,1,1
7,4,2,7
7,4,4,5
7,4,6,2
7,4,7,8
7,5,0,3
7,5,8,7
7,6,1,4
7,6,7,2
7,7,0,6
7,7,8,1
7,8,0,5
7,8,4,4
7,8,8,9
8,0,4,4
8,1,1,4
8,1,2,6
8,1,4,8
8,1,6,5
8,1,7,1
8,3,1,7
8,3,4,2
8,3,7,9
8,4,4,9
8,5,1,9
8,5,4,7
8,5,7,2
8,7,1,3
8,7,2,4
8,7,4,6
8,7,6,7
8,7,7,5
8,8,4,5
