0,0,1,5
0,0,2,4
0,0,3,6
0,0,5,2
0,0,6,3
0,0,7,9
0,1,2,9
0,1,6,2
0,2,0,3
0,2,8,1
0,3,0,2
0,3,8,6
0,5,0,4
0,5,8,2
0,6,0,9
0,6,8,5
0,7,2,2
0,7,6,1
0,8,1,1
0,8,2,8
0,8,3,2
0,8,5,3
0,8,6,6
0,8,7,4
1,0,1,3
1,0,7,5
1,3,3,7
1,3,5,6
1,4,4,5
1,5,3,8
1,5,5,2
1,8,1,5
1,8,7,1
2,0,3,1
2,0,5,3
2,2,0,5
2,2,4,2
2,2,8,3
2,3,1,1
2,3,2,6
2,3,6,5
2,3,7,7
2,5,1,7
2,5,2,2
2,5,6,1
2,5,7,6
2,6,0,4
2,6,4,6
2,6,8,1
2,8,3,4
2,8,5,8
3,0,0,9
3,0,1,8
3,0,7,2
3,0,8,6
3,3,0,7
3,3,1,9
3,3,7,4
3,3,8,2
3,4,1,1
3,4,2,6
3,4,6,5
3,4,7,3
3,5,0,3
3,5,1,2
3,5,7,7
3,5,8,1
3,8,0,5
3,8,1,7
3,8,7,8
3,8,8,4
4,1,0,6
4,1,1,4
4,1,7,5
4,1,8,3
4,2,3,4
4,2,4,1
4,2,5,5
4,3,0,1
4,3,8,5
4,4,2,3
4,4,6,7
4,5,0,9
4,5,8,8
4,6,3,2
4,6,4,5
4,6,5,4
4,7,0,7
4,7,1,2
4,7,7,4
4,7,8,1
5,0,0,4
5,0,1,2
5,0,7,3
5,0,8,1
5,3,0,8
5,3,1,3
5,3,7,6
5,3,8,7
5,4,1,7
5,4,2,9
5,4,6,2
5,4,7,8
5,5,0,6
5,5,1,4
5,5,7,5
5,5,8,3
5,8,0,1
5,8,1,8
5,8,7,9
5,8,8,6
6,0,3,7
6,0,5,5
6,2,0,1
6,2,4,4
6,2,8,8
6,3,1,7
6,3,2,1
6,3,6,9
6,3,7,5
6,5,1,8
6,5,2,4
6,5,6,3
6,5,7,1
6,6,0,5
6,6,4,9
6,6,8,7
6,8,3,8
6,8,5,1
7,0,1,1
7,0,7,7
7,3,3,9
7,3,5,7
7,4,4,3
7,5,3,4
7,5,5,6
7,8,1,4
7,8,7,6
8,0,1,6
8,0,2,7
8,0,3,8
8,0,5,9
8,0,6,4
8,0,7,1
8,1,2,1
8,1,6,9
8,2,0,4
8,2,8,2
8,3,0,9
8,3,8,8
8,5,0,7
8,5,8,9
8,6,0,1
8,6,8,6
8,7,2,9
8,7,6,2
8,8,1,2
8,8,2,5
8,8,3,9
8,8,5,4
8,8,6,8
8,8,7,7
