0,1,2,9
0,1,6,4
0,2,4,4
0,3,0,1
0,3,8,9
0,4,1,4
0,4,2,8
0,4,3,9
0,4,5,1
0,4,6,2
0,4,7,6
0,5,0,6
0,5,8,4
0,6,4,7
0,7,2,1
0,7,6,7
1,0,3,2
1,0,5,4
1,1,0,4
1,1,8,2
1,2,0,9
1,2,8,3
1,3,4,5
1,5,4,9
1,6,0,7
1,6,8,5
1,7,0,6
1,7,8,4
1,8,3,4
1,8,5,6
2,3,1,8
2,3,7,5
2,4,2,6
2,4,4,7
2,4,6,1
2,5,1,3
2,5,7,9
3,0,4,2
3,1,1,1
3,1,7,4
3,2,2,2
3,2,3,1
3,2,5,4
3,2,6,7
3,3,1,4
3,3,7,8
3,4,2,1
3,4,6,3
3,5,1,5
3,5,7,7
3,6,2,4
3,6,3,2
3,6,5,3
3,6,6,5
3,7,1,8
3,7,7,3
3,8,4,4
4,0,1,5
4,0,7,7
4,3,3,8
4,3,5,1
4,5,3,7
4,5,5,6
4,8,1,1
4,8,7,4
5,0,4,5
5,1,1,2
5,1,7,6
5,2,2,4
5,2,3,2
5,2,5,3
5,2,6,5
5,3,1,1
5,3,7,4
5,4,2,2
5,4,6,7
5,5,1,6
5,5,7,5
5,6,2,1
5,6,3,5
5,6,5,7
5,6,6,3
5,7,1,5
5,7,7,7
5,8,4,3
6,3,1,9
6,3,7,1
6,4,2,3
6,4,4,2
6,4,6,8
6,5,1,4
6,5,7,6
7,0,3,9
7,0,5,1
7,1,0,6
7,1,8,4
7,2,0,1
7,2,8,9
7,3,4,6
7,5,4,7
7,6,0,2
7,6,8,1
7,7,0,3
7,7,8,7
7,8,3,1
7,8,5,3
8,1,2,1
8,1,6,7
8,2,4,1
8,3,0,8
8,3,8,6
8,4,1,6
8,4,2,9
8,4,3,7
8,4,5,8
8,4,6,4
8,4,7,3
8,5,0,3
8,5,8,7
8,6,4,2
8,7,2,8
8,7,6,2
