0,1,0,1
0,1,1,8
0,1,2,6
0,1,4,5
0,1,6,2
0,1,7,7
0,1,8,3
0,2,0,3
0,2,8,9
0,4,1,7
0,4,2,3
0,4,4,6
0,4,6,4
0,4,7,9
0,6,0,7
0,6,8,4
0,7,0,5
0,7,1,4
0,7,2,9
0,7,4,7
0,7,6,6
0,7,7,1
0,7,8,8
1,0,2,2
1,0,6,9
1,2,1,1
1,2,3,4
1,2,5,5
1,2,7,2
1,3,4,3
1,4,2,1
1,4,6,2
1,5,4,8
1,6,1,8
1,6,3,5
1,6,5,9
1,6,7,3
1,8,2,4
1,8,6,8
2,2,0,9
2,2,8,8
2,3,3,6
2,3,5,8
2,4,0,5
2,4,3,2
2,4,5,3
2,4,8,1
2,5,3,4
2,5,5,5
2,6,0,4
2,6,8,6
3,0,1,1
3,0,7,2
3,1,0,7
3,1,2,2
3,1,6,9
3,1,8,4
3,3,4,8
3,4,1,9
3,4,2,5
3,4,6,6
3,4,7,1
3,5,4,5
3,7,0,1
3,7,2,6
3,7,6,7
3,7,8,2
3,8,1,7
3,8,7,9
4,2,1,8
4,2,4,5
4,2,7,7
4,3,1,5
4,3,2,4
4,3,3,3
4,3,5,7
4,3,6,1
4,3,7,8
4,4,2,8
4,4,6,7
4,5,1,7
4,5,2,3
4,5,3,8
4,5,5,1
4,5,6,4
4,5,7,9
4,6,1,6
4,6,4,9
4,6,7,2
5,0,1,5
5,0,7,1
5,1,0,8
5,1,2,1
5,1,6,7
5,1,8,2
5,3,4,9
5,4,1,3
5,4,2,2
5,4,6,9
5,4,7,5
5,5,4,7
5,7,0,4
5,7,2,5
5,7,6,1
5,7,8,6
5,8,1,1
5,8,7,7
6,2,0,4
6,2,8,1
6,3,3,8
6,3,5,1
6,4,0,9
6,4,3,3
6,4,5,7
6,4,8,6
6,5,3,5
6,5,5,9
6,6,0,5
6,6,8,8
7,0,2,9
7,0,6,1
7,2,1,3
7,2,3,8
7,2,5,1
7,2,7,5
7,3,4,5
7,4,2,7
7,4,6,5
7,5,4,3
7,6,1,7
7,6,3,6
7,6,5,8
7,6,7,9
7,8,2,6
7,8,6,7
8,1,0,9
8,1,1,5
8,1,2,4
8,1,4,2
8,1,6,6
8,1,7,1
8,1,8,8
8,2,0,8
8,2,8,2
8,4,1,8
8,4,2,6
8,4,4,9
8,4,6,3
8,4,7,2
8,6,0,6
8,6,8,3
8,7,0,3
8,7,1,2
8,7,2,7
8,7,4,6
8,7,6,5
8,7,7,4
8,7,8,9
