0,0,4,4
0,1,3,5
0,1,5,1
0,4,2,8
0,4,6,1
0,7,3,8
0,7,5,4
0,8,4,2
1,3,1,8
1,3,2,6
1,3,6,5
1,3,7,4
1,4,4,5
1,5,1,1
1,5,2,5
1,5,6,2
1,5,7,9
2,0,2,5
2,0,3,8
2,0,5,9
2,0,6,2
2,1,1,8
2,1,2,6
2,1,6,5
2,1,7,7
2,2,3,1
2,2,5,7
2,6,3,7
2,6,5,2
2,7,1,7
2,7,2,3
2,7,6,8
2,7,7,6
2,8,2,1
2,8,3,4
2,8,5,6
2,8,6,3
3,0,4,7
3,1,3,1
3,1,5,2
3,3,1,5
3,3,7,7
3,4,4,9
3,5,1,4
3,5,7,8
3,7,3,3
3,7,5,6
3,8,4,4
4,0,0,9
4,0,8,6
4,1,1,5
4,1,7,9
4,2,2,3
4,2,3,7
4,2,5,9
4,2,6,2
4,3,0,6
4,3,8,2
4,4,4,1
4,5,0,5
4,5,8,9
4,6,2,5
4,6,3,8
4,6,5,3
4,6,6,9
4,7,1,8
4,7,7,2
4,8,0,7
4,8,8,8
5,0,4,8
5,1,3,4
5,1,5,7
5,3,1,7
5,3,7,3
5,4,4,6
5,5,1,8
5,5,7,2
5,7,3,5
5,7,5,1
5,8,4,3
6,0,2,7
6,0,3,6
6,0,5,8
6,0,6,4
6,1,1,6
6,1,2,9
6,1,6,7
6,1,7,1
6,2,3,5
6,2,5,1
6,6,3,3
6,6,5,7
6,7,1,3
6,7,2,2
6,7,6,6
6,7,7,4
6,8,2,5
6,8,3,8
6,8,5,4
6,8,6,2
7,3,1,1
7,3,2,5
7,3,6,2
7,3,7,9
7,4,4,2
7,5,1,3
7,5,2,2
7,5,6,6
7,5,7,7
8,0,4,5
8,1,3,8
8,1,5,9
8,4,2,9
8,4,6,7
8,7,3,7
8,7,5,2
8,8,4,1
