0,0,3,4
0,0,5,5
0,1,3,3
0,1,5,2
0,2,0,4
0,2,8,5
0,3,1,5
0,3,3,9
0,3,5,4
0,3,7,7
0,5,1,7
0,5,3,1
0,5,5,8
0,5,7,2
0,6,0,2
0,6,8,1
0,7,3,5
0,7,5,6
0,8,3,2
0,8,5,1
1,3,1,9
1,3,4,1
1,3,7,6
1,4,1,6
1,4,2,5
1,4,3,4
1,4,5,2
1,4,6,8
1,4,7,1
1,5,1,1
1,5,4,6
1,5,7,9
2,1,0,9
2,1,3,1
2,1,5,8
2,1,8,3
2,2,2,3
2,2,6,1
2,4,3,5
2,4,5,1
2,6,2,7
2,6,6,4
2,7,0,4
2,7,3,8
2,7,5,2
2,7,8,7
3,0,4,5
3,1,1,5
3,1,7,1
3,3,0,5
3,3,3,3
3,3,5,8
3,3,8,1
3,4,2,3
3,4,4,1
3,4,6,5
3,5,0,1
3,5,3,5
3,5,5,2
3,5,8,6
3,7,1,1
3,7,7,8
3,8,4,3
4,0,3,8
4,0,4,3
4,0,5,6
4,2,0,9
4,2,4,7
4,2,8,3
4,3,2,6
4,3,4,4
4,3,6,7
4,4,0,4
4,4,2,1
4,4,3,7
4,4,5,5
4,4,6,3
4,4,8,8
4,5,2,5
4,5,4,8
4,5,6,9
4,6,0,1
4,6,4,5
4,6,8,6
4,8,3,9
4,8,4,1
4,8,5,4
5,0,4,1
5,1,1,4
5,1,7,3
5,3,0,9
5,3,3,2
5,3,5,7
5,3,8,3
5,4,2,7
5,4,4,3
5,4,6,1
5,5,0,3
5,5,3,4
5,5,5,1
5,5,8,7
5,7,1,3
5,7,7,7
5,8,4,7
6,1,0,5
6,1,3,2
6,1,5,6
6,1,8,9
6,2,2,9
6,2,6,5
6,4,3,3
6,4,5,7
6,6,2,3
6,6,6,1
6,7,0,1
6,7,3,6
6,7,5,3
6,7,8,4
7,3,1,2
7,3,4,7
7,3,7,5
7,4,1,7
7,4,2,4
7,4,3,1
7,4,5,8
7,4,6,6
7,4,7,2
7,5,1,5
7,5,4,2
7,5,7,7
8,0,3,1
8,0,5,8
8,1,3,9
8,1,5,4
8,2,0,1
8,2,8,4
8,3,1,4
8,3,3,5
8,3,5,1
8,3,7,3
8,5,1,8
8,5,3,7
8,5,5,6
8,5,7,4
8,6,0,4
8,6,8,7
8,7,3,4
8,7,5,7
8,8,3,3
8,8,5,5
