0,1,4,1
0,3,3,9
0,3,5,8
0,5,3,5
0,5,5,6
0,7,4,6
1,0,1,6
1,0,4,2
1,0,7,5
1,2,3,4
1,2,4,8
1,2,5,1
1,3,2,4
1,3,6,9
1,5,2,9
1,5,6,5
1,6,3,2
1,6,4,4
1,6,5,8
1,8,1,4
1,8,4,1
1,8,7,8
2,1,1,1
2,1,2,6
2,1,6,9
2,1,7,4
2,4,4,6
2,7,1,3
2,7,2,5
2,7,6,6
2,7,7,7
3,0,0,4
3,0,1,1
3,0,7,8
3,0,8,3
3,1,1,9
3,1,7,5
3,3,0,5
3,3,8,7
3,5,0,8
3,5,8,5
3,7,1,5
3,7,7,6
3,8,0,2
3,8,1,7
3,8,7,3
3,8,8,1
4,1,0,2
4,1,1,5
4,1,7,6
4,1,8,1
4,3,2,7
4,3,6,2
4,4,4,3
4,5,2,5
4,5,6,9
4,7,0,7
4,7,1,4
4,7,7,1
4,7,8,8
5,0,0,5
5,0,1,3
5,0,7,1
5,0,8,7
5,1,1,4
5,1,7,9
5,3,0,2
5,3,8,1
5,5,0,9
5,5,8,2
5,7,1,1
5,7,7,5
5,8,0,3
5,8,1,9
5,8,7,7
5,8,8,6
6,1,1,8
6,1,2,9
6,1,6,5
6,1,7,2
6,4,4,1
6,7,1,9
6,7,2,4
6,7,6,2
6,7,7,3
7,0,1,7
7,0,4,3
7,0,7,9
7,2,3,7
7,2,4,1
7,2,5,4
7,3,2,5
7,3,6,3
7,5,2,6
7,5,6,2
7,6,3,4
7,6,4,7
7,6,5,2
7,8,1,5
7,8,4,6
7,8,7,2
8,1,4,2
8,3,3,1
8,3,5,5
8,5,3,7
8,5,5,4
8,7,4,4
