0,2,0,8
0,2,2,3
0,2,6,7
0,2,8,9
0,3,2,1
0,3,6,2
0,5,2,6
0,5,6,1
0,6,0,5
0,6,2,4
0,6,6,8
0,6,8,3
1,0,1,5
1,0,7,1
1,1,1,3
1,1,4,5
1,1,7,9
1,2,0,2
1,2,8,6
1,3,2,2
1,3,6,5
1,5,2,3
1,5,6,9
1,6,0,3
1,6,8,9
1,7,1,2
1,7,4,1
1,7,7,4
1,8,1,4
1,8,7,3
2,0,1,8
2,0,7,7
2,3,0,6
2,3,8,3
2,5,0,7
2,5,8,5
2,8,1,1
2,8,7,9
3,0,2,8
3,0,6,2
3,1,4,4
3,3,3,8
3,3,5,3
3,5,3,4
3,5,5,9
3,7,4,8
3,8,2,1
3,8,6,4
4,0,3,8
4,0,5,3
4,1,2,3
4,1,6,4
4,4,4,8
4,7,2,5
4,7,6,1
4,8,3,1
4,8,5,8
5,0,2,5
5,0,6,3
5,1,4,8
5,3,3,6
5,3,5,5
5,5,3,1
5,5,5,8
5,7,4,5
5,8,2,7
5,8,6,8
6,0,1,1
6,0,7,2
6,3,0,4
6,3,8,8
6,5,0,2
6,5,8,6
6,8,1,3
6,8,7,7
7,0,1,9
7,0,7,5
7,1,1,5
7,1,4,9
7,1,7,1
7,2,0,1
7,2,8,7
7,3,2,3
7,3,6,9
7,5,2,4
7,5,6,3
7,6,0,6
7,6,8,8
7,7,1,8
7,7,4,4
7,7,7,2
7,8,1,2
7,8,7,4
8,2,0,9
8,2,2,2
8,2,6,5
8,2,8,4
8,3,2,9
8,3,6,6
8,5,2,8
8,5,6,7
8,6,0,8
8,6,2,3
8,6,6,2
8,6,8,7
