0,0,3,8
0,0,5,4
0,2,1,8
0,2,7,7
0,6,1,6
0,6,7,5
0,8,3,3
0,8,5,5
1,1,2,7
1,1,6,9
1,2,2,9
1,2,6,8
1,4,3,8
1,4,5,4
1,6,2,4
1,6,6,7
1,7,2,6
1,7,6,3
2,1,3,5
2,1,5,9
2,2,2,6
2,2,6,3
2,3,1,3
2,3,7,1
2,5,1,6
2,5,7,5
2,6,2,5
2,6,6,1
2,7,3,9
2,7,5,3
3,0,4,3
3,1,0,4
3,1,8,5
3,2,4,9
3,3,1,7
3,3,4,2
3,3,7,6
3,4,1,9
3,4,2,4
3,4,4,8
3,4,6,7
3,4,7,5
3,5,1,3
3,5,4,4
3,5,7,1
3,6,4,5
3,7,0,9
3,7,8,7
3,8,4,7
4,3,2,2
4,3,4,1
4,3,6,5
4,4,3,4
4,4,5,9
4,5,2,1
4,5,4,5
4,5,6,6
5,0,4,7
5,1,0,7
5,1,8,4
5,2,4,1
5,3,1,5
5,3,4,9
5,3,7,8
5,4,1,1
5,4,2,7
5,4,4,3
5,4,6,9
5,4,7,4
5,5,1,2
5,5,4,6
5,5,7,7
5,6,4,4
5,7,0,1
5,7,8,9
5,8,4,8
6,1,3,7
6,1,5,6
6,2,2,4
6,2,6,7
6,3,1,6
6,3,7,5
6,5,1,4
6,5,7,6
6,6,2,2
6,6,6,5
6,7,3,6
6,7,5,2
7,1,2,2
7,1,6,5
7,2,2,5
7,2,6,1
7,4,3,1
7,4,5,8
7,6,2,8
7,6,6,2
7,7,2,7
7,7,6,9
8,0,3,2
8,0,5,7
8,2,1,6
8,2,7,5
8,6,1,5
8,6,7,8
8,8,3,1
8,8,5,8
