0,1,1,9
0,1,7,7
0,7,1,1
0,7,7,3
1,0,3,4
1,0,5,6
1,1,3,2
1,1,4,1
1,1,5,9
1,4,2,4
1,4,6,6
1,7,3,9
1,7,4,2
1,7,5,1
1,8,3,5
1,8,5,7
2,0,1,7
2,0,7,4
2,2,2,3
2,2,6,5
2,4,2,5
2,4,6,2
2,6,2,7
2,6,6,3
2,8,1,2
2,8,7,5
3,0,0,4
3,0,8,5
3,2,2,5
3,2,3,4
3,2,5,2
3,2,6,7
3,3,3,1
3,3,5,7
3,5,3,8
3,5,5,4
3,6,2,8
3,6,3,3
3,6,5,1
3,6,6,5
3,8,0,5
3,8,8,1
4,2,0,3
4,2,8,8
4,3,0,9
4,3,1,7
4,3,7,4
4,3,8,3
4,4,4,4
4,5,0,6
4,5,1,4
4,5,7,9
4,5,8,7
4,6,0,2
4,6,8,6
5,0,0,5
5,0,8,1
5,2,2,1
5,2,3,5
5,2,5,6
5,2,6,2
5,3,3,4
5,3,5,2
5,5,3,9
5,5,5,5
5,6,2,9
5,6,3,8
5,6,5,4
5,6,6,1
5,8,0,1
5,8,8,4
6,0,1,5
6,0,7,8
6,2,2,7
6,2,6,9
6,4,2,9
6,4,6,5
6,6,2,5
6,6,6,2
6,8,1,1
6,8,7,9
7,0,3,3
7,0,5,1
7,1,3,5
7,1,4,9
7,1,5,7
7,4,2,3
7,4,6,4
7,7,3,7
7,7,4,5
7,7,5,9
7,8,3,8
7,8,5,4
8,1,1,7
8,1,7,1
8,7,1,8
8,7,7,6
