0,0,0,2
0,0,8,8
0,1,0,8
0,1,8,9
0,2,0,9
0,2,4,8
0,2,8,2
0,3,4,4
0,5,4,6
0,6,0,7
0,6,4,5
0,6,8,1
0,7,0,1
0,7,8,5
0,8,0,5
0,8,8,7
1,1,0,4
1,1,3,3
1,1,5,9
1,1,8,7
1,2,3,6
1,2,4,4
1,2,5,2
1,3,2,7
1,3,6,3
1,4,3,7
1,4,5,4
1,5,2,9
1,5,6,4
1,6,3,4
1,6,4,3
1,6,5,1
1,7,0,9
1,7,3,2
1,7,5,5
1,7,8,3
2,0,1,7
2,0,3,2
2,0,5,4
2,0,7,9
2,1,1,1
2,1,7,2
2,3,0,9
2,3,2,6
2,3,3,3
2,3,5,5
2,3,6,8
2,3,8,7
2,4,1,8
2,4,7,3
2,5,0,1
2,5,2,3
2,5,3,4
2,5,5,8
2,5,6,2
2,5,8,9
2,7,1,6
2,7,7,7
2,8,1,9
2,8,3,5
2,8,5,6
2,8,7,1
3,0,4,5
3,1,4,4
3,2,0,5
3,2,4,9
3,2,8,4
3,3,2,3
3,3,6,5
3,5,2,2
3,5,6,9
3,6,0,3
3,6,4,2
3,6,8,7
3,7,4,3
3,8,4,7
4,1,0,6
4,1,8,1
4,7,0,5
4,7,8,4
5,0,4,3
5,1,4,7
5,2,0,3
5,2,4,2
5,2,8,7
5,3,2,1
5,3,6,2
5,5,2,6
5,5,6,7
5,6,0,1
5,6,4,6
5,6,8,8
5,7,4,1
5,8,4,8
6,0,1,2
6,0,3,3
6,0,5,5
6,0,7,4
6,1,1,6
6,1,7,3
6,3,0,4
6,3,2,8
6,3,3,7
6,3,5,9
6,3,6,1
6,3,8,2
6,4,1,1
6,4,7,7
6,5,0,6
6,5,2,7
6,5,3,5
6,5,5,1
6,5,6,3
6,5,8,4
6,7,1,8
6,7,7,2
6,8,1,4
6,8,3,9
6,8,5,8
6,8,7,6
7,1,0,5
7,1,3,7
7,1,5,4
7,1,8,2
7,2,3,8
7,2,4,5
7,2,5,3
7,3,2,2
7,3,6,7
7,4,3,2
7,4,5,5
7,5,2,4
7,5,6,5
7,6,3,5
7,6,4,7
7,6,5,6
7,7,0,4
7,7,3,3
7,7,5,9
7,7,8,7
8,0,0,3
8,0,8,1
8,1,0,1
8,1,8,4
8,2,0,4
8,2,4,1
8,2,8,3
8,3,4,5
8,5,4,8
8,6,0,2
8,6,4,9
8,6,8,6
8,7,0,6
8,7,8,9
8,8,0,9
8,8,8,2
