0,0,3,4
0,0,5,1
0,1,0,2
0,1,8,4
0,2,3,8
0,2,5,6
0,4,3,3
0,4,5,2
0,6,3,1
0,6,5,7
0,7,0,5
0,7,8,8
0,8,3,2
0,8,5,5
1,3,1,6
1,3,3,9
1,3,5,3
1,3,7,7
1,4,3,7
1,4,5,5
1,5,1,9
1,5,3,1
1,5,5,6
1,5,7,5
2,1,3,1
2,1,5,2
2,2,3,9
2,2,5,3
2,3,2,2
2,3,3,8
2,3,5,7
2,3,6,1
2,5,2,5
2,5,3,2
2,5,5,9
2,5,6,7
2,6,3,5
2,6,5,8
2,7,3,7
2,7,5,4
3,1,1,8
3,1,7,3
3,2,4,8
3,3,3,3
3,3,5,9
3,5,3,8
3,5,5,5
3,6,4,9
3,7,1,9
3,7,7,5
4,0,4,5
4,1,2,1
4,1,6,2
4,3,1,3
4,3,7,1
4,4,0,5
4,4,8,6
4,5,1,8
4,5,7,3
4,7,2,5
4,7,6,8
4,8,4,6
5,1,1,6
5,1,7,7
5,2,4,6
5,3,3,2
5,3,5,1
5,5,3,7
5,5,5,3
5,6,4,1
5,7,1,3
5,7,7,1
6,1,3,9
6,1,5,1
6,2,3,6
6,2,5,5
6,3,2,3
6,3,3,4
6,3,5,8
6,3,6,5
6,5,2,2
6,5,3,3
6,5,5,7
6,5,6,8
6,6,3,7
6,6,5,4
6,7,3,1
6,7,5,6
7,3,1,5
7,3,3,1
7,3,5,2
7,3,7,4
7,4,3,5
7,4,5,3
7,5,1,3
7,5,3,6
7,5,5,4
7,5,7,1
8,0,3,5
8,0,5,3
8,1,0,6
8,1,8,5
8,2,3,1
8,2,5,7
8,4,3,8
8,4,5,6
8,6,3,3
8,6,5,2
8,7,0,9
8,7,8,1
8,8,3,6
8,8,5,9
