0,0,1,1
0,0,7,5
0,8,1,8
0,8,7,4
1,0,0,5
1,0,8,8
1,3,2,4
1,3,3,6
1,3,5,1
1,3,6,5
1,4,0,9
1,4,3,3
1,4,5,5
1,4,8,1
1,5,2,1
1,5,3,4
1,5,5,7
1,5,6,3
1,8,0,4
1,8,8,3
2,0,0,9
2,0,1,8
2,0,3,3
2,0,5,5
2,0,7,4
2,0,8,1
2,1,3,4
2,1,5,6
2,2,2,4
2,2,4,9
2,2,6,5
2,3,0,8
2,3,1,2
2,3,2,5
2,3,6,9
2,3,7,1
2,3,8,6
2,4,0,4
2,4,2,7
2,4,3,8
2,4,5,9
2,4,6,2
2,4,8,3
2,5,0,6
2,5,1,9
2,5,2,3
2,5,6,8
2,5,7,7
2,5,8,4
2,6,2,8
2,6,4,3
2,6,6,1
2,7,3,6
2,7,5,8
2,8,0,5
2,8,1,3
2,8,3,1
2,8,5,4
2,8,7,9
2,8,8,8
3,1,4,5
3,3,3,1
3,3,5,4
3,4,0,6
3,4,8,4
3,5,3,2
3,5,5,3
3,7,4,7
4,0,3,9
4,0,5,2
4,1,4,4
4,2,0,9
4,2,8,3
4,3,1,8
4,3,7,5
4,4,1,5
4,4,7,7
4,5,1,6
4,5,7,3
4,6,0,8
4,6,8,6
4,7,4,6
4,8,3,5
4,8,5,7
5,1,4,9
5,3,3,8
5,3,5,5
5,4,0,7
5,4,8,5
5,5,3,6
5,5,5,1
5,7,4,2
6,0,0,8
6,0,1,7
6,0,3,6
6,0,5,3
6,0,7,1
6,0,8,2
6,1,3,8
6,1,5,9
6,2,2,3
6,2,4,1
6,2,6,8
6,3,0,7
6,3,1,4
6,3,2,8
6,3,6,1
6,3,7,2
6,3,8,5
6,4,0,1
6,4,2,9
6,4,3,2
6,4,5,8
6,4,6,4
6,4,8,7
6,5,0,5
6,5,1,3
6,5,2,2
6,5,6,6
6,5,7,9
6,5,8,8
6,6,2,7
6,6,4,6
6,6,6,2
6,7,3,4
6,7,5,2
6,8,0,3
6,8,1,2
6,8,3,7
6,8,5,1
6,8,7,8
6,8,8,6
7,0,0,1
7,0,8,7
7,3,2,1
7,3,3,5
7,3,5,2
7,3,6,3
7,4,0,3
7,4,3,7
7,4,5,1
7,4,8,6
7,5,2,7
7,5,3,3
7,5,5,9
7,5,6,2
7,8,0,8
7,8,8,2
8,0,1,2
8,0,7,8
8,8,1,6
8,8,7,3
