0,2,0,5
0,2,8,1
0,3,1,8
0,3,7,5
0,4,3,2
0,4,5,8
0,5,1,2
0,5,7,3
0,6,0,6
0,6,8,3
1,1,3,2
1,1,5,5
1,3,2,2
1,3,6,4
1,4,0,9
1,4,8,5
1,5,2,6
1,5,6,7
1,7,3,9
1,7,5,8
2,0,2,2
2,0,4,7
2,0,6,6
2,2,2,1
2,2,6,8
2,4,1,1
2,4,2,7
2,4,6,3
2,4,7,4
2,6,2,9
2,6,6,4
2,8,2,6
2,8,4,9
2,8,6,7
3,0,3,3
3,0,4,1
3,0,5,5
3,2,3,4
3,2,5,9
3,3,0,3
3,3,1,6
3,3,7,1
3,3,8,5
3,4,4,9
3,5,0,1
3,5,1,8
3,5,7,7
3,5,8,2
3,6,3,9
3,6,5,7
3,8,3,1
3,8,4,8
3,8,5,2
4,0,3,2
4,0,5,7
4,2,2,9
4,2,6,6
4,3,2,8
4,3,3,9
4,3,5,5
4,3,6,3
4,5,2,3
4,5,3,4
4,5,5,2
4,5,6,1
4,6,2,7
4,6,6,2
4,8,3,6
4,8,5,9
5,0,3,9
5,0,4,4
5,0,5,8
5,2,3,6
5,2,5,2
5,3,0,9
5,3,1,1
5,3,7,4
5,3,8,8
5,4,4,2
5,5,0,4
5,5,1,7
5,5,7,5
5,5,8,3
5,6,3,2
5,6,5,5
5,8,3,4
5,8,4,7
5,8,5,3
6,0,2,6
6,0,4,3
6,0,6,7
6,2,2,8
6,2,6,3
6,4,1,8
6,4,2,9
6,4,6,6
6,4,7,5
6,6,2,4
6,6,6,5
6,8,2,7
6,8,4,6
6,8,6,2
7,1,3,1
7,1,5,9
7,3,2,4
7,3,6,5
7,4,0,6
7,4,8,9
7,5,2,7
7,5,6,3
7,7,3,6
7,7,5,3
8,2,0,3
8,2,8,8
8,3,1,3
8,3,7,9
8,4,3,6
8,4,5,9
8,5,1,4
8,5,7,6
8,6,0,7
8,6,8,4
