0,0,2,1
0,0,6,3
0,2,2,8
0,2,4,3
0,2,6,1
0,3,4,9
0,4,0,5
0,4,8,1
0,5,4,7
0,6,2,2
0,6,4,6
0,6,6,5
0,8,2,6
0,8,6,2
1,0,1,3
1,0,2,7
1,0,3,1
1,0,5,2
1,0,6,9
1,0,7,6
1,1,0,6
1,1,8,1
1,3,3,4
1,3,5,3
1,4,4,5
1,5,3,9
1,5,5,1
1,7,0,9
1,7,8,2
1,8,1,2
1,8,2,8
1,8,3,6
1,8,5,9
1,8,6,1
1,8,7,7
2,0,2,6
2,0,3,7
2,0,5,3
2,0,6,2
2,2,1,7
2,2,4,2
2,2,7,8
2,3,1,6
2,3,4,8
2,3,7,4
2,4,3,6
2,4,5,9
2,5,1,5
2,5,4,3
2,5,7,9
2,6,1,3
2,6,4,7
2,6,7,2
2,8,2,7
2,8,3,8
2,8,5,2
2,8,6,9
3,0,3,4
3,0,4,9
3,0,5,6
3,3,3,2
3,3,5,5
3,5,3,6
3,5,5,9
3,8,3,5
3,8,4,2
3,8,5,7
4,0,0,9
4,0,2,4
4,0,6,7
4,0,8,2
4,1,2,7
4,1,6,3
4,3,3,9
4,3,5,4
4,5,3,3
4,5,5,8
4,7,2,9
4,7,6,5
4,8,0,2
4,8,2,5
4,8,6,8
4,8,8,1
5,0,3,5
5,0,4,2
5,0,5,7
5,3,3,8
5,3,5,1
5,5,3,7
5,5,5,2
5,8,3,3
5,8,4,1
5,8,5,8
6,0,2,3
6,0,3,2
6,0,5,4
6,0,6,8
6,2,1,2
6,2,4,8
6,2,7,7
6,3,1,8
6,3,4,4
6,3,7,6
6,4,3,8
6,4,5,5
6,5,1,3
6,5,4,9
6,5,7,5
6,6,1,7
6,6,4,2
6,6,7,3
6,8,2,2
6,8,3,9
6,8,5,3
6,8,6,5
7,0,1,4
7,0,2,2
7,0,3,9
7,0,5,8
7,0,6,5
7,0,7,3
7,1,0,3
7,1,8,9
7,3,3,6
7,3,5,9
7,4,4,3
7,5,3,5
7,5,5,7
7,7,0,5
7,7,8,3
7,8,1,3
7,8,2,9
7,8,3,1
7,8,5,5
7,8,6,4
7,8,7,2
8,0,2,9
8,0,6,4
8,2,2,7
8,2,4,4
8,2,6,9
8,3,4,5
8,4,0,3
8,4,8,7
8,5,4,2
8,6,2,3
8,6,4,1
8,6,6,8
8,8,2,1
8,8,6,3
