0,1,4,2
0,2,2,9
0,2,6,1
0,3,0,5
0,3,1,2
0,3,2,1
0,3,3,3
0,3,4,4
0,3,5,6
0,3,6,7
0,3,7,8
0,3,8,9
0,5,0,4
0,5,1,7
0,5,2,8
0,5,3,1
0,5,4,9
0,5,5,2
0,5,6,6
0,5,7,3
0,5,8,5
0,6,2,7
0,6,6,4
0,7,4,1
1,0,0,1
1,0,8,8
1,1,3,6
1,1,5,5
1,3,1,3
1,3,7,4
1,5,1,1
1,5,7,9
1,7,3,3
1,7,5,7
1,8,0,9
1,8,8,4
2,3,0,8
2,3,8,3
2,5,0,3
2,5,8,1
3,1,0,5
3,1,8,9
3,3,1,5
3,3,7,1
3,5,1,4
3,5,7,8
3,7,0,1
3,7,8,8
4,2,3,9
4,2,5,6
4,3,2,2
4,3,6,3
4,5,2,7
4,5,6,1
4,6,3,3
4,6,5,9
5,1,0,2
5,1,8,7
5,3,1,6
5,3,7,5
5,5,1,2
5,5,7,4
5,7,0,9
5,7,8,4
6,3,0,2
6,3,8,7
6,5,0,7
6,5,8,6
7,0,0,2
7,0,8,7
7,1,3,9
7,1,5,1
7,3,1,7
7,3,7,3
7,5,1,6
7,5,7,1
7,7,3,2
7,7,5,5
7,8,0,8
7,8,8,3
8,1,4,5
8,2,2,8
8,2,6,2
8,3,0,3
8,3,1,9
8,3,2,6
8,3,3,7
8,3,4,8
8,3,5,5
8,3,6,4
8,3,7,2
8,3,8,1
8,5,0,1
8,5,1,5
8,5,2,2
8,5,3,6
8,5,4,3
8,5,5,4
8,5,6,9
8,5,7,7
8,5,8,8
8,6,2,4
8,6,6,3
8,7,4,7
