0,2,4,8
0,3,4,9
0,4,4,4
0,5,4,5
0,6,4,6
1,1,2,8
1,1,6,9
1,3,0,7
1,3,8,4
1,4,0,6
1,4,1,3
1,4,7,2
1,4,8,5
1,5,0,1
1,5,8,9
1,7,2,7
1,7,6,8
2,0,1,9
2,0,2,7
2,0,6,8
2,0,7,4
2,1,1,4
2,1,7,5
2,3,3,4
2,3,5,2
2,4,2,2
2,4,6,4
2,5,3,9
2,5,5,8
2,7,1,8
2,7,7,3
2,8,1,2
2,8,2,9
2,8,6,1
2,8,7,8
3,1,2,4
3,1,6,3
3,4,2,3
3,4,3,9
3,4,5,4
3,4,6,8
3,7,2,8
3,7,6,9
4,1,2,2
4,1,6,7
4,2,1,9
4,2,3,7
4,2,5,8
4,2,7,3
4,3,1,5
4,3,3,1
4,3,5,7
4,3,7,2
4,5,1,2
4,5,3,4
4,5,5,5
4,5,7,8
4,6,1,6
4,6,3,9
4,6,5,4
4,6,7,7
4,7,2,9
4,7,6,2
5,1,2,1
5,1,6,4
5,4,2,5
5,4,3,7
5,4,5,8
5,4,6,6
5,7,2,6
5,7,6,1
6,0,1,3
6,0,2,4
6,0,6,7
6,0,7,2
6,1,1,8
6,1,7,3
6,3,3,3
6,3,5,6
6,4,2,6
6,4,6,2
6,5,3,2
6,5,5,7
6,7,1,7
6,7,7,1
6,8,1,6
6,8,2,3
6,8,6,5
6,8,7,7
7,1,2,7
7,1,6,8
7,3,0,4
7,3,8,2
7,4,0,5
7,4,1,1
7,4,7,6
7,4,8,3
7,5,0,9
7,5,8,8
7,7,2,4
7,7,6,7
8,2,4,7
8,3,4,2
8,4,4,3
8,5,4,8
8,6,4,9
