0,0,1,5
0,0,2,2
0,0,6,9
0,0,7,6
0,1,4,8
0,2,1,9
0,2,4,1
0,2,7,2
0,3,1,3
0,3,3,5
0,3,4,2
0,3,5,1
0,3,7,4
0,4,3,4
0,4,5,3
0,5,1,1
0,5,3,9
0,5,4,7
0,5,5,8
0,5,7,5
0,6,1,7
0,6,4,9
0,6,7,3
0,7,4,5
0,8,1,6
0,8,2,8
0,8,6,7
0,8,7,1
1,0,3,5
1,0,5,1
1,1,2,5
1,1,6,1
1,2,0,6
1,2,8,7
1,3,4,9
1,4,4,5
1,5,4,4
1,6,0,8
1,6,8,1
1,7,2,7
1,7,6,5
1,8,3,7
1,8,5,5
2,0,4,9
2,1,1,7
2,1,4,5
2,1,7,8
2,2,2,8
2,2,6,6
2,4,0,1
2,4,8,3
2,6,2,9
2,6,6,8
2,7,1,8
2,7,4,2
2,7,7,9
2,8,4,6
3,0,1,7
3,0,7,9
3,2,2,9
3,2,4,3
3,2,6,7
3,3,3,7
3,3,5,3
3,4,0,5
3,4,8,9
3,5,3,6
3,5,5,1
3,6,2,3
3,6,4,2
3,6,6,5
3,8,1,5
3,8,7,3
4,1,4,2
4,2,0,7
4,2,2,1
4,2,6,9
4,2,8,2
4,3,0,1
4,3,4,8
4,3,8,3
4,4,1,7
4,4,3,9
4,4,5,6
4,4,7,5
4,5,0,8
4,5,4,3
4,5,8,1
4,6,0,9
4,6,2,7
4,6,6,1
4,6,8,4
4,7,4,4
5,0,1,8
5,0,7,7
5,2,2,2
5,2,4,9
5,2,6,8
5,3,3,1
5,3,5,9
5,4,0,2
5,4,8,6
5,5,3,8
5,5,5,4
5,6,2,5
5,6,4,8
5,6,6,6
5,8,1,7
5,8,7,4
6,0,4,1
6,1,1,5
6,1,4,3
6,1,7,6
6,2,2,6
6,2,6,5
6,4,0,6
6,4,8,7
6,6,2,8
6,6,6,7
6,7,1,7
6,7,4,9
6,7,7,3
6,8,4,5
7,0,3,3
7,0,5,7
7,1,2,1
7,1,6,7
7,2,0,9
7,2,8,4
7,3,4,1
7,4,4,3
7,5,4,8
7,6,0,7
7,6,8,2
7,7,2,9
7,7,6,8
7,8,3,4
7,8,5,3
8,0,1,1
8,0,2,4
8,0,6,3
8,0,7,5
8,1,4,6
8,2,1,8
8,2,4,7
8,2,7,9
8,3,1,7
8,3,3,3
8,3,4,4
8,3,5,6
8,3,7,1
8,4,3,8
8,4,5,7
8,5,1,6
8,5,3,1
8,5,4,5
8,5,5,2
8,5,7,8
8,6,1,9
8,6,4,1
8,6,7,6
8,7,4,3
8,8,1,4
8,8,2,7
8,8,6,5
8,8,7,2
