0,0,0,7
0,0,3,3
0,0,5,6
0,0,8,8
0,1,4,9
0,3,1,7
0,3,7,5
0,4,1,6
0,4,7,4
0,5,1,2
0,5,7,9
0,7,4,2
0,8,0,1
0,8,3,5
0,8,5,3
0,8,8,9
1,0,1,5
1,0,4,2
1,0,7,3
1,2,1,9
1,2,2,7
1,2,6,2
1,2,7,8
1,3,3,3
1,3,5,2
1,5,3,8
1,5,5,6
1,6,1,6
1,6,2,3
1,6,6,1
1,6,7,4
1,8,1,7
1,8,4,1
1,8,7,5
2,3,3,5
2,3,5,1
2,4,0,3
2,4,1,9
2,4,7,1
2,4,8,5
2,5,3,9
2,5,5,3
3,0,4,3
3,2,0,4
3,2,3,7
3,2,5,6
3,2,8,8
3,3,0,5
3,3,8,3
3,4,1,2
3,4,3,8
3,4,5,3
3,4,7,9
3,5,0,8
3,5,8,2
3,6,0,3
3,6,3,9
3,6,5,5
3,6,8,6
3,8,4,8
4,0,3,5
4,0,5,4
4,1,3,2
4,1,5,7
4,2,4,8
4,4,2,8
4,4,6,7
4,6,4,2
4,7,3,8
4,7,5,3
4,8,3,4
4,8,5,9
5,0,4,7
5,2,0,8
5,2,3,9
5,2,5,5
5,2,8,6
5,3,0,3
5,3,8,7
5,4,1,5
5,4,3,7
5,4,5,6
5,4,7,8
5,5,0,6
5,5,8,9
5,6,0,7
5,6,3,1
5,6,5,8
5,6,8,4
5,8,4,6
6,3,3,8
6,3,5,6
6,4,0,6
6,4,1,1
6,4,7,7
6,4,8,8
6,5,3,1
6,5,5,7
7,0,1,3
7,0,4,5
7,0,7,6
7,2,1,8
7,2,2,5
7,2,6,4
7,2,7,7
7,3,3,7
7,3,5,5
7,5,3,2
7,5,5,9
7,6,1,4
7,6,2,2
7,6,6,6
7,6,7,8
7,8,1,5
7,8,4,2
7,8,7,1
8,0,0,5
8,0,3,2
8,0,5,9
8,0,8,7
8,1,4,8
8,3,1,5
8,3,7,8
8,4,1,4
8,4,7,3
8,5,1,9
8,5,7,1
8,7,4,5
8,8,0,7
8,8,3,1
8,8,5,6
8,8,8,3
