0,0,2,6
0,0,6,9
0,1,1,9
0,1,7,7
0,4,3,3
0,4,5,7
0,7,1,1
0,7,7,8
0,8,2,8
0,8,6,4
1,0,0,7
1,0,8,6
1,1,2,3
1,1,3,2
1,1,5,8
1,1,6,4
1,2,0,1
1,2,1,4
1,2,4,6
1,2,7,2
1,2,8,7
1,6,0,8
1,6,1,6
1,6,4,2
1,6,7,4
1,6,8,9
1,7,2,4
1,7,3,5
1,7,5,6
1,7,6,7
1,8,0,2
1,8,8,8
2,0,0,9
2,0,2,4
2,0,3,5
2,0,5,6
2,0,6,7
2,0,8,2
2,1,1,7
2,1,7,5
2,3,2,1
2,3,6,4
2,5,2,2
2,5,6,5
2,7,1,8
2,7,7,3
2,8,0,4
2,8,2,3
2,8,3,6
2,8,5,8
2,8,6,2
2,8,8,1
3,2,4,5
3,3,4,1
3,5,4,4
3,6,4,7
4,0,0,3
4,0,8,9
4,3,2,2
4,3,4,8
4,3,6,5
4,4,3,6
4,4,5,1
4,5,2,5
4,5,4,2
4,5,6,8
4,8,0,7
4,8,8,4
5,2,4,9
5,3,4,3
5,5,4,6
5,6,4,5
6,0,0,4
6,0,2,3
6,0,3,6
6,0,5,8
6,0,6,2
6,0,8,1
6,1,1,2
6,1,7,6
6,3,2,5
6,3,6,1
6,5,2,8
6,5,6,6
6,7,1,5
6,7,7,9
6,8,0,8
6,8,2,9
6,8,3,1
6,8,5,5
6,8,6,3
6,8,8,7
7,0,0,6
7,0,8,8
7,1,2,9
7,1,3,1
7,1,5,5
7,1,6,3
7,2,0,7
7,2,1,3
7,2,4,8
7,2,7,1
7,2,8,6
7,6,0,9
7,6,1,1
7,6,4,3
7,6,7,8
7,6,8,2
7,7,2,8
7,7,3,4
7,7,5,1
7,7,6,6
7,8,0,3
7,8,8,9
8,0,2,8
8,0,6,6
8,1,1,6
8,1,7,4
8,4,3,9
8,4,5,4
8,7,1,9
8,7,7,7
8,8,2,7
8,8,6,8
