0,1,0,4
0,1,8,6
0,2,0,2
0,2,8,5
0,3,3,9
0,3,4,3
0,3,5,4
0,4,2,1
0,4,6,9
0,5,3,7
0,5,4,5
0,5,5,1
0,6,0,3
0,6,8,8
0,7,0,6
0,7,8,7
1,0,3,7
1,0,5,9
1,1,2,2
1,1,6,7
1,2,1,5
1,2,7,3
1,4,4,9
1,6,1,8
1,6,7,7
1,7,2,5
1,7,6,4
1,8,3,9
1,8,5,5
2,1,4,2
2,3,3,6
2,3,5,5
2,4,4,1
2,5,3,2
2,5,5,9
2,7,4,5
3,1,0,6
3,1,8,8
3,3,3,5
3,3,5,6
3,5,3,9
3,5,5,8
3,7,0,5
3,7,8,9
4,0,4,3
4,2,2,8
4,2,4,5
4,2,6,7
4,3,4,4
4,4,0,4
4,4,2,7
4,4,3,6
4,4,4,8
4,4,5,9
4,4,6,5
4,4,8,2
4,5,4,2
4,6,2,5
4,6,4,7
4,6,6,8
4,8,4,1
5,1,0,2
5,1,8,7
5,3,3,8
5,3,5,2
5,5,3,4
5,5,5,7
5,7,0,8
5,7,8,4
6,1,4,8
6,3,3,3
6,3,5,9
6,4,4,2
6,5,3,8
6,5,5,4
6,7,4,9
7,0,3,8
7,0,5,3
7,1,2,6
7,1,6,8
7,2,1,9
7,2,7,5
7,4,4,3
7,6,1,1
7,6,7,8
7,7,2,9
7,7,6,7
7,8,3,3
7,8,5,9
8,1,0,7
8,1,8,4
8,2,0,5
8,2,8,9
8,3,3,2
8,3,4,8
8,3,5,7
8,4,2,3
8,4,6,2
8,5,3,6
8,5,4,9
8,5,5,3
8,6,0,8
8,6,8,1
8,7,0,4
8,7,8,6
