0,0,1,5
0,0,3,6
0,0,5,8
0,0,7,9
0,1,3,9
0,1,5,2
0,3,0,3
0,3,2,5
0,3,6,8
0,3,8,9
0,5,0,9
0,5,2,2
0,5,6,4
0,5,8,7
0,7,3,8
0,7,5,9
0,8,1,9
0,8,3,2
0,8,5,1
0,8,7,4
1,0,4,3
1,1,1,2
1,1,7,7
1,2,1,4
1,2,7,5
1,3,1,9
1,3,7,4
1,4,2,7
1,4,6,9
1,5,1,6
1,5,7,2
1,6,1,7
1,6,7,6
1,7,1,5
1,7,7,9
1,8,4,8
2,1,4,5
2,4,0,1
2,4,8,4
2,7,4,1
3,0,1,4
3,0,4,9
3,0,7,5
3,1,1,5
3,1,7,9
3,2,0,3
3,2,8,6
3,4,3,9
3,4,5,7
3,6,0,1
3,6,8,9
3,7,1,7
3,7,7,3
3,8,1,8
3,8,4,3
3,8,7,7
4,1,0,9
4,1,8,8
4,2,2,7
4,2,6,5
4,3,1,3
4,3,3,2
4,3,5,9
4,3,7,8
4,5,1,8
4,5,3,1
4,5,5,5
4,5,7,7
4,6,2,2
4,6,6,3
4,7,0,8
4,7,8,2
5,0,1,3
5,0,4,7
5,0,7,8
5,1,1,7
5,1,7,3
5,2,0,6
5,2,8,9
5,4,3,3
5,4,5,1
5,6,0,4
5,6,8,7
5,7,1,1
5,7,7,6
5,8,1,2
5,8,4,6
5,8,7,1
6,1,4,9
6,4,0,3
6,4,8,5
6,7,4,3
7,0,4,8
7,1,1,6
7,1,7,2
7,2,1,5
7,2,7,9
7,3,1,4
7,3,7,5
7,4,2,2
7,4,6,4
7,5,1,7
7,5,7,6
7,6,1,2
7,6,7,7
7,7,1,9
7,7,7,4
7,8,4,1
8,0,1,9
8,0,3,7
8,0,5,1
8,0,7,4
8,1,3,4
8,1,5,6
8,3,0,8
8,3,2,9
8,3,6,1
8,3,8,4
8,5,0,4
8,5,2,6
8,5,6,5
8,5,8,2
8,7,3,1
8,7,5,4
8,8,1,4
8,8,3,6
8,8,5,3
8,8,7,5
