0,0,4,1
0,1,2,1
0,1,6,5
0,3,3,9
0,3,5,6
0,5,3,1
0,5,5,2
0,7,2,8
0,7,6,6
0,8,4,6
1,0,2,6
1,0,6,2
1,1,0,3
1,1,8,4
1,2,1,7
1,2,7,5
1,3,1,8
1,3,4,1
1,3,7,4
1,5,1,6
1,5,4,8
1,5,7,7
1,6,1,1
1,6,7,3
1,7,0,6
1,7,8,1
1,8,2,5
1,8,6,4
2,1,1,9
2,1,7,2
2,2,2,5
2,2,6,4
2,3,0,9
2,3,2,6
2,3,6,2
2,3,8,7
2,4,3,7
2,4,5,1
2,5,0,1
2,5,2,2
2,5,6,3
2,5,8,8
2,6,2,3
2,6,6,9
2,7,1,2
2,7,7,8
3,2,1,5
3,2,3,7
3,2,5,4
3,2,7,9
3,6,1,3
3,6,3,4
3,6,5,2
3,6,7,6
4,0,3,4
4,0,5,2
4,2,3,6
4,2,5,1
4,6,3,1
4,6,5,9
4,8,3,8
4,8,5,5
5,2,1,9
5,2,3,8
5,2,5,5
5,2,7,2
5,6,1,6
5,6,3,5
5,6,5,3
5,6,7,7
6,1,1,6
6,1,7,7
6,2,2,3
6,2,6,9
6,3,0,6
6,3,2,4
6,3,6,7
6,3,8,1
6,4,3,1
6,4,5,2
6,5,0,2
6,5,2,7
6,5,6,8
6,5,8,5
6,6,2,8
6,6,6,6
6,7,1,7
6,7,7,5
7,0,2,8
7,0,6,6
7,1,0,1
7,1,8,8
7,2,1,4
7,2,7,1
7,3,1,2
7,3,4,9
7,3,7,8
7,5,1,8
7,5,4,1
7,5,7,4
7,6,1,9
7,6,7,2
7,7,0,8
7,7,8,9
7,8,2,7
7,8,6,8
8,0,4,3
8,1,2,5
8,1,6,4
8,3,3,7
8,3,5,1
8,5,3,3
8,5,5,8
8,7,2,9
8,7,6,1
8,8,4,1
