0,2,1,7
0,2,7,9
0,3,1,5
0,3,2,2
0,3,4,6
0,3,6,7
0,3,7,8
0,5,1,4
0,5,2,6
0,5,4,7
0,5,6,2
0,5,7,1
0,6,1,1
0,6,7,6
1,1,1,3
1,1,7,6
1,4,0,4
1,4,2,3
1,4,6,1
1,4,8,2
1,7,1,4
1,7,7,1
2,0,1,4
2,0,7,1
2,1,0,1
2,1,8,4
2,2,1,9
2,2,2,2
2,2,3,4
2,2,5,1
2,2,6,7
2,2,7,3
2,4,1,1
2,4,7,7
2,6,1,2
2,6,2,3
2,6,3,6
2,6,5,5
2,6,6,1
2,6,7,9
2,7,0,5
2,7,8,6
2,8,1,6
2,8,7,5
3,0,0,7
3,0,8,1
3,1,3,3
3,1,5,7
3,2,2,9
3,2,3,1
3,2,5,6
3,2,6,5
3,6,2,1
3,6,3,2
3,6,5,9
3,6,6,8
3,7,3,7
3,7,5,4
3,8,0,4
3,8,8,7
4,0,3,9
4,0,5,3
4,3,3,7
4,3,5,5
4,4,4,3
4,5,3,2
4,5,5,4
4,8,3,3
4,8,5,2
5,0,0,9
5,0,8,7
5,1,3,2
5,1,5,5
5,2,2,1
5,2,3,7
5,2,5,9
5,2,6,8
5,6,2,2
5,6,3,5
5,6,5,8
5,6,6,7
5,7,3,9
5,7,5,3
5,8,0,8
5,8,8,5
6,0,1,1
6,0,7,2
6,1,0,2
6,1,8,3
6,2,1,3
6,2,2,4
6,2,3,8
6,2,5,2
6,2,6,9
6,2,7,6
6,4,1,7
6,4,7,5
6,6,1,5
6,6,2,7
6,6,3,9
6,6,5,3
6,6,6,6
6,6,7,8
6,7,0,8
6,7,8,5
6,8,1,4
6,8,7,1
7,1,1,6
7,1,7,4
7,4,0,1
7,4,2,2
7,4,6,7
7,4,8,4
7,7,1,1
7,7,7,6
8,2,1,5
8,2,7,8
8,3,1,8
8,3,2,9
8,3,4,4
8,3,6,5
8,3,7,6
8,5,1,1
8,5,2,5
8,5,4,9
8,5,6,4
8,5,7,7
8,6,1,6
8,6,7,5
