0,1,3,1
0,1,4,4
0,1,5,9
0,2,0,9
0,2,1,8
0,2,7,7
0,2,8,5
0,3,0,4
0,3,4,6
0,3,8,7
0,4,1,3
0,4,7,4
0,5,0,8
0,5,4,3
0,5,8,1
0,6,0,2
0,6,1,1
0,6,7,6
0,6,8,9
0,7,3,9
0,7,4,1
0,7,5,6
1,0,4,9
1,1,1,4
1,1,7,5
1,2,0,6
1,2,4,7
1,2,8,4
1,3,4,1
1,4,2,8
1,4,4,4
1,4,6,5
1,5,4,5
1,6,0,4
1,6,4,6
1,6,8,7
1,7,1,8
1,7,7,4
1,8,4,8
2,1,2,6
2,1,6,3
2,2,1,7
2,2,7,2
2,6,1,6
2,6,7,5
2,7,2,1
2,7,6,9
3,0,1,2
3,0,2,4
3,0,4,1
3,0,6,9
3,0,7,7
3,1,0,1
3,1,8,3
3,4,1,8
3,4,3,9
3,4,5,3
3,4,7,2
3,7,0,2
3,7,8,9
3,8,1,4
3,8,2,1
3,8,4,2
3,8,6,7
3,8,7,3
4,1,0,5
4,1,1,6
4,1,7,1
4,1,8,2
4,2,1,4
4,2,4,5
4,2,7,8
4,4,2,7
4,4,6,9
4,6,1,3
4,6,4,7
4,6,7,9
4,7,0,4
4,7,1,1
4,7,7,5
4,7,8,7
5,0,1,8
5,0,2,5
5,0,4,7
5,0,6,1
5,0,7,2
5,1,0,4
5,1,8,7
5,4,1,6
5,4,3,8
5,4,5,7
5,4,7,3
5,7,0,8
5,7,8,1
5,8,1,2
5,8,2,6
5,8,4,1
5,8,6,9
5,8,7,4
6,1,2,4
6,1,6,1
6,2,1,6
6,2,7,9
6,6,1,4
6,6,7,2
6,7,2,8
6,7,6,5
7,0,4,5
7,1,1,7
7,1,7,2
7,2,0,4
7,2,4,6
7,2,8,7
7,3,4,8
7,4,2,3
7,4,4,7
7,4,6,2
7,5,4,2
7,6,0,7
7,6,4,4
7,6,8,6
7,7,1,3
7,7,7,7
7,8,4,3
8,1,3,8
8,1,4,7
8,1,5,5
8,2,0,5
8,2,1,3
8,2,7,6
8,2,8,2
8,3,0,7
8,3,4,4
8,3,8,6
8,4,1,1
8,4,7,7
8,5,0,3
8,5,4,1
8,5,8,8
8,6,0,9
8,6,1,8
8,6,7,4
8,6,8,5
8,7,3,5
8,7,4,8
8,7,5,4
