0,0,0,4
0,0,8,6
0,1,3,8
0,1,5,7
0,2,2,2
0,2,6,7
0,3,0,7
0,3,8,8
0,4,4,7
0,5,0,9
0,5,8,7
0,6,2,7
0,6,6,6
0,7,3,7
0,7,5,4
0,8,0,2
0,8,8,3
1,0,0,3
1,0,8,4
1,1,1,2
1,1,3,6
1,1,5,4
1,1,7,9
1,2,0,7
1,2,8,8
1,6,0,6
1,6,8,1
1,7,1,4
1,7,3,9
1,7,5,1
1,7,7,3
1,8,0,9
1,8,8,6
2,0,0,2
2,0,8,3
2,1,4,2
2,3,2,2
2,3,6,7
2,5,2,4
2,5,6,5
2,7,4,5
2,8,0,3
2,8,8,9
3,0,2,2
3,0,6,4
3,3,2,8
3,3,3,9
3,3,5,4
3,3,6,6
3,5,2,6
3,5,3,1
3,5,5,8
3,5,6,9
3,8,2,3
3,8,6,7
4,0,3,9
4,0,5,4
4,8,3,7
4,8,5,2
5,0,2,9
5,0,6,1
5,3,2,7
5,3,3,8
5,3,5,3
5,3,6,4
5,5,2,5
5,5,3,2
5,5,5,6
5,5,6,8
5,8,2,2
5,8,6,9
6,0,0,1
6,0,8,9
6,1,4,8
6,3,2,1
6,3,6,8
6,5,2,2
6,5,6,7
6,7,4,7
6,8,0,5
6,8,8,7
7,0,0,6
7,0,8,1
7,1,1,9
7,1,3,5
7,1,5,1
7,1,7,3
7,2,0,5
7,2,8,6
7,6,0,9
7,6,8,2
7,7,1,8
7,7,3,1
7,7,5,6
7,7,7,7
7,8,0,1
7,8,8,5
8,0,0,9
8,0,8,7
8,1,3,3
8,1,5,2
8,2,2,6
8,2,6,2
8,3,0,2
8,3,8,3
8,4,4,2
8,5,0,5
8,5,8,2
8,6,2,2
8,6,6,7
8,7,3,2
8,7,5,9
8,8,0,6
8,8,8,1
