0,0,1,4
0,0,3,6
0,0,5,7
0,0,7,3
0,3,3,9
0,3,5,6
0,4,0,1
0,4,1,3
0,4,7,9
0,4,8,7
0,5,3,3
0,5,5,1
0,8,1,9
0,8,3,1
0,8,5,8
0,8,7,5
1,0,3,5
1,0,5,2
1,1,1,6
1,1,3,1
1,1,5,8
1,1,7,5
1,3,1,8
1,3,3,2
1,3,5,4
1,3,7,7
1,5,1,4
1,5,3,7
1,5,5,9
1,5,7,3
1,7,1,7
1,7,3,3
1,7,5,1
1,7,7,4
1,8,3,6
1,8,5,7
2,0,0,6
2,0,8,2
2,1,0,2
2,1,1,5
2,1,7,1
2,1,8,3
2,7,0,5
2,7,1,4
2,7,7,3
2,7,8,8
2,8,0,3
2,8,8,7
3,0,3,7
3,0,5,9
3,2,2,2
3,2,4,8
3,2,6,6
3,3,1,3
3,3,7,2
3,5,1,5
3,5,7,7
3,6,2,3
3,6,4,7
3,6,6,5
3,8,3,8
3,8,5,3
4,1,1,3
4,1,7,2
4,2,4,4
4,3,1,2
4,3,7,9
4,4,2,3
4,4,4,6
4,4,6,5
4,5,1,7
4,5,7,1
4,6,4,8
4,7,1,8
4,7,7,5
5,0,3,2
5,0,5,4
5,2,2,3
5,2,4,9
5,2,6,5
5,3,1,9
5,3,7,8
5,5,1,8
5,5,7,5
5,6,2,6
5,6,4,4
5,6,6,1
5,8,3,7
5,8,5,9
6,0,0,9
6,0,8,5
6,1,0,5
6,1,1,4
6,1,7,3
6,1,8,8
6,7,0,4
6,7,1,2
6,7,7,8
6,7,8,1
6,8,0,8
6,8,8,6
7,0,3,9
7,0,5,6
7,1,1,1
7,1,3,5
7,1,5,2
7,1,7,9
7,3,1,4
7,3,3,7
7,3,5,9
7,3,7,3
7,5,1,9
7,5,3,8
7,5,5,3
7,5,7,2
7,7,1,3
7,7,3,4
7,7,5,5
7,7,7,6
7,8,3,3
7,8,5,1
8,0,1,3
8,0,3,4
8,0,5,5
8,0,7,7
8,3,3,5
8,3,5,2
8,4,0,9
8,4,1,7
8,4,7,5
8,4,8,4
8,5,3,6
8,5,5,7
8,8,1,4
8,8,3,9
8,8,5,6
8,8,7,3
