0,1,2,4
0,1,4,9
0,1,6,5
0,2,0,2
0,2,8,6
0,3,1,2
0,3,7,5
0,4,1,8
0,4,7,9
0,5,1,3
0,5,7,4
0,6,0,1
0,6,8,9
0,7,2,2
0,7,4,3
0,7,6,8
1,2,1,9
1,2,2,8
1,2,6,3
1,2,7,1
1,3,0,8
1,3,2,5
1,3,6,9
1,3,8,1
1,4,0,3
1,4,3,6
1,4,5,8
1,4,8,7
1,5,0,2
1,5,2,4
1,5,6,5
1,5,8,6
1,6,1,2
1,6,2,7
1,6,6,6
1,6,7,4
2,1,3,2
2,1,5,5
2,2,0,4
2,2,1,3
2,2,7,5
2,2,8,2
2,3,0,1
2,3,4,8
2,3,8,4
2,5,0,6
2,5,4,2
2,5,8,9
2,6,0,8
2,6,1,6
2,6,7,3
2,6,8,1
2,7,3,6
2,7,5,8
3,2,2,2
3,2,6,8
3,3,3,4
3,3,4,2
3,3,5,3
3,4,2,3
3,4,6,9
3,5,3,9
3,5,4,7
3,5,5,8
3,6,2,9
3,6,6,7
4,0,0,4
4,0,4,2
4,0,8,6
4,4,0,1
4,4,8,4
4,8,0,3
4,8,4,4
4,8,8,7
5,2,2,4
5,2,6,1
5,3,3,8
5,3,4,9
5,3,5,7
5,4,2,7
5,4,6,6
5,5,3,6
5,5,4,5
5,5,5,1
5,6,2,8
5,6,6,4
6,1,3,8
6,1,5,9
6,2,0,5
6,2,1,2
6,2,7,9
6,2,8,8
6,3,0,7
6,3,4,3
6,3,8,5
6,5,0,1
6,5,4,8
6,5,8,4
6,6,0,3
6,6,1,1
6,6,7,2
6,6,8,7
6,7,3,1
6,7,5,3
7,2,1,6
7,2,2,9
7,2,6,4
7,2,7,3
7,3,0,5
7,3,2,6
7,3,6,1
7,3,8,3
7,4,0,9
7,4,3,8
7,4,5,5
7,4,8,2
7,5,0,4
7,5,2,7
7,5,6,6
7,5,8,8
7,6,1,9
7,6,2,2
7,6,6,8
7,6,7,6
8,1,2,8
8,1,4,2
8,1,6,3
8,2,0,1
8,2,8,5
8,3,1,1
8,3,7,2
8,4,1,7
8,4,7,8
8,5,1,6
8,5,7,3
8,6,0,4
8,6,8,3
8,7,2,1
8,7,4,6
8,7,6,7
