0,0,1,7
0,0,7,5
0,1,3,5
0,1,5,1
0,2,2,5
0,2,6,4
0,6,2,1
0,6,6,6
0,7,3,9
0,7,5,6
0,8,1,6
0,8,7,2
1,0,1,8
1,0,7,9
1,1,0,3
1,1,2,7
1,1,6,2
1,1,8,4
1,3,0,9
1,3,2,3
1,3,6,1
1,3,8,8
1,5,0,7
1,5,2,5
1,5,6,4
1,5,8,6
1,7,0,1
1,7,2,2
1,7,6,8
1,7,8,5
1,8,1,3
1,8,7,7
2,0,2,6
2,0,6,3
2,3,1,7
2,3,7,9
2,4,1,5
2,4,7,1
2,5,1,6
2,5,7,7
2,8,2,5
2,8,6,4
3,0,3,6
3,0,5,8
3,1,1,2
3,1,7,4
3,3,3,3
3,3,5,7
3,5,3,9
3,5,5,1
3,7,1,7
3,7,7,5
3,8,3,5
3,8,5,6
4,0,1,6
4,0,7,7
4,4,4,1
4,8,1,4
4,8,7,3
5,0,3,3
5,0,5,7
5,1,1,8
5,1,7,9
5,3,3,1
5,3,5,2
5,5,3,5
5,5,5,6
5,7,1,2
5,7,7,4
5,8,3,4
5,8,5,3
6,0,2,2
6,0,6,8
6,3,1,5
6,3,7,6
6,4,1,3
6,4,7,8
6,5,1,8
6,5,7,9
6,8,2,1
6,8,6,6
7,0,1,4
7,0,7,1
7,1,0,2
7,1,2,5
7,1,6,4
7,1,8,3
7,3,0,6
7,3,2,8
7,3,6,7
7,3,8,5
7,5,0,5
7,5,2,3
7,5,6,1
7,5,8,8
7,7,0,8
7,7,2,9
7,7,6,5
7,7,8,1
7,8,1,7
7,8,7,9
8,0,1,5
8,0,7,6
8,1,3,6
8,1,5,8
8,2,2,6
8,2,6,3
8,6,2,7
8,6,6,2
8,7,3,3
8,7,5,7
8,8,1,8
8,8,7,4
