0,0,1,7
0,0,7,4
0,8,1,2
0,8,7,3
1,0,0,2
1,0,8,8
1,1,0,8
1,1,8,4
1,2,3,1
1,2,4,8
1,2,5,3
1,4,2,3
1,4,6,4
1,6,3,4
1,6,4,6
1,6,5,5
1,7,0,6
1,7,8,9
1,8,0,3
1,8,8,6
2,0,4,1
2,1,2,3
2,1,6,8
2,2,4,5
2,6,4,8
2,7,2,7
2,7,6,3
2,8,4,2
3,1,3,1
3,1,5,2
3,2,2,1
3,2,4,6
3,2,6,2
3,3,3,5
3,3,5,1
3,4,3,6
3,4,5,7
3,5,3,3
3,5,5,9
3,6,2,8
3,6,4,7
3,6,6,3
3,7,3,8
3,7,5,3
4,0,0,8
4,0,2,3
4,0,6,7
4,0,8,4
4,1,2,5
4,1,6,9
4,2,0,2
4,2,4,4
4,2,8,8
4,3,1,5
4,3,7,8
4,4,2,8
4,4,6,5
4,5,1,3
4,5,7,2
4,6,0,6
4,6,4,3
4,6,8,5
4,7,2,9
4,7,6,8
4,8,0,5
4,8,2,1
4,8,6,4
4,8,8,3
5,1,3,4
5,1,5,3
5,2,2,8
5,2,4,1
5,2,6,6
5,3,3,9
5,3,5,2
5,4,3,1
5,4,5,8
5,5,3,7
5,5,5,4
5,6,2,3
5,6,4,4
5,6,6,7
5,7,3,6
5,7,5,7
6,0,4,9
6,1,2,8
6,1,6,1
6,2,4,3
6,6,4,5
6,7,2,6
6,7,6,4
6,8,4,7
7,0,0,7
7,0,8,1
7,1,0,5
7,1,8,7
7,2,3,9
7,2,4,7
7,2,5,4
7,4,2,4
7,4,6,1
7,6,3,1
7,6,4,2
7,6,5,3
7,7,0,4
7,7,8,2
7,8,0,2
7,8,8,8
8,0,1,6
8,0,7,7
8,8,1,5
8,8,7,4
