0,1,0,5
0,1,2,8
0,1,6,1
0,1,8,7
0,3,4,4
0,4,3,1
0,4,5,2
0,5,4,5
0,7,0,1
0,7,2,6
0,7,6,2
0,7,8,4
1,0,2,5
1,0,6,4
1,1,0,7
1,1,2,4
1,1,4,5
1,1,6,9
1,1,8,8
1,2,4,4
1,3,0,3
1,3,8,4
1,4,3,5
1,4,5,8
1,5,0,8
1,5,8,5
1,6,4,8
1,7,0,4
1,7,2,8
1,7,4,3
1,7,6,1
1,7,8,7
1,8,2,3
1,8,6,8
2,1,2,6
2,1,6,2
2,2,2,2
2,2,6,7
2,3,0,4
2,3,3,7
2,3,5,5
2,3,8,2
2,4,1,2
2,4,3,6
2,4,5,4
2,4,7,5
2,5,0,5
2,5,3,2
2,5,5,9
2,5,8,6
2,6,2,4
2,6,6,9
2,7,2,9
2,7,6,5
3,0,2,2
3,0,6,7
3,1,0,3
3,1,8,9
3,2,4,7
3,6,4,9
3,7,0,2
3,7,8,1
3,8,2,9
3,8,6,5
4,0,2,3
4,0,3,2
4,0,5,5
4,0,6,8
4,2,0,5
4,2,1,2
4,2,7,4
4,2,8,7
4,3,4,5
4,4,3,3
4,4,5,6
4,5,4,9
4,6,0,8
4,6,1,4
4,6,7,1
4,6,8,9
4,8,2,6
4,8,3,9
4,8,5,8
4,8,6,2
5,0,2,9
5,0,6,5
5,1,0,2
5,1,8,1
5,2,4,5
5,6,4,1
5,7,0,5
5,7,8,2
5,8,2,8
5,8,6,1
6,1,2,2
6,1,6,7
6,2,2,7
6,2,6,6
6,3,0,9
6,3,3,6
6,3,5,4
6,3,8,7
6,4,1,7
6,4,3,2
6,4,5,9
6,4,7,4
6,5,0,4
6,5,3,7
6,5,5,5
6,5,8,2
6,6,2,9
6,6,6,5
6,7,2,5
6,7,6,4
7,0,2,8
7,0,6,1
7,1,0,4
7,1,2,3
7,1,4,1
7,1,6,8
7,1,8,6
7,2,4,8
7,3,0,7
7,3,8,8
7,4,3,8
7,4,5,7
7,5,0,2
7,5,8,1
7,6,4,7
7,7,0,8
7,7,2,2
7,7,4,6
7,7,6,7
7,7,8,9
7,8,2,7
7,8,6,6
8,1,0,6
8,1,2,9
8,1,6,5
8,1,8,3
8,3,4,7
8,4,3,4
8,4,5,3
8,5,4,2
8,7,0,9
8,7,2,3
8,7,6,8
8,7,8,6
