0,0,4,4
0,1,1,2
0,1,3,3
0,1,5,5
0,1,7,1
0,4,3,8
0,4,5,3
0,7,1,6
0,7,3,4
0,7,5,8
0,7,7,7
0,8,4,5
1,0,4,5
1,2,2,2
1,2,6,5
1,4,0,1
1,4,1,9
1,4,7,5
1,4,8,3
1,6,2,9
1,6,6,6
1,8,4,9
2,2,3,5
2,2,5,2
2,3,0,9
2,3,8,1
2,4,1,4
2,4,7,9
2,5,0,7
2,5,8,4
2,6,3,3
2,6,5,5
3,1,3,1
3,1,5,7
3,3,3,3
3,3,5,4
3,4,4,7
3,5,3,2
3,5,5,6
3,7,3,7
3,7,5,5
4,0,3,5
4,0,4,6
4,0,5,2
4,2,0,6
4,2,8,5
4,3,2,4
4,3,6,7
4,4,0,5
4,4,4,3
4,4,8,1
4,5,2,6
4,5,6,2
4,6,0,1
4,6,8,7
4,8,3,4
4,8,4,7
4,8,5,1
5,1,3,2
5,1,5,6
5,3,3,7
5,3,5,9
5,4,4,6
5,5,3,8
5,5,5,3
5,7,3,6
5,7,5,4
6,2,3,1
6,2,5,6
6,3,0,1
6,3,8,7
6,4,1,2
6,4,7,1
6,5,0,4
6,5,8,2
6,6,3,4
6,6,5,2
7,0,4,8
7,2,2,3
7,2,6,8
7,4,0,6
7,4,1,8
7,4,7,2
7,4,8,4
7,6,2,2
7,6,6,4
7,8,4,2
8,0,4,1
8,1,1,7
8,1,3,4
8,1,5,2
8,1,7,3
8,4,3,6
8,4,5,5
8,7,1,5
8,7,3,2
8,7,5,6
8,7,7,4
8,8,4,8
