0,1,3,5
0,1,5,4
0,2,0,3
0,2,3,7
0,2,5,6
0,2,8,4
0,3,3,2
0,3,5,7
0,5,3,4
0,5,5,9
0,6,0,6
0,6,3,9
0,6,5,5
0,6,8,1
0,7,3,6
0,7,5,2
1,0,1,3
1,0,7,5
1,2,3,4
1,2,5,9
1,3,3,9
1,3,5,5
1,4,0,8
1,4,8,5
1,5,3,1
1,5,5,8
1,6,3,8
1,6,5,3
1,8,1,8
1,8,7,9
2,0,2,7
2,0,6,3
2,8,2,6
2,8,6,8
3,1,0,5
3,1,3,9
3,1,5,3
3,1,8,1
3,2,0,4
3,2,4,6
3,2,8,8
3,6,0,7
3,6,4,3
3,6,8,4
3,7,0,6
3,7,3,7
3,7,5,5
3,7,8,9
4,3,0,9
4,3,8,3
4,5,0,4
4,5,8,8
5,1,0,1
5,1,3,8
5,1,5,2
5,1,8,6
5,2,0,8
5,2,4,9
5,2,8,2
5,6,0,9
5,6,4,6
5,6,8,3
5,7,0,5
5,7,3,9
5,7,5,3
5,7,8,1
6,0,2,9
6,0,6,6
6,8,2,4
6,8,6,2
7,0,1,2
7,0,7,3
7,2,3,8
7,2,5,3
7,3,3,3
7,3,5,1
7,4,0,2
7,4,8,3
7,5,3,2
7,5,5,7
7,6,3,6
7,6,5,2
7,8,1,7
7,8,7,8
8,1,3,1
8,1,5,8
8,2,0,2
8,2,3,9
8,2,5,5
8,2,8,1
8,3,3,5
8,3,5,4
8,5,3,8
8,5,5,3
8,6,0,4
8,6,3,3
8,6,5,1
8,6,8,6
8,7,3,4
8,7,5,9
