0,0,0,4
0,0,3,1
0,0,5,3
0,0,8,9
0,3,0,8
0,3,2,1
0,3,6,6
0,3,8,7
0,4,0,9
0,4,8,3
0,5,0,6
0,5,2,7
0,5,6,9
0,5,8,5
0,8,0,1
0,8,3,5
0,8,5,2
0,8,8,4
1,0,0,9
1,0,8,3
1,1,3,3
1,1,5,8
1,3,0,7
1,3,8,2
1,4,0,1
1,4,8,4
1,5,0,5
1,5,8,8
1,7,3,4
1,7,5,6
1,8,0,4
1,8,8,9
2,1,1,9
2,1,7,1
2,2,2,4
2,2,6,5
2,6,2,7
2,6,6,9
2,7,1,3
2,7,7,4
3,1,2,6
3,1,6,1
3,3,0,5
3,3,3,3
3,3,5,8
3,3,8,6
3,5,0,1
3,5,3,6
3,5,5,2
3,5,8,4
3,7,2,2
3,7,6,3
4,0,1,6
4,0,7,3
4,2,1,4
4,2,2,7
4,2,6,9
4,2,7,2
4,3,1,9
4,3,7,1
4,5,1,7
4,5,7,6
4,6,1,2
4,6,2,6
4,6,6,1
4,6,7,8
4,8,1,5
4,8,7,9
5,1,2,5
5,1,6,2
5,3,0,3
5,3,3,2
5,3,5,9
5,3,8,5
5,5,0,9
5,5,3,5
5,5,5,7
5,5,8,3
5,7,2,7
5,7,6,9
6,1,1,5
6,1,7,3
6,2,2,6
6,2,6,2
6,6,2,4
6,6,6,5
6,7,1,8
6,7,7,6
7,0,0,6
7,0,8,5
7,1,3,9
7,1,5,5
7,3,0,1
7,3,8,4
7,4,0,5
7,4,8,8
7,5,0,7
7,5,8,2
7,7,3,1
7,7,5,3
7,8,0,3
7,8,8,6
8,0,0,5
8,0,3,7
8,0,5,4
8,0,8,8
8,3,0,4
8,3,2,6
8,3,6,2
8,3,8,9
8,4,0,3
8,4,8,6
8,5,0,2
8,5,2,9
8,5,6,8
8,5,8,1
8,8,0,6
8,8,3,3
8,8,5,8
8,8,8,5
