0,2,1,5
0,2,7,6
0,4,0,1
0,4,8,8
0,6,1,2
0,6,7,9
1,1,2,4
1,1,6,5
1,2,0,3
1,2,1,7
1,2,7,8
1,2,8,2
1,4,1,4
1,4,7,2
1,6,0,5
1,6,1,9
1,6,7,1
1,6,8,3
1,7,2,2
1,7,6,6
2,1,0,5
2,1,2,2
2,1,4,7
2,1,6,6
2,1,8,3
2,2,0,4
2,2,2,6
2,2,6,7
2,2,8,9
2,3,0,3
2,3,8,6
2,4,2,5
2,4,4,4
2,4,6,1
2,5,0,8
2,5,8,2
2,6,0,6
2,6,2,3
2,6,6,8
2,6,8,4
2,7,0,7
2,7,2,9
2,7,4,8
2,7,6,3
2,7,8,1
3,0,3,4
3,0,5,1
3,1,0,1
3,1,8,6
3,4,1,5
3,4,7,8
3,7,0,6
3,7,8,3
3,8,3,3
3,8,5,9
4,0,4,2
4,2,3,5
4,2,5,3
4,3,1,7
4,3,7,9
4,4,0,4
4,4,8,6
4,5,1,3
4,5,7,4
4,6,3,9
4,6,5,5
4,8,4,8
5,0,3,3
5,0,5,9
5,1,0,9
5,1,8,8
5,4,1,2
5,4,7,5
5,7,0,8
5,7,8,6
5,8,3,2
5,8,5,6
6,1,0,3
6,1,2,1
6,1,4,5
6,1,6,4
6,1,8,2
6,2,0,9
6,2,2,5
6,2,6,1
6,2,8,6
6,3,0,7
6,3,8,5
6,4,2,3
6,4,4,9
6,4,6,8
6,5,0,6
6,5,8,1
6,6,0,4
6,6,2,2
6,6,6,6
6,6,8,9
6,7,0,1
6,7,2,6
6,7,4,2
6,7,6,7
6,7,8,8
7,1,2,9
7,1,6,3
7,2,0,6
7,2,1,4
7,2,7,7
7,2,8,5
7,4,1,9
7,4,7,1
7,6,0,3
7,6,1,6
7,6,7,8
7,6,8,7
7,7,2,5
7,7,6,1
8,2,1,3
8,2,7,4
8,4,0,8
8,4,8,2
8,6,1,5
8,6,7,2
