0,0,1,8
0,0,7,4
0,3,2,3
0,3,6,7
0,4,0,7
0,4,4,1
0,4,8,2
0,5,2,2
0,5,6,8
0,8,1,5
0,8,7,3
1,2,3,1
1,2,5,8
1,3,3,4
1,3,5,9
1,4,2,1
1,4,6,4
1,5,3,3
1,5,5,1
1,6,3,9
1,6,5,7
2,0,3,8
2,0,5,3
2,2,1,1
2,2,3,2
2,2,5,6
2,2,7,7
2,3,2,7
2,3,6,6
2,5,2,8
2,5,6,9
2,6,1,9
2,6,3,3
2,6,5,1
2,6,7,6
2,8,3,5
2,8,5,2
3,0,0,7
3,0,8,2
3,1,0,3
3,1,1,8
3,1,2,1
3,1,6,9
3,1,7,5
3,1,8,7
3,2,0,2
3,2,1,4
3,2,7,1
3,2,8,3
3,3,1,7
3,3,4,8
3,3,7,4
3,4,2,3
3,4,6,7
3,5,1,2
3,5,4,5
3,5,7,3
3,6,0,9
3,6,1,5
3,6,7,2
3,6,8,4
3,7,0,1
3,7,1,3
3,7,2,8
3,7,6,5
3,7,7,7
3,7,8,9
3,8,0,4
3,8,8,1
4,1,3,7
4,1,5,5
4,2,1,5
4,2,7,2
4,6,1,8
4,6,7,9
4,7,3,9
4,7,5,7
5,0,0,6
5,0,8,1
5,1,0,5
5,1,1,7
5,1,2,9
5,1,6,2
5,1,7,4
5,1,8,6
5,2,0,1
5,2,1,3
5,2,7,9
5,2,8,5
5,3,1,6
5,3,4,9
5,3,7,1
5,4,2,7
5,4,6,6
5,5,1,8
5,5,4,4
5,5,7,7
5,6,0,2
5,6,1,4
5,6,7,3
5,6,8,8
5,7,0,7
5,7,1,9
5,7,2,5
5,7,6,4
5,7,7,6
5,7,8,2
5,8,0,8
5,8,8,7
6,0,3,5
6,0,5,2
6,2,1,6
6,2,3,7
6,2,5,4
6,2,7,3
6,3,2,1
6,3,6,4
6,5,2,6
6,5,6,3
6,6,1,1
6,6,3,6
6,6,5,5
6,6,7,4
6,8,3,9
6,8,5,7
7,2,3,6
7,2,5,5
7,3,3,8
7,3,5,3
7,4,2,2
7,4,6,8
7,5,3,5
7,5,5,2
7,6,3,1
7,6,5,8
8,0,1,5
8,0,7,1
8,3,2,5
8,3,6,1
8,4,0,1
8,4,4,2
8,4,8,7
8,5,2,7
8,5,6,6
8,8,1,9
8,8,7,6
