0,0,2,4
0,0,6,7
0,2,2,5
0,2,6,8
0,3,2,2
0,3,6,3
0,5,2,3
0,5,6,4
0,6,2,1
0,6,6,9
0,8,2,6
0,8,6,2
1,0,4,6
1,2,0,8
1,2,1,1
1,2,2,3
1,2,6,4
1,2,7,6
1,2,8,9
1,3,1,8
1,3,2,1
1,3,6,9
1,3,7,4
1,4,0,2
1,4,1,5
1,4,4,4
1,4,7,3
1,4,8,8
1,5,1,4
1,5,2,6
1,5,6,2
1,5,7,5
1,6,0,6
1,6,1,9
1,6,2,4
1,6,6,7
1,6,7,2
1,6,8,5
1,8,4,9
2,0,0,3
2,0,4,5
2,0,8,6
2,4,3,7
2,4,5,5
2,8,0,8
2,8,4,7
2,8,8,9
3,0,1,4
3,0,2,3
3,0,4,1
3,0,6,8
3,0,7,6
3,1,2,1
3,1,6,3
3,3,4,7
3,4,0,5
3,4,2,2
3,4,6,7
3,4,8,1
3,5,4,2
3,7,2,4
3,7,6,9
3,8,1,6
3,8,2,9
3,8,4,4
3,8,6,5
3,8,7,3
4,0,1,1
4,0,2,6
4,0,6,2
4,0,7,5
4,1,0,5
4,1,8,1
4,2,3,1
4,2,5,5
4,6,3,5
4,6,5,2
4,7,0,6
4,7,8,5
4,8,1,5
4,8,2,8
4,8,6,1
4,8,7,7
5,0,1,2
5,0,2,5
5,0,4,9
5,0,6,4
5,0,7,1
5,1,2,4
5,1,6,9
5,3,4,1
5,4,0,6
5,4,2,1
5,4,6,3
5,4,8,5
5,5,4,3
5,7,2,2
5,7,6,7
5,8,1,3
5,8,2,7
5,8,4,2
5,8,6,6
5,8,7,9
6,0,0,1
6,0,4,2
6,0,8,4
6,4,3,5
6,4,5,2
6,8,0,3
6,8,4,5
6,8,8,6
7,0,4,3
7,2,0,5
7,2,1,7
7,2,2,2
7,2,6,3
7,2,7,8
7,2,8,1
7,3,1,5
7,3,2,7
7,3,6,1
7,3,7,3
7,4,0,9
7,4,1,4
7,4,4,1
7,4,7,5
7,4,8,7
7,5,1,8
7,5,2,1
7,5,6,9
7,5,7,4
7,6,0,1
7,6,1,3
7,6,2,8
7,6,6,6
7,6,7,9
7,6,8,4
7,8,4,8
8,0,2,7
8,0,6,1
8,2,2,1
8,2,6,9
8,3,2,8
8,3,6,6
8,5,2,4
8,5,6,7
8,6,2,9
8,6,6,5
8,8,2,2
8,8,6,3
