0,0,1,8
0,0,7,2
0,1,0,7
0,1,8,1
0,3,0,8
0,3,1,4
0,3,2,6
0,3,6,2
0,3,7,3
0,3,8,9
0,4,2,7
0,4,6,6
0,5,0,1
0,5,1,9
0,5,2,2
0,5,6,7
0,5,7,8
0,5,8,5
0,7,0,9
0,7,8,6
0,8,1,2
0,8,7,9
1,0,0,3
1,0,8,9
1,1,4,6
1,3,0,5
1,3,8,6
1,4,0,9
1,4,8,7
1,5,0,4
1,5,8,2
1,7,4,5
1,8,0,6
1,8,8,3
2,0,0,5
2,0,3,6
2,0,5,9
2,0,8,7
2,2,2,3
2,2,3,2
2,2,5,5
2,2,6,1
2,3,3,3
2,3,5,6
2,5,3,8
2,5,5,2
2,6,2,2
2,6,3,5
2,6,5,3
2,6,6,7
2,8,0,3
2,8,3,4
2,8,5,8
2,8,8,5
3,0,1,5
3,0,7,6
3,1,1,9
3,1,7,7
3,2,1,4
3,2,7,2
3,6,1,1
3,6,7,5
3,7,1,8
3,7,7,9
3,8,1,3
3,8,7,4
4,2,0,5
4,2,2,7
4,2,6,6
4,2,8,3
4,3,2,1
4,3,3,9
4,3,5,7
4,3,6,8
4,5,2,3
4,5,3,5
4,5,5,6
4,5,6,1
4,6,0,8
4,6,2,4
4,6,6,9
4,6,8,6
5,0,1,6
5,0,7,8
5,1,1,7
5,1,7,3
5,2,1,2
5,2,7,1
5,6,1,5
5,6,7,7
5,7,1,9
5,7,7,2
5,8,1,4
5,8,7,6
6,0,0,8
6,0,3,4
6,0,5,1
6,0,8,5
6,2,2,2
6,2,3,9
6,2,5,3
6,2,6,7
6,3,3,7
6,3,5,5
6,5,3,6
6,5,5,4
6,6,2,5
6,6,3,1
6,6,5,7
6,6,6,4
6,8,0,2
6,8,3,3
6,8,5,6
6,8,8,8
7,0,0,2
7,0,8,8
7,1,4,4
7,3,0,1
7,3,8,5
7,4,0,8
7,4,8,9
7,5,0,3
7,5,8,4
7,7,4,1
7,8,0,9
7,8,8,6
8,0,1,7
8,0,7,9
8,1,0,5
8,1,8,7
8,3,0,7
8,3,1,3
8,3,2,5
8,3,6,4
8,3,7,6
8,3,8,1
8,4,2,9
8,4,6,5
8,5,0,6
8,5,1,8
8,5,2,4
8,5,6,9
8,5,7,2
8,5,8,3
8,7,0,1
8,7,8,9
8,8,1,5
8,8,7,3
