0,1,0,2
0,1,8,5
0,2,0,6
0,2,1,9
0,2,7,3
0,2,8,7
0,3,0,7
0,3,2,3
0,3,4,6
0,3,6,5
0,3,8,4
0,4,3,1
0,4,5,5
0,5,0,4
0,5,2,1
0,5,4,2
0,5,6,8
0,5,8,9
0,6,0,9
0,6,1,8
0,6,7,7
0,6,8,2
0,7,0,1
0,7,8,6
1,0,4,4
1,2,0,7
1,2,8,4
1,3,1,4
1,3,3,3
1,3,5,2
1,3,7,8
1,4,1,7
1,4,4,8
1,4,7,5
1,5,1,8
1,5,3,5
1,5,5,4
1,5,7,7
1,6,0,2
1,6,8,5
1,8,4,3
2,0,2,2
2,0,6,4
2,2,2,5
2,2,6,9
2,3,1,9
2,3,7,3
2,5,1,3
2,5,7,4
2,6,2,1
2,6,6,8
2,8,2,9
2,8,6,7
3,0,2,7
3,0,6,3
3,1,2,3
3,1,4,7
3,1,6,5
3,4,0,4
3,4,8,9
3,7,2,9
3,7,4,4
3,7,6,6
3,8,2,6
3,8,6,1
4,0,4,2
4,1,3,4
4,1,5,1
4,4,0,2
4,4,4,9
4,4,8,5
4,7,3,2
4,7,5,6
4,8,4,1
5,0,2,6
5,0,6,1
5,1,2,5
5,1,4,6
5,1,6,9
5,4,0,9
5,4,8,2
5,7,2,2
5,7,4,8
5,7,6,4
5,8,2,1
5,8,6,8
6,0,2,5
6,0,6,9
6,2,2,6
6,2,6,3
6,3,1,3
6,3,7,4
6,5,1,1
6,5,7,9
6,6,2,9
6,6,6,7
6,8,2,3
6,8,6,5
7,0,4,5
7,2,0,2
7,2,8,5
7,3,1,5
7,3,3,7
7,3,5,3
7,3,7,6
7,4,1,2
7,4,4,6
7,4,7,1
7,5,1,6
7,5,3,1
7,5,5,5
7,5,7,2
7,6,0,3
7,6,8,1
7,8,4,7
8,1,0,8
8,1,8,3
8,2,0,4
8,2,1,5
8,2,7,6
8,2,8,9
8,3,0,9
8,3,2,6
8,3,4,1
8,3,6,3
8,3,8,2
8,4,3,3
8,4,5,2
8,5,0,3
8,5,2,2
8,5,4,8
8,5,6,4
8,5,8,1
8,6,0,5
8,6,1,1
8,6,7,9
8,6,8,8
8,7,0,2
8,7,8,5
