0,1,2,4
0,1,6,1
0,3,4,9
0,4,0,5
0,4,1,6
0,4,3,8
0,4,5,1
0,4,7,4
0,4,8,2
0,5,4,7
0,7,2,8
0,7,6,6
1,0,0,9
1,0,1,4
1,0,2,2
1,0,4,6
1,0,6,8
1,0,7,3
1,0,8,1
1,3,3,3
1,3,5,8
1,4,1,9
1,4,7,1
1,5,3,9
1,5,5,2
1,8,0,4
1,8,1,2
1,8,2,9
1,8,4,7
1,8,6,1
1,8,7,8
1,8,8,3
2,0,0,3
2,0,8,6
2,2,3,6
2,2,5,5
2,3,1,4
2,3,3,5
2,3,4,6
2,3,5,7
2,3,7,8
2,4,1,8
2,4,4,2
2,4,7,7
2,5,1,5
2,5,3,1
2,5,4,8
2,5,5,3
2,5,7,9
2,6,3,8
2,6,5,1
2,8,0,8
2,8,8,7
3,0,0,2
3,0,8,5
3,4,2,6
3,4,4,8
3,4,6,5
3,8,0,6
3,8,8,9
4,0,0,8
4,0,8,2
4,1,2,6
4,1,6,5
4,2,3,2
4,2,4,6
4,2,5,7
4,3,0,5
4,3,8,8
4,4,2,8
4,4,6,2
4,5,0,6
4,5,8,9
4,6,3,1
4,6,4,8
4,6,5,3
4,7,2,9
4,7,6,1
4,8,0,1
4,8,8,6
5,0,0,5
5,0,8,3
5,4,2,9
5,4,4,7
5,4,6,8
5,8,0,9
5,8,8,8
6,0,0,1
6,0,8,7
6,2,3,7
6,2,5,6
6,3,1,2
6,3,3,6
6,3,4,7
6,3,5,5
6,3,7,3
6,4,1,3
6,4,4,9
6,4,7,5
6,5,1,6
6,5,3,8
6,5,4,3
6,5,5,1
6,5,7,4
6,6,3,3
6,6,5,8
6,8,0,3
6,8,8,5
7,0,0,7
7,0,1,5
7,0,2,6
7,0,4,3
7,0,6,2
7,0,7,9
7,0,8,4
7,3,3,9
7,3,5,2
7,4,1,7
7,4,7,2
7,5,3,7
7,5,5,6
7,8,0,5
7,8,1,6
7,8,2,7
7,8,4,8
7,8,6,9
7,8,7,4
7,8,8,2
8,1,2,8
8,1,6,7
8,3,4,8
8,4,0,9
8,4,1,4
8,4,3,5
8,4,5,7
8,4,7,8
8,4,8,3
8,5,4,2
8,7,2,5
8,7,6,4
