0,1,0,8
0,1,8,5
0,3,2,9
0,3,6,7
0,4,1,6
0,4,4,9
0,4,7,3
0,5,2,1
0,5,6,9
0,7,0,4
0,7,8,7
1,0,4,1
1,1,0,6
1,1,8,8
1,3,2,8
1,3,4,7
1,3,6,4
1,4,2,4
1,4,6,2
1,5,2,6
1,5,4,4
1,5,6,8
1,7,0,8
1,7,8,4
1,8,4,3
2,0,3,7
2,0,5,2
2,1,1,4
2,1,7,6
2,4,2,3
2,4,6,5
2,7,1,7
2,7,7,3
2,8,3,2
2,8,5,6
3,0,1,8
3,0,7,1
3,2,1,4
3,2,7,9
3,3,1,9
3,3,7,5
3,4,3,9
3,4,5,6
3,5,1,6
3,5,7,7
3,6,1,2
3,6,7,6
3,8,1,1
3,8,7,3
4,1,3,5
4,1,5,2
4,2,4,7
4,4,2,8
4,4,6,7
4,6,4,3
4,7,3,8
4,7,5,5
5,0,1,6
5,0,7,7
5,2,1,1
5,2,7,3
5,3,1,8
5,3,7,1
5,4,3,8
5,4,5,4
5,5,1,5
5,5,7,4
5,6,1,4
5,6,7,9
5,8,1,7
5,8,7,2
6,0,3,2
6,0,5,6
6,1,1,5
6,1,7,7
6,4,2,1
6,4,6,9
6,7,1,2
6,7,7,1
6,8,3,6
6,8,5,7
7,0,4,5
7,1,0,3
7,1,8,9
7,3,2,4
7,3,4,8
7,3,6,2
7,4,2,6
7,4,6,8
7,5,2,8
7,5,4,7
7,5,6,4
7,7,0,5
7,7,8,2
7,8,4,9
8,1,0,7
8,1,8,3
8,3,2,3
8,3,6,5
8,4,1,9
8,4,4,3
8,4,7,2
8,5,2,7
8,5,6,3
8,7,0,3
8,7,8,5
