0,0,0,5
0,0,1,4
0,0,3,3
0,0,5,1
0,0,7,7
0,0,8,6
0,3,0,2
0,3,8,4
0,4,1,7
0,4,7,2
0,5,0,9
0,5,8,7
0,8,0,3
0,8,1,2
0,8,3,8
0,8,5,6
0,8,7,9
0,8,8,5
1,1,1,8
1,1,3,4
1,1,4,9
1,1,5,5
1,1,7,3
1,3,1,6
1,3,7,1
1,4,0,5
1,4,1,4
1,4,7,7
1,4,8,6
1,5,1,3
1,5,7,4
1,7,1,1
1,7,3,7
1,7,4,6
1,7,5,8
1,7,7,5
2,1,3,1
2,1,5,2
2,3,0,4
2,3,4,1
2,3,8,8
2,4,1,2
2,4,7,9
2,5,0,6
2,5,4,9
2,5,8,2
2,7,3,5
2,7,5,9
3,0,3,4
3,0,4,9
3,0,5,5
3,2,0,8
3,2,8,5
3,3,3,9
3,3,5,4
3,4,0,9
3,4,2,4
3,4,6,6
3,4,8,2
3,5,3,2
3,5,5,3
3,6,0,2
3,6,8,8
3,8,3,6
3,8,4,3
3,8,5,2
4,0,0,9
4,0,3,1
4,0,5,7
4,0,8,2
4,1,1,1
4,1,7,5
4,2,0,3
4,2,2,6
4,2,6,8
4,2,8,1
4,3,2,9
4,3,3,8
4,3,4,7
4,3,5,1
4,3,6,3
4,4,3,6
4,4,5,2
4,5,2,3
4,5,3,5
4,5,4,4
4,5,5,9
4,5,6,7
4,6,0,4
4,6,2,5
4,6,6,2
4,6,8,3
4,7,1,7
4,7,7,9
4,8,0,6
4,8,3,4
4,8,5,5
4,8,8,7
5,0,3,6
5,0,4,3
5,0,5,2
5,2,0,5
5,2,8,6
5,3,3,3
5,3,5,6
5,4,0,6
5,4,2,2
5,4,6,1
5,4,8,7
5,5,3,7
5,5,5,8
5,6,0,7
5,6,8,4
5,8,3,1
5,8,4,8
5,8,5,7
6,1,3,3
6,1,5,1
6,3,0,9
6,3,4,3
6,3,8,7
6,4,1,1
6,4,7,5
6,5,0,8
6,5,4,5
6,5,8,1
6,7,3,4
6,7,5,5
7,1,1,2
7,1,3,8
7,1,4,7
7,1,5,6
7,1,7,9
7,3,1,3
7,3,7,4
7,4,0,7
7,4,1,6
7,4,7,1
7,4,8,3
7,5,1,4
7,5,7,7
7,7,1,5
7,7,3,1
7,7,4,3
7,7,5,2
7,7,7,8
8,0,0,2
8,0,1,1
8,0,3,7
8,0,5,8
8,0,7,5
8,0,8,4
8,3,0,6
8,3,8,2
8,4,1,9
8,4,7,6
8,5,0,3
8,5,8,5
8,8,0,7
8,8,1,6
8,8,3,5
8,8,5,9
8,8,7,1
8,8,8,3
