0,0,0,7
0,0,1,5
0,0,3,6
0,0,5,2
0,0,7,4
0,0,8,1
0,2,4,5
0,4,0,1
0,4,2,9
0,4,6,2
0,4,8,5
0,6,4,2
0,8,0,4
0,8,1,2
0,8,3,5
0,8,5,8
0,8,7,3
0,8,8,7
1,1,0,3
1,1,8,4
1,4,4,2
1,7,0,7
1,7,8,1
2,2,3,9
2,2,5,6
2,3,0,8
2,3,8,2
2,5,0,7
2,5,8,1
2,6,3,3
2,6,5,4
3,0,3,2
3,0,5,8
3,1,2,2
3,1,6,4
3,2,2,3
3,2,6,8
3,6,2,4
3,6,6,3
3,7,2,1
3,7,6,9
3,8,3,9
3,8,5,4
4,0,2,6
4,0,4,4
4,0,6,1
4,1,3,8
4,1,5,1
4,4,0,9
4,4,8,6
4,7,3,2
4,7,5,8
4,8,2,2
4,8,4,7
4,8,6,4
5,0,3,7
5,0,5,3
5,1,2,7
5,1,6,2
5,2,2,4
5,2,6,3
5,6,2,8
5,6,6,5
5,7,2,6
5,7,6,1
5,8,3,8
5,8,5,1
6,2,3,5
6,2,5,8
6,3,0,7
6,3,8,1
6,5,0,6
6,5,8,3
6,6,3,2
6,6,5,9
7,1,0,7
7,1,8,1
7,4,4,6
7,7,0,5
7,7,8,8
8,0,0,1
8,0,1,8
8,0,3,3
8,0,5,4
8,0,7,6
8,0,8,5
8,2,4,6
8,4,0,4
8,4,2,6
8,4,6,9
8,4,8,7
8,6,4,4
8,8,0,7
8,8,1,5
8,8,3,6
8,8,5,2
8,8,7,4
8,8,8,1
