0,0,1,8
0,0,4,5
0,0,7,6
0,1,2,4
0,1,3,3
0,1,5,6
0,1,6,5
0,3,0,4
0,3,3,6
0,3,5,9
0,3,8,7
0,4,1,6
0,4,4,1
0,4,7,9
0,5,0,9
0,5,3,2
0,5,5,5
0,5,8,6
0,7,2,7
0,7,3,5
0,7,5,8
0,7,6,6
0,8,1,4
0,8,4,6
0,8,7,3
1,0,0,5
1,0,4,8
1,0,8,2
1,3,4,2
1,4,0,3
1,4,8,5
1,5,4,7
1,8,0,7
1,8,4,5
1,8,8,1
2,0,3,9
2,0,5,3
2,2,1,9
2,2,7,3
2,6,1,7
2,6,7,4
2,8,3,7
2,8,5,4
3,0,0,9
3,0,3,3
3,0,4,7
3,0,5,5
3,0,8,8
3,1,4,2
3,3,0,7
3,3,4,1
3,3,8,5
3,4,2,1
3,4,3,4
3,4,5,6
3,4,6,8
3,5,0,6
3,5,4,8
3,5,8,4
3,7,4,5
3,8,0,1
3,8,3,2
3,8,4,9
3,8,5,3
3,8,8,6
4,0,2,4
4,0,6,5
4,1,1,2
4,1,7,3
4,2,3,7
4,2,5,3
4,3,2,2
4,3,6,7
4,4,4,7
4,5,2,7
4,5,6,6
4,6,3,5
4,6,5,7
4,7,1,4
4,7,7,6
4,8,2,3
4,8,6,1
5,0,0,2
5,0,3,4
5,0,4,1
5,0,5,6
5,0,8,9
5,1,4,3
5,3,0,3
5,3,4,5
5,3,8,2
5,4,2,4
5,4,3,2
5,4,5,1
5,4,6,5
5,5,0,1
5,5,4,4
5,5,8,7
5,7,4,6
5,8,0,9
5,8,3,1
5,8,4,7
5,8,5,5
5,8,8,3
6,0,3,5
6,0,5,1
6,2,1,5
6,2,7,1
6,6,1,6
6,6,7,9
6,8,3,6
6,8,5,9
7,0,0,6
7,0,4,4
7,0,8,1
7,3,4,3
7,4,0,4
7,4,8,7
7,5,4,1
7,8,0,3
7,8,4,2
7,8,8,4
8,0,1,2
8,0,4,3
8,0,7,5
8,1,2,3
8,1,3,7
8,1,5,4
8,1,6,1
8,3,0,8
8,3,3,4
8,3,5,1
8,3,8,9
8,4,1,9
8,4,4,2
8,4,7,8
8,5,0,3
8,5,3,9
8,5,5,8
8,5,8,5
8,7,2,4
8,7,3,1
8,7,5,6
8,7,6,5
8,8,1,1
8,8,4,4
8,8,7,2
