0,2,0,2
0,2,8,6
0,3,0,3
0,3,8,5
0,4,0,6
0,4,8,9
0,5,0,7
0,5,8,4
0,6,0,9
0,6,8,2
1,0,0,5
1,0,2,3
1,0,6,6
1,0,8,8
1,1,0,9
1,1,3,2
1,1,5,4
1,1,8,1
1,2,1,1
1,2,4,6
1,2,7,9
1,3,3,6
1,3,5,8
1,4,3,7
1,4,5,1
1,5,3,3
1,5,5,2
1,6,1,5
1,6,4,2
1,6,7,7
1,7,0,7
1,7,3,4
1,7,5,6
1,7,8,5
1,8,0,3
1,8,2,2
1,8,6,8
1,8,8,9
2,0,4,8
2,1,2,2
2,1,6,8
2,2,1,9
2,2,7,7
2,3,0,4
2,3,8,1
2,4,3,8
2,4,4,6
2,4,5,9
2,5,0,9
2,5,8,8
2,6,1,3
2,6,7,8
2,7,2,5
2,7,6,4
2,8,4,4
3,0,3,2
3,0,5,4
3,1,4,6
3,4,1,5
3,4,2,1
3,4,3,9
3,4,5,6
3,4,6,2
3,4,7,3
3,7,4,4
3,8,3,7
3,8,5,1
4,1,0,6
4,1,8,5
4,3,1,3
4,3,4,4
4,3,7,8
4,4,3,3
4,4,5,2
4,5,1,7
4,5,4,9
4,5,7,2
4,7,0,5
4,7,8,1
5,0,3,6
5,0,5,8
5,1,4,9
5,4,1,2
5,4,2,3
5,4,3,1
5,4,5,4
5,4,6,6
5,4,7,5
5,7,4,1
5,8,3,9
5,8,5,3
6,0,4,9
6,1,2,9
6,1,6,5
6,2,1,7
6,2,7,2
6,3,0,7
6,3,8,4
6,4,3,4
6,4,4,1
6,4,5,7
6,5,0,6
6,5,8,9
6,6,1,8
6,6,7,4
6,7,2,7
6,7,6,3
6,8,4,7
7,0,0,6
7,0,2,8
7,0,6,1
7,0,8,5
7,1,0,7
7,1,3,5
7,1,5,6
7,1,8,9
7,2,1,5
7,2,4,1
7,2,7,6
7,3,3,1
7,3,5,4
7,4,3,2
7,4,5,5
7,5,3,8
7,5,5,9
7,6,1,7
7,6,4,4
7,6,7,2
7,7,0,2
7,7,3,7
7,7,5,1
7,7,8,6
7,8,0,8
7,8,2,5
7,8,6,4
7,8,8,7
8,2,0,9
8,2,8,1
8,3,0,8
8,3,8,7
8,4,0,1
8,4,8,3
8,5,0,2
8,5,8,6
8,6,0,3
8,6,8,9
