0,0,3,7
0,0,5,6
0,3,2,4
0,3,3,5
0,3,5,8
0,3,6,3
0,5,2,8
0,5,3,4
0,5,5,2
0,5,6,9
0,8,3,8
0,8,5,4
1,0,1,7
1,0,7,6
1,2,0,9
1,2,2,6
1,2,6,4
1,2,8,2
1,6,0,1
1,6,2,9
1,6,6,7
1,6,8,6
1,8,1,8
1,8,7,4
2,1,2,7
2,1,3,4
2,1,5,1
2,1,6,8
2,4,1,8
2,4,4,2
2,4,7,6
2,7,2,3
2,7,3,5
2,7,5,8
2,7,6,6
3,0,2,3
3,0,6,6
3,2,0,5
3,2,2,9
3,2,4,7
3,2,6,8
3,2,8,4
3,4,1,5
3,4,3,2
3,4,5,7
3,4,7,8
3,6,0,6
3,6,2,5
3,6,4,2
3,6,6,1
3,6,8,8
3,8,2,4
3,8,6,3
4,2,4,8
4,3,4,9
4,4,2,4
4,4,3,1
4,4,5,8
4,4,6,3
4,5,4,5
4,6,4,1
5,0,2,4
5,0,6,3
5,2,0,1
5,2,2,8
5,2,4,9
5,2,6,7
5,2,8,6
5,4,1,1
5,4,3,5
5,4,5,9
5,4,7,7
5,6,0,3
5,6,2,1
5,6,4,5
5,6,6,2
5,6,8,7
5,8,2,6
5,8,6,4
6,1,2,3
6,1,3,1
6,1,5,8
6,1,6,6
6,4,1,3
6,4,4,9
6,4,7,1
6,7,2,1
6,7,3,7
6,7,5,4
6,7,6,2
7,0,1,4
7,0,7,1
7,2,0,3
7,2,2,2
7,2,6,5
7,2,8,9
7,6,0,8
7,6,2,4
7,6,6,3
7,6,8,5
7,8,1,3
7,8,7,2
8,0,3,4
8,0,5,1
8,3,2,5
8,3,3,7
8,3,5,4
8,3,6,1
8,5,2,6
8,5,3,1
8,5,5,9
8,5,6,4
8,8,3,3
8,8,5,2
