0,0,1,8
0,0,7,9
0,1,0,9
0,1,8,5
0,2,2,2
0,2,6,6
0,3,1,7
0,3,7,5
0,5,1,2
0,5,7,4
0,6,2,5
0,6,6,8
0,7,0,6
0,7,8,9
0,8,1,9
0,8,7,6
1,0,0,2
1,0,8,1
1,1,2,8
1,1,3,3
1,1,5,6
1,1,6,4
1,2,4,8
1,6,4,1
1,7,2,3
1,7,3,6
1,7,5,4
1,7,6,1
1,8,0,8
1,8,8,7
2,0,4,1
2,1,2,3
2,1,6,1
2,2,2,1
2,2,6,9
2,3,4,4
2,5,4,8
2,6,2,6
2,6,6,7
2,7,2,2
2,7,6,6
2,8,4,6
3,0,0,9
3,0,8,6
3,1,1,5
3,1,7,7
3,2,4,6
3,3,1,1
3,3,7,6
3,5,1,7
3,5,7,9
3,6,4,7
3,7,1,6
3,7,7,4
3,8,0,7
3,8,8,1
4,1,1,9
4,1,3,4
4,1,5,5
4,1,7,1
4,4,4,8
4,7,1,5
4,7,3,1
4,7,5,7
4,7,7,6
5,0,0,5
5,0,8,9
5,1,1,7
5,1,7,4
5,2,4,4
5,3,1,6
5,3,7,3
5,5,1,3
5,5,7,5
5,6,4,9
5,7,1,9
5,7,7,1
5,8,0,4
5,8,8,6
6,0,4,7
6,1,2,7
6,1,6,2
6,2,2,6
6,2,6,7
6,3,4,3
6,5,4,9
6,6,2,4
6,6,6,5
6,7,2,5
6,7,6,8
6,8,4,5
7,0,0,8
7,0,8,2
7,1,2,9
7,1,3,2
7,1,5,8
7,1,6,3
7,2,4,9
7,6,4,6
7,7,2,6
7,7,3,5
7,7,5,3
7,7,6,7
7,8,0,9
7,8,8,5
8,0,1,9
8,0,7,7
8,1,0,2
8,1,8,1
8,2,2,8
8,2,6,4
8,3,1,5
8,3,7,1
8,5,1,4
8,5,7,3
8,6,2,1
8,6,6,9
8,7,0,4
8,7,8,6
8,8,1,7
8,8,7,8
