0,3,4,9
0,4,3,6
0,4,4,1
0,4,5,5
0,5,4,2
1,0,1,7
1,0,2,8
1,0,3,4
1,0,5,1
1,0,6,5
1,0,7,6
1,1,1,5
1,1,3,3
1,1,5,7
1,1,7,4
1,2,3,6
1,2,5,5
1,3,0,8
1,3,4,5
1,3,8,6
1,4,2,9
1,4,3,7
1,4,5,4
1,4,6,2
1,5,0,5
1,5,4,6
1,5,8,1
1,6,3,2
1,6,5,9
1,7,1,6
1,7,3,5
1,7,5,3
1,7,7,2
1,8,1,9
1,8,2,2
1,8,3,8
1,8,5,6
1,8,6,1
1,8,7,5
2,0,0,5
2,0,3,9
2,0,5,3
2,0,8,8
2,1,1,4
2,1,7,9
2,3,3,3
2,3,5,6
2,4,1,3
2,4,7,1
2,5,3,5
2,5,5,1
2,7,1,7
2,7,7,6
2,8,0,8
2,8,3,1
2,8,5,7
2,8,8,2
3,0,1,5
3,0,7,9
3,1,0,7
3,1,8,5
3,2,3,5
3,2,5,1
3,3,3,6
3,3,5,5
3,4,1,7
3,4,7,6
3,5,3,1
3,5,5,7
3,6,3,9
3,6,5,3
3,7,0,1
3,7,8,6
3,8,1,3
3,8,7,8
4,0,3,1
4,0,5,7
4,2,3,4
4,2,5,8
4,3,1,3
4,3,7,8
4,5,1,9
4,5,7,4
4,6,3,5
4,6,5,1
4,8,3,2
4,8,5,9
5,0,1,9
5,0,7,4
5,1,0,6
5,1,8,9
5,2,3,9
5,2,5,3
5,3,3,2
5,3,5,9
5,4,1,6
5,4,7,2
5,5,3,3
5,5,5,6
5,6,3,4
5,6,5,8
5,7,0,3
5,7,8,2
5,8,1,8
5,8,7,1
6,0,0,7
6,0,3,2
6,0,5,9
6,0,8,4
6,1,1,6
6,1,7,2
6,3,3,4
6,3,5,8
6,4,1,5
6,4,7,4
6,5,3,6
6,5,5,5
6,7,1,8
6,7,7,3
6,8,0,5
6,8,3,9
6,8,5,3
6,8,8,8
7,0,1,1
7,0,2,4
7,0,3,7
7,0,5,5
7,0,6,2
7,0,7,8
7,1,1,2
7,1,3,4
7,1,5,8
7,1,7,7
7,2,3,1
7,2,5,2
7,3,0,5
7,3,4,7
7,3,8,8
7,4,2,2
7,4,3,8
7,4,5,6
7,4,6,1
7,5,0,7
7,5,4,1
7,5,8,5
7,6,3,3
7,6,5,7
7,7,1,3
7,7,3,6
7,7,5,9
7,7,7,1
7,8,1,7
7,8,2,8
7,8,3,5
7,8,5,1
7,8,6,9
7,8,7,6
8,3,4,6
8,4,3,3
8,4,4,4
8,4,5,2
8,5,4,8
