1,0,1,4
1,0,7,8
1,1,3,3
1,1,5,7
1,4,4,3
1,7,3,5
1,7,5,3
1,8,1,1
1,8,7,5
2,0,2,1
2,0,6,4
2,1,4,2
2,2,2,5
2,2,4,6
2,2,6,8
2,3,1,2
2,3,7,1
2,4,0,9
2,4,8,5
2,5,1,1
2,5,7,8
2,6,2,2
2,6,4,3
2,6,6,9
2,7,4,8
2,8,2,7
2,8,6,1
3,0,0,4
3,0,4,6
3,0,8,9
3,1,0,7
3,1,3,9
3,1,5,4
3,1,8,2
3,4,1,5
3,4,7,9
3,7,0,8
3,7,3,1
3,7,5,5
3,7,8,7
3,8,0,5
3,8,4,3
3,8,8,1
4,0,4,4
4,2,1,5
4,2,7,9
4,3,1,1
4,3,7,8
4,4,0,6
4,4,8,7
4,5,1,7
4,5,7,6
4,6,1,9
4,6,7,7
4,8,4,8
5,0,0,8
5,0,4,2
5,0,8,4
5,1,0,5
5,1,3,1
5,1,5,6
5,1,8,7
5,4,1,9
5,4,7,1
5,7,0,3
5,7,3,8
5,7,5,9
5,7,8,5
5,8,0,9
5,8,4,1
5,8,8,6
6,0,2,4
6,0,6,7
6,1,4,9
6,2,2,6
6,2,4,8
6,2,6,5
6,3,1,9
6,3,7,4
6,4,0,3
6,4,8,6
6,5,1,4
6,5,7,5
6,6,2,9
6,6,4,2
6,6,6,3
6,7,4,5
6,8,2,1
6,8,6,4
7,0,1,7
7,0,7,5
7,1,3,2
7,1,5,1
7,4,4,2
7,7,3,6
7,7,5,2
7,8,1,4
7,8,7,6
