0,0,1,5
0,0,2,4
0,0,6,3
0,0,7,2
0,1,1,1
0,1,4,4
0,1,7,7
0,2,1,8
0,2,7,6
0,3,0,9
0,3,8,6
0,4,0,4
0,4,2,1
0,4,3,6
0,4,5,9
0,4,6,8
0,4,8,2
0,5,0,3
0,5,8,7
0,6,1,3
0,6,7,1
0,7,1,9
0,7,4,7
0,7,7,8
0,8,1,4
0,8,2,7
0,8,6,2
0,8,7,5
1,0,2,8
1,0,6,5
1,2,3,2
1,2,4,5
1,2,5,4
1,4,1,9
1,4,2,2
1,4,3,3
1,4,5,8
1,4,6,6
1,4,7,1
1,6,3,1
1,6,4,9
1,6,5,6
1,8,2,9
1,8,6,4
2,0,3,4
2,0,5,5
2,1,1,9
2,1,4,7
2,1,7,5
2,3,3,5
2,3,5,6
2,5,3,8
2,5,5,7
2,7,1,7
2,7,4,1
2,7,7,3
2,8,3,2
2,8,5,4
3,0,2,7
3,0,3,1
3,0,5,4
3,0,6,2
3,3,0,1
3,3,1,6
3,3,7,8
3,3,8,7
3,4,0,8
3,4,8,6
3,5,0,5
3,5,1,7
3,5,7,1
3,5,8,2
3,8,2,8
3,8,3,3
3,8,5,2
3,8,6,5
4,1,1,3
4,1,4,1
4,1,7,2
4,2,3,3
4,2,5,2
4,3,3,8
4,3,4,6
4,3,5,4
4,4,1,1
4,4,3,5
4,4,5,3
4,4,7,4
4,5,3,1
4,5,4,7
4,5,5,9
4,6,3,2
4,6,5,1
4,7,1,2
4,7,4,9
4,7,7,1
5,0,2,9
5,0,3,2
5,0,5,8
5,0,6,4
5,3,0,2
5,3,1,4
5,3,7,6
5,3,8,3
5,4,0,7
5,4,8,9
5,5,0,6
5,5,1,9
5,5,7,7
5,5,8,4
5,8,2,2
5,8,3,8
5,8,5,9
5,8,6,6
6,0,3,6
6,0,5,9
6,1,1,6
6,1,4,5
6,1,7,9
6,3,3,3
6,3,5,8
6,5,3,4
6,5,5,1
6,7,1,1
6,7,4,3
6,7,7,6
6,8,3,1
6,8,5,6
7,0,2,3
7,0,6,9
7,2,3,8
7,2,4,9
7,2,5,6
7,4,1,6
7,4,2,8
7,4,3,2
7,4,5,4
7,4,6,5
7,4,7,9
7,6,3,3
7,6,4,7
7,6,5,5
7,8,2,6
7,8,6,7
8,0,1,9
8,0,2,2
8,0,6,6
8,0,7,5
8,1,1,4
8,1,4,6
8,1,7,1
8,2,1,3
8,2,7,8
8,3,0,6
8,3,8,5
8,4,0,2
8,4,2,9
8,4,3,8
8,4,5,7
8,4,6,4
8,4,8,1
8,5,0,7
8,5,8,8
8,6,1,7
8,6,7,3
8,7,1,6
8,7,4,8
8,7,7,9
8,8,1,2
8,8,2,1
8,8,6,8
8,8,7,4
