0,1,0,5
0,1,4,6
0,1,8,8
0,2,0,4
0,2,8,3
0,4,3,1
0,4,5,7
0,6,0,6
0,6,8,4
0,7,0,7
0,7,4,8
0,7,8,9
1,0,1,4
1,0,4,9
1,0,7,5
1,8,1,7
1,8,4,2
1,8,7,6
2,1,3,7
2,1,5,9
2,2,0,7
2,2,8,4
2,4,0,4
2,4,8,1
2,6,0,3
2,6,8,6
2,7,3,3
2,7,5,6
3,1,1,7
3,1,3,1
3,1,4,2
3,1,5,4
3,1,7,6
3,3,2,7
3,3,6,4
3,4,4,7
3,5,2,3
3,5,6,7
3,7,1,2
3,7,3,8
3,7,4,6
3,7,5,5
3,7,7,7
4,2,1,8
4,2,7,3
4,3,1,2
4,3,3,8
4,3,5,4
4,3,7,7
4,5,1,1
4,5,3,9
4,5,5,7
4,5,7,8
4,6,1,7
4,6,7,6
5,1,1,1
5,1,3,5
5,1,4,3
5,1,5,7
5,1,7,8
5,3,2,1
5,3,6,2
5,4,4,8
5,5,2,9
5,5,6,3
5,7,1,8
5,7,3,9
5,7,4,1
5,7,5,2
5,7,7,3
6,1,3,9
6,1,5,1
6,2,0,9
6,2,8,1
6,4,0,3
6,4,8,6
6,6,0,7
6,6,8,9
6,7,3,6
6,7,5,9
7,0,1,9
7,0,4,5
7,0,7,4
7,8,1,2
7,8,4,6
7,8,7,7
8,1,0,7
8,1,4,8
8,1,8,4
8,2,0,2
8,2,8,9
8,4,3,5
8,4,5,3
8,6,0,1
8,6,8,7
8,7,0,8
8,7,4,5
8,7,8,2
