0,1,0,7
0,1,3,2
0,1,5,8
0,1,8,6
0,4,0,8
0,4,1,4
0,4,7,9
0,4,8,3
0,7,0,2
0,7,3,3
0,7,5,6
0,7,8,5
1,0,2,1
1,0,6,9
1,2,1,7
1,2,2,3
1,2,6,6
1,2,7,1
1,3,0,9
1,3,8,7
1,4,0,7
1,4,3,4
1,4,4,9
1,4,5,3
1,4,8,6
1,5,0,6
1,5,8,9
1,6,1,4
1,6,2,7
1,6,6,2
1,6,7,6
1,8,2,9
1,8,6,5
2,0,0,3
2,0,8,1
2,3,4,5
2,4,1,9
2,4,2,3
2,4,6,7
2,4,7,1
2,5,4,4
2,8,0,6
2,8,8,9
3,0,1,7
3,0,2,3
3,0,4,2
3,0,6,6
3,0,7,1
3,2,3,1
3,2,5,6
3,4,3,9
3,4,5,4
3,6,3,2
3,6,5,8
3,8,1,8
3,8,2,4
3,8,4,9
3,8,6,3
3,8,7,2
4,1,0,9
4,1,8,7
4,2,3,2
4,2,5,8
4,6,3,6
4,6,5,4
4,7,0,8
4,7,8,3
5,0,1,4
5,0,2,9
5,0,4,1
5,0,6,2
5,0,7,7
5,2,3,7
5,2,5,4
5,4,3,2
5,4,5,8
5,6,3,1
5,6,5,9
5,8,1,9
5,8,2,1
5,8,4,4
5,8,6,7
5,8,7,8
6,0,0,4
6,0,8,2
6,3,4,9
6,4,1,8
6,4,2,4
6,4,6,3
6,4,7,2
6,5,4,6
6,8,0,8
6,8,8,3
7,0,2,5
7,0,6,1
7,2,1,8
7,2,2,4
7,2,6,3
7,2,7,2
7,3,0,8
7,3,8,3
7,4,0,3
7,4,3,6
7,4,4,8
7,4,5,2
7,4,8,1
7,5,0,1
7,5,8,8
7,6,1,9
7,6,2,1
7,6,6,7
7,6,7,8
7,8,2,3
7,8,6,9
8,1,0,8
8,1,3,6
8,1,5,5
8,1,8,3
8,4,0,2
8,4,1,7
8,4,7,8
8,4,8,5
8,7,0,6
8,7,3,2
8,7,5,8
8,7,8,9
