0,0,2,8
0,0,3,1
0,0,5,3
0,0,6,7
0,2,0,9
0,2,8,4
0,3,2,7
0,3,6,4
0,4,2,3
0,4,6,5
0,5,2,2
0,5,6,9
0,6,0,3
0,6,8,2
0,8,2,4
0,8,3,9
0,8,5,8
0,8,6,1
1,1,2,9
1,1,6,8
1,2,1,8
1,2,7,5
1,3,3,6
1,3,5,7
1,5,3,8
1,5,5,2
1,6,1,9
1,6,7,7
1,7,2,7
1,7,6,5
2,0,0,1
2,0,8,8
2,1,0,8
2,1,2,2
2,1,4,1
2,1,6,5
2,1,8,6
2,2,2,7
2,2,6,9
2,3,1,8
2,3,7,9
2,5,1,1
2,5,7,5
2,6,2,6
2,6,6,3
2,7,0,5
2,7,2,1
2,7,4,4
2,7,6,2
2,7,8,9
2,8,0,9
2,8,8,4
3,0,0,2
3,0,8,7
3,2,0,3
3,2,2,6
3,2,6,5
3,2,8,9
3,4,0,6
3,4,4,8
3,4,8,5
3,6,0,7
3,6,2,3
3,6,6,9
3,6,8,4
3,8,0,5
3,8,8,1
4,0,0,9
4,0,1,5
4,0,3,6
4,0,5,7
4,0,7,8
4,0,8,1
4,1,2,3
4,1,6,4
4,3,0,3
4,3,8,4
4,4,4,9
4,5,0,5
4,5,8,8
4,7,2,5
4,7,6,8
4,8,0,6
4,8,1,3
4,8,3,2
4,8,5,1
4,8,7,4
4,8,8,9
5,0,0,6
5,0,8,4
5,2,0,5
5,2,2,9
5,2,6,8
5,2,8,2
5,4,0,4
5,4,4,3
5,4,8,1
5,6,0,9
5,6,2,4
5,6,6,1
5,6,8,8
5,8,0,2
5,8,8,7
6,0,0,8
6,0,8,6
6,1,0,6
6,1,2,7
6,1,4,8
6,1,6,9
6,1,8,1
6,2,2,3
6,2,6,4
6,3,1,6
6,3,7,4
6,5,1,8
6,5,7,9
6,6,2,1
6,6,6,2
6,7,0,9
6,7,2,8
6,7,4,5
6,7,6,7
6,7,8,4
6,8,0,4
6,8,8,5
7,1,2,1
7,1,6,2
7,2,1,2
7,2,7,6
7,3,3,7
7,3,5,9
7,5,3,2
7,5,5,5
7,6,1,8
7,6,7,4
7,7,2,4
7,7,6,1
8,0,2,9
8,0,3,5
8,0,5,6
8,0,6,8
8,2,0,7
8,2,8,3
8,3,2,8
8,3,6,7
8,4,2,6
8,4,6,3
8,5,2,1
8,5,6,2
8,6,0,6
8,6,8,1
8,8,2,2
8,8,3,3
8,8,5,5
8,8,6,4
