0,1,1,5
0,1,3,6
0,1,5,3
0,1,7,2
0,3,2,8
0,3,6,2
0,5,2,7
0,5,6,6
0,7,1,1
0,7,3,5
0,7,5,7
0,7,7,3
1,2,2,5
1,2,6,8
1,3,0,7
1,3,1,4
1,3,7,6
1,3,8,1
1,4,2,9
1,4,6,4
1,5,0,1
1,5,1,3
1,5,7,9
1,5,8,8
1,6,2,7
1,6,6,2
2,0,4,3
2,2,1,2
2,2,7,7
2,3,0,6
2,3,3,4
2,3,5,7
2,3,8,9
2,4,4,9
2,5,0,9
2,5,3,3
2,5,5,1
2,5,8,2
2,6,1,4
2,6,7,6
2,8,4,1
3,0,0,2
3,0,8,6
3,1,2,5
3,1,6,8
3,2,1,7
3,2,7,5
3,3,4,1
3,4,2,6
3,4,4,7
3,4,6,5
3,5,4,8
3,6,1,6
3,6,7,7
3,7,2,1
3,7,6,6
3,8,0,5
3,8,8,9
4,1,0,9
4,1,8,3
4,3,4,4
4,4,3,3
4,4,5,1
4,5,4,2
4,7,0,8
4,7,8,7
5,0,0,1
5,0,8,8
5,1,2,6
5,1,6,5
5,2,1,9
5,2,7,6
5,3,4,9
5,4,2,7
5,4,4,5
5,4,6,6
5,5,4,3
5,6,1,1
5,6,7,3
5,7,2,5
5,7,6,1
5,8,0,6
5,8,8,4
6,0,4,5
6,2,1,6
6,2,7,1
6,3,0,9
6,3,3,3
6,3,5,1
6,3,8,2
6,4,4,2
6,5,0,2
6,5,3,5
6,5,5,8
6,5,8,6
6,6,1,3
6,6,7,9
6,8,4,8
7,2,2,9
7,2,6,4
7,3,0,4
7,3,1,2
7,3,7,1
7,3,8,3
7,4,2,8
7,4,6,2
7,5,0,3
7,5,1,6
7,5,7,8
7,5,8,5
7,6,2,5
7,6,6,1
8,1,1,7
8,1,3,4
8,1,5,8
8,1,7,5
8,3,2,6
8,3,6,5
8,5,2,9
8,5,6,4
8,7,1,9
8,7,3,8
8,7,5,6
8,7,7,1
