0,0,2,2
0,0,6,7
0,1,0,3
0,1,3,5
0,1,5,8
0,1,8,1
0,2,1,1
0,2,7,8
0,3,2,8
0,3,6,3
0,5,2,4
0,5,6,8
0,6,1,8
0,6,7,6
0,7,0,6
0,7,3,8
0,7,5,7
0,7,8,4
0,8,2,1
0,8,6,5
1,0,4,8
1,2,4,4
1,3,0,2
1,3,8,4
1,5,0,6
1,5,8,3
1,6,4,7
1,8,4,2
2,0,0,6
2,0,3,3
2,0,5,7
2,0,8,8
2,2,3,8
2,2,5,2
2,3,3,9
2,3,5,3
2,5,3,5
2,5,5,8
2,6,3,6
2,6,5,9
2,8,0,9
2,8,3,7
2,8,5,5
2,8,8,2
3,0,3,8
3,0,5,2
3,2,3,5
3,2,5,6
3,3,4,6
3,4,0,5
3,4,4,2
3,4,8,4
3,5,4,7
3,6,3,7
3,6,5,4
3,8,3,2
3,8,5,3
4,0,2,8
4,0,6,1
4,3,1,8
4,3,7,2
4,5,1,5
4,5,7,6
4,8,2,2
4,8,6,7
5,0,3,9
5,0,5,1
5,2,3,4
5,2,5,8
5,3,4,1
5,4,0,4
5,4,4,5
5,4,8,2
5,5,4,8
5,6,3,1
5,6,5,6
5,8,3,8
5,8,5,7
6,0,0,2
6,0,3,4
6,0,5,6
6,0,8,3
6,2,3,3
6,2,5,7
6,3,3,1
6,3,5,4
6,5,3,9
6,5,5,3
6,6,3,2
6,6,5,1
6,8,0,1
6,8,3,6
6,8,5,9
6,8,8,7
7,0,4,2
7,2,4,6
7,3,0,9
7,3,8,7
7,5,0,5
7,5,8,2
7,6,4,5
7,8,4,1
8,0,2,4
8,0,6,8
8,1,0,5
8,1,3,6
8,1,5,1
8,1,8,7
8,2,1,7
8,2,7,1
8,3,2,1
8,3,6,5
8,5,2,9
8,5,6,1
8,6,1,1
8,6,7,8
8,7,0,8
8,7,3,1
8,7,5,4
8,7,8,9
8,8,2,6
8,8,6,2
