0,0,2,3
0,0,6,7
0,2,0,4
0,2,8,8
0,3,2,4
0,3,3,7
0,3,5,6
0,3,6,8
0,5,2,2
0,5,3,1
0,5,5,3
0,5,6,9
0,6,0,7
0,6,8,9
0,8,2,1
0,8,6,6
1,0,0,6
1,0,2,2
1,0,6,9
1,0,8,4
1,1,2,4
1,1,3,7
1,1,5,6
1,1,6,1
1,2,0,8
1,2,8,7
1,3,3,5
1,3,5,9
1,5,3,2
1,5,5,7
1,6,0,4
1,6,8,1
1,7,2,8
1,7,3,4
1,7,5,5
1,7,6,7
1,8,0,2
1,8,2,7
1,8,6,4
1,8,8,5
2,0,0,5
2,0,1,4
2,0,4,6
2,0,7,3
2,0,8,1
2,1,1,1
2,1,7,7
2,2,3,1
2,2,5,3
2,4,0,4
2,4,4,7
2,4,8,3
2,6,3,9
2,6,5,4
2,7,1,7
2,7,7,5
2,8,0,9
2,8,1,5
2,8,4,2
2,8,7,1
2,8,8,8
3,0,1,5
3,0,7,8
3,1,2,6
3,1,6,5
3,4,2,9
3,4,6,3
3,7,2,1
3,7,6,6
3,8,1,9
3,8,7,3
4,0,1,1
4,0,4,4
4,0,7,7
4,2,4,1
4,4,0,8
4,4,2,1
4,4,6,7
4,4,8,6
4,6,4,6
4,8,1,8
4,8,4,5
4,8,7,6
5,0,1,6
5,0,7,9
5,1,2,1
5,1,6,2
5,4,2,2
5,4,6,9
5,7,2,4
5,7,6,3
5,8,1,2
5,8,7,4
6,0,0,4
6,0,1,9
6,0,4,7
6,0,7,1
6,0,8,8
6,1,1,8
6,1,7,2
6,2,3,8
6,2,5,1
6,4,0,9
6,4,4,2
6,4,8,1
6,6,3,5
6,6,5,9
6,7,1,2
6,7,7,4
6,8,0,5
6,8,1,4
6,8,4,6
6,8,7,8
6,8,8,3
7,0,0,8
7,0,2,1
7,0,6,2
7,0,8,7
7,1,2,2
7,1,3,3
7,1,5,8
7,1,6,9
7,2,0,9
7,2,8,3
7,3,3,2
7,3,5,7
7,5,3,8
7,5,5,1
7,6,0,2
7,6,8,5
7,7,2,5
7,7,3,6
7,7,5,2
7,7,6,8
7,8,0,3
7,8,2,8
7,8,6,7
7,8,8,6
8,0,2,6
8,0,6,5
8,2,0,3
8,2,8,2
8,3,2,1
8,3,3,4
8,3,5,5
8,3,6,7
8,5,2,5
8,5,3,6
8,5,5,2
8,5,6,1
8,6,0,9
8,6,8,8
8,8,2,2
8,8,6,9
