0,1,1,3
0,1,7,4
0,2,3,3
0,2,5,7
0,3,2,6
0,3,4,8
0,3,6,4
0,5,2,8
0,5,4,5
0,5,6,7
0,6,3,6
0,6,5,4
0,7,1,8
0,7,7,9
1,1,0,6
1,1,8,2
1,2,3,1
1,2,5,2
1,3,2,7
1,3,3,2
1,3,5,4
1,3,6,5
1,5,2,3
1,5,3,8
1,5,5,7
1,5,6,2
1,6,3,7
1,6,5,5
1,7,0,7
1,7,8,6
2,0,1,9
2,0,7,2
2,1,3,5
2,1,5,1
2,2,3,8
2,2,5,6
2,3,3,6
2,3,5,5
2,5,3,3
2,5,5,2
2,6,3,2
2,6,5,9
2,7,3,4
2,7,5,3
2,8,1,6
2,8,7,3
3,1,0,9
3,1,8,5
3,4,2,3
3,4,6,7
3,7,0,4
3,7,8,9
4,0,2,9
4,0,4,6
4,0,6,3
4,2,2,2
4,2,3,7
4,2,5,9
4,2,6,4
4,4,0,9
4,4,8,5
4,6,2,4
4,6,3,5
4,6,5,3
4,6,6,1
4,8,2,6
4,8,4,1
4,8,6,5
5,1,0,5
5,1,8,4
5,4,2,1
5,4,6,2
5,7,0,9
5,7,8,5
6,0,1,6
6,0,7,8
6,1,3,2
6,1,5,5
6,2,3,9
6,2,5,8
6,3,3,1
6,3,5,6
6,5,3,4
6,5,5,3
6,6,3,8
6,6,5,2
6,7,3,6
6,7,5,4
6,8,1,8
6,8,7,9
7,1,0,3
7,1,8,1
7,2,3,4
7,2,5,3
7,3,2,3
7,3,3,8
7,3,5,7
7,3,6,2
7,5,2,4
7,5,3,5
7,5,5,1
7,5,6,3
7,6,3,3
7,6,5,6
7,7,0,8
7,7,8,3
8,1,1,9
8,1,7,2
8,2,3,5
8,2,5,1
8,3,2,1
8,3,4,4
8,3,6,6
8,5,2,5
8,5,4,7
8,5,6,1
8,6,3,1
8,6,5,7
8,7,1,5
8,7,7,6
