0,0,0,1
0,0,8,4
0,2,3,4
0,2,5,1
0,3,0,5
0,3,3,3
0,3,5,9
0,3,8,6
0,4,3,6
0,4,5,5
0,5,0,9
0,5,3,2
0,5,5,4
0,5,8,3
0,6,3,8
0,6,5,2
0,8,0,3
0,8,8,8
1,0,2,9
1,0,6,5
1,1,3,7
1,1,5,6
1,2,1,7
1,2,7,3
1,3,4,2
1,4,0,8
1,4,8,4
1,5,4,6
1,6,1,3
1,6,7,5
1,7,3,2
1,7,5,9
1,8,2,8
1,8,6,7
2,0,0,4
2,0,3,2
2,0,5,5
2,0,8,3
2,3,4,5
2,5,4,9
2,8,0,7
2,8,3,9
2,8,5,8
2,8,8,4
3,0,4,1
3,1,0,6
3,1,1,9
3,1,2,1
3,1,4,7
3,1,6,8
3,1,7,3
3,1,8,5
3,2,0,2
3,2,8,4
3,3,2,2
3,3,6,6
3,5,2,6
3,5,6,3
3,6,0,1
3,6,8,3
3,7,0,7
3,7,1,2
3,7,2,9
3,7,4,4
3,7,6,5
3,7,7,1
3,7,8,6
3,8,4,9
4,0,0,7
4,0,3,3
4,0,4,9
4,0,5,8
4,0,8,6
4,1,1,3
4,1,2,4
4,1,6,9
4,1,7,7
4,2,0,1
4,2,8,3
4,3,4,7
4,4,0,2
4,4,3,5
4,4,4,8
4,4,5,3
4,4,8,9
4,5,4,1
4,6,0,5
4,6,8,7
4,7,1,1
4,7,2,6
4,7,6,3
4,7,7,9
4,8,0,9
4,8,3,8
4,8,4,3
4,8,5,4
4,8,8,1
5,0,4,2
5,1,0,5
5,1,1,7
5,1,2,2
5,1,4,3
5,1,6,6
5,1,7,4
5,1,8,1
5,2,0,4
5,2,8,7
5,3,2,9
5,3,6,5
5,5,2,4
5,5,6,9
5,6,0,2
5,6,8,5
5,7,0,3
5,7,1,5
5,7,2,8
5,7,4,1
5,7,6,7
5,7,7,2
5,7,8,4
5,8,4,7
6,0,0,8
6,0,3,4
6,0,5,1
6,0,8,5
6,3,4,8
6,5,4,7
6,8,0,2
6,8,3,1
6,8,5,3
6,8,8,7
7,0,2,1
7,0,6,8
7,1,3,2
7,1,5,5
7,2,1,2
7,2,7,5
7,3,4,9
7,4,0,3
7,4,8,8
7,5,4,4
7,6,1,5
7,6,7,1
7,7,3,5
7,7,5,1
7,8,2,3
7,8,6,2
8,0,0,6
8,0,8,1
8,2,3,7
8,2,5,6
8,3,0,1
8,3,3,5
8,3,5,7
8,3,8,9
8,4,3,4
8,4,5,8
8,5,0,8
8,5,3,9
8,5,5,1
8,5,8,4
8,6,3,3
8,6,5,5
8,8,0,5
8,8,8,3
