0,1,2,1
0,1,6,6
0,2,1,6
0,2,2,5
0,2,6,4
0,2,7,2
0,3,1,2
0,3,2,8
0,3,3,7
0,3,5,5
0,3,6,1
0,3,7,9
0,5,1,5
0,5,2,7
0,5,3,9
0,5,5,1
0,5,6,2
0,5,7,8
0,6,1,8
0,6,2,4
0,6,6,9
0,6,7,3
0,7,2,3
0,7,6,7
1,0,0,3
1,0,4,1
1,0,8,2
1,1,4,3
1,3,4,9
1,4,0,5
1,4,8,9
1,5,4,5
1,7,4,6
1,8,0,8
1,8,4,4
1,8,8,6
2,2,1,2
2,2,2,3
2,2,6,1
2,2,7,9
2,3,3,4
2,3,5,3
2,4,4,1
2,5,3,6
2,5,5,7
2,6,1,5
2,6,2,1
2,6,6,6
2,6,7,8
3,0,1,9
3,0,2,1
3,0,6,2
3,0,7,8
3,1,4,4
3,4,2,7
3,4,6,4
3,7,4,1
3,8,1,8
3,8,2,5
3,8,6,6
3,8,7,3
4,1,4,2
4,3,2,6
4,3,6,9
4,4,1,9
4,4,7,8
4,5,2,8
4,5,6,7
4,7,4,7
5,0,1,3
5,0,2,5
5,0,6,4
5,0,7,9
5,1,4,6
5,4,2,1
5,4,6,6
5,7,4,5
5,8,1,9
5,8,2,7
5,8,6,2
5,8,7,8
6,2,1,3
6,2,2,1
6,2,6,2
6,2,7,4
6,3,3,6
6,3,5,1
6,4,4,2
6,5,3,8
6,5,5,5
6,6,1,7
6,6,2,2
6,6,6,8
6,6,7,9
7,0,0,9
7,0,4,5
7,0,8,3
7,1,4,9
7,3,4,4
7,4,0,1
7,4,8,4
7,5,4,1
7,7,4,8
7,8,0,7
7,8,4,2
7,8,8,8
8,1,2,6
8,1,6,8
8,2,1,8
8,2,2,9
8,2,6,5
8,2,7,3
8,3,1,3
8,3,2,1
8,3,3,2
8,3,5,9
8,3,6,6
8,3,7,4
8,5,1,9
8,5,2,2
8,5,3,4
8,5,5,6
8,5,6,3
8,5,7,1
8,6,1,1
8,6,2,5
8,6,6,4
8,6,7,7
8,7,2,7
8,7,6,2
