0,1,1,1
0,1,2,2
0,1,6,4
0,1,7,9
0,7,1,5
0,7,2,1
0,7,6,3
0,7,7,2
1,0,4,3
1,1,0,4
1,1,8,5
1,2,4,8
1,3,3,3
1,3,5,5
1,4,0,5
1,4,4,4
1,4,8,8
1,5,3,8
1,5,5,6
1,6,4,6
1,7,0,3
1,7,8,4
1,8,4,9
2,1,1,7
2,1,7,1
2,2,1,4
2,2,7,8
2,4,3,5
2,4,5,7
2,6,1,1
2,6,7,6
2,7,1,8
2,7,7,5
3,0,1,8
3,0,7,6
3,1,2,4
3,1,3,7
3,1,5,6
3,1,6,9
3,2,3,8
3,2,5,2
3,3,0,7
3,3,8,4
3,4,2,2
3,4,3,4
3,4,5,5
3,4,6,6
3,5,0,5
3,5,8,9
3,6,3,6
3,6,5,8
3,7,2,7
3,7,3,2
3,7,5,9
3,7,6,5
3,8,1,2
3,8,7,8
4,0,3,2
4,0,5,9
4,8,3,9
4,8,5,1
5,0,1,4
5,0,7,8
5,1,2,6
5,1,3,9
5,1,5,8
5,1,6,1
5,2,3,4
5,2,5,5
5,3,0,9
5,3,8,6
5,4,2,5
5,4,3,6
5,4,5,1
5,4,6,3
5,5,0,1
5,5,8,8
5,6,3,1
5,6,5,2
5,7,2,9
5,7,3,5
5,7,5,3
5,7,6,8
5,8,1,5
5,8,7,2
6,1,1,6
6,1,7,4
6,2,1,5
6,2,7,2
6,4,3,8
6,4,5,6
6,6,1,2
6,6,7,8
6,7,1,7
6,7,7,3
7,0,4,7
7,1,0,5
7,1,8,1
7,2,4,2
7,3,3,2
7,3,5,8
7,4,0,8
7,4,4,5
7,4,8,4
7,5,3,4
7,5,5,1
7,6,4,8
7,7,0,4
7,7,8,5
7,8,4,1
8,1,1,4
8,1,2,9
8,1,6,5
8,1,7,8
8,7,1,3
8,7,2,2
8,7,6,4
8,7,7,9
