0,0,2,3
0,0,3,2
0,0,5,5
0,0,6,1
0,2,3,9
0,2,5,1
0,3,0,2
0,3,8,1
0,4,0,1
0,4,1,9
0,4,7,8
0,4,8,7
0,5,0,5
0,5,8,2
0,6,3,7
0,6,5,8
0,8,2,9
0,8,3,1
0,8,5,2
0,8,6,7
1,2,0,5
1,2,3,4
1,2,5,7
1,2,8,2
1,3,2,6
1,3,6,2
1,4,0,7
1,4,2,3
1,4,6,1
1,4,8,4
1,5,2,9
1,5,6,7
1,6,0,9
1,6,3,2
1,6,5,5
1,6,8,6
2,0,0,1
2,0,8,9
2,3,4,3
2,4,1,8
2,4,7,2
2,5,4,6
2,8,0,5
2,8,8,2
3,0,4,6
3,1,4,4
3,2,4,2
3,3,3,4
3,3,5,8
3,5,3,6
3,5,5,3
3,6,4,8
3,7,4,1
3,8,4,3
4,3,1,7
4,3,3,9
4,3,5,2
4,3,7,6
4,5,1,9
4,5,3,5
4,5,5,4
4,5,7,2
5,0,4,3
5,1,4,8
5,2,4,1
5,3,3,3
5,3,5,7
5,5,3,1
5,5,5,9
5,6,4,5
5,7,4,9
5,8,4,7
6,0,0,6
6,0,8,8
6,3,4,2
6,4,1,6
6,4,7,9
6,5,4,9
6,8,0,3
6,8,8,9
7,2,0,2
7,2,3,1
7,2,5,6
7,2,8,3
7,3,2,3
7,3,6,1
7,4,0,4
7,4,2,9
7,4,6,7
7,4,8,8
7,5,2,6
7,5,6,2
7,6,0,6
7,6,3,8
7,6,5,4
7,6,8,1
8,0,2,8
8,0,3,6
8,0,5,9
8,0,6,3
8,2,3,7
8,2,5,3
8,3,0,6
8,3,8,3
8,4,0,3
8,4,1,7
8,4,7,1
8,4,8,5
8,5,0,9
8,5,8,6
8,6,3,5
8,6,5,1
8,8,2,7
8,8,3,3
8,8,5,6
8,8,6,5
