0,0,0,6
0,0,8,2
0,2,2,7
0,2,6,3
0,6,2,3
0,6,6,4
0,8,0,4
0,8,8,9
1,0,0,2
1,0,2,8
1,0,3,1
1,0,5,4
1,0,6,5
1,0,8,7
1,3,1,5
1,3,7,1
1,5,1,1
1,5,7,6
1,8,0,9
1,8,2,2
1,8,3,6
1,8,5,1
1,8,6,3
1,8,8,5
2,1,3,4
2,1,5,7
2,3,4,6
2,5,4,4
2,7,3,5
2,7,5,6
3,1,3,1
3,1,5,9
3,2,2,5
3,2,6,2
3,3,2,7
3,3,3,6
3,3,5,1
3,3,6,3
3,4,1,9
3,4,2,1
3,4,6,4
3,4,7,8
3,5,2,4
3,5,3,9
3,5,5,2
3,5,6,7
3,6,2,6
3,6,6,8
3,7,3,8
3,7,5,4
4,2,3,5
4,2,5,2
4,3,1,1
4,3,7,7
4,5,1,2
4,5,7,9
4,6,3,7
4,6,5,8
5,1,3,8
5,1,5,5
5,2,2,4
5,2,6,6
5,3,2,2
5,3,3,7
5,3,5,8
5,3,6,1
5,4,1,5
5,4,2,8
5,4,6,9
5,4,7,3
5,5,2,9
5,5,3,5
5,5,5,6
5,5,6,2
5,6,2,7
5,6,6,3
5,7,3,3
5,7,5,9
6,1,3,2
6,1,5,1
6,3,4,3
6,5,4,2
6,7,3,7
6,7,5,3
7,0,0,1
7,0,2,4
7,0,3,5
7,0,5,7
7,0,6,2
7,0,8,8
7,3,1,7
7,3,7,5
7,5,1,5
7,5,7,1
7,8,0,6
7,8,2,1
7,8,3,3
7,8,5,5
7,8,6,9
7,8,8,2
8,0,0,8
8,0,8,3
8,2,2,3
8,2,6,4
8,6,2,4
8,6,6,2
8,8,0,7
8,8,8,6
