0,0,0,8
0,0,8,1
0,1,2,5
0,1,4,9
0,1,6,4
0,3,3,2
0,3,5,4
0,5,3,6
0,5,5,9
0,7,2,6
0,7,4,8
0,7,6,2
0,8,0,7
0,8,8,9
1,0,3,6
1,0,5,4
1,3,3,9
1,3,5,1
1,4,1,9
1,4,7,1
1,5,3,5
1,5,5,3
1,8,3,3
1,8,5,8
2,1,4,6
2,2,4,2
2,3,4,5
2,4,2,5
2,4,6,4
2,5,4,4
2,6,4,3
2,7,4,1
3,0,4,2
3,1,2,7
3,1,3,6
3,1,5,4
3,1,6,2
3,2,1,8
3,2,3,3
3,2,5,5
3,2,7,9
3,3,4,8
3,5,4,3
3,6,1,1
3,6,3,2
3,6,5,8
3,6,7,3
3,7,2,4
3,7,3,1
3,7,5,6
3,7,6,9
3,8,4,9
4,3,4,1
4,4,3,3
4,4,4,7
4,4,5,4
4,5,4,2
5,0,4,3
5,1,2,6
5,1,3,9
5,1,5,2
5,1,6,3
5,2,1,9
5,2,3,4
5,2,5,1
5,2,7,2
5,3,4,4
5,5,4,9
5,6,1,8
5,6,3,3
5,6,5,9
5,6,7,4
5,7,2,1
5,7,3,8
5,7,5,4
5,7,6,7
5,8,4,1
6,1,4,4
6,2,4,5
6,3,4,3
6,4,2,7
6,4,6,3
6,5,4,7
6,6,4,8
6,7,4,6
7,0,3,2
7,0,5,5
7,3,3,4
7,3,5,7
7,4,1,4
7,4,7,7
7,5,3,9
7,5,5,1
7,8,3,1
7,8,5,6
8,0,0,7
8,0,8,5
8,1,2,8
8,1,4,2
8,1,6,6
8,3,3,1
8,3,5,6
8,5,3,3
8,5,5,8
8,7,2,3
8,7,4,7
8,7,6,1
8,8,0,9
8,8,8,2
