0,0,2,5
0,0,6,4
0,1,4,4
0,2,0,6
0,2,8,1
0,4,4,6
0,6,0,4
0,6,8,6
0,7,4,8
0,8,2,3
0,8,6,8
1,1,0,8
1,1,1,4
1,1,2,6
1,1,6,2
1,1,7,1
1,1,8,9
1,2,4,6
1,3,3,6
1,3,5,5
1,5,3,7
1,5,5,4
1,6,4,9
1,7,0,2
1,7,1,3
1,7,2,9
1,7,6,5
1,7,7,7
1,7,8,8
2,0,1,6
2,0,7,9
2,2,0,9
2,2,8,6
2,3,1,1
2,3,3,8
2,3,5,2
2,3,7,6
2,5,1,8
2,5,3,3
2,5,5,6
2,5,7,7
2,6,0,3
2,6,8,5
2,8,1,5
2,8,7,3
3,2,4,8
3,3,0,1
3,3,2,7
3,3,6,6
3,3,8,4
3,4,2,6
3,4,6,2
3,5,0,8
3,5,2,2
3,5,6,7
3,5,8,9
3,6,4,5
4,1,0,3
4,1,8,5
4,7,0,4
4,7,8,6
5,2,4,4
5,3,0,9
5,3,2,3
5,3,6,8
5,3,8,2
5,4,2,8
5,4,6,1
5,5,0,5
5,5,2,1
5,5,6,3
5,5,8,6
5,6,4,7
6,0,1,2
6,0,7,4
6,2,0,4
6,2,8,2
6,3,1,3
6,3,3,1
6,3,5,7
6,3,7,2
6,5,1,1
6,5,3,8
6,5,5,2
6,5,7,6
6,6,0,8
6,6,8,9
6,8,1,9
6,8,7,8
7,1,0,6
7,1,1,8
7,1,2,4
7,1,6,9
7,1,7,2
7,1,8,1
7,2,4,9
7,3,3,5
7,3,5,3
7,5,3,4
7,5,5,1
7,6,4,8
7,7,0,9
7,7,1,2
7,7,2,3
7,7,6,8
7,7,7,5
7,7,8,7
8,0,2,6
8,0,6,2
8,1,4,6
8,2,0,3
8,2,8,5
8,4,4,1
8,6,0,2
8,6,8,8
8,7,4,5
8,8,2,5
8,8,6,4
