0,1,2,8
0,1,6,1
0,2,1,3
0,2,7,2
0,3,3,7
0,3,5,9
0,4,3,3
0,4,4,5
0,4,5,2
0,5,3,4
0,5,5,1
0,6,1,1
0,6,7,7
0,7,2,6
0,7,6,2
1,2,0,9
1,2,2,1
1,2,6,3
1,2,8,6
1,3,2,7
1,3,6,6
1,4,2,3
1,4,6,8
1,5,2,4
1,5,6,5
1,6,0,4
1,6,2,8
1,6,6,1
1,6,8,2
2,2,1,5
2,2,2,2
2,2,6,7
2,2,7,1
2,6,1,9
2,6,2,7
2,6,6,6
2,6,7,8
3,2,3,3
3,2,5,4
3,3,0,9
3,3,8,6
3,4,1,6
3,4,4,3
3,4,7,5
3,5,0,5
3,5,8,7
3,6,3,2
3,6,5,3
4,0,4,3
4,1,4,8
4,2,2,3
4,2,4,1
4,2,6,8
4,4,0,3
4,4,1,9
4,4,2,7
4,4,6,6
4,4,7,8
4,4,8,2
4,6,2,2
4,6,4,9
4,6,6,5
4,7,4,2
4,8,4,5
5,2,3,9
5,2,5,8
5,3,0,6
5,3,8,1
5,4,1,1
5,4,4,2
5,4,7,7
5,5,0,7
5,5,8,8
5,6,3,4
5,6,5,5
6,2,1,6
6,2,2,8
6,2,6,1
6,2,7,5
6,6,1,2
6,6,2,3
6,6,6,8
6,6,7,9
7,2,0,3
7,2,2,7
7,2,6,6
7,2,8,4
7,3,2,9
7,3,6,4
7,4,2,2
7,4,6,7
7,5,2,3
7,5,6,8
7,6,0,1
7,6,2,6
7,6,6,2
7,6,8,5
8,1,2,3
8,1,6,8
8,2,1,1
8,2,7,7
8,3,3,6
8,3,5,4
8,4,3,1
8,4,4,9
8,4,5,7
8,5,3,5
8,5,5,8
8,6,1,8
8,6,7,6
8,7,2,2
8,7,6,7
