0,0,3,8
0,0,4,2
0,0,5,9
0,1,3,3
0,1,4,7
0,1,5,5
0,3,3,2
0,3,5,3
0,5,3,6
0,5,5,8
0,7,3,9
0,7,4,8
0,7,5,7
0,8,3,5
0,8,4,3
0,8,5,6
1,2,3,2
1,2,5,8
1,3,1,5
1,3,7,2
1,4,0,2
1,4,8,5
1,5,1,9
1,5,7,6
1,6,3,8
1,6,5,9
2,1,2,1
2,1,3,9
2,1,5,2
2,1,6,3
2,2,3,5
2,2,4,3
2,2,5,7
2,3,0,4
2,3,1,1
2,3,3,8
2,3,5,9
2,3,7,5
2,3,8,3
2,5,0,5
2,5,1,3
2,5,3,1
2,5,5,4
2,5,7,9
2,5,8,8
2,6,3,6
2,6,4,5
2,6,5,3
2,7,2,5
2,7,3,2
2,7,5,1
2,7,6,9
3,0,4,4
3,2,4,2
3,3,0,2
3,3,8,1
3,4,2,6
3,4,3,5
3,4,5,4
3,4,6,2
3,5,0,8
3,5,8,6
3,6,4,6
3,8,4,5
4,1,2,4
4,1,3,2
4,1,4,3
4,1,5,8
4,1,6,1
4,3,3,7
4,3,5,5
4,4,1,3
4,4,7,6
4,5,3,8
4,5,5,3
4,7,2,7
4,7,3,5
4,7,4,2
4,7,5,4
4,7,6,6
5,0,4,8
5,2,4,1
5,3,0,3
5,3,8,5
5,4,2,4
5,4,3,6
5,4,5,8
5,4,6,1
5,5,0,6
5,5,8,3
5,6,4,4
5,8,4,7
6,1,2,9
6,1,3,7
6,1,5,3
6,1,6,4
6,2,3,6
6,2,4,4
6,2,5,1
6,3,0,7
6,3,1,9
6,3,3,5
6,3,5,2
6,3,7,6
6,3,8,4
6,5,0,2
6,5,1,4
6,5,3,9
6,5,5,6
6,5,7,7
6,5,8,5
6,6,3,1
6,6,4,2
6,6,5,4
6,7,2,6
6,7,3,8
6,7,5,9
6,7,6,2
7,2,3,3
7,2,5,5
7,3,1,2
7,3,7,3
7,4,0,8
7,4,8,6
7,5,1,6
7,5,7,8
7,6,3,5
7,6,5,6
8,0,3,5
8,0,4,3
8,0,5,7
8,1,3,4
8,1,4,1
8,1,5,6
8,3,3,1
8,3,5,4
8,5,3,3
8,5,5,5
8,7,3,6
8,7,4,5
8,7,5,3
8,8,3,2
8,8,4,4
8,8,5,1
