0,0,0,5
0,0,2,2
0,0,6,8
0,0,8,9
0,1,1,6
0,1,7,2
0,2,3,2
0,2,5,7
0,3,3,4
0,3,4,7
0,3,5,2
0,5,3,9
0,5,4,8
0,5,5,1
0,6,3,8
0,6,5,4
0,7,1,9
0,7,7,6
0,8,0,2
0,8,2,7
0,8,6,5
0,8,8,1
1,0,2,8
1,0,3,7
1,0,5,9
1,0,6,5
1,1,0,2
1,1,3,6
1,1,5,4
1,1,8,1
1,2,1,9
1,2,7,7
1,6,1,2
1,6,7,5
1,7,0,6
1,7,3,4
1,7,5,1
1,7,8,7
1,8,2,9
1,8,3,5
1,8,5,2
1,8,6,3
2,1,2,4
2,1,6,3
2,3,3,6
2,3,5,5
2,5,3,7
2,5,5,4
2,7,2,2
2,7,6,8
3,1,0,5
3,1,8,7
3,2,0,2
3,2,8,6
3,3,0,6
3,3,4,2
3,3,8,4
3,4,4,3
3,5,0,7
3,5,4,4
3,5,8,8
3,6,0,8
3,6,8,9
3,7,0,9
3,7,8,2
4,0,0,7
4,0,1,2
4,0,7,3
4,0,8,8
4,1,4,2
4,2,2,4
4,2,6,7
4,3,1,7
4,3,4,5
4,3,7,6
4,4,1,6
4,4,3,1
4,4,5,2
4,4,7,9
4,5,1,4
4,5,4,6
4,5,7,7
4,6,2,7
4,6,6,3
4,7,4,1
4,8,0,4
4,8,1,9
4,8,7,1
4,8,8,7
5,1,0,1
5,1,8,3
5,2,0,8
5,2,8,4
5,3,0,9
5,3,4,8
5,3,8,7
5,4,4,9
5,5,0,3
5,5,4,1
5,5,8,9
5,6,0,5
5,6,8,1
5,7,0,7
5,7,8,8
6,1,2,6
6,1,6,4
6,3,3,2
6,3,5,7
6,5,3,1
6,5,5,8
6,7,2,9
6,7,6,3
7,0,2,3
7,0,3,1
7,0,5,8
7,0,6,7
7,1,0,4
7,1,3,2
7,1,5,7
7,1,8,5
7,2,1,7
7,2,7,1
7,6,1,9
7,6,7,6
7,7,0,2
7,7,3,6
7,7,5,9
7,7,8,1
7,8,2,6
7,8,3,8
7,8,5,4
7,8,6,9
8,0,0,8
8,0,2,4
8,0,6,3
8,0,8,6
8,1,1,2
8,1,7,9
8,2,3,5
8,2,5,1
8,3,3,8
8,3,4,1
8,3,5,9
8,5,3,6
8,5,4,3
8,5,5,5
8,6,3,3
8,6,5,6
8,7,1,6
8,7,7,2
8,8,0,9
8,8,2,1
8,8,6,6
8,8,8,4
