0,0,1,8
0,0,7,1
0,1,3,4
0,1,5,6
0,2,1,1
0,2,7,3
0,3,2,9
0,3,3,8
0,3,4,7
0,3,5,5
0,3,6,3
0,4,0,8
0,4,8,9
0,5,2,4
0,5,3,1
0,5,4,6
0,5,5,9
0,5,6,8
0,6,1,9
0,6,7,4
0,7,3,7
0,7,5,8
0,8,1,4
0,8,7,5
1,0,2,5
1,0,6,8
1,1,1,2
1,1,7,6
1,2,4,2
1,4,0,7
1,4,2,3
1,4,6,2
1,4,8,8
1,6,4,8
1,7,1,8
1,7,7,1
1,8,2,7
1,8,6,4
2,2,3,6
2,2,5,1
2,4,0,9
2,4,8,6
2,6,3,3
2,6,5,9
3,0,1,2
3,0,7,4
3,2,0,9
3,2,8,3
3,4,4,5
3,6,0,2
3,6,8,4
3,8,1,9
3,8,7,3
4,0,1,9
4,0,4,7
4,0,7,8
4,1,2,2
4,1,4,8
4,1,6,5
4,2,0,3
4,2,2,1
4,2,6,6
4,2,8,7
4,3,2,5
4,3,3,6
4,3,5,7
4,3,6,1
4,4,0,2
4,4,1,7
4,4,7,4
4,4,8,5
4,5,2,8
4,5,3,9
4,5,5,5
4,5,6,7
4,6,0,4
4,6,2,9
4,6,6,8
4,6,8,3
4,7,2,7
4,7,4,1
4,7,6,4
4,8,1,1
4,8,4,5
4,8,7,7
5,0,1,3
5,0,7,6
5,2,0,2
5,2,8,9
5,4,4,6
5,6,0,3
5,6,8,7
5,8,1,6
5,8,7,4
6,2,3,4
6,2,5,6
6,4,0,1
6,4,8,4
6,6,3,2
6,6,5,3
7,0,2,9
7,0,6,1
7,1,1,7
7,1,7,2
7,2,4,7
7,4,0,6
7,4,2,8
7,4,6,7
7,4,8,1
7,6,4,1
7,7,1,1
7,7,7,3
7,8,2,6
7,8,6,5
8,0,1,5
8,0,7,9
8,1,3,7
8,1,5,8
8,2,1,9
8,2,7,4
8,3,2,6
8,3,3,4
8,3,4,3
8,3,5,2
8,3,6,9
8,4,0,4
8,4,8,2
8,5,2,2
8,5,3,5
8,5,4,8
8,5,5,7
8,5,6,4
8,6,1,2
8,6,7,6
8,7,3,3
8,7,5,9
8,8,1,7
8,8,7,2
