0,0,1,9
0,0,7,8
0,1,1,7
0,1,7,1
0,3,2,7
0,3,6,9
0,5,2,9
0,5,6,2
0,7,1,6
0,7,7,2
0,8,1,4
0,8,7,9
1,1,3,1
1,1,4,7
1,1,5,4
1,3,0,9
1,3,1,6
1,3,2,8
1,3,6,1
1,3,7,2
1,3,8,5
1,5,0,2
1,5,1,5
1,5,2,3
1,5,6,8
1,5,7,7
1,5,8,4
1,7,3,9
1,7,4,6
1,7,5,3
2,3,4,6
2,5,4,5
3,1,0,7
3,1,8,6
3,2,3,6
3,2,5,4
3,6,3,3
3,6,5,6
3,7,0,6
3,7,8,3
4,0,0,9
4,0,8,1
4,1,2,2
4,1,3,8
4,1,5,6
4,1,6,7
4,2,2,4
4,2,6,2
4,3,3,6
4,3,5,4
4,5,3,5
4,5,5,2
4,6,2,6
4,6,6,5
4,7,2,9
4,7,3,2
4,7,5,1
4,7,6,6
4,8,0,8
4,8,8,7
5,1,0,3
5,1,8,2
5,2,3,2
5,2,5,3
5,6,3,5
5,6,5,2
5,7,0,2
5,7,8,9
6,3,4,8
6,5,4,3
7,1,3,9
7,1,4,6
7,1,5,8
7,3,0,5
7,3,1,3
7,3,2,2
7,3,6,7
7,3,7,4
7,3,8,8
7,5,0,4
7,5,1,1
7,5,2,7
7,5,6,9
7,5,7,6
7,5,8,3
7,7,3,5
7,7,4,1
7,7,5,2
8,0,1,5
8,0,7,7
8,1,1,6
8,1,7,2
8,3,2,6
8,3,6,5
8,5,2,5
8,5,6,4
8,7,1,8
8,7,7,4
8,8,1,1
8,8,7,5
