0,0,2,1
0,0,6,6
0,1,2,2
0,1,4,9
0,1,6,8
0,2,2,8
0,2,6,5
0,3,2,7
0,3,6,4
0,4,2,4
0,4,6,9
0,5,2,5
0,5,6,2
0,6,2,3
0,6,6,1
0,7,2,9
0,7,4,3
0,7,6,7
0,8,2,6
0,8,6,3
1,0,0,5
1,0,8,8
1,3,0,2
1,3,1,4
1,3,7,3
1,3,8,9
1,5,0,9
1,5,1,7
1,5,7,6
1,5,8,4
1,8,0,7
1,8,8,1
2,0,3,3
2,0,5,7
2,1,4,2
2,2,0,2
2,2,8,1
2,4,1,8
2,4,2,9
2,4,6,6
2,4,7,4
2,6,0,6
2,6,8,9
2,7,4,9
2,8,3,1
2,8,5,3
3,0,0,3
3,0,1,7
3,0,7,6
3,0,8,5
3,1,3,6
3,1,5,3
3,2,2,6
3,2,4,8
3,2,6,1
3,3,2,4
3,3,6,6
3,4,1,3
3,4,7,8
3,5,2,1
3,5,6,4
3,6,2,7
3,6,4,3
3,6,6,9
3,7,3,8
3,7,5,9
3,8,0,6
3,8,1,9
3,8,7,5
3,8,8,8
4,0,3,7
4,0,5,8
4,1,0,9
4,1,8,6
4,3,1,8
4,3,7,4
4,5,1,9
4,5,7,5
4,7,0,7
4,7,8,4
4,8,3,9
4,8,5,6
5,0,0,1
5,0,1,8
5,0,7,4
5,0,8,7
5,1,3,8
5,1,5,9
5,2,2,3
5,2,4,1
5,2,6,6
5,3,2,9
5,3,6,8
5,4,1,1
5,4,7,9
5,5,2,7
5,5,6,1
5,6,2,4
5,6,4,9
5,6,6,7
5,7,3,1
5,7,5,7
5,8,0,8
5,8,1,7
5,8,7,6
5,8,8,9
6,0,3,1
6,0,5,3
6,1,4,8
6,2,0,3
6,2,8,7
6,4,1,9
6,4,2,7
6,4,6,4
6,4,7,5
6,6,0,4
6,6,8,2
6,7,4,2
6,8,3,6
6,8,5,1
7,0,0,4
7,0,8,6
7,3,0,9
7,3,1,7
7,3,7,6
7,3,8,4
7,5,0,3
7,5,1,5
7,5,7,1
7,5,8,2
7,8,0,1
7,8,8,3
8,0,2,5
8,0,6,7
8,1,2,6
8,1,4,1
8,1,6,4
8,2,2,4
8,2,6,9
8,3,2,2
8,3,6,3
8,4,2,3
8,4,6,1
8,5,2,9
8,5,6,6
8,6,2,8
8,6,6,5
8,7,2,1
8,7,4,8
8,7,6,2
8,8,2,7
8,8,6,8
