0,0,2,8
0,0,6,3
0,1,2,3
0,1,3,9
0,1,5,7
0,1,6,1
0,4,0,5
0,4,3,1
0,4,4,7
0,4,5,4
0,4,8,3
0,7,2,9
0,7,3,7
0,7,5,3
0,7,6,4
0,8,2,5
0,8,6,9
1,1,1,7
1,1,7,3
1,2,1,6
1,2,2,4
1,2,4,9
1,2,6,5
1,2,7,1
1,4,0,7
1,4,3,5
1,4,5,2
1,4,8,4
1,6,1,8
1,6,2,2
1,6,4,6
1,6,6,7
1,6,7,9
1,7,1,3
1,7,7,5
2,0,2,6
2,0,6,2
2,1,0,9
2,1,2,2
2,1,6,7
2,1,8,8
2,3,1,6
2,3,4,4
2,3,7,3
2,4,1,2
2,4,7,1
2,5,1,7
2,5,4,5
2,5,7,8
2,7,0,2
2,7,2,8
2,7,6,3
2,7,8,9
2,8,2,3
2,8,6,1
3,3,0,4
3,3,2,8
3,3,4,1
3,3,6,3
3,3,8,6
3,4,1,6
3,4,7,4
3,5,0,5
3,5,2,1
3,5,4,3
3,5,6,8
3,5,8,7
4,1,1,2
4,1,2,8
4,1,3,6
4,1,5,9
4,1,6,3
4,1,7,5
4,2,3,2
4,2,5,5
4,3,2,9
4,3,6,4
4,5,2,4
4,5,6,5
4,6,3,9
4,6,5,1
4,7,1,9
4,7,2,2
4,7,3,5
4,7,5,8
4,7,6,7
4,7,7,1
5,3,0,1
5,3,2,2
5,3,4,6
5,3,6,7
5,3,8,9
5,4,1,4
5,4,7,3
5,5,0,3
5,5,2,6
5,5,4,7
5,5,6,2
5,5,8,4
6,0,2,3
6,0,6,1
6,1,0,2
6,1,2,1
6,1,6,8
6,1,8,4
6,3,1,8
6,3,4,7
6,3,7,9
6,4,1,3
6,4,7,5
6,5,1,1
6,5,4,2
6,5,7,4
6,7,0,8
6,7,2,5
6,7,6,9
6,7,8,7
6,8,2,4
6,8,6,5
7,1,1,6
7,1,7,1
7,2,1,2
7,2,2,9
7,2,4,5
7,2,6,4
7,2,7,8
7,4,0,6
7,4,3,4
7,4,5,7
7,4,8,9
7,6,1,3
7,6,2,7
7,6,4,2
7,6,6,6
7,6,7,5
7,7,1,1
7,7,7,4
8,0,2,2
8,0,6,7
8,1,2,7
8,1,3,1
8,1,5,4
8,1,6,6
8,4,0,1
8,4,3,2
8,4,4,5
8,4,5,3
8,4,8,6
8,7,2,3
8,7,3,9
8,7,5,2
8,7,6,1
8,8,2,1
8,8,6,8
