0,0,1,8
0,0,3,5
0,0,5,4
0,0,7,6
0,1,2,6
0,1,3,3
0,1,5,8
0,1,6,9
0,3,2,2
0,3,6,4
0,4,4,7
0,5,2,8
0,5,6,6
0,7,2,1
0,7,3,4
0,7,5,9
0,7,6,2
0,8,1,2
0,8,3,1
0,8,5,3
0,8,7,9
1,0,1,6
1,0,7,5
1,3,3,7
1,3,5,2
1,5,3,3
1,5,5,8
1,8,1,5
1,8,7,8
2,0,1,4
2,0,2,5
2,0,6,1
2,0,7,8
2,4,2,6
2,4,6,9
2,8,1,8
2,8,2,3
2,8,6,6
2,8,7,2
3,2,4,5
3,3,2,8
3,3,6,3
3,5,2,6
3,5,6,2
3,6,4,4
4,2,1,9
4,2,2,6
4,2,6,2
4,2,7,1
4,3,2,9
4,3,6,5
4,4,4,6
4,5,2,3
4,5,6,1
4,6,1,5
4,6,2,7
4,6,6,6
4,6,7,8
5,2,4,1
5,3,2,7
5,3,6,6
5,5,2,4
5,5,6,9
5,6,4,8
6,0,1,7
6,0,2,6
6,0,6,9
6,0,7,4
6,4,2,8
6,4,6,6
6,8,1,4
6,8,2,5
6,8,6,3
6,8,7,1
7,0,1,1
7,0,7,7
7,3,3,1
7,3,5,3
7,5,3,5
7,5,5,4
7,8,1,6
7,8,7,5
8,0,1,9
8,0,3,2
8,0,5,6
8,0,7,1
8,1,2,1
8,1,3,9
8,1,5,5
8,1,6,6
8,3,2,3
8,3,6,2
8,4,4,1
8,5,2,5
8,5,6,8
8,7,2,9
8,7,3,6
8,7,5,7
8,7,6,1
8,8,1,1
8,8,3,5
8,8,5,4
8,8,7,6
