0,0,2,5
0,0,6,1
0,1,1,6
0,1,4,3
0,1,7,5
0,3,2,1
0,3,6,4
0,5,2,7
0,5,6,5
0,7,1,8
0,7,4,5
0,7,7,6
0,8,2,2
0,8,6,8
1,0,1,3
1,0,3,2
1,0,4,5
1,0,5,9
1,0,7,6
1,1,0,5
1,1,8,8
1,2,2,6
1,2,6,9
1,3,3,3
1,3,4,1
1,3,5,8
1,4,0,1
1,4,8,7
1,5,3,4
1,5,4,7
1,5,5,6
1,6,2,9
1,6,6,1
1,7,0,6
1,7,8,2
1,8,1,1
1,8,3,9
1,8,4,2
1,8,5,5
1,8,7,7
2,3,1,9
2,3,7,8
2,5,1,1
2,5,7,6
3,1,3,3
3,1,5,6
3,2,2,3
3,2,6,2
3,4,1,9
3,4,7,5
3,6,2,4
3,6,6,8
3,7,3,7
3,7,5,8
4,0,2,9
4,0,6,8
4,1,2,7
4,1,6,1
4,3,3,1
4,3,5,6
4,5,3,8
4,5,5,2
4,7,2,6
4,7,6,9
4,8,2,5
4,8,6,7
5,1,3,2
5,1,5,9
5,2,2,2
5,2,6,4
5,4,1,3
5,4,7,7
5,6,2,8
5,6,6,2
5,7,3,3
5,7,5,2
6,3,1,5
6,3,7,1
6,5,1,3
6,5,7,7
7,0,1,9
7,0,3,6
7,0,4,4
7,0,5,7
7,0,7,1
7,1,0,4
7,1,8,5
7,2,2,1
7,2,6,7
7,3,3,5
7,3,4,9
7,3,5,2
7,4,0,9
7,4,8,1
7,5,3,3
7,5,4,1
7,5,5,8
7,6,2,7
7,6,6,5
7,7,0,3
7,7,8,6
7,8,1,5
7,8,3,7
7,8,4,6
7,8,5,4
7,8,7,8
8,0,2,3
8,0,6,4
8,1,1,5
8,1,4,6
8,1,7,3
8,3,2,6
8,3,6,9
8,5,2,2
8,5,6,1
8,7,1,6
8,7,4,8
8,7,7,5
8,8,2,1
8,8,6,6
