0,0,1,3
0,0,7,7
0,1,2,6
0,1,6,8
0,2,3,3
0,2,5,1
0,3,1,9
0,3,4,3
0,3,7,5
0,5,1,2
0,5,4,7
0,5,7,8
0,6,3,9
0,6,5,7
0,7,2,9
0,7,6,6
0,8,1,8
0,8,7,9
1,0,3,1
1,0,4,3
1,0,5,8
1,2,2,5
1,2,6,3
1,3,3,9
1,3,5,7
1,5,3,2
1,5,5,6
1,6,2,8
1,6,6,4
1,8,3,3
1,8,4,8
1,8,5,1
2,0,4,4
2,1,0,4
2,1,8,5
2,2,0,3
2,2,8,4
2,3,2,8
2,3,3,6
2,3,5,5
2,3,6,4
2,4,1,5
2,4,7,1
2,5,2,7
2,5,3,3
2,5,5,1
2,5,6,5
2,6,0,7
2,6,8,6
2,7,0,8
2,7,8,7
2,8,4,7
3,1,1,9
3,1,3,1
3,1,5,7
3,1,7,3
3,2,0,2
3,2,8,5
3,3,2,7
3,3,6,5
3,5,2,9
3,5,6,6
3,6,0,9
3,6,8,4
3,7,1,3
3,7,3,6
3,7,5,8
3,7,7,5
4,1,4,3
4,2,1,5
4,2,7,4
4,3,3,2
4,3,4,7
4,3,5,1
4,4,1,3
4,4,3,6
4,4,5,8
4,4,7,5
4,5,3,5
4,5,4,9
4,5,5,3
4,6,1,4
4,6,7,8
4,7,4,2
5,1,1,3
5,1,3,6
5,1,5,8
5,1,7,5
5,2,0,4
5,2,8,7
5,3,2,1
5,3,6,7
5,5,2,3
5,5,6,9
5,6,0,3
5,6,8,1
5,7,1,6
5,7,3,9
5,7,5,5
5,7,7,7
6,0,4,6
6,1,0,6
6,1,8,1
6,2,0,7
6,2,8,6
6,3,2,9
6,3,3,8
6,3,5,3
6,3,6,6
6,4,1,8
6,4,7,9
6,5,2,2
6,5,3,9
6,5,5,7
6,5,6,1
6,6,0,2
6,6,8,3
6,7,0,9
6,7,8,2
6,8,4,2
7,0,3,7
7,0,4,9
7,0,5,4
7,2,2,8
7,2,6,4
7,3,3,5
7,3,5,2
7,5,3,1
7,5,5,8
7,6,2,9
7,6,6,6
7,8,3,9
7,8,4,4
7,8,5,7
8,0,1,7
8,0,7,2
8,1,2,1
8,1,6,7
8,2,3,9
8,2,5,7
8,3,1,5
8,3,4,9
8,3,7,1
8,5,1,3
8,5,4,2
8,5,7,7
8,6,3,5
8,6,5,2
8,7,2,5
8,7,6,3
8,8,1,9
8,8,7,5
