0,0,0,5
0,0,2,3
0,0,6,1
0,0,8,2
0,1,0,9
0,1,4,3
0,1,8,7
0,2,3,7
0,2,4,1
0,2,5,5
0,3,1,1
0,3,7,7
0,4,2,9
0,4,4,4
0,4,6,5
0,5,1,3
0,5,7,2
0,6,3,9
0,6,4,7
0,6,5,1
0,7,0,3
0,7,4,6
0,7,8,5
0,8,0,1
0,8,2,6
0,8,6,7
0,8,8,9
1,0,0,8
1,0,2,2
1,0,6,6
1,0,8,9
1,1,1,5
1,1,4,6
1,1,7,1
1,2,4,2
1,6,4,5
1,7,1,8
1,7,4,9
1,7,7,6
1,8,0,7
1,8,2,9
1,8,6,5
1,8,8,1
2,0,3,3
2,0,5,2
2,1,3,1
2,1,5,7
2,7,3,2
2,7,5,5
2,8,3,7
2,8,5,9
3,0,0,9
3,0,8,7
3,1,1,2
3,1,7,9
3,3,0,2
3,3,4,4
3,3,8,3
3,4,0,7
3,4,8,1
3,5,0,6
3,5,4,9
3,5,8,8
3,7,1,4
3,7,7,8
3,8,0,8
3,8,8,4
4,1,1,3
4,1,3,8
4,1,4,9
4,1,5,6
4,1,7,2
4,2,0,6
4,2,1,1
4,2,7,7
4,2,8,8
4,4,1,5
4,4,7,8
4,6,0,4
4,6,1,6
4,6,7,9
4,6,8,7
4,7,1,2
4,7,3,7
4,7,4,1
4,7,5,9
4,7,7,4
5,0,0,3
5,0,8,4
5,1,1,9
5,1,7,8
5,3,0,5
5,3,4,3
5,3,8,7
5,4,0,9
5,4,8,6
5,5,0,4
5,5,4,8
5,5,8,2
5,7,1,3
5,7,7,2
5,8,0,6
5,8,8,8
6,0,3,7
6,0,5,5
6,1,3,6
6,1,5,9
6,7,3,9
6,7,5,1
6,8,3,4
6,8,5,8
7,0,0,7
7,0,2,5
7,0,6,4
7,0,8,1
7,1,1,1
7,1,4,4
7,1,7,7
7,2,4,5
7,6,4,1
7,7,1,7
7,7,4,8
7,7,7,5
7,8,0,4
7,8,2,1
7,8,6,8
7,8,8,7
8,0,0,1
8,0,2,6
8,0,6,7
8,0,8,5
8,1,0,8
8,1,4,7
8,1,8,9
8,2,3,9
8,2,4,6
8,2,5,8
8,3,1,2
8,3,7,5
8,4,2,3
8,4,4,8
8,4,6,1
8,5,1,6
8,5,7,4
8,6,3,8
8,6,4,4
8,6,5,6
8,7,0,6
8,7,4,5
8,7,8,8
8,8,0,2
8,8,2,5
8,8,6,4
8,8,8,3
