0,0,0,9
0,0,8,1
0,2,0,5
0,2,8,7
0,6,0,2
0,6,8,8
0,8,0,4
0,8,8,3
1,1,3,4
1,1,5,7
1,2,1,7
1,2,4,9
1,2,7,1
1,3,1,6
1,3,4,8
1,3,7,5
1,4,4,7
1,5,1,8
1,5,4,5
1,5,7,2
1,6,1,4
1,6,4,3
1,6,7,7
1,7,3,7
1,7,5,1
2,2,0,1
2,2,1,2
2,2,7,5
2,2,8,6
2,4,3,5
2,4,5,8
2,6,0,7
2,6,1,8
2,6,7,2
2,6,8,4
3,0,4,3
3,2,4,7
3,3,1,5
3,3,7,8
3,5,1,2
3,5,7,3
3,6,4,4
3,8,4,5
4,3,0,4
4,3,1,3
4,3,4,2
4,3,7,9
4,3,8,5
4,4,3,4
4,4,5,7
4,5,0,5
4,5,1,7
4,5,4,9
4,5,7,1
4,5,8,2
5,0,4,5
5,2,4,2
5,3,1,1
5,3,7,4
5,5,1,6
5,5,7,5
5,6,4,9
5,8,4,1
6,2,0,7
6,2,1,4
6,2,7,2
6,2,8,9
6,4,3,7
6,4,5,3
6,6,0,9
6,6,1,3
6,6,7,8
6,6,8,1
7,1,3,5
7,1,5,4
7,2,1,8
7,2,4,3
7,2,7,7
7,3,1,4
7,3,4,1
7,3,7,6
7,4,4,4
7,5,1,1
7,5,4,2
7,5,7,4
7,6,1,5
7,6,4,7
7,6,7,9
7,7,3,4
7,7,5,6
8,0,0,1
8,0,8,2
8,2,0,2
8,2,8,8
8,6,0,8
8,6,8,5
8,8,0,3
8,8,8,6
