0,0,1,3
0,0,7,4
0,1,0,4
0,1,8,5
0,2,0,9
0,2,8,3
0,3,1,1
0,3,3,9
0,3,4,5
0,3,5,6
0,3,7,2
0,4,1,4
0,4,7,7
0,5,1,9
0,5,3,4
0,5,4,8
0,5,5,7
0,5,7,6
0,6,0,3
0,6,8,2
0,7,0,8
0,7,8,7
0,8,1,2
0,8,7,3
1,0,4,8
1,8,4,2
2,3,0,4
2,3,1,8
2,3,7,9
2,3,8,5
2,4,2,2
2,4,4,7
2,4,6,6
2,5,0,1
2,5,1,3
2,5,7,4
2,5,8,8
3,0,4,7
3,1,1,9
3,1,2,5
3,1,6,2
3,1,7,6
3,2,0,7
3,2,8,4
3,3,0,2
3,3,2,7
3,3,6,3
3,3,8,1
3,4,1,1
3,4,7,9
3,5,0,9
3,5,2,8
3,5,6,6
3,5,8,2
3,6,0,5
3,6,8,6
3,7,1,7
3,7,2,2
3,7,6,4
3,7,7,1
3,8,4,6
4,1,1,3
4,1,7,5
4,2,2,9
4,2,6,7
4,6,2,3
4,6,6,8
4,7,1,5
4,7,7,7
5,0,4,3
5,1,1,6
5,1,2,7
5,1,6,3
5,1,7,4
5,2,0,4
5,2,8,5
5,3,0,1
5,3,2,4
5,3,6,9
5,3,8,8
5,4,1,8
5,4,7,2
5,5,0,6
5,5,2,2
5,5,6,4
5,5,8,3
5,6,0,7
5,6,8,4
5,7,1,4
5,7,2,1
5,7,6,5
5,7,7,8
5,8,4,1
6,3,0,6
6,3,1,4
6,3,7,7
6,3,8,9
6,4,2,5
6,4,4,8
6,4,6,3
6,5,0,7
6,5,1,1
6,5,7,2
6,5,8,4
7,0,4,5
7,8,4,7
8,0,1,2
8,0,7,3
8,1,0,3
8,1,8,2
8,2,0,8
8,2,8,7
8,3,1,5
8,3,3,8
8,3,4,7
8,3,5,4
8,3,7,1
8,4,1,3
8,4,7,4
8,5,1,8
8,5,3,3
8,5,4,2
8,5,5,1
8,5,7,9
8,6,0,2
8,6,8,1
8,7,0,7
8,7,8,4
8,8,1,4
8,8,7,7
