0,2,1,3
0,2,2,9
0,2,6,2
0,2,7,7
0,6,1,9
0,6,2,5
0,6,6,7
0,6,7,8
1,0,3,2
1,0,5,3
1,1,0,3
1,1,4,6
1,1,8,2
1,3,3,1
1,3,5,6
1,4,2,2
1,4,4,9
1,4,6,4
1,5,3,8
1,5,5,7
1,7,0,4
1,7,4,1
1,7,8,5
1,8,3,6
1,8,5,4
2,3,0,1
2,3,1,2
2,3,3,9
2,3,5,3
2,3,7,8
2,3,8,4
2,5,0,8
2,5,1,9
2,5,3,4
2,5,5,1
2,5,7,3
2,5,8,2
3,3,2,6
3,3,6,5
3,4,1,7
3,4,7,4
3,5,2,9
3,5,6,2
4,1,2,9
4,1,4,4
4,1,6,2
4,3,0,7
4,3,1,1
4,3,7,6
4,3,8,8
4,4,1,9
4,4,4,6
4,4,7,3
4,5,0,4
4,5,1,6
4,5,7,9
4,5,8,5
4,7,2,1
4,7,4,3
4,7,6,8
5,3,2,8
5,3,6,3
5,4,1,3
5,4,7,5
5,5,2,7
5,5,6,6
6,3,0,2
6,3,1,7
6,3,3,5
6,3,5,9
6,3,7,4
6,3,8,6
6,5,0,9
6,5,1,5
6,5,3,6
6,5,5,4
6,5,7,2
6,5,8,7
7,0,3,9
7,0,5,1
7,1,0,1
7,1,4,7
7,1,8,9
7,3,3,8
7,3,5,7
7,4,2,9
7,4,4,4
7,4,6,2
7,5,3,3
7,5,5,5
7,7,0,2
7,7,4,8
7,7,8,6
7,8,3,7
7,8,5,2
8,2,1,7
8,2,2,8
8,2,6,3
8,2,7,4
8,6,1,3
8,6,2,2
8,6,6,4
8,6,7,6
