0,1,1,9
0,1,4,5
0,1,7,4
0,2,1,4
0,2,7,3
0,3,2,9
0,3,4,3
0,3,6,2
0,5,2,3
0,5,4,1
0,5,6,9
0,6,1,2
0,6,7,5
0,7,1,3
0,7,4,2
0,7,7,9
1,0,0,9
1,0,2,7
1,0,4,3
1,0,6,4
1,0,8,1
1,1,3,8
1,1,5,9
1,7,3,6
1,7,5,3
1,8,0,2
1,8,2,4
1,8,4,9
1,8,6,5
1,8,8,6
2,1,2,6
2,1,4,1
2,1,6,9
2,3,2,5
2,3,3,4
2,3,5,1
2,3,6,7
2,5,2,1
2,5,3,8
2,5,5,9
2,5,6,5
2,7,2,2
2,7,4,8
2,7,6,3
3,0,3,8
3,0,5,3
3,2,2,4
3,2,6,6
3,6,2,2
3,6,6,3
3,8,3,2
3,8,5,9
4,1,0,6
4,1,2,2
4,1,3,3
4,1,5,1
4,1,6,5
4,1,8,4
4,2,3,7
4,2,5,6
4,3,1,8
4,3,2,4
4,3,6,3
4,3,7,7
4,4,4,1
4,5,1,6
4,5,2,9
4,5,6,2
4,5,7,5
4,6,3,9
4,6,5,3
4,7,0,2
4,7,2,7
4,7,3,1
4,7,5,8
4,7,6,4
4,7,8,9
5,0,3,6
5,0,5,4
5,2,2,7
5,2,6,4
5,6,2,9
5,6,6,2
5,8,3,8
5,8,5,6
6,1,2,7
6,1,4,3
6,1,6,4
6,3,2,8
6,3,3,3
6,3,5,5
6,3,6,1
6,5,2,6
6,5,3,1
6,5,5,2
6,5,6,8
6,7,2,5
6,7,4,1
6,7,6,9
7,0,0,1
7,0,2,2
7,0,4,8
7,0,6,5
7,0,8,6
7,1,3,1
7,1,5,2
7,7,3,8
7,7,5,9
7,8,0,5
7,8,2,6
7,8,4,2
7,8,6,7
7,8,8,8
8,1,1,1
8,1,4,9
8,1,7,5
8,2,1,3
8,2,7,8
8,3,2,1
8,3,4,7
8,3,6,5
8,5,2,7
8,5,4,5
8,5,6,4
8,6,1,5
8,6,7,7
8,7,1,9
8,7,4,3
8,7,7,4
