0,3,4,8
0,4,3,5
0,4,5,6
0,5,4,7
1,1,0,4
1,1,8,1
1,4,1,9
1,4,7,5
1,7,0,8
1,7,8,2
2,0,2,2
2,0,3,3
2,0,5,1
2,0,6,5
2,2,3,9
2,2,5,2
2,4,0,4
2,4,4,2
2,4,8,1
2,6,3,2
2,6,5,7
2,8,2,1
2,8,3,6
2,8,5,4
2,8,6,2
3,0,1,1
3,0,7,5
3,1,3,9
3,1,5,2
3,2,4,8
3,3,0,4
3,3,2,7
3,3,3,5
3,3,4,2
3,3,5,9
3,3,6,3
3,3,8,1
3,5,0,1
3,5,2,8
3,5,3,4
3,5,4,6
3,5,5,7
3,5,6,5
3,5,8,9
3,6,4,3
3,7,3,6
3,7,5,4
3,8,1,7
3,8,7,1
4,1,2,9
4,1,4,1
4,1,6,4
4,2,3,4
4,2,4,6
4,2,5,7
4,4,1,8
4,4,2,1
4,4,6,2
4,4,7,9
4,6,3,7
4,6,4,4
4,6,5,6
4,7,2,6
4,7,4,5
4,7,6,1
5,0,1,9
5,0,7,7
5,1,3,6
5,1,5,4
5,2,4,9
5,3,0,8
5,3,2,3
5,3,3,7
5,3,4,4
5,3,5,6
5,3,6,9
5,3,8,2
5,5,0,9
5,5,2,2
5,5,3,3
5,5,4,8
5,5,5,1
5,5,6,7
5,5,8,6
5,6,4,2
5,7,3,8
5,7,5,3
5,8,1,3
5,8,7,2
6,0,2,6
6,0,3,9
6,0,5,2
6,0,6,1
6,2,3,5
6,2,5,6
6,4,0,1
6,4,4,6
6,4,8,9
6,6,3,6
6,6,5,4
6,8,2,7
6,8,3,1
6,8,5,8
6,8,6,6
7,1,0,6
7,1,8,3
7,4,1,7
7,4,7,4
7,7,0,1
7,7,8,9
8,3,4,5
8,4,3,2
8,4,5,7
8,5,4,3
