0,0,1,9
0,0,7,5
0,1,4,5
0,3,3,9
0,3,5,6
0,5,3,5
0,5,5,7
0,7,4,7
0,8,1,2
0,8,7,7
1,1,0,5
1,1,3,9
1,1,5,2
1,1,8,6
1,2,1,1
1,2,7,8
1,3,0,3
1,3,8,5
1,4,1,6
1,4,7,2
1,5,0,8
1,5,8,4
1,6,1,5
1,6,7,4
1,7,0,2
1,7,3,6
1,7,5,1
1,7,8,3
2,2,1,2
2,2,4,6
2,2,7,7
2,3,0,6
2,3,8,8
2,5,0,7
2,5,8,1
2,6,1,8
2,6,4,1
2,6,7,3
3,1,2,6
3,1,3,1
3,1,5,8
3,1,6,5
3,2,0,4
3,2,8,8
3,3,2,4
3,3,6,8
3,4,0,8
3,4,8,2
3,5,2,2
3,5,6,4
3,6,0,2
3,6,8,4
3,7,2,9
3,7,3,2
3,7,5,7
3,7,6,3
4,1,4,6
4,4,1,2
4,4,7,5
4,7,4,5
5,1,2,3
5,1,3,4
5,1,5,5
5,1,6,6
5,2,0,6
5,2,8,4
5,3,2,7
5,3,6,5
5,4,0,4
5,4,8,1
5,5,2,1
5,5,6,2
5,6,0,1
5,6,8,6
5,7,2,6
5,7,3,1
5,7,5,8
5,7,6,4
6,2,1,3
6,2,4,8
6,2,7,1
6,3,0,8
6,3,8,4
6,5,0,1
6,5,8,9
6,6,1,4
6,6,4,5
6,6,7,9
7,1,0,6
7,1,3,7
7,1,5,3
7,1,8,8
7,2,1,4
7,2,7,9
7,3,0,4
7,3,8,2
7,4,1,8
7,4,7,3
7,5,0,9
7,5,8,6
7,6,1,2
7,6,7,7
7,7,0,3
7,7,3,8
7,7,5,5
7,7,8,9
8,0,1,2
8,0,7,7
8,1,4,2
8,3,3,2
8,3,5,8
8,5,3,6
8,5,5,1
8,7,4,1
8,8,1,3
8,8,7,1
