0,0,1,8
0,0,7,9
0,1,2,2
0,1,3,5
0,1,5,9
0,1,6,3
0,3,4,9
0,4,4,3
0,5,4,6
0,7,2,3
0,7,3,2
0,7,5,6
0,7,6,5
0,8,1,2
0,8,7,1
1,1,2,9
1,1,6,7
1,3,1,9
1,3,3,3
1,3,4,8
1,3,5,1
1,3,7,7
1,4,0,3
1,4,8,9
1,5,1,6
1,5,3,9
1,5,4,5
1,5,5,4
1,5,7,8
1,7,2,6
1,7,6,1
2,0,2,5
2,0,3,1
2,0,5,8
2,0,6,6
2,2,4,5
2,6,4,9
2,8,2,1
2,8,3,6
2,8,5,7
2,8,6,9
3,3,2,9
3,3,6,5
3,4,3,8
3,4,4,5
3,4,5,2
3,5,2,5
3,5,6,4
4,0,2,9
4,0,6,5
4,1,1,1
4,1,7,7
4,2,0,6
4,2,8,3
4,6,0,5
4,6,8,6
4,7,1,2
4,7,7,5
4,8,2,8
4,8,6,3
5,3,2,1
5,3,6,8
5,4,3,7
5,4,4,1
5,4,5,4
5,5,2,3
5,5,6,1
6,0,2,4
6,0,3,3
6,0,5,1
6,0,6,2
6,2,4,4
6,6,4,5
6,8,2,3
6,8,3,2
6,8,5,6
6,8,6,5
7,1,2,7
7,1,6,8
7,3,1,6
7,3,3,9
7,3,4,5
7,3,5,4
7,3,7,8
7,4,0,4
7,4,8,6
7,5,1,8
7,5,3,6
7,5,4,2
7,5,5,7
7,5,7,4
7,7,2,8
7,7,6,4
8,0,1,7
8,0,7,3
8,1,2,5
8,1,3,1
8,1,5,8
8,1,6,6
8,3,4,1
8,4,4,7
8,5,4,4
8,7,2,2
8,7,3,4
8,7,5,5
8,7,6,3
8,8,1,4
8,8,7,7
