0,0,0,9
0,0,8,4
0,1,0,5
0,1,1,6
0,1,7,9
0,1,8,3
0,2,3,5
0,2,4,7
0,2,5,9
0,3,0,1
0,3,8,9
0,4,4,3
0,5,0,6
0,5,8,7
0,6,3,2
0,6,4,9
0,6,5,8
0,7,0,3
0,7,1,2
0,7,7,4
0,7,8,8
0,8,0,7
0,8,8,2
1,0,1,1
1,0,7,3
1,1,3,7
1,1,5,5
1,2,2,9
1,2,6,2
1,6,2,3
1,6,6,4
1,7,3,6
1,7,5,3
1,8,1,6
1,8,7,1
2,1,3,3
2,1,5,1
2,2,4,4
2,6,4,3
2,7,3,8
2,7,5,9
3,0,4,6
3,1,0,2
3,1,1,8
3,1,7,1
3,1,8,6
3,2,1,3
3,2,4,2
3,2,7,9
3,4,1,4
3,4,4,8
3,4,7,2
3,6,1,2
3,6,4,1
3,6,7,5
3,7,0,4
3,7,1,6
3,7,7,8
3,7,8,1
3,8,4,4
4,0,1,6
4,0,7,8
4,8,1,4
4,8,7,7
5,0,4,3
5,1,0,3
5,1,1,1
5,1,7,7
5,1,8,8
5,2,1,9
5,2,4,8
5,2,7,2
5,4,1,2
5,4,4,4
5,4,7,5
5,6,1,3
5,6,4,2
5,6,7,1
5,7,0,7
5,7,1,5
5,7,7,9
5,7,8,2
5,8,4,7
6,1,3,6
6,1,5,8
6,2,4,5
6,6,4,6
6,7,3,2
6,7,5,5
7,0,1,7
7,0,7,9
7,1,3,5
7,1,5,9
7,2,2,2
7,2,6,5
7,6,2,9
7,6,6,7
7,7,3,3
7,7,5,4
7,8,1,5
7,8,7,2
8,0,0,4
8,0,8,1
8,1,0,8
8,1,1,2
8,1,7,4
8,1,8,5
8,2,3,8
8,2,4,6
8,2,5,4
8,3,0,9
8,3,8,4
8,4,4,5
8,5,0,2
8,5,8,6
8,6,3,7
8,6,4,4
8,6,5,3
8,7,0,5
8,7,1,7
8,7,7,1
8,7,8,3
8,8,0,6
8,8,8,7
