0,3,0,7
0,3,1,4
0,3,3,8
0,3,5,9
0,3,7,3
0,3,8,2
0,5,0,5
0,5,1,3
0,5,3,7
0,5,5,1
0,5,7,6
0,5,8,9
1,0,4,1
1,2,2,8
1,2,6,5
1,4,0,1
1,4,2,4
1,4,6,2
1,4,8,3
1,6,2,2
1,6,6,8
1,8,4,3
2,1,3,7
2,1,5,1
2,2,0,7
2,2,8,2
2,4,3,4
2,4,5,7
2,6,0,5
2,6,8,9
2,7,3,1
2,7,5,9
3,0,1,5
3,0,7,1
3,2,0,9
3,2,8,4
3,3,2,7
3,3,3,2
3,3,5,3
3,3,6,1
3,5,2,9
3,5,3,5
3,5,5,7
3,5,6,2
3,6,0,8
3,6,8,1
3,8,1,9
3,8,7,8
4,0,2,1
4,0,4,6
4,0,6,4
4,4,0,6
4,4,8,2
4,8,2,8
4,8,4,2
4,8,6,5
5,0,1,4
5,0,7,8
5,2,0,5
5,2,8,9
5,3,2,6
5,3,3,7
5,3,5,1
5,3,6,8
5,5,2,5
5,5,3,4
5,5,5,6
5,5,6,7
5,6,0,3
5,6,8,8
5,8,1,5
5,8,7,3
6,1,3,1
6,1,5,9
6,2,0,1
6,2,8,3
6,4,3,2
6,4,5,1
6,6,0,7
6,6,8,2
6,7,3,4
6,7,5,2
7,0,4,9
7,2,2,5
7,2,6,2
7,4,0,5
7,4,2,2
7,4,6,1
7,4,8,9
7,6,2,1
7,6,6,9
7,8,4,5
8,3,0,3
8,3,1,2
8,3,3,4
8,3,5,7
8,3,7,9
8,3,8,8
8,5,0,6
8,5,1,9
8,5,3,3
8,5,5,5
8,5,7,1
8,5,8,7
