0,0,4,6
0,1,1,8
0,1,7,1
0,3,0,9
0,3,1,1
0,3,7,7
0,3,8,3
0,4,0,3
0,4,8,8
0,5,0,8
0,5,1,5
0,5,7,2
0,5,8,9
0,7,1,7
0,7,7,3
0,8,4,1
1,0,4,3
1,2,0,3
1,2,8,8
1,3,0,4
1,3,8,5
1,5,0,1
1,5,8,4
1,6,0,7
1,6,8,2
1,8,4,7
2,0,0,1
2,0,2,9
2,0,6,6
2,0,8,4
2,1,1,7
2,1,4,1
2,1,7,8
2,2,0,5
2,2,1,6
2,2,2,8
2,2,3,3
2,2,5,2
2,2,6,7
2,2,7,9
2,2,8,1
2,3,0,7
2,3,8,2
2,4,0,6
2,4,8,7
2,5,0,2
2,5,8,6
2,6,0,3
2,6,1,4
2,6,2,6
2,6,3,2
2,6,5,1
2,6,6,5
2,6,7,7
2,6,8,8
2,7,1,5
2,7,4,3
2,7,7,6
2,8,0,9
2,8,2,7
2,8,6,4
2,8,8,3
3,1,1,2
3,1,4,5
3,1,7,3
3,2,0,9
3,2,8,7
3,4,0,4
3,4,8,5
3,6,0,2
3,6,8,3
3,7,1,9
3,7,4,4
3,7,7,7
4,1,1,5
4,1,7,7
4,3,0,1
4,3,2,4
4,3,4,7
4,3,6,8
4,3,8,9
4,4,3,9
4,4,5,5
4,5,0,5
4,5,2,8
4,5,4,4
4,5,6,2
4,5,8,7
4,7,1,4
4,7,7,9
5,1,1,3
5,1,4,6
5,1,7,5
5,2,0,6
5,2,8,3
5,4,0,9
5,4,8,2
5,6,0,4
5,6,8,5
5,7,1,2
5,7,4,9
5,7,7,4
6,0,0,6
6,0,2,5
6,0,6,9
6,0,8,7
6,1,1,9
6,1,4,7
6,1,7,4
6,2,0,7
6,2,1,3
6,2,2,4
6,2,3,1
6,2,5,9
6,2,6,8
6,2,7,5
6,2,8,2
6,3,0,3
6,3,8,8
6,4,0,8
6,4,8,9
6,5,0,9
6,5,8,3
6,6,0,1
6,6,1,7
6,6,2,9
6,6,3,8
6,6,5,6
6,6,6,2
6,6,7,3
6,6,8,4
6,7,1,6
6,7,4,1
6,7,7,8
6,8,0,5
6,8,2,8
6,8,6,6
6,8,8,1
7,0,4,1
7,2,0,1
7,2,8,4
7,3,0,6
7,3,8,7
7,5,0,7
7,5,8,2
7,6,0,8
7,6,8,9
7,8,4,9
8,0,4,8
8,1,1,4
8,1,7,2
8,3,0,5
8,3,1,7
8,3,7,9
8,3,8,1
8,4,0,1
8,4,8,4
8,5,0,4
8,5,1,2
8,5,7,8
8,5,8,5
8,7,1,8
8,7,7,1
8,8,4,6
