0,0,1,1
0,0,2,8
0,0,4,6
0,0,6,9
0,0,7,4
0,4,0,6
0,4,8,8
0,8,1,5
0,8,2,9
0,8,4,1
0,8,6,7
0,8,7,2
1,0,0,7
1,0,1,2
1,0,2,6
1,0,4,9
1,0,6,3
1,0,7,1
1,0,8,8
1,1,4,2
1,2,4,8
1,3,0,1
1,3,2,3
1,3,6,4
1,3,8,9
1,5,0,2
1,5,2,7
1,5,6,8
1,5,8,1
1,6,4,3
1,7,4,4
1,8,0,3
1,8,1,1
1,8,2,8
1,8,4,7
1,8,6,9
1,8,7,4
1,8,8,5
2,0,2,9
2,0,3,3
2,0,5,8
2,0,6,6
2,2,1,8
2,2,2,3
2,2,6,4
2,2,7,5
2,3,1,2
2,3,7,8
2,5,1,4
2,5,7,2
2,6,1,3
2,6,2,1
2,6,6,5
2,6,7,9
2,8,2,7
2,8,3,5
2,8,5,4
2,8,6,3
3,0,2,5
3,0,6,8
3,2,1,2
3,2,7,1
3,4,0,9
3,4,8,4
3,6,1,7
3,6,7,8
3,8,2,6
3,8,6,5
4,1,0,5
4,1,1,6
4,1,2,3
4,1,6,7
4,1,7,8
4,1,8,9
4,2,1,1
4,2,2,9
4,2,4,6
4,2,6,3
4,2,7,4
4,3,1,7
4,3,4,9
4,3,7,1
4,4,2,5
4,4,3,4
4,4,5,1
4,4,6,8
4,5,1,9
4,5,4,8
4,5,7,7
4,6,1,8
4,6,2,4
4,6,4,2
4,6,6,1
4,6,7,5
4,7,0,3
4,7,1,5
4,7,2,7
4,7,6,9
4,7,7,2
4,7,8,8
5,0,2,1
5,0,6,2
5,2,1,5
5,2,7,7
5,4,0,8
5,4,8,1
5,6,1,9
5,6,7,6
5,8,2,5
5,8,6,8
6,0,2,7
6,0,3,9
6,0,5,5
6,0,6,1
6,2,1,4
6,2,2,5
6,2,6,2
6,2,7,6
6,3,1,3
6,3,7,9
6,5,1,7
6,5,7,1
6,6,1,5
6,6,2,9
6,6,6,7
6,6,7,2
6,8,2,3
6,8,3,7
6,8,5,6
6,8,6,4
7,0,0,1
7,0,1,8
7,0,2,3
7,0,4,7
7,0,6,4
7,0,7,5
7,0,8,9
7,1,4,1
7,2,4,5
7,3,0,9
7,3,2,5
7,3,6,7
7,3,8,6
7,5,0,3
7,5,2,8
7,5,6,9
7,5,8,5
7,6,4,9
7,7,4,6
7,8,0,5
7,8,1,9
7,8,2,4
7,8,4,8
7,8,6,2
7,8,7,6
7,8,8,7
8,0,1,9
8,0,2,4
8,0,4,8
8,0,6,7
8,0,7,2
8,4,0,1
8,4,8,9
8,8,1,7
8,8,2,2
8,8,4,4
8,8,6,1
8,8,7,8
