0,0,1,9
0,0,3,8
0,0,4,1
0,0,5,6
0,0,7,7
0,1,0,7
0,1,8,1
0,2,0,1
0,2,8,9
0,4,0,2
0,4,2,3
0,4,6,1
0,4,8,8
0,6,0,5
0,6,8,2
0,7,0,3
0,7,8,6
0,8,1,8
0,8,3,2
0,8,4,7
0,8,5,3
0,8,7,5
1,0,1,2
1,0,7,1
1,2,2,4
1,2,6,7
1,3,4,9
1,5,4,1
1,6,2,3
1,6,6,1
1,8,1,9
1,8,7,2
2,0,1,1
2,0,2,6
2,0,6,9
2,0,7,5
2,3,1,8
2,3,7,4
2,4,4,6
2,5,1,2
2,5,7,1
2,8,1,3
2,8,2,2
2,8,6,6
2,8,7,8
3,1,1,2
3,1,3,7
3,1,5,9
3,1,7,5
3,2,2,1
3,2,6,6
3,3,2,9
3,3,6,4
3,4,3,6
3,4,5,3
3,5,2,5
3,5,6,9
3,6,2,2
3,6,6,3
3,7,1,4
3,7,3,9
3,7,5,8
3,7,7,6
4,0,2,4
4,0,3,1
4,0,4,9
4,0,5,7
4,0,6,5
4,1,0,3
4,1,8,6
4,2,3,6
4,2,5,3
4,3,4,3
4,4,0,6
4,4,3,4
4,4,4,7
4,4,5,1
4,4,8,9
4,5,4,2
4,6,3,2
4,6,5,9
4,7,0,5
4,7,8,2
4,8,2,6
4,8,3,7
4,8,4,1
4,8,5,5
4,8,6,8
5,1,1,9
5,1,3,5
5,1,5,6
5,1,7,1
5,2,2,2
5,2,6,3
5,3,2,6
5,3,6,8
5,4,3,2
5,4,5,5
5,5,2,8
5,5,6,1
5,6,2,5
5,6,6,9
5,7,1,6
5,7,3,1
5,7,5,7
5,7,7,3
6,0,1,4
6,0,2,9
6,0,6,3
6,0,7,2
6,3,1,9
6,3,7,3
6,4,4,5
6,5,1,8
6,5,7,4
6,8,1,6
6,8,2,8
6,8,6,4
6,8,7,9
7,0,1,3
7,0,7,8
7,2,2,5
7,2,6,2
7,3,4,4
7,5,4,8
7,6,2,7
7,6,6,8
7,8,1,4
7,8,7,3
8,0,1,8
8,0,3,2
8,0,4,7
8,0,5,3
8,0,7,9
8,1,0,9
8,1,8,2
8,2,0,3
8,2,8,6
8,4,0,5
8,4,2,9
8,4,6,2
8,4,8,3
8,6,0,8
8,6,8,9
8,7,0,4
8,7,8,7
8,8,1,7
8,8,3,9
8,8,4,5
8,8,5,4
8,8,7,6
