0,1,3,3
0,1,5,6
0,3,2,7
0,3,6,2
0,4,3,2
0,4,5,1
0,5,2,9
0,5,6,1
0,7,3,1
0,7,5,3
1,1,4,8
1,2,1,3
1,2,3,4
1,2,4,9
1,2,5,7
1,2,7,6
1,4,3,5
1,4,5,8
1,6,1,2
1,6,3,7
1,6,4,3
1,6,5,1
1,6,7,9
1,7,4,5
2,0,0,6
2,0,1,4
2,0,7,7
2,0,8,3
2,2,1,7
2,2,7,9
2,3,1,2
2,3,7,1
2,4,4,9
2,5,1,5
2,5,7,4
2,6,1,9
2,6,7,3
2,8,0,2
2,8,1,8
2,8,7,6
2,8,8,4
3,0,0,7
3,0,2,2
3,0,6,5
3,0,8,4
3,3,3,4
3,3,5,8
3,4,2,6
3,4,4,1
3,4,6,8
3,5,3,7
3,5,5,2
3,8,0,6
3,8,2,7
3,8,6,4
3,8,8,8
4,2,4,6
4,3,2,8
4,3,6,1
4,4,2,3
4,4,6,7
4,5,2,7
4,5,6,5
4,6,4,1
5,0,0,5
5,0,2,4
5,0,6,3
5,0,8,1
5,3,3,1
5,3,5,9
5,4,2,5
5,4,4,2
5,4,6,9
5,5,3,5
5,5,5,4
5,8,0,4
5,8,2,8
5,8,6,1
5,8,8,9
6,0,0,4
6,0,1,1
6,0,7,3
6,0,8,5
6,2,1,8
6,2,7,2
6,3,1,4
6,3,7,6
6,4,4,6
6,5,1,6
6,5,7,1
6,6,1,7
6,6,7,5
6,8,0,8
6,8,1,9
6,8,7,4
6,8,8,1
7,1,4,6
7,2,1,6
7,2,3,2
7,2,4,8
7,2,5,9
7,2,7,5
7,4,3,3
7,4,5,2
7,6,1,5
7,6,3,1
7,6,4,2
7,6,5,4
7,6,7,8
7,7,4,3
8,1,3,8
8,1,5,2
8,3,2,6
8,3,6,7
8,4,3,7
8,4,5,9
8,5,2,5
8,5,6,9
8,7,3,9
8,7,5,8
