0,0,0,5
0,0,3,7
0,0,5,1
0,0,8,9
0,1,0,9
0,1,2,2
0,1,6,8
0,1,8,4
0,3,1,9
0,3,4,7
0,3,7,3
0,4,1,4
0,4,7,8
0,5,1,5
0,5,4,2
0,5,7,1
0,7,0,1
0,7,2,5
0,7,6,7
0,7,8,8
0,8,0,3
0,8,3,5
0,8,5,2
0,8,8,1
1,0,3,8
1,0,5,9
1,2,3,3
1,2,5,5
1,4,0,8
1,4,8,3
1,6,3,2
1,6,5,8
1,8,3,6
1,8,5,3
2,0,0,1
2,0,8,8
2,1,0,3
2,1,3,9
2,1,5,2
2,1,8,1
2,3,0,4
2,3,4,9
2,3,8,5
2,4,3,2
2,4,5,8
2,5,0,9
2,5,4,5
2,5,8,4
2,7,0,7
2,7,3,8
2,7,5,5
2,7,8,6
2,8,0,6
2,8,8,2
3,3,3,2
3,3,4,1
3,3,5,9
3,5,3,4
3,5,4,7
3,5,5,3
4,0,4,5
4,3,2,1
4,3,6,2
4,4,0,7
4,4,8,6
4,5,2,2
4,5,6,4
4,8,4,1
5,3,3,5
5,3,4,6
5,3,5,8
5,5,3,1
5,5,4,9
5,5,5,2
6,0,0,8
6,0,8,3
6,1,0,1
6,1,3,5
6,1,5,6
6,1,8,8
6,3,0,9
6,3,4,5
6,3,8,4
6,4,3,6
6,4,5,3
6,5,0,5
6,5,4,4
6,5,8,9
6,7,0,2
6,7,3,3
6,7,5,4
6,7,8,7
6,8,0,7
6,8,8,6
7,0,3,2
7,0,5,8
7,2,3,6
7,2,5,3
7,4,0,6
7,4,8,2
7,6,3,5
7,6,5,2
7,8,3,4
7,8,5,6
8,0,0,2
8,0,3,3
8,0,5,5
8,0,8,7
8,1,0,7
8,1,2,3
8,1,6,5
8,1,8,6
8,3,1,2
8,3,4,3
8,3,7,5
8,4,1,7
8,4,7,9
8,5,1,6
8,5,4,1
8,5,7,4
8,7,0,9
8,7,2,7
8,7,6,1
8,7,8,4
8,8,0,4
8,8,3,7
8,8,5,1
8,8,8,5
