0,0,2,7
0,0,6,6
0,2,2,3
0,2,3,9
0,2,5,7
0,2,6,1
0,3,3,7
0,3,4,9
0,3,5,8
0,4,0,7
0,4,8,4
0,5,3,3
0,5,4,6
0,5,5,4
0,6,2,1
0,6,3,4
0,6,5,6
0,6,6,8
0,8,2,9
0,8,6,4
1,2,3,2
1,2,4,5
1,2,5,1
1,3,0,9
1,3,1,8
1,3,7,4
1,3,8,3
1,5,0,6
1,5,1,4
1,5,7,2
1,5,8,5
1,6,3,7
1,6,4,9
1,6,5,8
2,0,1,6
2,0,7,1
2,2,4,6
2,3,0,2
2,3,1,5
2,3,3,4
2,3,5,6
2,3,7,7
2,3,8,9
2,5,0,8
2,5,1,7
2,5,3,2
2,5,5,1
2,5,7,3
2,5,8,6
2,6,4,2
2,8,1,4
2,8,7,2
3,1,1,4
3,1,7,1
3,3,2,5
3,3,6,1
3,5,2,4
3,5,6,5
3,7,1,8
3,7,7,9
4,0,0,4
4,0,8,6
4,1,1,8
4,1,7,9
4,2,3,4
4,2,5,2
4,3,0,6
4,3,3,2
4,3,5,1
4,3,8,8
4,5,0,1
4,5,3,6
4,5,5,5
4,5,8,7
4,6,3,5
4,6,5,7
4,7,1,6
4,7,7,7
4,8,0,7
4,8,8,9
5,1,1,6
5,1,7,7
5,3,2,2
5,3,6,7
5,5,2,6
5,5,6,2
5,7,1,4
5,7,7,1
6,0,1,4
6,0,7,6
6,2,4,4
6,3,0,7
6,3,1,3
6,3,3,8
6,3,5,4
6,3,7,9
6,3,8,5
6,5,0,2
6,5,1,9
6,5,3,7
6,5,5,6
6,5,7,1
6,5,8,4
6,6,4,7
6,8,1,8
6,8,7,7
7,2,3,7
7,2,4,2
7,2,5,9
7,3,0,5
7,3,1,4
7,3,7,6
7,3,8,1
7,5,0,3
7,5,1,6
7,5,7,7
7,5,8,2
7,6,3,8
7,6,4,5
7,6,5,4
8,0,2,6
8,0,6,2
8,2,2,1
8,2,3,5
8,2,5,6
8,2,6,8
8,3,3,6
8,3,4,5
8,3,5,3
8,4,0,6
8,4,8,9
8,5,3,1
8,5,4,2
8,5,5,9
8,6,2,8
8,6,3,9
8,6,5,2
8,6,6,3
8,8,2,5
8,8,6,9
