0,2,1,9
0,2,2,6
0,2,6,2
0,2,7,1
0,4,0,4
0,4,2,1
0,4,6,3
0,4,8,7
0,6,1,3
0,6,2,5
0,6,6,9
0,6,7,6
1,0,2,9
1,0,6,4
1,1,3,8
1,1,5,6
1,3,3,5
1,3,4,2
1,3,5,1
1,4,1,5
1,4,7,1
1,5,3,9
1,5,4,6
1,5,5,8
1,7,3,2
1,7,5,4
1,8,2,8
1,8,6,1
2,0,4,1
2,1,0,9
2,1,1,6
2,1,7,4
2,1,8,2
2,4,0,7
2,4,8,8
2,7,0,1
2,7,1,9
2,7,7,3
2,7,8,4
2,8,4,2
3,0,2,6
3,0,6,2
3,1,1,5
3,1,4,6
3,1,7,3
3,2,2,8
3,2,6,6
3,3,3,3
3,3,5,8
3,4,2,4
3,4,6,5
3,5,3,1
3,5,5,2
3,6,2,7
3,6,6,1
3,7,1,2
3,7,4,7
3,7,7,4
3,8,2,3
3,8,6,7
4,2,0,9
4,2,4,3
4,2,8,2
4,3,3,9
4,3,5,7
4,4,2,8
4,4,6,6
4,5,3,4
4,5,5,3
4,6,0,2
4,6,4,5
4,6,8,3
5,0,2,4
5,0,6,5
5,1,1,7
5,1,4,5
5,1,7,2
5,2,2,5
5,2,6,9
5,3,3,2
5,3,5,5
5,4,2,7
5,4,6,1
5,5,3,6
5,5,5,9
5,6,2,8
5,6,6,6
5,7,1,4
5,7,4,8
5,7,7,1
5,8,2,2
5,8,6,8
6,0,4,4
6,1,0,7
6,1,1,3
6,1,7,6
6,1,8,8
6,4,0,1
6,4,8,5
6,7,0,4
6,7,1,6
6,7,7,5
6,7,8,2
6,8,4,8
7,0,2,7
7,0,6,6
7,1,3,5
7,1,5,3
7,3,3,6
7,3,4,8
7,3,5,9
7,4,1,7
7,4,7,4
7,5,3,7
7,5,4,3
7,5,5,4
7,7,3,8
7,7,5,6
7,8,2,5
7,8,6,9
8,2,1,7
8,2,2,3
8,2,6,8
8,2,7,5
8,4,0,6
8,4,2,5
8,4,6,9
8,4,8,1
8,6,1,9
8,6,2,2
8,6,6,7
8,6,7,3
