0,0,3,8
0,0,5,3
0,2,1,2
0,2,4,1
0,2,7,4
0,3,0,5
0,3,8,6
0,4,3,7
0,4,5,6
0,5,0,7
0,5,8,4
0,6,1,5
0,6,4,6
0,6,7,7
0,8,3,1
0,8,5,2
1,0,2,8
1,0,4,7
1,0,6,1
1,2,1,5
1,2,2,6
1,2,6,2
1,2,7,7
1,3,2,2
1,3,6,3
1,5,2,5
1,5,6,9
1,6,1,8
1,6,2,4
1,6,6,5
1,6,7,2
1,8,2,1
1,8,4,8
1,8,6,7
2,1,0,5
2,1,8,2
2,2,4,9
2,4,0,1
2,4,8,9
2,6,4,1
2,7,0,2
2,7,8,7
3,2,0,8
3,2,1,3
3,2,7,9
3,2,8,6
3,4,1,4
3,4,7,1
3,6,0,2
3,6,1,7
3,6,7,3
3,6,8,5
4,2,2,2
4,2,6,3
4,3,0,2
4,3,8,7
4,5,0,6
4,5,8,1
4,6,2,1
4,6,6,7
5,2,0,6
5,2,1,7
5,2,7,2
5,2,8,5
5,4,1,2
5,4,7,9
5,6,0,5
5,6,1,4
5,6,7,1
5,6,8,8
6,1,0,9
6,1,8,6
6,2,4,4
6,4,0,7
6,4,8,4
6,6,4,7
6,7,0,6
6,7,8,8
7,0,2,1
7,0,4,8
7,0,6,7
7,2,1,9
7,2,2,3
7,2,6,6
7,2,7,8
7,3,2,6
7,3,6,2
7,5,2,9
7,5,6,4
7,6,1,1
7,6,2,5
7,6,6,9
7,6,7,6
7,8,2,7
7,8,4,1
7,8,6,8
8,0,3,1
8,0,5,2
8,2,1,6
8,2,4,7
8,2,7,5
8,3,0,9
8,3,8,3
8,4,3,8
8,4,5,3
8,5,0,8
8,5,8,5
8,6,1,9
8,6,4,3
8,6,7,8
8,8,3,7
8,8,5,6
