0,0,1,5
0,0,7,4
0,1,1,6
0,1,7,3
0,2,2,8
0,2,4,1
0,2,6,9
0,6,2,3
0,6,4,2
0,6,6,5
0,7,1,4
0,7,7,9
0,8,1,8
0,8,7,6
1,0,1,4
1,0,7,9
1,1,1,8
1,1,4,3
1,1,7,6
1,2,0,9
1,2,2,3
1,2,6,5
1,2,8,8
1,6,0,5
1,6,2,6
1,6,6,4
1,6,8,3
1,7,1,9
1,7,4,4
1,7,7,5
1,8,1,3
1,8,7,8
2,0,0,8
2,0,2,7
2,0,6,6
2,0,8,2
2,1,2,4
2,1,4,6
2,1,6,7
2,2,1,2
2,2,7,1
2,3,1,8
2,3,2,5
2,3,6,2
2,3,7,6
2,4,2,3
2,4,6,5
2,5,1,4
2,5,2,2
2,5,6,3
2,5,7,9
2,6,1,7
2,6,7,2
2,7,2,1
2,7,4,9
2,7,6,8
2,8,0,2
2,8,2,9
2,8,6,1
2,8,8,5
3,0,0,9
3,0,2,6
3,0,4,2
3,0,6,4
3,0,8,8
3,1,2,2
3,1,6,6
3,4,1,6
3,4,7,8
3,7,2,8
3,7,6,9
3,8,0,6
3,8,2,7
3,8,4,9
3,8,6,8
3,8,8,2
4,1,2,1
4,1,4,5
4,1,6,8
4,2,3,7
4,2,5,4
4,3,3,8
4,3,5,1
4,4,1,8
4,4,7,3
4,5,3,4
4,5,5,3
4,6,3,1
4,6,5,9
4,7,2,3
4,7,4,2
4,7,6,4
5,0,0,5
5,0,2,3
5,0,4,7
5,0,6,9
5,0,8,6
5,1,2,7
5,1,6,3
5,4,1,3
5,4,7,6
5,7,2,6
5,7,6,5
5,8,0,3
5,8,2,1
5,8,4,5
5,8,6,6
5,8,8,7
6,0,0,1
6,0,2,5
6,0,6,7
6,0,8,4
6,1,2,6
6,1,4,7
6,1,6,5
6,2,1,4
6,2,7,9
6,3,1,1
6,3,2,3
6,3,6,9
6,3,7,7
6,4,2,2
6,4,6,3
6,5,1,8
6,5,2,9
6,5,6,2
6,5,7,6
6,6,1,9
6,6,7,5
6,7,2,4
6,7,4,8
6,7,6,1
6,8,0,5
6,8,2,8
6,8,6,4
6,8,8,6
7,0,1,6
7,0,7,3
7,1,1,7
7,1,4,1
7,1,7,2
7,2,0,3
7,2,2,1
7,2,6,8
7,2,8,7
7,6,0,6
7,6,2,2
7,6,6,3
7,6,8,1
7,7,1,8
7,7,4,3
7,7,7,6
7,8,1,1
7,8,7,7
8,0,1,8
8,0,7,6
8,1,1,1
8,1,7,7
8,2,2,2
8,2,4,4
8,2,6,3
8,6,2,7
8,6,4,9
8,6,6,6
8,7,1,3
8,7,7,8
8,8,1,2
8,8,7,1
