0,1,0,1
0,1,2,2
0,1,4,9
0,1,6,3
0,1,8,6
0,4,0,2
0,4,8,5
0,7,0,4
0,7,2,8
0,7,4,7
0,7,6,5
0,7,8,1
1,0,4,1
1,3,1,7
1,3,7,2
1,5,1,2
1,5,7,6
1,8,4,9
2,0,3,9
2,0,5,8
2,1,0,5
2,1,8,8
2,3,0,3
2,3,8,6
2,5,0,1
2,5,8,7
2,7,0,7
2,7,8,9
2,8,3,2
2,8,5,5
3,0,3,4
3,0,5,1
3,1,0,9
3,1,8,1
3,3,3,3
3,3,5,6
3,5,3,1
3,5,5,7
3,7,0,6
3,7,8,4
3,8,3,7
3,8,5,9
4,0,2,9
4,0,6,7
4,1,0,2
4,1,2,4
4,1,4,8
4,1,6,6
4,1,8,5
4,2,1,3
4,2,2,5
4,2,6,2
4,2,7,8
4,4,1,2
4,4,7,6
4,6,1,9
4,6,2,6
4,6,6,8
4,6,7,4
4,7,0,8
4,7,2,2
4,7,4,9
4,7,6,1
4,7,8,6
4,8,2,7
4,8,6,3
5,0,3,8
5,0,5,7
5,1,0,3
5,1,8,2
5,3,3,7
5,3,5,9
5,5,3,2
5,5,5,5
5,7,0,5
5,7,8,3
5,8,3,5
5,8,5,1
6,0,3,5
6,0,5,3
6,1,0,4
6,1,8,3
6,3,0,1
6,3,8,7
6,5,0,8
6,5,8,2
6,7,0,2
6,7,8,5
6,8,3,6
6,8,5,4
7,0,4,4
7,3,1,8
7,3,7,1
7,5,1,3
7,5,7,8
7,8,4,7
8,1,0,7
8,1,2,5
8,1,4,1
8,1,6,2
8,1,8,9
8,4,0,5
8,4,8,1
8,7,0,1
8,7,2,7
8,7,4,4
8,7,6,3
8,7,8,2
