0,1,1,8
0,1,7,7
0,2,0,1
0,2,4,8
0,2,8,4
0,3,0,9
0,3,1,5
0,3,7,6
0,3,8,8
0,4,1,6
0,4,3,4
0,4,5,5
0,4,7,1
0,5,0,3
0,5,1,1
0,5,7,4
0,5,8,9
0,6,0,5
0,6,4,3
0,6,8,6
0,7,1,2
0,7,7,3
1,0,2,6
1,0,6,7
1,1,1,3
1,1,7,4
1,2,1,5
1,2,3,7
1,2,4,3
1,2,5,1
1,2,7,2
1,6,1,6
1,6,3,5
1,6,4,4
1,6,5,9
1,6,7,1
1,7,1,1
1,7,7,5
1,8,2,5
1,8,6,2
2,1,1,4
2,1,2,9
2,1,6,2
2,1,7,6
2,3,1,3
2,3,4,2
2,3,7,5
2,4,2,5
2,4,3,7
2,4,5,1
2,4,6,8
2,5,1,2
2,5,4,4
2,5,7,3
2,7,1,5
2,7,2,4
2,7,6,6
2,7,7,8
3,3,3,1
3,3,5,9
3,4,1,5
3,4,2,1
3,4,6,9
3,4,7,6
3,5,3,6
3,5,5,5
4,0,1,5
4,0,7,1
4,2,0,7
4,2,8,3
4,6,0,6
4,6,8,8
4,8,1,2
4,8,7,5
5,3,3,5
5,3,5,3
5,4,1,3
5,4,2,4
5,4,6,2
5,4,7,5
5,5,3,4
5,5,5,2
6,1,1,7
6,1,2,3
6,1,6,9
6,1,7,5
6,3,1,6
6,3,4,9
6,3,7,1
6,4,2,7
6,4,3,2
6,4,5,8
6,4,6,5
6,5,1,5
6,5,4,1
6,5,7,6
6,7,1,3
6,7,2,1
6,7,6,4
6,7,7,9
7,0,2,9
7,0,6,2
7,1,1,6
7,1,7,1
7,2,1,1
7,2,3,2
7,2,4,6
7,2,5,8
7,2,7,9
7,6,1,5
7,6,3,1
7,6,4,7
7,6,5,3
7,6,7,8
7,7,1,8
7,7,7,7
7,8,2,3
7,8,6,5
8,1,1,5
8,1,7,2
8,2,0,8
8,2,4,9
8,2,8,1
8,3,0,1
8,3,1,7
8,3,7,9
8,3,8,5
8,4,1,4
8,4,3,1
8,4,5,3
8,4,7,8
8,5,0,6
8,5,1,8
8,5,7,7
8,5,8,3
8,6,0,3
8,6,4,6
8,6,8,4
8,7,1,9
8,7,7,6
