0,0,1,7
0,0,2,4
0,0,6,9
0,0,7,2
0,1,4,9
0,2,3,7
0,2,5,5
0,6,3,3
0,6,5,2
0,7,4,8
0,8,1,1
0,8,2,2
0,8,6,7
0,8,7,8
1,0,4,4
1,3,0,9
1,3,2,5
1,3,6,4
1,3,8,1
1,4,0,4
1,4,1,3
1,4,7,9
1,4,8,2
1,5,0,6
1,5,2,2
1,5,6,7
1,5,8,5
1,8,4,2
2,0,4,7
2,1,3,1
2,1,5,3
2,2,4,6
2,3,1,7
2,3,7,2
2,4,1,2
2,4,7,5
2,5,1,5
2,5,7,1
2,6,4,4
2,7,3,2
2,7,5,7
2,8,4,1
3,0,0,8
3,0,8,4
3,1,3,8
3,1,4,6
3,1,5,9
3,2,0,9
3,2,8,1
3,3,3,3
3,3,5,8
3,5,3,2
3,5,5,1
3,6,0,6
3,6,8,5
3,7,3,6
3,7,4,1
3,7,5,2
3,8,0,4
3,8,8,2
4,0,0,3
4,0,8,6
4,1,1,8
4,1,7,5
4,7,1,6
4,7,7,1
4,8,0,5
4,8,8,3
5,0,0,1
5,0,8,7
5,1,3,7
5,1,4,4
5,1,5,5
5,2,0,6
5,2,8,5
5,3,3,4
5,3,5,7
5,5,3,9
5,5,5,3
5,6,0,8
5,6,8,4
5,7,3,8
5,7,4,5
5,7,5,9
5,8,0,9
5,8,8,1
6,0,4,8
6,1,3,4
6,1,5,1
6,2,4,9
6,3,1,2
6,3,7,6
6,4,1,6
6,4,7,7
6,5,1,9
6,5,7,2
6,6,4,5
6,7,3,3
6,7,5,8
6,8,4,4
7,0,4,1
7,3,0,6
7,3,2,8
7,3,6,7
7,3,8,5
7,4,0,9
7,4,1,4
7,4,7,3
7,4,8,1
7,5,0,2
7,5,2,7
7,5,6,6
7,5,8,8
7,8,4,9
8,0,1,1
8,0,2,8
8,0,6,7
8,0,7,4
8,1,4,7
8,2,3,1
8,2,5,3
8,6,3,6
8,6,5,4
8,7,4,2
8,8,1,9
8,8,2,4
8,8,6,1
8,8,7,2
