0,0,2,4
0,0,6,9
0,3,3,9
0,3,5,6
0,4,0,8
0,4,8,4
0,5,3,1
0,5,5,3
0,8,2,3
0,8,6,8
1,0,0,9
1,0,8,2
1,1,1,8
1,1,7,3
1,2,4,2
1,3,1,1
1,3,7,4
1,4,2,4
1,4,6,2
1,5,1,2
1,5,7,8
1,6,4,8
1,7,1,3
1,7,7,9
1,8,0,8
1,8,8,4
2,2,4,4
2,3,1,4
2,3,2,6
2,3,6,7
2,3,7,5
2,4,3,6
2,4,5,4
2,5,1,8
2,5,2,3
2,5,6,4
2,5,7,6
2,6,4,5
3,0,0,2
3,0,3,4
3,0,5,1
3,0,8,7
3,2,2,6
3,2,3,8
3,2,5,2
3,2,6,3
3,3,3,2
3,3,5,5
3,4,2,7
3,4,6,4
3,5,3,9
3,5,5,6
3,6,2,1
3,6,3,6
3,6,5,8
3,6,6,2
3,8,0,4
3,8,3,3
3,8,5,7
3,8,8,6
4,1,1,2
4,1,7,6
4,7,1,7
4,7,7,2
5,0,0,4
5,0,3,6
5,0,5,7
5,0,8,5
5,2,2,2
5,2,3,3
5,2,5,4
5,2,6,9
5,3,3,8
5,3,5,1
5,4,2,3
5,4,6,5
5,5,3,7
5,5,5,2
5,6,2,8
5,6,3,2
5,6,5,5
5,6,6,7
5,8,0,3
5,8,3,9
5,8,5,6
5,8,8,2
6,2,4,9
6,3,1,2
6,3,2,7
6,3,6,1
6,3,7,8
6,4,3,7
6,4,5,2
6,5,1,9
6,5,2,4
6,5,6,2
6,5,7,7
6,6,4,7
7,0,0,5
7,0,8,3
7,1,1,1
7,1,7,7
7,2,4,3
7,3,1,6
7,3,7,2
7,4,2,2
7,4,6,3
7,5,1,3
7,5,7,9
7,6,4,2
7,7,1,8
7,7,7,5
7,8,0,2
7,8,8,1
8,0,2,9
8,0,6,5
8,3,3,5
8,3,5,7
8,4,0,9
8,4,8,2
8,5,3,6
8,5,5,4
8,8,2,8
8,8,6,2
