0,0,4,4
0,2,2,2
0,2,6,9
0,3,4,9
0,4,4,8
0,5,4,3
0,6,2,3
0,6,6,5
0,8,4,7
1,0,0,1
1,0,8,3
1,1,4,7
1,3,2,7
1,3,6,9
1,4,4,4
1,5,2,6
1,5,6,3
1,7,4,9
1,8,0,6
1,8,8,5
2,1,0,6
2,1,2,5
2,1,6,7
2,1,8,1
2,2,1,8
2,2,4,9
2,2,7,3
2,3,0,5
2,3,2,9
2,3,6,1
2,3,8,8
2,5,0,4
2,5,2,3
2,5,6,5
2,5,8,9
2,6,1,1
2,6,4,5
2,6,7,4
2,7,0,3
2,7,2,6
2,7,6,9
2,7,8,7
3,0,4,3
3,2,0,1
3,2,8,3
3,3,0,7
3,3,1,6
3,3,7,1
3,3,8,5
3,5,0,5
3,5,1,8
3,5,7,3
3,5,8,4
3,6,0,2
3,6,8,8
3,8,4,2
4,0,1,1
4,0,3,2
4,0,5,6
4,0,7,4
4,2,2,4
4,2,6,6
4,3,0,1
4,3,2,8
4,3,4,2
4,3,6,4
4,3,8,3
4,4,3,9
4,4,5,4
4,5,0,3
4,5,2,9
4,5,4,1
4,5,6,7
4,5,8,2
4,6,2,1
4,6,6,9
4,8,1,9
4,8,3,1
4,8,5,8
4,8,7,7
5,0,4,5
5,2,0,2
5,2,8,5
5,3,0,9
5,3,1,3
5,3,7,7
5,3,8,6
5,5,0,6
5,5,1,2
5,5,7,5
5,5,8,8
5,6,0,3
5,6,8,7
5,8,4,3
6,1,0,9
6,1,2,6
6,1,6,8
6,1,8,7
6,2,1,1
6,2,4,5
6,2,7,4
6,3,0,2
6,3,2,5
6,3,6,6
6,3,8,1
6,5,0,7
6,5,2,4
6,5,6,2
6,5,8,5
6,6,1,2
6,6,4,7
6,6,7,6
6,7,0,4
6,7,2,3
6,7,6,5
6,7,8,9
7,0,0,5
7,0,8,8
7,1,4,6
7,3,2,6
7,3,6,3
7,4,4,1
7,5,2,2
7,5,6,8
7,7,4,3
7,8,0,2
7,8,8,4
8,0,4,9
8,2,2,5
8,2,6,7
8,3,4,6
8,4,4,7
8,5,4,2
8,6,2,7
8,6,6,8
8,8,4,1
