0,1,2,8
0,1,6,5
0,2,1,3
0,2,2,6
0,2,4,7
0,2,6,1
0,2,7,2
0,3,1,1
0,3,4,4
0,3,7,9
0,4,1,6
0,4,3,7
0,4,5,9
0,4,7,4
0,5,1,4
0,5,4,2
0,5,7,1
0,6,1,5
0,6,2,1
0,6,4,9
0,6,6,4
0,6,7,8
0,7,2,9
0,7,6,3
1,0,2,2
1,0,6,3
1,1,3,7
1,1,5,9
1,4,0,4
1,4,8,7
1,7,3,8
1,7,5,4
1,8,2,6
1,8,6,8
2,2,0,8
2,2,8,3
2,4,1,7
2,4,7,8
2,6,0,7
2,6,8,5
3,0,4,2
3,1,1,4
3,1,7,8
3,3,2,5
3,3,6,9
3,4,1,9
3,4,3,4
3,4,5,2
3,4,7,5
3,5,2,4
3,5,6,2
3,7,1,1
3,7,7,9
3,8,4,4
4,0,2,6
4,0,3,9
4,0,5,3
4,0,6,8
4,1,0,5
4,1,3,6
4,1,5,8
4,1,8,4
4,7,0,3
4,7,3,4
4,7,5,2
4,7,8,1
4,8,2,4
4,8,3,5
4,8,5,9
4,8,6,2
5,0,4,8
5,1,1,9
5,1,7,5
5,3,2,6
5,3,6,1
5,4,1,8
5,4,3,6
5,4,5,1
5,4,7,9
5,5,2,9
5,5,6,8
5,7,1,4
5,7,7,3
5,8,4,6
6,2,0,6
6,2,8,2
6,4,1,1
6,4,7,2
6,6,0,3
6,6,8,1
7,0,2,1
7,0,6,7
7,1,3,9
7,1,5,1
7,4,0,9
7,4,8,6
7,7,3,5
7,7,5,6
7,8,2,3
7,8,6,5
8,1,2,3
8,1,6,4
8,2,1,1
8,2,2,2
8,2,4,5
8,2,6,8
8,2,7,9
8,3,1,8
8,3,4,7
8,3,7,6
8,4,1,2
8,4,3,5
8,4,5,6
8,4,7,7
8,5,1,7
8,5,4,9
8,5,7,8
8,6,1,4
8,6,2,8
8,6,4,6
8,6,6,7
8,6,7,3
8,7,2,6
8,7,6,1
