0,0,3,9
0,0,5,8
0,3,1,1
0,3,7,9
0,4,3,7
0,4,4,8
0,4,5,9
0,5,1,6
0,5,7,7
0,8,3,8
0,8,5,2
1,0,3,1
1,0,5,5
1,2,4,3
1,3,4,9
1,4,0,6
1,4,8,4
1,5,4,6
1,6,4,8
1,8,3,5
1,8,5,6
2,2,1,5
2,2,3,7
2,2,5,1
2,2,7,3
2,3,1,9
2,3,7,4
2,4,1,8
2,4,7,5
2,5,1,2
2,5,7,6
2,6,1,3
2,6,3,2
2,6,5,9
2,6,7,8
3,0,0,5
3,0,2,6
3,0,3,3
3,0,5,7
3,0,6,8
3,0,8,2
3,1,0,2
3,1,4,5
3,1,8,4
3,4,1,2
3,4,2,5
3,4,3,9
3,4,5,3
3,4,6,4
3,4,7,7
3,7,0,3
3,7,4,9
3,7,8,7
3,8,0,7
3,8,2,9
3,8,3,2
3,8,5,4
3,8,6,6
3,8,8,1
4,3,3,2
4,3,5,9
4,5,3,3
4,5,5,6
5,0,0,8
5,0,2,2
5,0,3,5
5,0,5,6
5,0,6,3
5,0,8,7
5,1,0,7
5,1,4,8
5,1,8,9
5,4,1,7
5,4,2,8
5,4,3,1
5,4,5,5
5,4,6,9
5,4,7,6
5,7,0,5
5,7,4,1
5,7,8,6
5,8,0,6
5,8,2,1
5,8,3,7
5,8,5,9
5,8,6,2
5,8,8,4
6,2,1,9
6,2,3,5
6,2,5,7
6,2,7,4
6,3,1,6
6,3,7,7
6,4,1,1
6,4,7,9
6,5,1,8
6,5,7,5
6,6,1,4
6,6,3,3
6,6,5,2
6,6,7,1
7,0,3,6
7,0,5,9
7,2,4,4
7,3,4,6
7,4,0,3
7,4,8,6
7,5,4,8
7,6,4,1
7,8,3,9
7,8,5,5
8,0,3,7
8,0,5,1
8,3,1,2
8,3,7,6
8,4,3,3
8,4,4,1
8,4,5,2
8,5,1,3
8,5,7,8
8,8,3,1
8,8,5,3
