0,0,0,7
0,0,3,2
0,0,5,3
0,0,8,8
0,1,1,8
0,1,3,4
0,1,5,7
0,1,7,3
0,3,2,4
0,3,6,8
0,4,2,8
0,4,6,7
0,5,2,7
0,5,6,4
0,7,1,7
0,7,3,1
0,7,5,4
0,7,7,6
0,8,0,6
0,8,3,7
0,8,5,8
0,8,8,1
1,0,1,3
1,0,7,1
1,1,2,4
1,1,3,3
1,1,5,9
1,1,6,8
1,2,0,6
1,2,8,3
1,4,0,4
1,4,2,6
1,4,6,5
1,4,8,2
1,6,0,3
1,6,8,4
1,7,2,1
1,7,3,6
1,7,5,3
1,7,6,7
1,8,1,8
1,8,7,3
2,2,4,3
2,3,4,1
2,4,3,8
2,4,5,5
2,5,4,9
2,6,4,4
3,0,0,6
3,0,8,1
3,1,1,4
3,1,7,5
3,3,0,9
3,3,1,1
3,3,7,8
3,3,8,6
3,5,0,4
3,5,1,8
3,5,7,3
3,5,8,2
3,7,1,6
3,7,7,2
3,8,0,3
3,8,8,9
4,2,0,8
4,2,8,5
4,3,0,6
4,3,2,8
4,3,4,9
4,3,6,2
4,3,8,3
4,4,3,2
4,4,5,3
4,5,0,2
4,5,2,3
4,5,4,4
4,5,6,7
4,5,8,1
4,6,0,5
4,6,8,6
5,0,0,4
5,0,8,6
5,1,1,1
5,1,7,8
5,3,0,3
5,3,1,2
5,3,7,7
5,3,8,9
5,5,0,1
5,5,1,7
5,5,7,6
5,5,8,4
5,7,1,5
5,7,7,9
5,8,0,2
5,8,8,3
6,2,4,1
6,3,4,8
6,4,3,3
6,4,5,4
6,5,4,5
6,6,4,9
7,0,1,1
7,0,7,8
7,1,2,9
7,1,3,1
7,1,5,5
7,1,6,3
7,2,0,7
7,2,8,1
7,4,0,9
7,4,2,7
7,4,6,4
7,4,8,6
7,6,0,1
7,6,8,9
7,7,2,8
7,7,3,7
7,7,5,1
7,7,6,2
7,8,1,3
7,8,7,1
8,0,0,2
8,0,3,6
8,0,5,1
8,0,8,3
8,1,1,3
8,1,3,9
8,1,5,2
8,1,7,1
8,3,2,9
8,3,6,3
8,4,2,3
8,4,6,2
8,5,2,2
8,5,6,9
8,7,1,2
8,7,3,8
8,7,5,9
8,7,7,7
8,8,0,7
8,8,3,2
8,8,5,3
8,8,8,8
