0,0,3,8
0,0,5,9
0,1,2,5
0,1,4,4
0,1,6,9
0,2,4,7
0,3,0,2
0,3,2,8
0,3,6,7
0,3,8,5
0,4,3,7
0,4,5,4
0,5,0,7
0,5,2,9
0,5,6,4
0,5,8,3
0,6,4,9
0,7,2,7
0,7,4,8
0,7,6,1
0,8,3,1
0,8,5,5
2,0,0,1
2,0,8,3
2,2,1,8
2,2,7,9
2,3,0,9
2,3,8,1
2,5,0,3
2,5,8,9
2,6,1,9
2,6,7,3
2,8,0,7
2,8,8,2
3,0,1,4
3,0,7,3
3,1,4,3
3,7,4,4
3,8,1,9
3,8,7,2
4,0,1,1
4,0,7,4
4,1,2,4
4,1,3,2
4,1,5,8
4,1,6,5
4,2,1,5
4,2,2,8
4,2,6,7
4,2,7,6
4,6,1,3
4,6,2,9
4,6,6,4
4,6,7,7
4,7,2,1
4,7,3,9
4,7,5,2
4,7,6,8
4,8,1,7
4,8,7,9
5,0,1,2
5,0,7,7
5,1,4,7
5,7,4,6
5,8,1,6
5,8,7,8
6,0,0,7
6,0,8,2
6,2,1,1
6,2,7,4
6,3,0,4
6,3,8,7
6,5,0,2
6,5,8,4
6,6,1,4
6,6,7,2
6,8,0,8
6,8,8,6
8,0,3,1
8,0,5,4
8,1,2,9
8,1,4,5
8,1,6,4
8,2,4,8
8,3,0,6
8,3,2,1
8,3,6,8
8,3,8,9
8,4,3,8
8,4,5,5
8,5,0,8
8,5,2,4
8,5,6,5
8,5,8,2
8,6,4,4
8,7,2,8
8,7,4,1
8,7,6,7
8,8,3,7
8,8,5,9
