0,0,2,6
0,0,6,8
0,1,0,5
0,1,8,4
0,3,1,7
0,3,7,1
0,5,1,1
0,5,7,6
0,7,0,2
0,7,8,9
0,8,2,3
0,8,6,7
1,2,3,7
1,2,5,4
1,6,3,2
1,6,5,6
2,0,3,5
2,0,5,3
2,1,0,6
2,1,4,4
2,1,8,5
2,2,4,8
2,4,2,9
2,4,6,5
2,6,4,1
2,7,0,9
2,7,4,2
2,7,8,7
2,8,3,3
2,8,5,9
3,2,4,7
3,4,1,3
3,4,7,5
3,6,4,2
4,0,0,5
4,0,3,3
4,0,4,6
4,0,5,9
4,0,8,4
4,1,2,9
4,1,6,6
4,2,0,7
4,2,8,9
4,3,0,1
4,3,3,9
4,3,5,4
4,3,8,3
4,4,0,9
4,4,8,2
4,5,0,4
4,5,3,1
4,5,5,2
4,5,8,6
4,6,0,2
4,6,8,7
4,7,2,1
4,7,6,2
4,8,0,8
4,8,3,2
4,8,4,3
4,8,5,6
4,8,8,1
5,2,4,9
5,4,1,1
5,4,7,6
5,6,4,7
6,0,3,2
6,0,5,4
6,1,0,7
6,1,4,9
6,1,8,2
6,2,4,5
6,4,2,3
6,4,6,2
6,6,4,4
6,7,0,8
6,7,4,3
6,7,8,1
6,8,3,5
6,8,5,1
7,2,3,8
7,2,5,2
7,6,3,1
7,6,5,9
8,0,2,2
8,0,6,4
8,1,0,9
8,1,8,7
8,3,1,3
8,3,7,4
8,5,1,6
8,5,7,2
8,7,0,3
8,7,8,8
8,8,2,6
8,8,6,3
