0,1,4,2
0,2,0,1
0,2,8,2
0,4,0,9
0,4,8,8
0,6,0,4
0,6,8,5
0,7,4,4
1,0,4,5
1,2,3,8
1,2,5,9
1,3,3,7
1,3,5,3
1,4,0,4
1,4,3,9
1,4,5,2
1,4,8,6
1,5,3,1
1,5,5,5
1,6,3,4
1,6,5,8
1,8,4,2
2,0,1,1
2,0,2,7
2,0,6,2
2,0,7,5
2,1,3,7
2,1,5,8
2,7,3,2
2,7,5,3
2,8,1,5
2,8,2,3
2,8,6,1
2,8,7,2
3,0,4,1
3,1,0,5
3,1,8,2
3,2,4,3
3,6,4,4
3,7,0,3
3,7,8,6
3,8,4,7
4,0,2,4
4,0,6,7
4,1,1,6
4,1,2,2
4,1,6,4
4,1,7,3
4,3,4,3
4,4,3,2
4,4,5,5
4,5,4,8
4,7,1,8
4,7,2,6
4,7,6,9
4,7,7,2
4,8,2,5
4,8,6,6
5,0,4,9
5,1,0,4
5,1,8,8
5,2,4,5
5,6,4,8
5,7,0,9
5,7,8,4
5,8,4,1
6,0,1,8
6,0,2,2
6,0,6,4
6,0,7,6
6,1,3,2
6,1,5,3
6,7,3,4
6,7,5,1
6,8,1,6
6,8,2,1
6,8,6,8
6,8,7,4
7,0,4,6
7,2,3,3
7,2,5,5
7,3,3,2
7,3,5,1
7,4,0,7
7,4,3,5
7,4,5,4
7,4,8,9
7,5,3,8
7,5,5,6
7,6,3,7
7,6,5,3
7,8,4,4
8,1,4,4
8,2,0,8
8,2,8,4
8,4,0,5
8,4,8,3
8,6,0,7
8,6,8,6
8,7,4,7
