0,1,1,4
0,1,2,7
0,1,6,6
0,1,7,1
0,2,3,6
0,2,5,3
0,3,3,7
0,3,5,6
0,5,3,3
0,5,5,5
0,6,3,8
0,6,5,2
0,7,1,1
0,7,2,2
0,7,6,5
0,7,7,3
1,1,2,1
1,1,6,8
1,2,4,1
1,3,0,2
1,3,1,4
1,3,7,7
1,3,8,3
1,4,3,6
1,4,5,3
1,5,0,6
1,5,1,1
1,5,7,9
1,5,8,8
1,6,4,7
1,7,2,9
1,7,6,7
2,1,0,3
2,1,1,8
2,1,7,7
2,1,8,9
2,2,4,5
2,3,0,9
2,3,8,2
2,4,3,8
2,4,5,2
2,5,0,8
2,5,8,4
2,6,4,1
2,7,0,6
2,7,1,7
2,7,7,9
2,7,8,8
3,0,2,7
3,0,4,9
3,0,6,6
3,2,1,1
3,2,7,3
3,3,3,8
3,3,5,9
3,4,2,2
3,4,6,7
3,5,3,7
3,5,5,6
3,6,1,7
3,6,7,2
3,8,2,8
3,8,4,7
3,8,6,3
4,0,0,2
4,0,3,1
4,0,5,6
4,0,8,9
4,1,4,7
4,2,0,6
4,2,1,7
4,2,7,2
4,2,8,8
4,3,1,2
4,3,7,4
4,4,1,1
4,4,7,3
4,5,1,6
4,5,7,1
4,6,0,8
4,6,1,5
4,6,7,9
4,6,8,4
4,7,4,2
4,8,0,7
4,8,3,4
4,8,5,9
4,8,8,1
5,0,2,1
5,0,4,2
5,0,6,8
5,2,1,5
5,2,7,9
5,3,3,4
5,3,5,2
5,4,2,3
5,4,6,1
5,5,3,1
5,5,5,8
5,6,1,1
5,6,7,3
5,8,2,4
5,8,4,1
5,8,6,9
6,1,0,4
6,1,1,5
6,1,7,3
6,1,8,6
6,2,4,3
6,3,0,8
6,3,8,4
6,4,3,7
6,4,5,4
6,5,0,5
6,5,8,7
6,6,4,2
6,7,0,7
6,7,1,2
6,7,7,4
6,7,8,1
7,1,2,3
7,1,6,1
7,2,4,9
7,3,0,4
7,3,1,1
7,3,7,2
7,3,8,6
7,4,3,1
7,4,5,6
7,5,0,7
7,5,1,2
7,5,7,8
7,5,8,1
7,6,4,3
7,7,2,4
7,7,6,9
8,1,1,1
8,1,2,9
8,1,6,5
8,1,7,2
8,2,3,1
8,2,5,4
8,3,3,9
8,3,5,1
8,5,3,6
8,5,5,2
8,6,3,7
8,6,5,6
8,7,1,9
8,7,2,6
8,7,6,2
8,7,7,8
