0,0,3,6
0,0,4,9
0,0,5,4
0,3,1,7
0,3,4,4
0,3,7,2
0,4,4,7
0,5,1,4
0,5,4,8
0,5,7,7
0,8,3,8
0,8,4,2
0,8,5,1
1,0,0,4
1,0,4,2
1,0,8,3
1,2,4,5
1,3,2,4
1,3,6,5
1,5,2,1
1,5,6,6
1,6,4,8
1,8,0,2
1,8,4,7
1,8,8,6
2,0,0,2
2,0,3,3
2,0,5,5
2,0,8,6
2,1,1,4
2,1,7,7
2,2,0,3
2,2,1,7
2,2,7,2
2,2,8,1
2,3,0,1
2,3,8,9
2,4,4,2
2,5,0,7
2,5,8,8
2,6,0,8
2,6,1,2
2,6,7,9
2,6,8,4
2,7,1,9
2,7,7,3
2,8,0,5
2,8,3,6
2,8,5,4
2,8,8,2
3,1,3,9
3,1,5,6
3,2,2,7
3,2,6,9
3,3,1,6
3,3,7,5
3,4,2,3
3,4,6,2
3,5,1,7
3,5,7,6
3,6,2,2
3,6,6,5
3,7,3,6
3,7,5,1
4,0,1,5
4,0,2,3
4,0,3,1
4,0,5,9
4,0,6,2
4,0,7,7
4,2,0,2
4,2,2,9
4,2,6,1
4,2,8,3
4,3,0,5
4,3,4,9
4,3,8,2
4,4,3,5
4,4,5,2
4,5,0,6
4,5,4,4
4,5,8,1
4,6,0,3
4,6,2,5
4,6,6,4
4,6,8,7
4,8,1,2
4,8,2,6
4,8,3,4
4,8,5,7
4,8,6,3
4,8,7,1
5,1,3,7
5,1,5,8
5,2,2,8
5,2,6,7
5,3,1,1
5,3,7,8
5,4,2,6
5,4,6,3
5,5,1,8
5,5,7,2
5,6,2,4
5,6,6,8
5,7,3,8
5,7,5,4
6,0,0,3
6,0,3,9
6,0,5,6
6,0,8,1
6,1,1,1
6,1,7,4
6,2,0,9
6,2,1,4
6,2,7,7
6,2,8,5
6,3,0,7
6,3,8,8
6,4,4,5
6,5,0,4
6,5,8,3
6,6,0,5
6,6,1,3
6,6,7,8
6,6,8,2
6,7,1,2
6,7,7,9
6,8,0,6
6,8,3,2
6,8,5,8
6,8,8,7
7,0,0,6
7,0,4,1
7,0,8,7
7,2,4,3
7,3,2,6
7,3,6,3
7,5,2,8
7,5,6,9
7,6,4,2
7,8,0,1
7,8,4,5
7,8,8,9
8,0,3,7
8,0,4,5
8,0,5,3
8,3,1,2
8,3,4,3
8,3,7,9
8,4,4,1
8,5,1,3
8,5,4,9
8,5,7,8
8,8,3,9
8,8,4,4
8,8,5,6
