0,1,0,6
0,1,4,3
0,1,8,5
0,4,4,9
0,7,0,4
0,7,4,7
0,7,8,3
1,0,1,4
1,0,3,3
1,0,5,2
1,0,7,5
1,4,0,5
1,4,3,4
1,4,4,7
1,4,5,8
1,4,8,3
1,8,1,3
1,8,3,6
1,8,5,5
1,8,7,8
2,2,1,6
2,2,7,7
2,3,2,5
2,3,6,6
2,4,3,2
2,4,5,5
2,5,2,4
2,5,6,2
2,6,1,5
2,6,7,9
3,0,4,3
3,2,3,7
3,2,5,5
3,6,3,1
3,6,5,6
3,8,4,4
4,0,1,5
4,0,4,4
4,0,7,9
4,1,3,8
4,1,5,7
4,2,0,8
4,2,8,7
4,3,0,6
4,3,8,4
4,4,0,7
4,4,4,1
4,4,8,5
4,5,0,2
4,5,8,9
4,6,0,4
4,6,8,3
4,7,3,4
4,7,5,3
4,8,1,7
4,8,4,6
4,8,7,2
5,0,4,7
5,2,3,4
5,2,5,1
5,6,3,2
5,6,5,4
5,8,4,8
6,2,1,5
6,2,7,9
6,3,2,8
6,3,6,4
6,4,3,9
6,4,5,1
6,5,2,1
6,5,6,9
6,6,1,3
6,6,7,8
7,0,1,3
7,0,3,6
7,0,5,4
7,0,7,8
7,4,0,8
7,4,3,3
7,4,4,5
7,4,5,2
7,4,8,7
7,8,1,2
7,8,3,9
7,8,5,8
7,8,7,6
8,1,0,5
8,1,4,6
8,1,8,8
8,4,4,8
8,7,0,8
8,7,4,4
8,7,8,7
