0,0,3,5
0,0,5,3
0,2,4,8
0,3,1,7
0,3,7,1
0,5,1,8
0,5,7,3
0,6,4,1
0,8,3,2
0,8,5,5
1,0,0,6
1,0,1,5
1,0,7,8
1,0,8,3
1,1,3,8
1,1,5,9
1,2,1,9
1,2,7,2
1,3,4,8
1,4,0,8
1,4,8,2
1,5,4,2
1,6,1,8
1,6,7,1
1,7,3,3
1,7,5,2
1,8,0,5
1,8,1,2
1,8,7,3
1,8,8,9
2,2,2,6
2,2,3,1
2,2,5,2
2,2,6,8
2,3,4,1
2,4,0,3
2,4,8,1
2,5,4,3
2,6,2,9
2,6,3,5
2,6,5,3
2,6,6,6
3,0,0,7
3,0,4,6
3,0,8,4
3,1,4,4
3,2,1,5
3,2,4,7
3,2,7,1
3,3,4,5
3,4,0,5
3,4,8,6
3,5,4,1
3,6,1,4
3,6,4,8
3,6,7,6
3,7,4,3
3,8,0,6
3,8,4,9
3,8,8,8
4,0,4,2
4,2,3,5
4,2,5,4
4,3,1,2
4,3,7,9
4,4,0,1
4,4,8,8
4,5,1,5
4,5,7,1
4,6,3,4
4,6,5,9
4,8,4,1
5,0,0,3
5,0,4,5
5,0,8,8
5,1,4,8
5,2,1,2
5,2,4,1
5,2,7,4
5,3,4,7
5,4,0,7
5,4,8,9
5,5,4,9
5,6,1,7
5,6,4,6
5,6,7,9
5,7,4,4
5,8,0,4
5,8,4,2
5,8,8,3
6,2,2,2
6,2,3,8
6,2,5,9
6,2,6,5
6,3,4,2
6,4,0,2
6,4,8,7
6,5,4,7
6,6,2,6
6,6,3,1
6,6,5,8
6,6,6,7
7,0,0,2
7,0,1,3
7,0,7,5
7,0,8,7
7,1,3,5
7,1,5,3
7,2,1,6
7,2,7,9
7,3,4,4
7,4,0,4
7,4,8,5
7,5,4,5
7,6,1,9
7,6,7,8
7,7,3,8
7,7,5,4
7,8,0,3
7,8,1,4
7,8,7,2
7,8,8,1
8,0,3,1
8,0,5,2
8,2,4,5
8,3,1,9
8,3,7,7
8,5,1,4
8,5,7,8
8,6,4,7
8,8,3,4
8,8,5,1
