0,0,2,5
0,0,3,9
0,0,5,6
0,0,6,1
0,1,2,1
0,1,6,6
0,7,2,2
0,7,6,3
0,8,2,3
0,8,3,2
0,8,5,4
0,8,6,7
1,0,0,8
1,0,8,6
1,1,1,9
1,1,4,3
1,1,7,4
1,7,1,3
1,7,4,4
1,7,7,9
1,8,0,7
1,8,8,4
2,1,0,5
2,1,1,4
2,1,7,1
2,1,8,3
2,3,3,9
2,3,5,6
2,4,2,3
2,4,6,6
2,5,3,1
2,5,5,8
2,7,0,6
2,7,1,9
2,7,7,4
2,7,8,2
3,0,2,8
3,0,3,2
3,0,5,9
3,0,6,3
3,1,0,9
3,1,8,6
3,4,4,2
3,7,0,4
3,7,8,3
3,8,2,7
3,8,3,8
3,8,5,2
3,8,6,5
4,0,2,4
4,0,6,2
4,1,0,8
4,1,2,6
4,1,6,4
4,1,8,5
4,2,0,3
4,2,8,7
4,3,1,8
4,3,2,9
4,3,6,7
4,3,7,6
4,5,1,1
4,5,2,7
4,5,6,5
4,5,7,4
4,6,0,7
4,6,8,4
4,7,0,9
4,7,2,1
4,7,6,8
4,7,8,6
4,8,2,8
4,8,6,3
5,0,2,9
5,0,3,8
5,0,5,4
5,0,6,7
5,1,0,4
5,1,8,8
5,4,4,1
5,7,0,3
5,7,8,5
5,8,2,2
5,8,3,5
5,8,5,3
5,8,6,6
6,1,0,7
6,1,1,6
6,1,7,5
6,1,8,4
6,3,3,3
6,3,5,1
6,4,2,4
6,4,6,8
6,5,3,4
6,5,5,5
6,7,0,8
6,7,1,1
6,7,7,6
6,7,8,9
7,0,0,5
7,0,8,3
7,1,1,3
7,1,4,5
7,1,7,6
7,7,1,5
7,7,4,6
7,7,7,3
7,8,0,3
7,8,8,6
8,0,2,7
8,0,3,1
8,0,5,8
8,0,6,5
8,1,2,4
8,1,6,3
8,7,2,9
8,7,6,2
8,8,2,5
8,8,3,9
8,8,5,6
8,8,6,8
