0,0,1,4
0,0,7,9
0,2,3,4
0,2,4,3
0,2,5,6
0,3,0,7
0,3,8,1
0,4,0,1
0,4,8,2
0,5,0,4
0,5,8,5
0,6,3,6
0,6,4,4
0,6,5,3
0,8,1,3
0,8,7,1
1,0,1,9
1,0,7,2
1,1,0,8
1,1,4,6
1,1,8,9
1,2,0,2
1,2,8,5
1,3,0,5
1,3,1,4
1,3,7,9
1,3,8,3
1,4,4,7
1,5,0,9
1,5,1,1
1,5,7,8
1,5,8,6
1,6,0,6
1,6,8,1
1,7,0,1
1,7,4,5
1,7,8,2
1,8,1,8
1,8,7,3
2,1,0,1
2,1,8,2
2,3,4,4
2,4,3,1
2,4,5,2
2,5,4,8
2,7,0,3
2,7,8,4
3,3,2,4
3,3,6,8
3,4,2,7
3,4,6,4
3,5,2,8
3,5,6,7
4,0,3,1
4,0,4,7
4,0,5,4
4,1,0,4
4,1,2,7
4,1,4,3
4,1,6,9
4,1,8,6
4,4,0,9
4,4,1,8
4,4,7,3
4,4,8,5
4,7,0,2
4,7,2,5
4,7,4,8
4,7,6,4
4,7,8,7
4,8,3,7
4,8,4,4
4,8,5,1
5,3,2,9
5,3,6,3
5,4,2,5
5,4,6,9
5,5,2,3
5,5,6,5
6,1,0,7
6,1,8,3
6,3,4,1
6,4,3,6
6,4,5,8
6,5,4,7
6,7,0,6
6,7,8,8
7,0,1,8
7,0,7,3
7,1,0,6
7,1,4,9
7,1,8,1
7,2,0,1
7,2,8,2
7,3,0,2
7,3,1,3
7,3,7,1
7,3,8,5
7,4,4,4
7,5,0,8
7,5,1,5
7,5,7,7
7,5,8,9
7,6,0,9
7,6,8,6
7,7,0,5
7,7,4,2
7,7,8,3
7,8,1,6
7,8,7,5
8,0,1,3
8,0,7,1
8,2,3,1
8,2,4,7
8,2,5,2
8,3,0,9
8,3,8,7
8,4,0,6
8,4,8,3
8,5,0,3
8,5,8,4
8,6,3,2
8,6,4,1
8,6,5,7
8,8,1,5
8,8,7,7
