0,0,1,9
0,0,7,6
0,3,3,1
0,3,4,2
0,3,5,5
0,4,0,4
0,4,3,3
0,4,4,6
0,4,5,9
0,4,8,8
0,5,3,8
0,5,4,7
0,5,5,4
0,8,1,6
0,8,7,1
1,1,2,7
1,1,6,2
1,2,2,2
1,2,6,6
1,3,1,7
1,3,4,9
1,3,7,8
1,4,0,3
1,4,3,7
1,4,5,8
1,4,8,6
1,5,1,6
1,5,4,5
1,5,7,3
1,6,2,1
1,6,6,8
1,7,2,3
1,7,6,1
2,0,0,3
2,0,8,2
2,3,0,2
2,3,2,3
2,3,6,1
2,3,8,9
2,4,0,6
2,4,8,4
2,5,0,7
2,5,2,1
2,5,6,8
2,5,8,5
2,8,0,4
2,8,8,8
3,0,0,1
3,0,1,5
3,0,7,8
3,0,8,9
3,1,0,3
3,1,8,4
3,3,2,9
3,3,4,5
3,3,6,4
3,4,1,8
3,4,7,6
3,5,2,5
3,5,4,4
3,5,6,9
3,7,0,5
3,7,8,2
3,8,0,9
3,8,1,2
3,8,7,4
3,8,8,6
4,0,3,1
4,0,5,6
4,1,2,5
4,1,6,9
4,2,4,5
4,4,2,3
4,4,6,1
4,6,4,7
4,7,2,6
4,7,6,7
4,8,3,4
4,8,5,3
5,0,0,9
5,0,1,6
5,0,7,4
5,0,8,7
5,1,0,4
5,1,8,2
5,3,2,2
5,3,4,7
5,3,6,6
5,4,1,5
5,4,7,8
5,5,2,7
5,5,4,6
5,5,6,2
5,7,0,2
5,7,8,1
5,8,0,6
5,8,1,8
5,8,7,7
5,8,8,3
6,0,0,8
6,0,8,6
6,3,0,6
6,3,2,8
6,3,6,3
6,3,8,4
6,4,0,7
6,4,8,5
6,5,0,2
6,5,2,3
6,5,6,1
6,5,8,9
6,8,0,5
6,8,8,1
7,1,2,3
7,1,6,1
7,2,2,8
7,2,6,3
7,3,1,1
7,3,4,6
7,3,7,5
7,4,0,5
7,4,3,8
7,4,5,4
7,4,8,1
7,5,1,8
7,5,4,2
7,5,7,4
7,6,2,4
7,6,6,5
7,7,2,5
7,7,6,9
8,0,1,3
8,0,7,9
8,3,3,7
8,3,4,4
8,3,5,8
8,4,0,8
8,4,3,2
8,4,4,5
8,4,5,1
8,4,8,7
8,5,3,6
8,5,4,9
8,5,5,3
8,8,1,4
8,8,7,6
