0,0,1,1
0,0,7,9
0,2,4,5
0,4,0,7
0,4,1,3
0,4,3,5
0,4,5,8
0,4,7,4
0,4,8,6
0,6,4,8
0,8,1,8
0,8,7,5
1,0,4,9
1,1,2,9
1,1,4,7
1,1,6,1
1,3,3,2
1,3,5,5
1,4,4,4
1,5,3,9
1,5,5,1
1,7,2,6
1,7,4,1
1,7,6,5
1,8,4,5
2,0,0,3
2,0,1,9
2,0,7,2
2,0,8,1
2,1,1,2
2,1,7,8
2,2,1,8
2,2,7,5
2,3,0,6
2,3,3,4
2,3,4,7
2,3,5,3
2,3,8,2
2,4,1,4
2,4,7,7
2,5,0,9
2,5,3,8
2,5,4,5
2,5,5,2
2,5,8,4
2,6,1,6
2,6,7,3
2,7,1,3
2,7,7,4
2,8,0,1
2,8,1,5
2,8,7,6
2,8,8,8
3,0,0,5
3,0,8,9
3,1,3,8
3,1,5,2
3,2,0,4
3,2,3,1
3,2,5,6
3,2,8,5
3,4,0,6
3,4,2,4
3,4,6,3
3,4,8,2
3,6,0,8
3,6,3,2
3,6,5,9
3,6,8,3
3,7,3,6
3,7,5,4
3,8,0,3
3,8,8,1
4,0,2,2
4,0,6,5
4,1,1,5
4,1,7,2
4,4,4,5
4,7,1,8
4,7,7,5
4,8,2,5
4,8,6,8
5,0,0,7
5,0,8,6
5,1,3,9
5,1,5,1
5,2,0,6
5,2,3,4
5,2,5,3
5,2,8,2
5,4,0,1
5,4,2,7
5,4,6,9
5,4,8,8
5,6,0,5
5,6,3,3
5,6,5,6
5,6,8,9
5,7,3,8
5,7,5,7
5,8,0,4
5,8,8,5
6,0,0,1
6,0,1,5
6,0,7,6
6,0,8,8
6,1,1,6
6,1,7,3
6,2,1,3
6,2,7,4
6,3,0,7
6,3,3,9
6,3,4,2
6,3,5,1
6,3,8,6
6,4,1,9
6,4,7,2
6,5,0,5
6,5,3,3
6,5,4,4
6,5,5,6
6,5,8,9
6,6,1,7
6,6,7,1
6,7,1,1
6,7,7,9
6,8,0,8
6,8,1,4
6,8,7,7
6,8,8,3
7,0,4,5
7,1,2,5
7,1,4,2
7,1,6,8
7,3,3,6
7,3,5,4
7,4,4,9
7,5,3,5
7,5,5,8
7,7,2,7
7,7,4,8
7,7,6,4
7,8,4,4
8,0,1,8
8,0,7,5
8,2,4,4
8,4,0,2
8,4,1,1
8,4,3,4
8,4,5,3
8,4,7,9
8,4,8,7
8,6,4,3
8,8,1,3
8,8,7,4
