0,2,3,3
0,2,5,4
0,3,3,4
0,3,5,7
0,5,3,2
0,5,5,3
0,6,3,1
0,6,5,9
1,0,2,2
1,0,6,7
1,4,0,7
1,4,8,5
1,8,2,4
1,8,6,5
2,0,2,8
2,0,6,1
2,2,2,4
2,2,3,6
2,2,5,8
2,2,6,5
2,3,2,7
2,3,6,6
2,5,2,1
2,5,6,3
2,6,2,9
2,6,3,2
2,6,5,3
2,6,6,4
2,8,2,2
2,8,6,7
3,0,0,9
3,0,8,6
3,1,0,5
3,1,2,8
3,1,6,1
3,1,8,7
3,2,0,4
3,2,3,7
3,2,5,9
3,2,8,2
3,4,0,1
3,4,1,9
3,4,4,7
3,4,7,3
3,4,8,4
3,6,0,6
3,6,3,8
3,6,5,7
3,6,8,3
3,7,0,7
3,7,2,4
3,7,6,5
3,7,8,8
3,8,0,2
3,8,8,1
4,0,0,1
4,0,8,5
4,2,0,8
4,2,8,9
4,6,0,9
4,6,8,7
4,8,0,4
4,8,8,6
5,0,0,2
5,0,8,1
5,1,0,6
5,1,2,4
5,1,6,5
5,1,8,3
5,2,0,7
5,2,3,1
5,2,5,2
5,2,8,8
5,4,0,5
5,4,1,7
5,4,4,1
5,4,7,9
5,4,8,6
5,6,0,3
5,6,3,9
5,6,5,1
5,6,8,5
5,7,0,8
5,7,2,2
5,7,6,7
5,7,8,4
5,8,0,1
5,8,8,9
6,0,2,1
6,0,6,3
6,2,2,5
6,2,3,2
6,2,5,1
6,2,6,9
6,3,2,6
6,3,6,2
6,5,2,3
6,5,6,8
6,6,2,4
6,6,3,7
6,6,5,8
6,6,6,5
6,8,2,7
6,8,6,6
7,0,2,7
7,0,6,6
7,4,0,6
7,4,8,9
7,8,2,5
7,8,6,9
8,2,3,8
8,2,5,5
8,3,3,5
8,3,5,6
8,5,3,7
8,5,5,8
8,6,3,3
8,6,5,4
