0,0,4,1
0,1,3,7
0,1,5,8
0,2,3,2
0,2,5,4
0,3,2,7
0,3,6,2
0,5,2,6
0,5,6,7
0,6,3,9
0,6,5,6
0,7,3,5
0,7,5,7
0,8,4,3
1,0,1,1
1,0,7,6
1,1,0,6
1,1,4,4
1,1,8,1
1,3,2,5
1,3,6,9
1,5,2,9
1,5,6,1
1,7,0,5
1,7,4,2
1,7,8,8
1,8,1,3
1,8,7,5
2,0,0,9
2,0,8,3
2,4,2,8
2,4,6,3
2,8,0,8
2,8,8,6
3,1,1,8
3,1,3,9
3,1,4,1
3,1,5,7
3,1,7,6
3,3,1,3
3,3,7,5
3,4,4,8
3,5,1,9
3,5,7,2
3,7,1,1
3,7,3,4
3,7,4,7
3,7,5,5
3,7,7,8
4,0,1,3
4,0,7,5
4,1,4,8
4,2,1,9
4,2,2,1
4,2,3,5
4,2,5,2
4,2,6,3
4,2,7,7
4,3,0,2
4,3,1,5
4,3,3,8
4,3,5,7
4,3,7,6
4,3,8,9
4,4,1,1
4,4,7,8
4,5,0,3
4,5,1,6
4,5,3,2
4,5,5,1
4,5,7,4
4,5,8,7
4,6,1,2
4,6,2,9
4,6,3,7
4,6,5,4
4,6,6,8
4,6,7,3
4,7,4,1
4,8,1,4
4,8,7,9
5,1,1,1
5,1,3,4
5,1,4,2
5,1,5,5
5,1,7,8
5,3,1,7
5,3,7,3
5,4,4,1
5,5,1,4
5,5,7,9
5,7,1,6
5,7,3,2
5,7,4,8
5,7,5,3
5,7,7,1
6,0,0,5
6,0,8,8
6,4,2,4
6,4,6,8
6,8,0,4
6,8,8,7
7,0,1,2
7,0,7,4
7,1,0,8
7,1,4,5
7,1,8,7
7,3,2,2
7,3,6,6
7,5,2,7
7,5,6,2
7,7,0,6
7,7,4,3
7,7,8,9
7,8,1,1
7,8,7,2
8,0,4,4
8,1,3,1
8,1,5,6
8,2,3,9
8,2,5,7
8,3,2,1
8,3,6,5
8,5,2,5
8,5,6,9
8,6,3,3
8,6,5,1
8,7,3,8
8,7,5,9
8,8,4,7
