0,0,0,9
0,0,8,2
0,1,1,2
0,1,2,8
0,1,6,7
0,1,7,4
0,4,4,4
0,7,1,4
0,7,2,3
0,7,6,2
0,7,7,8
0,8,0,8
0,8,8,5
1,0,1,8
1,0,4,9
1,0,7,1
1,1,0,1
1,1,8,6
1,3,4,2
1,4,2,3
1,4,3,9
1,4,5,7
1,4,6,2
1,5,4,3
1,7,0,9
1,7,8,1
1,8,1,1
1,8,4,8
1,8,7,4
2,0,0,7
2,0,8,9
2,1,0,6
2,1,2,3
2,1,6,2
2,1,8,5
2,2,1,5
2,2,2,2
2,2,6,1
2,2,7,7
2,6,1,8
2,6,2,9
2,6,6,5
2,6,7,1
2,7,0,1
2,7,2,5
2,7,6,4
2,7,8,6
2,8,0,3
2,8,8,8
3,1,4,7
3,2,0,6
3,2,4,1
3,2,8,5
3,4,2,6
3,4,6,8
3,6,0,3
3,6,4,5
3,6,8,8
3,7,4,4
4,0,0,4
4,0,8,3
4,2,0,5
4,2,8,1
4,6,0,8
4,6,8,5
4,8,0,6
4,8,8,9
5,1,4,9
5,2,0,1
5,2,4,5
5,2,8,6
5,4,2,1
5,4,6,3
5,6,0,5
5,6,4,8
5,6,8,3
5,7,4,2
6,0,0,6
6,0,8,5
6,1,0,8
6,1,2,2
6,1,6,1
6,1,8,4
6,2,1,4
6,2,2,1
6,2,6,3
6,2,7,6
6,6,1,7
6,6,2,5
6,6,6,4
6,6,7,3
6,7,0,3
6,7,2,4
6,7,6,9
6,7,8,8
6,8,0,2
6,8,8,7
7,0,1,2
7,0,4,6
7,0,7,4
7,1,0,4
7,1,8,3
7,3,4,4
7,4,2,5
7,4,3,7
7,4,5,1
7,4,6,4
7,5,4,5
7,7,0,8
7,7,8,5
7,8,1,5
7,8,4,2
7,8,7,6
8,0,0,1
8,0,8,6
8,1,1,6
8,1,2,9
8,1,6,5
8,1,7,2
8,4,4,3
8,7,1,1
8,7,2,7
8,7,6,6
8,7,7,4
8,8,0,4
8,8,8,2
