0,0,2,1
0,0,6,4
0,1,0,2
0,1,1,3
0,1,7,1
0,1,8,6
0,2,0,4
0,2,1,9
0,2,7,8
0,2,8,2
0,3,0,8
0,3,4,5
0,3,8,1
0,4,0,9
0,4,1,5
0,4,4,1
0,4,7,3
0,4,8,8
0,5,0,1
0,5,4,8
0,5,8,4
0,6,0,5
0,6,1,4
0,6,7,2
0,6,8,3
0,7,0,7
0,7,1,1
0,7,7,4
0,7,8,9
0,8,2,2
0,8,6,1
1,0,3,7
1,0,5,6
1,2,0,8
1,2,8,1
1,4,0,3
1,4,2,2
1,4,4,9
1,4,6,1
1,4,8,7
1,6,0,2
1,6,8,6
1,8,3,8
1,8,5,3
2,1,1,5
2,1,7,2
2,3,2,9
2,3,4,6
2,3,6,3
2,5,2,8
2,5,4,4
2,5,6,7
2,7,1,2
2,7,7,7
3,2,1,3
3,2,7,1
3,3,3,5
3,3,5,1
3,4,0,8
3,4,2,9
3,4,3,2
3,4,5,4
3,4,6,6
3,4,8,5
3,5,3,7
3,5,5,6
3,6,1,7
3,6,7,3
4,0,3,2
4,0,4,3
4,0,5,9
4,1,0,3
4,1,8,8
4,2,4,8
4,4,0,5
4,4,2,3
4,4,4,6
4,4,6,4
4,4,8,1
4,6,4,2
4,7,0,2
4,7,8,5
4,8,3,1
4,8,4,9
4,8,5,8
5,2,1,5
5,2,7,4
5,3,3,6
5,3,5,9
5,4,0,7
5,4,2,6
5,4,3,1
5,4,5,8
5,4,6,3
5,4,8,2
5,5,3,4
5,5,5,3
5,6,1,9
5,6,7,5
6,1,1,9
6,1,7,8
6,3,2,4
6,3,4,1
6,3,6,2
6,5,2,3
6,5,4,5
6,5,6,6
6,7,1,8
6,7,7,6
7,0,3,3
7,0,5,2
7,2,0,5
7,2,8,8
7,4,0,4
7,4,2,5
7,4,4,7
7,4,6,8
7,4,8,3
7,6,0,9
7,6,8,2
7,8,3,9
7,8,5,4
8,0,2,4
8,0,6,8
8,1,0,7
8,1,1,1
8,1,7,5
8,1,8,4
8,2,0,3
8,2,1,8
8,2,7,6
8,2,8,7
8,3,0,6
8,3,4,2
8,3,8,9
8,4,0,2
8,4,1,3
8,4,4,4
8,4,7,1
8,4,8,6
8,5,0,5
8,5,4,6
8,5,8,2
8,6,0,8
8,6,1,2
8,6,7,7
8,6,8,1
8,7,0,4
8,7,1,9
8,7,7,3
8,7,8,8
8,8,2,7
8,8,6,4
