0,1,1,4
0,1,2,2
0,1,6,3
0,1,7,7
0,2,1,5
0,2,4,2
0,2,7,1
0,4,1,7
0,4,7,8
0,6,1,3
0,6,4,6
0,6,7,4
0,7,1,8
0,7,2,1
0,7,6,6
0,7,7,5
1,2,3,1
1,2,5,8
1,3,0,9
1,3,2,1
1,3,3,3
1,3,5,4
1,3,6,6
1,3,8,2
1,5,0,5
1,5,2,7
1,5,3,2
1,5,5,9
1,5,6,1
1,5,8,8
1,6,3,5
1,6,5,1
2,2,2,1
2,2,6,6
2,3,1,5
2,3,7,1
2,5,1,4
2,5,7,7
2,6,2,9
2,6,6,5
3,2,3,8
3,2,5,2
3,4,3,7
3,4,5,1
3,6,3,3
3,6,5,6
4,1,1,8
4,1,7,1
4,2,3,4
4,2,5,7
4,4,4,6
4,6,3,9
4,6,5,8
4,7,1,2
4,7,7,9
5,2,3,6
5,2,5,5
5,4,3,2
5,4,5,9
5,6,3,1
5,6,5,4
6,2,2,7
6,2,6,1
6,3,1,4
6,3,7,7
6,5,1,9
6,5,7,6
6,6,2,5
6,6,6,4
7,2,3,5
7,2,5,1
7,3,0,8
7,3,2,9
7,3,3,7
7,3,5,3
7,3,6,5
7,3,8,6
7,5,0,3
7,5,2,5
7,5,3,6
7,5,5,2
7,5,6,4
7,5,8,1
7,6,3,8
7,6,5,5
8,1,1,7
8,1,2,5
8,1,6,4
8,1,7,8
8,2,1,1
8,2,4,4
8,2,7,2
8,4,1,8
8,4,7,5
8,6,1,9
8,6,4,3
8,6,7,6
8,7,1,4
8,7,2,2
8,7,6,3
8,7,7,7
