0,0,1,5
0,0,2,8
0,0,6,3
0,0,7,2
0,1,3,9
0,1,5,6
0,3,4,5
0,4,2,5
0,4,4,4
0,4,6,9
0,5,4,9
0,7,3,3
0,7,5,5
0,8,1,3
0,8,2,6
0,8,6,2
0,8,7,9
1,0,4,5
1,2,4,9
1,3,1,3
1,3,7,5
1,5,1,1
1,5,7,9
1,6,4,8
1,8,4,3
2,2,3,1
2,2,5,4
2,4,0,2
2,4,8,5
2,6,3,2
2,6,5,3
3,2,2,5
3,2,6,9
3,3,0,5
3,3,1,1
3,3,4,7
3,3,7,9
3,3,8,8
3,4,1,3
3,4,7,5
3,5,0,9
3,5,1,8
3,5,4,2
3,5,7,4
3,5,8,3
3,6,2,1
3,6,6,8
4,0,2,3
4,0,6,1
4,1,3,4
4,1,5,7
4,3,1,2
4,3,7,1
4,4,4,5
4,5,1,6
4,5,7,8
4,7,3,1
4,7,5,9
4,8,2,7
4,8,6,6
5,2,2,7
5,2,6,6
5,3,0,7
5,3,1,9
5,3,4,1
5,3,7,6
5,3,8,4
5,4,1,5
5,4,7,2
5,5,0,2
5,5,1,4
5,5,4,8
5,5,7,7
5,5,8,5
5,6,2,4
5,6,6,5
6,2,3,2
6,2,5,8
6,4,0,5
6,4,8,8
6,6,3,9
6,6,5,6
7,0,4,3
7,2,4,1
7,3,1,6
7,3,7,8
7,5,1,7
7,5,7,3
7,6,4,2
7,8,4,6
8,0,1,3
8,0,2,7
8,0,6,6
8,0,7,4
8,1,3,1
8,1,5,4
8,3,4,8
8,4,2,8
8,4,4,1
8,4,6,3
8,5,4,3
8,7,3,6
8,7,5,1
8,8,1,7
8,8,2,9
8,8,6,4
8,8,7,8
