0,1,4,3
0,2,0,2
0,2,1,5
0,2,7,3
0,2,8,8
0,3,0,9
0,3,3,4
0,3,5,5
0,3,8,2
0,4,4,1
0,5,0,4
0,5,3,6
0,5,5,2
0,5,8,3
0,6,0,3
0,6,1,2
0,6,7,6
0,6,8,7
0,7,4,2
1,0,0,9
1,0,8,2
1,1,2,2
1,1,6,3
1,2,0,3
1,2,4,4
1,2,8,7
1,3,1,2
1,3,7,6
1,4,3,7
1,4,5,6
1,5,1,3
1,5,7,2
1,6,0,1
1,6,4,6
1,6,8,5
1,7,2,6
1,7,6,2
1,8,0,2
1,8,8,8
2,0,0,4
2,0,8,3
2,3,1,4
2,3,4,6
2,3,7,9
2,4,2,6
2,4,4,4
2,4,6,2
2,5,1,5
2,5,4,9
2,5,7,4
2,8,0,7
2,8,8,4
3,0,1,5
3,0,7,3
3,1,0,2
3,1,8,8
3,2,2,3
3,2,6,5
3,3,2,2
3,3,6,7
3,4,1,4
3,4,7,2
3,5,2,8
3,5,6,4
3,6,2,1
3,6,6,2
3,7,0,3
3,7,8,7
3,8,1,2
3,8,7,1
4,0,0,3
4,0,1,9
4,0,4,4
4,0,7,5
4,0,8,7
4,2,0,7
4,2,3,5
4,2,5,9
4,2,8,4
4,3,1,5
4,3,7,4
4,4,0,2
4,4,4,9
4,4,8,8
4,5,1,1
4,5,7,3
4,6,0,6
4,6,3,9
4,6,5,7
4,6,8,1
4,8,0,5
4,8,1,3
4,8,4,1
4,8,7,9
4,8,8,6
5,0,1,7
5,0,7,8
5,1,0,1
5,1,8,5
5,2,2,8
5,2,6,3
5,3,2,1
5,3,6,2
5,4,1,8
5,4,7,6
5,5,2,6
5,5,6,8
5,6,2,3
5,6,6,6
5,7,0,2
5,7,8,8
5,8,1,1
5,8,7,4
6,0,0,7
6,0,8,4
6,3,1,7
6,3,4,1
6,3,7,2
6,4,2,1
6,4,4,7
6,4,6,8
6,5,1,6
6,5,4,2
6,5,7,7
6,8,0,3
6,8,8,7
7,0,0,2
7,0,8,8
7,1,2,8
7,1,6,4
7,2,0,4
7,2,4,7
7,2,8,3
7,3,1,8
7,3,7,1
7,4,3,3
7,4,5,1
7,5,1,4
7,5,7,8
7,6,0,5
7,6,4,1
7,6,8,6
7,7,2,1
7,7,6,8
7,8,0,8
7,8,8,9
8,1,4,4
8,2,0,8
8,2,1,6
8,2,7,4
8,2,8,9
8,3,0,2
8,3,3,7
8,3,5,6
8,3,8,8
8,4,4,5
8,5,0,7
8,5,3,1
8,5,5,8
8,5,8,4
8,6,0,4
8,6,1,8
8,6,7,1
8,6,8,3
8,7,4,8
