0,1,4,8
0,3,3,3
0,3,4,2
0,3,5,9
0,4,0,4
0,4,8,1
0,5,3,1
0,5,4,6
0,5,5,4
0,7,4,5
1,1,4,9
1,2,3,6
1,2,5,8
1,3,4,1
1,4,0,7
1,4,1,5
1,4,3,9
1,4,5,2
1,4,7,6
1,4,8,4
1,5,4,8
1,6,3,1
1,6,5,4
1,7,4,6
2,1,0,9
2,1,2,7
2,1,6,6
2,1,8,3
2,3,1,6
2,3,3,7
2,3,5,8
2,3,7,1
2,4,2,9
2,4,6,5
2,5,1,7
2,5,3,2
2,5,5,3
2,5,7,8
2,7,0,6
2,7,2,8
2,7,6,3
2,7,8,5
3,0,3,4
3,0,5,2
3,1,2,1
3,1,6,8
3,7,2,6
3,7,6,2
3,8,3,3
3,8,5,9
4,2,1,8
4,2,4,2
4,2,7,5
4,3,0,6
4,3,4,8
4,3,8,9
4,4,2,8
4,4,3,4
4,4,5,6
4,4,6,3
4,5,0,7
4,5,4,3
4,5,8,4
4,6,1,6
4,6,4,4
4,6,7,3
5,0,3,6
5,0,5,8
5,1,2,9
5,1,6,5
5,7,2,3
5,7,6,1
5,8,3,4
5,8,5,7
6,1,0,7
6,1,2,8
6,1,6,3
6,1,8,5
6,3,1,3
6,3,3,8
6,3,5,5
6,3,7,9
6,4,2,2
6,4,6,7
6,5,1,1
6,5,3,3
6,5,5,9
6,5,7,4
6,7,0,8
6,7,2,9
6,7,6,5
6,7,8,2
7,1,4,5
7,2,3,2
7,2,5,1
7,3,4,3
7,4,0,6
7,4,1,4
7,4,3,5
7,4,5,7
7,4,7,2
7,4,8,9
7,5,4,1
7,6,3,3
7,6,5,9
7,7,4,2
8,1,4,7
8,3,3,6
8,3,4,4
8,3,5,1
8,4,0,1
8,4,8,6
8,5,3,7
8,5,4,5
8,5,5,8
8,7,4,3
