0,2,3,3
0,2,5,6
0,3,1,8
0,3,4,1
0,3,7,3
0,4,1,1
0,4,4,3
0,4,7,8
0,5,1,3
0,5,4,8
0,5,7,1
0,6,3,4
0,6,5,3
1,1,2,1
1,1,3,4
1,1,4,6
1,1,5,3
1,1,6,9
1,2,1,6
1,2,4,2
1,2,7,7
1,4,4,9
1,6,1,3
1,6,4,8
1,6,7,1
1,7,2,9
1,7,3,2
1,7,4,1
1,7,5,5
1,7,6,7
2,0,3,6
2,0,5,4
2,3,0,4
2,3,2,3
2,3,6,5
2,3,8,1
2,4,1,7
2,4,7,2
2,5,0,5
2,5,2,1
2,5,6,9
2,5,8,8
2,8,3,8
2,8,5,6
3,2,2,4
3,2,6,3
3,4,1,5
3,4,4,1
3,4,7,6
3,6,2,7
3,6,6,6
4,0,2,7
4,0,6,6
4,1,1,1
4,1,4,7
4,1,7,5
4,2,2,2
4,2,6,7
4,3,1,6
4,3,2,4
4,3,3,7
4,3,4,5
4,3,5,9
4,3,6,3
4,3,7,1
4,4,1,2
4,4,3,6
4,4,4,4
4,4,5,8
4,4,7,9
4,5,1,7
4,5,2,5
4,5,3,2
4,5,4,3
4,5,5,1
4,5,6,4
4,5,7,8
4,6,2,8
4,6,6,1
4,7,1,3
4,7,4,8
4,7,7,6
4,8,2,9
4,8,6,8
5,2,2,1
5,2,6,9
5,4,1,8
5,4,4,7
5,4,7,3
5,6,2,5
5,6,6,4
6,0,3,2
6,0,5,9
6,3,0,9
6,3,2,8
6,3,6,4
6,3,8,3
6,4,1,6
6,4,7,7
6,5,0,4
6,5,2,3
6,5,6,5
6,5,8,1
6,8,3,1
6,8,5,2
7,1,2,7
7,1,3,3
7,1,4,4
7,1,5,6
7,1,6,8
7,2,1,4
7,2,4,9
7,2,7,5
7,4,4,8
7,6,1,7
7,6,4,6
7,6,7,2
7,7,2,8
7,7,3,5
7,7,4,2
7,7,5,1
7,7,6,4
8,2,3,5
8,2,5,1
8,3,1,4
8,3,4,9
8,3,7,5
8,4,1,9
8,4,4,5
8,4,7,4
8,5,1,5
8,5,4,4
8,5,7,9
8,6,3,2
8,6,5,5
