0,2,1,6
0,2,7,8
0,4,4,8
0,6,1,8
0,6,7,5
1,0,3,3
1,0,5,9
1,1,0,6
1,1,1,5
1,1,7,2
1,1,8,9
1,2,2,9
1,2,6,4
1,3,1,1
1,3,7,4
1,5,1,2
1,5,7,8
1,6,2,7
1,6,6,6
1,7,0,2
1,7,1,9
1,7,7,7
1,7,8,4
1,8,3,7
1,8,5,3
2,2,1,2
2,2,7,1
2,6,1,1
2,6,7,4
3,2,1,8
3,2,3,1
3,2,5,5
3,2,7,4
3,6,1,9
3,6,3,5
3,6,5,2
3,6,7,7
4,1,2,9
4,1,4,5
4,1,6,4
4,2,0,5
4,2,1,1
4,2,4,7
4,2,7,9
4,2,8,8
4,3,0,7
4,3,4,3
4,3,8,4
4,4,1,2
4,4,2,5
4,4,3,7
4,4,5,8
4,4,6,9
4,4,7,1
4,5,0,4
4,5,4,2
4,5,8,3
4,6,0,2
4,6,1,5
4,6,4,1
4,6,7,6
4,6,8,9
4,7,2,4
4,7,4,9
4,7,6,5
5,2,1,3
5,2,3,8
5,2,5,9
5,2,7,5
5,6,1,4
5,6,3,9
5,6,5,6
5,6,7,2
6,2,1,5
6,2,7,2
6,6,1,6
6,6,7,3
7,0,3,7
7,0,5,8
7,1,0,9
7,1,1,8
7,1,7,4
7,1,8,1
7,2,2,3
7,2,6,8
7,3,1,7
7,3,7,8
7,5,1,9
7,5,7,2
7,6,2,9
7,6,6,4
7,7,0,4
7,7,1,3
7,7,7,5
7,7,8,8
7,8,3,4
7,8,5,2
8,2,1,9
8,2,7,6
8,4,4,2
8,6,1,7
8,6,7,8
