0,0,3,3
0,0,5,7
0,1,0,8
0,1,4,6
0,1,8,4
0,2,0,4
0,2,8,6
0,6,0,2
0,6,8,3
0,7,0,3
0,7,4,2
0,7,8,9
0,8,3,7
0,8,5,4
1,0,3,6
1,0,5,9
1,2,0,2
1,2,2,6
1,2,6,4
1,2,8,5
1,3,4,3
1,4,0,4
1,4,1,8
1,4,4,9
1,4,7,7
1,4,8,3
1,5,4,4
1,6,0,1
1,6,2,3
1,6,6,2
1,6,8,6
1,8,3,9
1,8,5,2
2,2,1,8
2,2,7,7
2,4,0,2
2,4,2,3
2,4,4,8
2,4,6,4
2,4,8,6
2,6,1,9
2,6,7,8
3,0,1,5
3,0,7,8
3,1,2,7
3,1,6,3
3,3,0,3
3,3,1,1
3,3,7,9
3,3,8,8
3,4,2,9
3,4,3,8
3,4,5,1
3,4,6,5
3,5,0,2
3,5,1,8
3,5,7,7
3,5,8,4
3,7,2,4
3,7,6,2
3,8,1,2
3,8,7,1
4,3,2,8
4,3,3,6
4,3,5,5
4,3,6,3
4,5,2,3
4,5,3,1
4,5,5,4
4,5,6,2
5,0,1,7
5,0,7,5
5,1,2,8
5,1,6,6
5,3,0,6
5,3,1,9
5,3,7,2
5,3,8,5
5,4,2,2
5,4,3,5
5,4,5,9
5,4,6,7
5,5,0,1
5,5,1,5
5,5,7,8
5,5,8,3
5,7,2,3
5,7,6,1
5,8,1,1
5,8,7,9
6,2,1,1
6,2,7,2
6,4,0,9
6,4,2,4
6,4,4,1
6,4,6,3
6,4,8,8
6,6,1,5
6,6,7,1
7,0,3,4
7,0,5,5
7,2,0,3
7,2,2,4
7,2,6,6
7,2,8,8
7,3,4,7
7,4,0,6
7,4,1,1
7,4,4,5
7,4,7,2
7,4,8,7
7,5,4,6
7,6,0,9
7,6,2,7
7,6,6,3
7,6,8,4
7,8,3,5
7,8,5,3
8,0,3,8
8,0,5,2
8,1,0,1
8,1,4,7
8,1,8,9
8,2,0,9
8,2,8,7
8,6,0,6
8,6,8,8
8,7,0,8
8,7,4,6
8,7,8,5
8,8,3,2
8,8,5,9
