0,0,3,7
0,0,4,5
0,0,5,8
0,3,4,2
0,4,2,9
0,4,6,4
0,5,4,6
0,8,3,5
0,8,4,8
0,8,5,7
1,0,3,2
1,0,5,3
1,4,1,4
1,4,7,7
1,8,3,3
1,8,5,9
2,0,2,8
2,0,4,6
2,0,6,3
2,2,2,9
2,2,6,4
2,4,0,8
2,4,1,7
2,4,7,9
2,4,8,3
2,6,2,6
2,6,6,7
2,8,2,7
2,8,4,4
2,8,6,9
3,0,2,1
3,0,6,6
3,1,0,5
3,1,3,9
3,1,4,1
3,1,5,7
3,1,8,3
3,2,0,7
3,2,4,6
3,2,8,9
3,3,3,6
3,3,5,4
3,4,0,9
3,4,8,6
3,5,3,1
3,5,5,9
3,6,0,6
3,6,4,9
3,6,8,5
3,7,0,2
3,7,3,5
3,7,4,4
3,7,5,6
3,7,8,7
3,8,2,9
3,8,6,4
4,0,4,7
4,1,1,2
4,1,2,7
4,1,6,5
4,1,7,9
4,3,0,1
4,3,2,9
4,3,6,4
4,3,8,5
4,4,0,6
4,4,8,7
4,5,0,2
4,5,2,3
4,5,6,9
4,5,8,8
4,7,1,9
4,7,2,1
4,7,6,6
4,7,7,8
4,8,4,1
5,0,2,3
5,0,6,9
5,1,0,1
5,1,3,5
5,1,4,3
5,1,5,2
5,1,8,7
5,2,0,6
5,2,4,9
5,2,8,8
5,3,3,9
5,3,5,5
5,4,0,5
5,4,8,9
5,5,3,3
5,5,5,8
5,6,0,9
5,6,4,7
5,6,8,6
5,7,0,4
5,7,3,1
5,7,4,8
5,7,5,9
5,7,8,2
5,8,2,8
5,8,6,7
6,0,2,6
6,0,4,3
6,0,6,5
6,2,2,5
6,2,6,9
6,4,0,4
6,4,1,6
6,4,7,5
6,4,8,8
6,6,2,3
6,6,6,6
6,8,2,4
6,8,4,9
6,8,6,8
7,0,3,5
7,0,5,7
7,4,1,9
7,4,7,1
7,8,3,8
7,8,5,5
8,0,3,6
8,0,4,1
8,0,5,4
8,3,4,8
8,4,2,8
8,4,6,9
8,5,4,3
8,8,3,4
8,8,4,6
8,8,5,1
