0,0,2,4
0,0,6,9
0,1,1,8
0,1,4,4
0,1,7,5
0,4,4,8
0,7,1,4
0,7,4,5
0,7,7,8
0,8,2,1
0,8,6,5
1,0,4,9
1,1,3,7
1,1,4,2
1,1,5,8
1,4,2,4
1,4,6,9
1,7,3,9
1,7,4,6
1,7,5,4
1,8,4,8
2,0,1,5
2,0,2,9
2,0,6,1
2,0,7,4
2,8,1,6
2,8,2,4
2,8,6,9
2,8,7,1
3,0,4,5
3,1,3,6
3,1,5,3
3,2,2,9
3,2,6,1
3,4,1,7
3,4,7,9
3,6,2,4
3,6,6,7
3,7,3,3
3,7,5,8
3,8,4,1
4,0,2,8
4,0,6,3
4,3,0,1
4,3,3,6
4,3,5,7
4,3,8,3
4,5,0,2
4,5,3,1
4,5,5,3
4,5,8,9
4,8,2,6
4,8,6,4
5,0,4,3
5,1,3,4
5,1,5,2
5,2,2,2
5,2,6,8
5,4,1,1
5,4,7,2
5,6,2,7
5,6,6,1
5,7,3,1
5,7,5,7
5,8,4,5
6,0,1,9
6,0,2,6
6,0,6,8
6,0,7,3
6,8,1,8
6,8,2,7
6,8,6,1
6,8,7,5
7,0,4,4
7,1,3,8
7,1,4,9
7,1,5,1
7,4,2,1
7,4,6,8
7,7,3,4
7,7,4,3
7,7,5,2
7,8,4,6
8,0,2,5
8,0,6,7
8,1,1,4
8,1,4,5
8,1,7,8
8,4,4,4
8,7,1,5
8,7,4,8
8,7,7,4
8,8,2,2
8,8,6,8
