0,0,0,8
0,0,8,1
0,3,4,8
0,4,0,3
0,4,8,2
0,5,4,7
0,8,0,6
0,8,8,7
1,0,3,8
1,0,4,3
1,0,5,6
1,1,0,6
1,1,8,7
1,2,0,9
1,2,1,4
1,2,2,5
1,2,6,3
1,2,7,6
1,2,8,8
1,6,0,3
1,6,1,6
1,6,2,8
1,6,6,7
1,6,7,1
1,6,8,2
1,7,0,4
1,7,8,6
1,8,3,6
1,8,4,8
1,8,5,3
2,0,3,2
2,0,5,1
2,4,2,9
2,4,3,7
2,4,5,2
2,4,6,3
2,8,3,1
2,8,5,7
3,0,2,5
3,0,6,7
3,1,4,3
3,2,3,4
3,2,4,8
3,2,5,7
3,6,3,1
3,6,4,2
3,6,5,5
3,7,4,6
3,8,2,1
3,8,6,4
4,1,0,2
4,1,8,6
4,2,2,3
4,2,3,1
4,2,5,9
4,2,6,4
4,3,1,7
4,3,3,9
4,3,5,6
4,3,7,4
4,5,1,6
4,5,3,4
4,5,5,2
4,5,7,5
4,6,2,7
4,6,3,6
4,6,5,3
4,6,6,1
4,7,0,5
4,7,8,4
5,0,2,2
5,0,6,3
5,1,4,9
5,2,3,6
5,2,4,5
5,2,5,3
5,6,3,9
5,6,4,8
5,6,5,7
5,7,4,1
5,8,2,9
5,8,6,2
6,0,3,4
6,0,5,9
6,4,2,6
6,4,3,9
6,4,5,5
6,4,6,2
6,8,3,5
6,8,5,4
7,0,3,1
7,0,4,2
7,0,5,7
7,1,0,7
7,1,8,5
7,2,0,8
7,2,1,3
7,2,2,6
7,2,6,2
7,2,7,7
7,2,8,1
7,6,0,2
7,6,1,7
7,6,2,1
7,6,6,4
7,6,7,5
7,6,8,9
7,7,0,6
7,7,8,7
7,8,3,7
7,8,4,1
7,8,5,2
8,0,0,1
8,0,8,9
8,3,4,1
8,4,0,2
8,4,8,5
8,5,4,9
8,8,0,7
8,8,8,4
