0,0,0,2
0,0,2,8
0,0,3,1
0,0,5,4
0,0,6,5
0,0,8,7
0,1,2,1
0,1,4,7
0,1,6,4
0,2,0,7
0,2,2,3
0,2,6,9
0,2,8,6
0,3,2,9
0,3,6,7
0,4,1,6
0,4,4,8
0,4,7,4
0,5,2,4
0,5,6,6
0,6,0,9
0,6,2,2
0,6,6,1
0,6,8,5
0,7,2,6
0,7,4,9
0,7,6,3
0,8,0,4
0,8,2,7
0,8,3,2
0,8,5,3
0,8,6,8
0,8,8,9
1,3,0,4
1,3,1,8
1,3,7,6
1,3,8,9
1,4,4,4
1,5,0,5
1,5,1,3
1,5,7,2
1,5,8,4
2,0,3,7
2,0,5,3
2,2,3,6
2,2,4,4
2,2,5,1
2,3,3,8
2,3,5,9
2,4,1,4
2,4,4,2
2,4,7,3
2,5,3,3
2,5,5,4
2,6,3,9
2,6,4,1
2,6,5,7
2,8,3,4
2,8,5,6
3,0,0,9
3,0,4,4
3,0,8,5
3,8,0,2
3,8,4,6
3,8,8,7
4,0,0,1
4,0,8,8
4,1,0,2
4,1,1,9
4,1,3,1
4,1,5,4
4,1,7,3
4,1,8,7
4,3,0,8
4,3,1,7
4,3,7,9
4,3,8,3
4,5,0,9
4,5,1,1
4,5,7,7
4,5,8,5
4,7,0,7
4,7,1,4
4,7,3,3
4,7,5,5
4,7,7,8
4,7,8,6
4,8,0,5
4,8,8,4
5,0,0,7
5,0,4,2
5,0,8,6
5,8,0,1
5,8,4,3
5,8,8,8
6,0,3,3
6,0,5,9
6,2,3,1
6,2,4,6
6,2,5,4
6,3,3,9
6,3,5,7
6,4,1,7
6,4,4,1
6,4,7,9
6,5,3,4
6,5,5,6
6,6,3,7
6,6,4,9
6,6,5,1
6,8,3,6
6,8,5,8
7,3,0,9
7,3,1,1
7,3,7,7
7,3,8,5
7,4,4,9
7,5,0,4
7,5,1,8
7,5,7,6
7,5,8,9
8,0,0,4
8,0,2,7
8,0,3,2
8,0,5,8
8,0,6,1
8,0,8,9
8,1,2,2
8,1,4,4
8,1,6,3
8,2,0,5
8,2,2,6
8,2,6,8
8,2,8,4
8,3,2,8
8,3,6,9
8,4,1,9
8,4,4,6
8,4,7,8
8,5,2,3
8,5,6,4
8,6,0,1
8,6,2,4
8,6,6,6
8,6,8,8
8,7,2,9
8,7,4,8
8,7,6,7
8,8,0,8
8,8,2,5
8,8,3,9
8,8,5,7
8,8,6,2
8,8,8,3
