0,1,2,6
0,1,6,2
0,3,3,6
0,3,4,4
0,3,5,8
0,4,1,8
0,4,7,4
0,5,3,9
0,5,4,1
0,5,5,7
0,7,2,2
0,7,6,7
1,1,1,8
1,1,2,2
1,1,6,7
1,1,7,4
1,3,1,7
1,3,7,8
1,4,1,1
1,4,4,7
1,4,7,9
1,5,1,9
1,5,7,7
1,7,1,3
1,7,2,7
1,7,6,6
1,7,7,5
2,2,0,6
2,2,8,4
2,3,0,8
2,3,1,6
2,3,7,1
2,3,8,2
2,5,0,7
2,5,1,5
2,5,7,6
2,5,8,9
2,6,0,1
2,6,8,6
3,0,2,2
3,0,6,6
3,3,3,3
3,3,5,4
3,5,3,7
3,5,5,1
3,8,2,4
3,8,6,9
4,0,4,6
4,1,2,3
4,1,6,1
4,2,4,9
4,4,0,6
4,4,2,8
4,4,6,3
4,4,8,5
4,6,4,2
4,7,2,1
4,7,6,8
4,8,4,4
5,0,2,6
5,0,6,7
5,3,3,1
5,3,5,5
5,5,3,2
5,5,5,8
5,8,2,5
5,8,6,4
6,2,0,5
6,2,8,3
6,3,0,2
6,3,1,5
6,3,7,7
6,3,8,9
6,5,0,4
6,5,1,3
6,5,7,5
6,5,8,8
6,6,0,6
6,6,8,5
7,1,1,7
7,1,2,9
7,1,6,4
7,1,7,1
7,3,1,4
7,3,7,2
7,4,1,2
7,4,4,4
7,4,7,3
7,5,1,8
7,5,7,4
7,7,1,6
7,7,2,4
7,7,6,5
7,7,7,8
8,1,2,5
8,1,6,9
8,3,3,5
8,3,4,3
8,3,5,2
8,4,1,6
8,4,7,8
8,5,3,8
8,5,4,6
8,5,5,4
8,7,2,9
8,7,6,4
