0,0,2,5
0,0,6,7
0,1,3,4
0,1,5,9
0,3,3,3
0,3,5,7
0,5,3,9
0,5,5,5
0,7,3,7
0,7,5,1
0,8,2,9
0,8,6,4
1,0,0,3
1,0,2,8
1,0,6,4
1,0,8,9
1,1,1,9
1,1,7,7
1,2,2,1
1,2,6,8
1,4,2,2
1,4,6,9
1,6,2,5
1,6,6,7
1,7,1,1
1,7,7,2
1,8,0,2
1,8,2,6
1,8,6,5
1,8,8,3
2,0,2,6
2,0,6,2
2,1,1,3
2,1,7,4
2,3,0,9
2,3,3,8
2,3,5,2
2,3,8,1
2,4,0,3
2,4,8,8
2,5,0,2
2,5,3,1
2,5,5,3
2,5,8,6
2,7,1,9
2,7,7,7
2,8,2,1
2,8,6,8
3,1,1,5
3,1,7,8
3,2,0,6
3,2,8,1
3,4,0,4
3,4,3,8
3,4,5,7
3,4,8,9
3,6,0,3
3,6,8,5
3,7,1,7
3,7,7,4
4,0,1,6
4,0,4,7
4,0,7,9
4,1,3,1
4,1,5,5
4,3,0,7
4,3,8,6
4,4,0,9
4,4,8,2
4,5,0,3
4,5,8,1
4,7,3,8
4,7,5,7
4,8,1,2
4,8,4,1
4,8,7,3
5,1,1,4
5,1,7,1
5,2,0,8
5,2,8,6
5,4,0,2
5,4,3,1
5,4,5,5
5,4,8,4
5,6,0,7
5,6,8,3
5,7,1,5
5,7,7,8
6,0,2,7
6,0,6,3
6,1,1,8
6,1,7,9
6,3,0,2
6,3,3,1
6,3,5,4
6,3,8,3
6,4,0,7
6,4,8,1
6,5,0,4
6,5,3,3
6,5,5,7
6,5,8,9
6,7,1,2
6,7,7,5
6,8,2,4
6,8,6,1
7,0,0,2
7,0,2,4
7,0,6,5
7,0,8,6
7,1,1,6
7,1,7,3
7,2,2,8
7,2,6,4
7,4,2,9
7,4,6,3
7,6,2,7
7,6,6,6
7,7,1,8
7,7,7,9
7,8,0,9
7,8,2,2
7,8,6,7
7,8,8,5
8,0,2,1
8,0,6,9
8,1,3,3
8,1,5,8
8,3,3,6
8,3,5,9
8,5,3,8
8,5,5,1
8,7,3,9
8,7,5,2
8,8,2,8
8,8,6,3
