0,0,2,9
0,0,4,4
0,0,6,7
0,1,1,6
0,1,7,3
0,4,0,6
0,4,8,9
0,7,1,5
0,7,7,7
0,8,2,1
0,8,4,8
0,8,6,6
1,0,1,3
1,0,2,1
1,0,4,8
1,0,6,6
1,0,7,9
1,2,4,1
1,4,2,7
1,4,4,9
1,4,6,4
1,6,4,5
1,8,1,9
1,8,2,5
1,8,4,3
1,8,6,2
1,8,7,8
2,0,2,2
2,0,3,9
2,0,4,5
2,0,5,1
2,0,6,3
2,1,1,4
2,1,4,2
2,1,7,6
2,2,1,9
2,2,7,1
2,3,2,6
2,3,3,2
2,3,5,7
2,3,6,8
2,4,1,5
2,4,4,8
2,4,7,7
2,5,2,8
2,5,3,5
2,5,5,9
2,5,6,1
2,6,1,6
2,6,7,2
2,7,1,1
2,7,4,9
2,7,7,3
2,8,2,4
2,8,3,6
2,8,4,7
2,8,5,2
2,8,6,9
3,1,2,2
3,1,6,7
3,4,1,3
3,4,7,2
3,7,2,9
3,7,6,3
4,0,2,5
4,0,4,3
4,0,6,9
4,2,2,3
4,2,3,7
4,2,5,8
4,2,6,5
4,3,0,3
4,3,1,6
4,3,3,1
4,3,5,9
4,3,7,5
4,3,8,8
4,4,0,5
4,4,8,6
4,5,0,9
4,5,1,8
4,5,3,6
4,5,5,5
4,5,7,3
4,5,8,1
4,6,2,1
4,6,3,5
4,6,5,2
4,6,6,6
4,8,2,6
4,8,4,1
4,8,6,8
5,1,2,1
5,1,6,6
5,4,1,7
5,4,7,1
5,7,2,2
5,7,6,7
6,0,2,7
6,0,3,1
6,0,4,9
6,0,5,5
6,0,6,4
6,1,1,1
6,1,4,7
6,1,7,5
6,2,1,8
6,2,7,2
6,3,2,3
6,3,3,7
6,3,5,1
6,3,6,5
6,4,1,9
6,4,4,3
6,4,7,6
6,5,2,2
6,5,3,9
6,5,5,6
6,5,6,3
6,6,1,5
6,6,7,7
6,7,1,2
6,7,4,8
6,7,7,4
6,8,2,8
6,8,3,2
6,8,4,6
6,8,5,7
6,8,6,1
7,0,1,5
7,0,2,8
7,0,4,6
7,0,6,1
7,0,7,7
7,2,4,8
7,4,2,4
7,4,4,7
7,4,6,9
7,6,4,2
7,8,1,7
7,8,2,2
7,8,4,5
7,8,6,3
7,8,7,6
8,0,2,3
8,0,4,2
8,0,6,5
8,1,1,9
8,1,7,1
8,4,0,7
8,4,8,3
8,7,1,8
8,7,7,5
8,8,2,9
8,8,4,4
8,8,6,7
