0,0,4,3
0,2,2,4
0,2,4,9
0,2,6,5
0,4,2,5
0,4,4,7
0,4,6,3
0,6,2,6
0,6,4,5
0,6,6,1
0,8,4,2
1,0,4,5
1,1,0,2
1,1,8,5
1,2,0,5
1,2,8,8
1,6,0,4
1,6,8,7
1,7,0,1
1,7,8,4
1,8,4,4
2,0,2,2
2,0,6,6
2,1,3,2
2,1,5,3
2,2,1,9
2,2,7,2
2,3,0,8
2,3,1,7
2,3,7,6
2,3,8,2
2,5,0,5
2,5,1,1
2,5,7,3
2,5,8,8
2,6,1,5
2,6,7,4
2,7,3,4
2,7,5,5
2,8,2,4
2,8,6,5
3,0,4,2
3,1,4,5
3,3,0,7
3,3,8,1
3,4,1,6
3,4,7,5
3,5,0,1
3,5,8,4
3,7,4,9
3,8,4,3
4,0,3,5
4,0,5,6
4,1,0,4
4,1,8,7
4,2,1,6
4,2,2,5
4,2,6,9
4,2,7,8
4,3,1,2
4,3,2,4
4,3,6,5
4,3,7,7
4,5,1,8
4,5,2,7
4,5,6,2
4,5,7,1
4,6,1,1
4,6,2,3
4,6,6,4
4,6,7,6
4,7,0,8
4,7,8,2
4,8,3,6
4,8,5,1
5,0,4,9
5,1,4,3
5,3,0,5
5,3,8,8
5,4,1,7
5,4,7,6
5,5,0,2
5,5,8,5
5,7,4,1
5,8,4,7
6,0,2,7
6,0,6,2
6,1,3,1
6,1,5,8
6,2,1,5
6,2,7,4
6,3,0,1
6,3,1,9
6,3,7,8
6,3,8,4
6,5,0,4
6,5,1,6
6,5,7,5
6,5,8,7
6,6,1,4
6,6,7,3
6,7,3,9
6,7,5,7
6,8,2,6
6,8,6,1
7,0,4,7
7,1,0,7
7,1,8,1
7,2,0,4
7,2,8,7
7,6,0,6
7,6,8,9
7,7,0,9
7,7,8,3
7,8,4,9
8,0,4,8
8,2,2,9
8,2,4,5
8,2,6,1
8,4,2,4
8,4,4,3
8,4,6,5
8,6,2,5
8,6,4,7
8,6,6,6
8,8,4,1
