0,0,0,9
0,0,1,3
0,0,4,2
0,0,7,5
0,0,8,1
0,2,1,5
0,2,7,2
0,3,2,9
0,3,6,1
0,4,2,2
0,4,6,3
0,5,2,5
0,5,6,6
0,6,1,9
0,6,7,1
0,8,0,5
0,8,1,1
0,8,4,9
0,8,7,6
0,8,8,7
1,0,1,6
1,0,7,4
1,3,2,6
1,3,6,4
1,4,3,4
1,4,5,3
1,5,2,3
1,5,6,8
1,8,1,3
1,8,7,8
2,0,2,5
2,0,3,4
2,0,5,3
2,0,6,6
2,1,1,9
2,1,7,8
2,2,0,6
2,2,2,2
2,2,4,8
2,2,6,4
2,2,8,3
2,3,0,5
2,3,8,7
2,5,0,2
2,5,8,4
2,6,0,8
2,6,2,1
2,6,4,4
2,6,6,7
2,6,8,6
2,7,1,4
2,7,7,5
2,8,2,6
2,8,3,8
2,8,5,1
2,8,6,3
3,1,4,9
3,2,1,9
3,2,3,3
3,2,5,2
3,2,7,6
3,3,0,4
3,3,8,1
3,5,0,6
3,5,8,9
3,6,1,1
3,6,3,8
3,6,5,3
3,6,7,4
3,7,4,4
4,1,1,3
4,1,4,1
4,1,7,7
4,2,0,4
4,2,1,1
4,2,7,3
4,2,8,5
4,4,1,4
4,4,7,6
4,6,0,5
4,6,1,2
4,6,7,8
4,6,8,7
4,7,1,9
4,7,4,8
4,7,7,2
5,1,4,2
5,2,1,2
5,2,3,6
5,2,5,1
5,2,7,8
5,3,0,2
5,3,8,4
5,5,0,8
5,5,8,6
5,6,1,3
5,6,3,4
5,6,5,2
5,6,7,6
5,7,4,6
6,0,2,3
6,0,3,6
6,0,5,2
6,0,6,1
6,1,1,7
6,1,7,9
6,2,0,1
6,2,2,5
6,2,4,9
6,2,6,6
6,2,8,2
6,3,0,9
6,3,8,8
6,5,0,5
6,5,8,7
6,6,0,3
6,6,2,9
6,6,4,2
6,6,6,8
6,6,8,1
6,7,1,2
6,7,7,4
6,8,2,1
6,8,3,3
6,8,5,9
6,8,6,7
7,0,1,2
7,0,7,3
7,3,2,2
7,3,6,3
7,4,3,3
7,4,5,9
7,5,2,9
7,5,6,1
7,8,1,9
7,8,7,1
8,0,0,5
8,0,1,1
8,0,4,4
8,0,7,6
8,0,8,7
8,2,1,6
8,2,7,4
8,3,2,1
8,3,6,7
8,4,2,3
8,4,6,8
8,5,2,6
8,5,6,4
8,6,1,8
8,6,7,7
8,8,0,6
8,8,1,7
8,8,4,8
8,8,7,3
8,8,8,4
