0,0,0,7
0,0,4,2
0,0,8,6
0,3,0,6
0,3,8,2
0,5,0,1
0,5,8,8
0,8,0,8
0,8,4,1
0,8,8,9
1,0,0,8
1,0,2,3
1,0,3,4
1,0,5,7
1,0,6,2
1,0,8,9
1,2,2,7
1,2,3,2
1,2,5,9
1,2,6,8
1,3,2,4
1,3,6,7
1,4,4,2
1,5,2,6
1,5,6,9
1,6,2,5
1,6,3,3
1,6,5,2
1,6,6,6
1,8,0,4
1,8,2,2
1,8,3,6
1,8,5,8
1,8,6,1
1,8,8,3
2,0,3,6
2,0,5,8
2,1,1,7
2,1,3,3
2,1,5,2
2,1,7,4
2,2,3,1
2,2,5,4
2,3,4,3
2,4,4,1
2,5,4,6
2,6,3,7
2,6,5,1
2,7,1,2
2,7,3,5
2,7,5,6
2,7,7,3
2,8,3,9
2,8,5,3
3,0,2,8
3,0,6,5
3,1,4,5
3,2,1,7
3,2,7,4
3,4,4,8
3,6,1,9
3,6,7,5
3,7,4,9
3,8,2,7
3,8,6,8
4,0,3,5
4,0,5,9
4,1,1,5
4,1,7,8
4,3,0,2
4,3,8,7
4,5,0,8
4,5,8,6
4,7,1,7
4,7,7,4
4,8,3,1
4,8,5,4
5,0,2,7
5,0,6,8
5,1,4,1
5,2,1,4
5,2,7,1
5,4,4,7
5,6,1,5
5,6,7,8
5,7,4,4
5,8,2,4
5,8,6,7
6,0,3,7
6,0,5,1
6,1,1,2
6,1,3,5
6,1,5,6
6,1,7,3
6,2,3,9
6,2,5,3
6,3,4,5
6,4,4,9
6,5,4,7
6,6,3,2
6,6,5,9
6,7,1,6
6,7,3,4
6,7,5,7
6,7,7,5
6,8,3,8
6,8,5,5
7,0,0,1
7,0,2,5
7,0,3,3
7,0,5,2
7,0,6,6
7,0,8,8
7,2,2,2
7,2,3,6
7,2,5,8
7,2,6,1
7,3,2,3
7,3,6,2
7,4,4,6
7,5,2,7
7,5,6,8
7,6,2,4
7,6,3,5
7,6,5,6
7,6,6,7
7,8,0,3
7,8,2,6
7,8,3,7
7,8,5,1
7,8,6,9
7,8,8,5
8,0,0,2
8,0,4,6
8,0,8,7
8,3,0,7
8,3,8,6
8,5,0,9
8,5,8,1
8,8,0,1
8,8,4,9
8,8,8,8
