0,0,4,3
0,1,4,1
0,2,0,7
0,2,8,5
0,6,0,8
0,6,8,6
0,7,4,5
0,8,4,4
1,1,2,7
1,1,6,2
1,3,2,4
1,3,6,9
1,5,2,5
1,5,6,4
1,7,2,1
1,7,6,3
2,1,0,8
2,1,1,6
2,1,7,1
2,1,8,7
2,2,3,7
2,2,5,1
2,4,1,5
2,4,7,2
2,6,3,8
2,6,5,4
2,7,0,5
2,7,1,8
2,7,7,4
2,7,8,1
3,0,0,8
3,0,2,7
3,0,6,2
3,0,8,9
3,2,0,1
3,2,8,4
3,3,1,3
3,3,2,9
3,3,6,5
3,3,7,2
3,4,2,5
3,4,6,4
3,5,1,8
3,5,2,4
3,5,6,9
3,5,7,6
3,6,0,5
3,6,8,2
3,8,0,9
3,8,2,3
3,8,6,8
3,8,8,6
4,3,4,2
4,4,3,5
4,4,5,3
4,5,4,6
5,0,0,2
5,0,2,5
5,0,6,4
5,0,8,3
5,2,0,6
5,2,8,8
5,3,1,2
5,3,2,8
5,3,6,1
5,3,7,9
5,4,2,3
5,4,6,8
5,5,1,6
5,5,2,1
5,5,6,3
5,5,7,4
5,6,0,3
5,6,8,5
5,8,0,8
5,8,2,6
5,8,6,7
5,8,8,9
6,1,0,4
6,1,1,3
6,1,7,9
6,1,8,8
6,2,3,8
6,2,5,4
6,4,1,6
6,4,7,8
6,6,3,9
6,6,5,7
6,7,0,7
6,7,1,4
6,7,7,2
6,7,8,9
7,1,2,8
7,1,6,1
7,3,2,2
7,3,6,6
7,5,2,6
7,5,6,7
7,7,2,5
7,7,6,4
8,0,4,5
8,1,4,4
8,2,0,8
8,2,8,7
8,6,0,4
8,6,8,8
8,7,4,2
8,8,4,7
