0,0,0,5
0,0,2,8
0,0,6,2
0,0,8,7
0,1,2,6
0,1,6,1
0,2,2,4
0,2,4,7
0,2,6,9
0,6,2,2
0,6,4,9
0,6,6,4
0,7,2,3
0,7,6,8
0,8,0,9
0,8,2,5
0,8,6,7
0,8,8,6
1,2,0,6
1,2,8,4
1,3,1,2
1,3,3,5
1,3,5,8
1,3,7,3
1,5,1,8
1,5,3,3
1,5,5,4
1,5,7,6
1,6,0,5
1,6,8,2
2,0,1,6
2,0,7,3
2,1,3,7
2,1,5,6
2,7,3,1
2,7,5,3
2,8,1,2
2,8,7,1
3,0,1,5
3,0,3,8
3,0,5,9
3,0,7,2
3,1,0,9
3,1,8,5
3,2,2,7
3,2,6,4
3,4,2,5
3,4,3,9
3,4,5,4
3,4,6,2
3,6,2,9
3,6,6,1
3,7,0,7
3,7,8,4
3,8,1,3
3,8,3,4
3,8,5,8
3,8,7,7
4,0,1,2
4,0,3,1
4,0,5,3
4,0,7,4
4,2,4,6
4,4,2,7
4,4,6,9
4,6,4,4
4,8,1,7
4,8,3,5
4,8,5,1
4,8,7,9
5,0,1,4
5,0,3,7
5,0,5,6
5,0,7,5
5,1,0,6
5,1,8,4
5,2,2,1
5,2,6,2
5,4,2,4
5,4,3,2
5,4,5,7
5,4,6,3
5,6,2,7
5,6,6,8
5,7,0,3
5,7,8,6
5,8,1,9
5,8,3,6
5,8,5,2
5,8,7,3
6,0,1,1
6,0,7,8
6,1,3,4
6,1,5,1
6,7,3,5
6,7,5,8
6,8,1,4
6,8,7,5
7,2,0,1
7,2,8,9
7,3,1,1
7,3,3,2
7,3,5,7
7,3,7,8
7,5,1,7
7,5,3,8
7,5,5,9
7,5,7,4
7,6,0,7
7,6,8,4
8,0,0,6
8,0,2,2
8,0,6,3
8,0,8,4
8,1,2,1
8,1,6,5
8,2,2,9
8,2,4,4
8,2,6,7
8,6,2,4
8,6,4,2
8,6,6,9
8,7,2,8
8,7,6,6
8,8,0,2
8,8,2,7
8,8,6,1
8,8,8,3
