0,0,0,2
0,0,8,4
0,1,0,3
0,1,8,1
0,2,0,9
0,2,2,4
0,2,6,3
0,2,8,7
0,3,1,7
0,3,7,1
0,5,1,1
0,5,7,9
0,6,0,5
0,6,2,9
0,6,6,7
0,6,8,6
0,7,0,1
0,7,8,9
0,8,0,7
0,8,8,8
1,0,0,6
1,0,1,7
1,0,7,1
1,0,8,2
1,2,3,6
1,2,5,3
1,3,4,2
1,5,4,5
1,6,3,3
1,6,5,7
1,8,0,4
1,8,1,9
1,8,7,6
1,8,8,7
2,1,0,1
2,1,4,3
2,1,8,5
2,7,0,9
2,7,4,1
2,7,8,3
3,1,4,9
3,2,2,3
3,2,4,6
3,2,6,8
3,4,0,7
3,4,3,9
3,4,4,8
3,4,5,1
3,4,8,5
3,6,2,8
3,6,4,3
3,6,6,6
3,7,4,7
5,1,4,8
5,2,2,1
5,2,4,2
5,2,6,7
5,4,0,5
5,4,3,6
5,4,4,7
5,4,5,4
5,4,8,8
5,6,2,7
5,6,4,1
5,6,6,2
5,7,4,4
6,1,0,2
6,1,4,6
6,1,8,4
6,7,0,5
6,7,4,2
6,7,8,6
7,0,0,8
7,0,1,1
7,0,7,4
7,0,8,9
7,2,3,8
7,2,5,2
7,3,4,5
7,5,4,3
7,6,3,2
7,6,5,1
7,8,0,3
7,8,1,6
7,8,7,8
7,8,8,1
8,0,0,7
8,0,8,8
8,1,0,4
8,1,8,6
8,2,0,1
8,2,2,8
8,2,6,4
8,2,8,5
8,3,1,4
8,3,7,6
8,5,1,6
8,5,7,8
8,6,0,8
8,6,2,2
8,6,6,9
8,6,8,4
8,7,0,6
8,7,8,2
8,8,0,9
8,8,8,3
