0,0,2,3
0,0,6,9
0,2,1,7
0,2,7,5
0,3,1,3
0,3,2,2
0,3,3,7
0,3,5,9
0,3,6,6
0,3,7,8
0,5,1,8
0,5,2,4
0,5,3,5
0,5,5,2
0,5,6,7
0,5,7,1
0,6,1,9
0,6,7,2
0,8,2,5
0,8,6,1
1,1,1,4
1,1,7,9
1,4,4,7
1,7,1,3
1,7,7,8
2,0,2,2
2,0,6,6
2,2,3,5
2,2,5,2
2,4,0,8
2,4,2,6
2,4,3,3
2,4,4,2
2,4,5,5
2,4,6,1
2,4,8,7
2,6,3,2
2,6,5,8
2,8,2,3
2,8,6,2
3,0,4,7
3,1,2,5
3,1,6,3
3,2,0,8
3,2,8,5
3,6,0,7
3,6,8,1
3,7,2,3
3,7,6,7
3,8,4,5
4,0,0,2
4,0,4,3
4,0,8,7
4,1,0,9
4,1,8,6
4,2,3,2
4,2,5,6
4,3,4,2
4,4,0,6
4,4,3,4
4,4,5,8
4,4,8,3
4,5,4,5
4,6,3,8
4,6,5,5
4,7,0,8
4,7,8,9
4,8,0,3
4,8,4,4
4,8,8,5
5,0,4,2
5,1,2,8
5,1,6,7
5,2,0,4
5,2,8,8
5,6,0,2
5,6,8,7
5,7,2,4
5,7,6,2
5,8,4,3
6,0,2,4
6,0,6,7
6,2,3,6
6,2,5,4
6,4,0,1
6,4,2,7
6,4,3,8
6,4,4,4
6,4,5,6
6,4,6,3
6,4,8,5
6,6,3,4
6,6,5,1
6,8,2,8
6,8,6,4
7,1,1,6
7,1,7,7
7,4,4,1
7,7,1,9
7,7,7,2
8,0,2,5
8,0,6,3
8,2,1,4
8,2,7,9
8,3,1,7
8,3,2,1
8,3,3,4
8,3,5,8
8,3,6,2
8,3,7,5
8,5,1,5
8,5,2,3
8,5,3,9
8,5,5,1
8,5,6,4
8,5,7,6
8,6,1,1
8,6,7,3
8,8,2,9
8,8,6,5
