0,0,0,6
0,0,1,1
0,0,3,3
0,0,4,5
0,0,5,2
0,0,7,7
0,0,8,8
0,2,0,2
0,2,1,8
0,2,7,6
0,2,8,3
0,6,0,1
0,6,1,5
0,6,7,8
0,6,8,9
0,8,0,8
0,8,1,9
0,8,3,5
0,8,4,2
0,8,5,1
0,8,7,3
0,8,8,4
1,1,1,4
1,1,7,3
1,3,2,9
1,3,3,8
1,3,5,2
1,3,6,4
1,4,4,4
1,5,2,4
1,5,3,3
1,5,5,7
1,5,6,5
1,7,1,6
1,7,7,4
2,0,3,7
2,0,5,9
2,1,2,1
2,1,6,8
2,3,0,8
2,3,3,4
2,3,5,1
2,3,8,9
2,5,0,3
2,5,3,5
2,5,5,8
2,5,8,4
2,7,2,5
2,7,6,9
2,8,3,8
2,8,5,7
3,2,3,8
3,2,5,6
3,3,4,1
3,4,0,4
3,4,3,7
3,4,5,9
3,4,8,6
3,5,4,8
3,6,3,5
3,6,5,1
4,0,0,5
4,0,8,2
4,1,4,1
4,2,0,9
4,2,8,7
4,4,1,5
4,4,7,3
4,6,0,2
4,6,8,1
4,7,4,5
4,8,0,7
4,8,8,8
5,2,3,9
5,2,5,1
5,3,4,9
5,4,0,6
5,4,3,8
5,4,5,2
5,4,8,1
5,5,4,4
5,6,3,6
5,6,5,4
6,0,3,2
6,0,5,5
6,1,2,3
6,1,6,1
6,3,0,1
6,3,3,9
6,3,5,3
6,3,8,5
6,5,0,8
6,5,3,4
6,5,5,1
6,5,8,9
6,7,2,4
6,7,6,5
6,8,3,1
6,8,5,2
7,1,1,8
7,1,7,6
7,3,2,3
7,3,3,2
7,3,5,5
7,3,6,1
7,4,4,1
7,5,2,1
7,5,3,7
7,5,5,9
7,5,6,8
7,7,1,9
7,7,7,3
8,0,0,8
8,0,1,4
8,0,3,9
8,0,4,7
8,0,5,1
8,0,7,3
8,0,8,5
8,2,0,3
8,2,1,5
8,2,7,1
8,2,8,9
8,6,0,9
8,6,1,6
8,6,7,4
8,6,8,7
8,8,0,4
8,8,1,2
8,8,3,7
8,8,4,8
8,8,5,9
8,8,7,5
8,8,8,6
