0,0,2,4
0,0,4,7
0,0,6,1
0,2,1,7
0,2,7,6
0,3,0,2
0,3,1,5
0,3,7,4
0,3,8,3
0,4,0,7
0,4,2,1
0,4,6,6
0,4,8,8
0,5,0,6
0,5,1,4
0,5,7,9
0,5,8,1
0,6,1,1
0,6,7,8
0,8,2,2
0,8,4,1
0,8,6,4
1,1,0,4
1,1,8,2
1,2,0,5
1,2,8,7
1,3,0,3
1,3,4,7
1,3,8,9
1,4,1,2
1,4,2,5
1,4,6,3
1,4,7,7
1,5,0,1
1,5,4,2
1,5,8,5
1,6,0,2
1,6,8,3
1,7,0,7
1,7,8,8
2,0,3,6
2,0,5,1
2,1,2,1
2,1,6,6
2,2,4,5
2,3,3,4
2,3,5,2
2,5,3,9
2,5,5,6
2,6,4,7
2,7,2,5
2,7,6,3
2,8,3,3
2,8,5,4
3,0,2,6
3,0,6,3
3,3,1,3
3,3,7,5
3,5,1,5
3,5,7,8
3,8,2,8
3,8,6,1
4,1,1,7
4,1,7,6
4,2,2,8
4,2,4,7
4,2,6,1
4,4,2,2
4,4,4,1
4,4,6,8
4,6,2,1
4,6,4,8
4,6,6,6
4,7,1,8
4,7,7,3
5,0,2,1
5,0,6,6
5,3,1,2
5,3,7,7
5,5,1,6
5,5,7,2
5,8,2,7
5,8,6,5
6,0,3,3
6,0,5,4
6,1,2,4
6,1,6,1
6,2,4,6
6,3,3,7
6,3,5,8
6,5,3,2
6,5,5,3
6,6,4,1
6,7,2,7
6,7,6,5
6,8,3,5
6,8,5,7
7,1,0,2
7,1,8,3
7,2,0,7
7,2,8,8
7,3,0,5
7,3,4,1
7,3,8,7
7,4,1,1
7,4,2,7
7,4,6,5
7,4,7,8
7,5,0,4
7,5,4,8
7,5,8,2
7,6,0,1
7,6,8,5
7,7,0,3
7,7,8,9
8,0,2,2
8,0,4,1
8,0,6,4
8,2,1,3
8,2,7,1
8,3,0,1
8,3,1,7
8,3,7,6
8,3,8,5
8,4,0,3
8,4,2,4
8,4,6,1
8,4,8,9
8,5,0,8
8,5,1,2
8,5,7,7
8,5,8,4
8,6,1,4
8,6,7,9
8,8,2,1
8,8,4,4
8,8,6,6
