0,4,1,8
0,4,3,2
0,4,5,7
0,4,7,6
1,1,2,2
1,1,6,5
1,2,0,5
1,2,8,7
1,6,0,1
1,6,8,9
1,7,2,9
1,7,6,4
2,0,2,9
2,0,6,4
2,1,1,3
2,1,2,5
2,1,3,8
2,1,5,9
2,1,6,1
2,1,7,7
2,3,3,6
2,3,4,1
2,3,5,8
2,4,4,5
2,5,3,7
2,5,4,2
2,5,5,3
2,7,1,8
2,7,2,6
2,7,3,4
2,7,5,7
2,7,6,5
2,7,7,2
2,8,2,1
2,8,6,6
3,0,3,7
3,0,5,1
3,2,1,3
3,2,7,7
3,3,0,3
3,3,3,4
3,3,5,5
3,3,8,1
3,4,1,5
3,4,2,2
3,4,3,6
3,4,5,8
3,4,6,7
3,4,7,4
3,5,0,1
3,5,3,2
3,5,5,7
3,5,8,9
3,6,1,4
3,6,7,9
3,8,3,1
3,8,5,6
4,0,2,4
4,0,6,8
4,1,2,6
4,1,6,7
4,3,4,8
4,4,3,3
4,4,5,2
4,5,4,5
4,7,2,7
4,7,6,3
4,8,2,5
4,8,6,9
5,0,3,9
5,0,5,4
5,2,1,4
5,2,7,9
5,3,0,4
5,3,3,7
5,3,5,3
5,3,8,6
5,4,1,3
5,4,2,7
5,4,3,5
5,4,5,9
5,4,6,1
5,4,7,8
5,5,0,2
5,5,3,8
5,5,5,1
5,5,8,4
5,6,1,7
5,6,7,4
5,8,3,4
5,8,5,7
6,0,2,5
6,0,6,1
6,1,1,7
6,1,2,4
6,1,3,2
6,1,5,5
6,1,6,8
6,1,7,6
6,3,3,9
6,3,4,5
6,3,5,4
6,4,4,2
6,5,3,6
6,5,4,1
6,5,5,8
6,7,1,4
6,7,2,1
6,7,3,3
6,7,5,2
6,7,6,6
6,7,7,9
6,8,2,7
6,8,6,3
7,1,2,8
7,1,6,3
7,2,0,3
7,2,8,1
7,6,0,4
7,6,8,6
7,7,2,2
7,7,6,8
8,4,1,7
8,4,3,4
8,4,5,5
8,4,7,2
