0,2,4,7
0,3,4,4
0,5,4,9
0,6,4,8
1,0,0,6
1,0,3,1
1,0,4,5
1,0,5,7
1,0,8,3
1,3,0,4
1,3,8,6
1,5,0,9
1,5,8,7
1,8,0,8
1,8,3,9
1,8,4,7
1,8,5,1
1,8,8,5
2,2,0,4
2,2,1,2
2,2,2,1
2,2,6,8
2,2,7,5
2,2,8,7
2,3,2,2
2,3,3,5
2,3,5,3
2,3,6,7
2,4,1,4
2,4,7,1
2,5,2,6
2,5,3,4
2,5,5,1
2,5,6,2
2,6,0,6
2,6,1,8
2,6,2,4
2,6,6,5
2,6,7,2
2,6,8,3
3,0,1,1
3,0,7,7
3,1,0,7
3,1,4,3
3,1,8,4
3,2,2,9
3,2,6,1
3,4,0,9
3,4,8,1
3,6,2,5
3,6,6,3
3,7,0,8
3,7,4,5
3,7,8,7
3,8,1,7
3,8,7,4
4,2,2,3
4,2,6,7
4,3,1,4
4,3,7,1
4,5,1,7
4,5,7,5
4,6,2,8
4,6,6,6
5,0,1,5
5,0,7,1
5,1,0,8
5,1,4,4
5,1,8,7
5,2,2,2
5,2,6,4
5,4,0,7
5,4,8,9
5,6,2,7
5,6,6,9
5,7,0,5
5,7,4,7
5,7,8,1
5,8,1,8
5,8,7,2
6,2,0,9
6,2,1,6
6,2,2,8
6,2,6,3
6,2,7,4
6,2,8,2
6,3,2,6
6,3,3,4
6,3,5,1
6,3,6,2
6,4,1,9
6,4,7,8
6,5,2,7
6,5,3,9
6,5,5,8
6,5,6,6
6,6,0,7
6,6,1,3
6,6,2,9
6,6,6,4
6,6,7,6
6,6,8,1
7,0,0,8
7,0,3,5
7,0,4,7
7,0,5,1
7,0,8,4
7,3,0,7
7,3,8,1
7,5,0,2
7,5,8,8
7,8,0,4
7,8,3,7
7,8,4,1
7,8,5,9
7,8,8,2
8,2,4,9
8,3,4,3
8,5,4,1
8,6,4,7
