0,0,2,4
0,0,6,5
0,2,2,3
0,2,6,4
0,3,3,4
0,3,5,9
0,4,3,5
0,4,4,7
0,4,5,1
0,5,3,8
0,5,5,2
0,6,2,2
0,6,6,9
0,8,2,8
0,8,6,2
1,0,4,1
1,1,2,6
1,1,6,3
1,7,2,5
1,7,6,8
1,8,4,5
2,0,2,7
2,0,6,9
2,2,1,4
2,2,4,9
2,2,7,3
2,4,0,4
2,4,4,2
2,4,8,7
2,6,1,5
2,6,4,8
2,6,7,7
2,8,2,3
2,8,6,4
3,1,3,2
3,1,5,9
3,2,3,6
3,2,5,3
3,3,0,5
3,3,4,6
3,3,8,9
3,4,2,7
3,4,6,6
3,5,0,4
3,5,4,2
3,5,8,7
3,6,3,3
3,6,5,2
3,7,3,7
3,7,5,6
4,0,3,8
4,0,5,2
4,1,0,1
4,1,8,8
4,2,1,8
4,2,3,5
4,2,4,4
4,2,5,1
4,2,7,6
4,4,2,4
4,4,4,1
4,4,6,5
4,6,1,2
4,6,3,1
4,6,4,6
4,6,5,7
4,6,7,3
4,7,0,3
4,7,8,1
4,8,3,9
4,8,5,3
5,1,3,4
5,1,5,5
5,2,3,9
5,2,5,8
5,3,0,6
5,3,4,9
5,3,8,5
5,4,2,2
5,4,6,9
5,5,0,7
5,5,4,4
5,5,8,2
5,6,3,8
5,6,5,4
5,7,3,2
5,7,5,9
6,0,2,9
6,0,6,1
6,2,1,6
6,2,4,8
6,2,7,4
6,4,0,6
6,4,4,5
6,4,8,9
6,6,1,1
6,6,4,7
6,6,7,9
6,8,2,7
6,8,6,6
7,0,4,4
7,1,2,8
7,1,6,4
7,7,2,1
7,7,6,2
7,8,4,3
8,0,2,6
8,0,6,8
8,2,2,7
8,2,6,6
8,3,3,6
8,3,5,8
8,4,3,3
8,4,4,9
8,4,5,4
8,5,3,7
8,5,5,5
8,6,2,5
8,6,6,1
8,8,2,4
8,8,6,5
