0,0,2,9
0,0,3,5
0,0,4,3
0,0,5,2
0,0,6,7
0,1,2,4
0,1,6,2
0,3,0,4
0,3,8,5
0,5,0,9
0,5,8,4
0,7,2,1
0,7,6,4
0,8,2,8
0,8,3,3
0,8,4,2
0,8,5,9
0,8,6,5
1,0,2,3
1,0,3,1
1,0,5,9
1,0,6,5
1,1,0,2
1,1,2,1
1,1,6,9
1,1,8,6
1,4,4,1
1,7,0,4
1,7,2,6
1,7,6,1
1,7,8,5
1,8,2,7
1,8,3,6
1,8,5,1
1,8,6,8
2,0,0,5
2,0,8,9
2,1,1,8
2,1,7,7
2,3,1,9
2,3,7,8
2,4,2,1
2,4,6,5
2,5,1,5
2,5,7,1
2,7,1,7
2,7,7,9
2,8,0,1
2,8,8,3
3,0,0,3
3,0,8,6
3,1,1,9
3,1,2,5
3,1,6,8
3,1,7,1
3,2,3,1
3,2,5,8
3,6,3,8
3,6,5,3
3,7,1,3
3,7,2,8
3,7,6,6
3,7,7,2
3,8,0,9
3,8,8,1
4,0,4,7
4,1,3,3
4,1,5,1
4,2,4,4
4,4,0,1
4,4,2,8
4,4,6,6
4,4,8,7
4,6,4,9
4,7,3,6
4,7,5,7
4,8,4,3
5,0,0,2
5,0,8,4
5,1,1,3
5,1,2,8
5,1,6,6
5,1,7,2
5,2,3,7
5,2,5,2
5,6,3,2
5,6,5,6
5,7,1,2
5,7,2,7
5,7,6,5
5,7,7,4
5,8,0,8
5,8,8,2
6,0,0,6
6,0,8,7
6,1,1,4
6,1,7,8
6,3,1,2
6,3,7,5
6,4,2,5
6,4,6,7
6,5,1,7
6,5,7,4
6,7,1,1
6,7,7,6
6,8,0,4
6,8,8,5
7,0,2,5
7,0,3,4
7,0,5,7
7,0,6,6
7,1,0,8
7,1,2,9
7,1,6,7
7,1,8,1
7,4,4,9
7,7,0,7
7,7,2,3
7,7,6,9
7,7,8,2
7,8,2,1
7,8,3,8
7,8,5,5
7,8,6,4
8,0,2,7
8,0,3,6
8,0,4,9
8,0,5,1
8,0,6,8
8,1,2,2
8,1,6,3
8,3,0,6
8,3,8,7
8,5,0,2
8,5,8,6
8,7,2,4
8,7,6,7
8,8,2,5
8,8,3,4
8,8,4,1
8,8,5,6
8,8,6,2
