0,1,3,4
0,1,5,3
0,3,2,6
0,3,6,7
0,5,2,5
0,5,6,4
0,7,3,1
0,7,5,2
1,0,0,8
1,0,1,2
1,0,4,3
1,0,7,5
1,0,8,6
1,1,4,8
1,2,4,6
1,6,4,2
1,7,4,9
1,8,0,2
1,8,1,1
1,8,4,5
1,8,7,6
1,8,8,9
2,1,4,9
2,2,4,4
2,6,4,8
2,7,4,7
3,0,0,5
3,0,3,3
3,0,5,9
3,0,8,8
3,1,1,2
3,1,7,3
3,2,1,9
3,2,7,7
3,4,0,7
3,4,8,1
3,6,1,1
3,6,7,5
3,7,1,3
3,7,7,8
3,8,0,6
3,8,3,5
3,8,5,3
3,8,8,2
4,0,0,2
4,0,8,9
4,1,3,8
4,1,5,1
4,2,3,4
4,2,5,3
4,6,3,2
4,6,5,4
4,7,3,9
4,7,5,5
4,8,0,1
4,8,8,3
5,0,0,3
5,0,3,2
5,0,5,8
5,0,8,7
5,1,1,5
5,1,7,2
5,2,1,8
5,2,7,9
5,4,0,9
5,4,8,6
5,6,1,6
5,6,7,1
5,7,1,2
5,7,7,3
5,8,0,5
5,8,3,1
5,8,5,2
5,8,8,8
6,1,4,4
6,2,4,2
6,6,4,7
6,7,4,1
7,0,0,1
7,0,1,8
7,0,4,7
7,0,7,9
7,0,8,5
7,1,4,1
7,2,4,5
7,6,4,4
7,7,4,6
7,8,0,4
7,8,1,2
7,8,4,3
7,8,7,8
7,8,8,6
8,1,3,5
8,1,5,9
8,3,2,2
8,3,6,6
8,5,2,8
8,5,6,5
8,7,3,3
8,7,5,7
