0,0,3,4
0,0,5,6
0,2,0,4
0,2,8,6
0,6,0,2
0,6,8,3
0,8,3,2
0,8,5,8
1,0,1,4
1,0,4,5
1,0,7,9
1,1,0,7
1,1,1,9
1,1,7,5
1,1,8,1
1,2,1,5
1,2,2,8
1,2,6,7
1,2,7,4
1,3,3,9
1,3,5,6
1,4,1,1
1,4,3,5
1,4,5,2
1,4,7,8
1,5,3,4
1,5,5,7
1,6,1,6
1,6,2,9
1,6,6,1
1,6,7,7
1,7,0,8
1,7,1,2
1,7,7,6
1,7,8,4
1,8,1,7
1,8,4,6
1,8,7,2
2,0,2,5
2,0,3,1
2,0,4,2
2,0,5,9
2,0,6,3
2,2,2,9
2,2,6,1
2,4,0,7
2,4,2,8
2,4,6,2
2,4,8,3
2,6,2,7
2,6,6,9
2,8,2,2
2,8,3,9
2,8,4,1
2,8,5,7
2,8,6,4
3,1,3,5
3,1,5,1
3,4,0,8
3,4,1,4
3,4,7,9
3,4,8,6
3,7,3,2
3,7,5,5
4,2,1,4
4,2,7,9
4,4,4,8
4,6,1,2
4,6,7,6
5,1,3,2
5,1,5,4
5,4,0,9
5,4,1,7
5,4,7,2
5,4,8,8
5,7,3,3
5,7,5,7
6,0,2,9
6,0,3,8
6,0,4,6
6,0,5,4
6,0,6,1
6,2,2,4
6,2,6,8
6,4,0,2
6,4,2,3
6,4,6,6
6,4,8,1
6,6,2,2
6,6,6,4
6,8,2,6
6,8,3,4
6,8,4,8
6,8,5,2
6,8,6,5
7,0,1,1
7,0,4,3
7,0,7,8
7,1,0,9
7,1,1,3
7,1,7,1
7,1,8,2
7,2,1,8
7,2,2,6
7,2,6,4
7,2,7,3
7,3,3,1
7,3,5,9
7,4,1,6
7,4,3,3
7,4,5,5
7,4,7,7
7,5,3,8
7,5,5,4
7,6,1,9
7,6,2,3
7,6,6,7
7,6,7,5
7,7,0,2
7,7,1,5
7,7,7,4
7,7,8,3
7,8,1,4
7,8,4,5
7,8,7,9
8,0,3,2
8,0,5,1
8,2,0,7
8,2,8,1
8,6,0,1
8,6,8,9
8,8,3,1
8,8,5,9
