0,1,1,8
0,1,7,7
0,3,4,4
0,4,4,6
0,5,4,3
0,7,1,5
0,7,7,2
1,0,3,9
1,0,5,1
1,1,2,6
1,1,4,3
1,1,6,9
1,2,1,2
1,2,2,1
1,2,6,6
1,2,7,3
1,3,0,3
1,3,8,7
1,4,1,6
1,4,2,7
1,4,6,8
1,4,7,1
1,5,0,2
1,5,8,6
1,6,1,8
1,6,2,3
1,6,6,2
1,6,7,7
1,7,2,9
1,7,4,2
1,7,6,1
1,8,3,8
1,8,5,9
2,3,2,4
2,3,6,1
2,4,0,1
2,4,4,7
2,4,8,3
2,5,2,3
2,5,6,2
3,0,0,4
3,0,1,2
3,0,7,7
3,0,8,5
3,1,0,9
3,1,3,7
3,1,5,2
3,1,8,4
3,7,0,2
3,7,3,4
3,7,5,1
3,7,8,6
3,8,0,6
3,8,1,1
3,8,7,5
3,8,8,8
4,1,0,3
4,1,3,8
4,1,5,9
4,1,8,7
4,7,0,9
4,7,3,3
4,7,5,6
4,7,8,4
5,0,0,6
5,0,1,1
5,0,7,4
5,0,8,8
5,1,0,8
5,1,3,4
5,1,5,3
5,1,8,2
5,7,0,1
5,7,3,2
5,7,5,9
5,7,8,3
5,8,0,7
5,8,1,9
5,8,7,2
5,8,8,1
6,3,2,5
6,3,6,3
6,4,0,3
6,4,4,1
6,4,8,7
6,5,2,7
6,5,6,6
7,0,3,4
7,0,5,3
7,1,2,8
7,1,4,7
7,1,6,4
7,2,1,6
7,2,2,3
7,2,6,8
7,2,7,7
7,3,0,7
7,3,8,1
7,4,1,8
7,4,2,1
7,4,6,2
7,4,7,3
7,5,0,6
7,5,8,8
7,6,1,2
7,6,2,7
7,6,6,6
7,6,7,1
7,7,2,4
7,7,4,6
7,7,6,3
7,8,3,2
7,8,5,4
8,1,1,2
8,1,7,1
8,3,4,5
8,4,4,8
8,5,4,7
8,7,1,9
8,7,7,6
