0,0,1,9
0,0,7,8
0,1,3,8
0,1,5,7
0,2,3,2
0,2,5,5
0,4,3,9
0,4,5,3
0,6,3,3
0,6,5,2
0,7,3,6
0,7,5,9
0,8,1,4
0,8,7,3
1,3,2,8
1,3,6,1
1,5,2,9
1,5,6,5
2,0,0,8
2,0,8,9
2,1,0,6
2,1,8,8
2,7,0,9
2,7,8,6
2,8,0,3
2,8,8,4
3,0,0,5
3,0,8,6
3,1,0,8
3,1,2,7
3,1,3,5
3,1,4,6
3,1,5,3
3,1,6,2
3,1,8,4
3,3,0,2
3,3,8,1
3,4,4,1
3,5,0,1
3,5,8,9
3,7,0,7
3,7,2,5
3,7,3,8
3,7,4,4
3,7,5,6
3,7,6,9
3,7,8,3
3,8,0,9
3,8,8,7
5,0,0,4
5,0,8,7
5,1,0,1
5,1,2,2
5,1,3,4
5,1,4,7
5,1,5,8
5,1,6,6
5,1,8,9
5,3,0,6
5,3,8,3
5,4,4,3
5,5,0,3
5,5,8,5
5,7,0,2
5,7,2,4
5,7,3,1
5,7,4,9
5,7,5,7
5,7,6,5
5,7,8,8
5,8,0,5
5,8,8,2
6,0,0,7
6,0,8,3
6,1,0,5
6,1,8,6
6,7,0,1
6,7,8,4
6,8,0,2
6,8,8,1
7,3,2,6
7,3,6,7
7,5,2,3
7,5,6,8
8,0,1,8
8,0,7,7
8,1,3,6
8,1,5,4
8,2,3,9
8,2,5,8
8,4,3,8
8,4,5,7
8,6,3,7
8,6,5,5
8,7,3,4
8,7,5,3
8,8,1,3
8,8,7,2
