0,0,3,8
0,0,5,6
0,3,2,6
0,3,3,5
0,3,5,9
0,3,6,2
0,4,2,4
0,4,6,6
0,5,2,2
0,5,3,3
0,5,5,8
0,5,6,4
0,8,3,1
0,8,5,5
1,0,0,5
1,0,1,1
1,0,7,4
1,0,8,6
1,1,4,8
1,2,1,6
1,2,2,8
1,2,6,3
1,2,7,7
1,6,1,3
1,6,2,6
1,6,6,2
1,6,7,1
1,7,4,2
1,8,0,1
1,8,1,7
1,8,7,9
1,8,8,5
2,2,3,3
2,2,5,8
2,6,3,8
2,6,5,6
3,0,0,9
3,0,8,3
3,2,4,3
3,3,2,1
3,3,6,6
3,4,2,8
3,4,6,3
3,5,2,9
3,5,6,5
3,6,4,8
3,8,0,8
3,8,8,6
4,0,0,6
4,0,8,1
4,1,1,9
4,1,7,7
4,2,2,7
4,2,6,5
4,6,2,1
4,6,6,6
4,7,1,6
4,7,7,9
4,8,0,5
4,8,8,7
5,0,0,7
5,0,8,4
5,2,4,4
5,3,2,3
5,3,6,9
5,4,2,2
5,4,6,4
5,5,2,7
5,5,6,8
5,6,4,2
5,8,0,2
5,8,8,9
6,2,3,9
6,2,5,3
6,6,3,1
6,6,5,5
7,0,0,4
7,0,1,7
7,0,7,9
7,0,8,5
7,1,4,3
7,2,1,5
7,2,2,3
7,2,6,6
7,2,7,8
7,6,1,9
7,6,2,5
7,6,6,4
7,6,7,6
7,7,4,4
7,8,0,6
7,8,1,8
7,8,7,2
7,8,8,3
8,0,3,3
8,0,5,5
8,3,2,5
8,3,3,1
8,3,5,2
8,3,6,3
8,4,2,7
8,4,6,5
8,5,2,3
8,5,3,9
8,5,5,4
8,5,6,7
8,8,3,7
8,8,5,3
