0,0,1,5
0,0,7,7
0,4,3,5
0,4,5,9
0,8,1,2
0,8,7,9
1,3,0,9
1,3,3,1
1,3,5,2
1,3,8,8
1,5,0,8
1,5,3,9
1,5,5,4
1,5,8,3
2,0,0,3
2,0,3,8
2,0,5,7
2,0,8,9
2,2,1,4
2,2,4,3
2,2,7,8
2,3,4,9
2,5,4,7
2,6,1,5
2,6,4,2
2,6,7,7
2,8,0,8
2,8,3,9
2,8,5,4
2,8,8,2
3,0,0,4
3,0,2,8
3,0,6,9
3,0,8,7
3,1,0,5
3,1,8,6
3,2,4,1
3,3,3,2
3,3,5,9
3,5,3,1
3,5,5,5
3,6,4,4
3,7,0,8
3,7,8,2
3,8,0,7
3,8,2,2
3,8,6,6
3,8,8,3
4,0,4,4
4,1,1,4
4,1,2,3
4,1,6,7
4,1,7,9
4,2,1,5
4,2,7,4
4,3,3,5
4,3,4,1
4,3,5,6
4,4,0,5
4,4,3,9
4,4,5,8
4,4,8,6
4,5,3,4
4,5,4,3
4,5,5,7
4,6,1,7
4,6,7,6
4,7,1,6
4,7,2,9
4,7,6,1
4,7,7,8
4,8,4,6
5,0,0,1
5,0,2,5
5,0,6,2
5,0,8,4
5,1,0,2
5,1,8,5
5,2,4,6
5,3,3,7
5,3,5,3
5,5,3,8
5,5,5,2
5,6,4,3
5,7,0,5
5,7,8,6
5,8,0,9
5,8,2,6
5,8,6,5
5,8,8,8
6,0,0,5
6,0,3,1
6,0,5,2
6,0,8,6
6,2,1,7
6,2,4,4
6,2,7,1
6,3,4,7
6,5,4,1
6,6,1,6
6,6,4,5
6,6,7,3
6,8,0,2
6,8,3,7
6,8,5,6
6,8,8,4
7,3,0,5
7,3,3,3
7,3,5,1
7,3,8,6
7,5,0,6
7,5,3,5
7,5,5,9
7,5,8,2
8,0,1,1
8,0,7,9
8,4,3,1
8,4,5,2
8,8,1,7
8,8,7,2
