0,0,1,9
0,0,7,4
0,1,3,4
0,1,4,8
0,1,5,7
0,2,4,2
0,3,1,4
0,3,7,5
0,4,1,1
0,4,3,5
0,4,5,2
0,4,7,8
0,5,1,2
0,5,7,7
0,6,4,4
0,7,3,9
0,7,4,1
0,7,5,6
0,8,1,6
0,8,7,2
2,1,4,9
2,2,1,8
2,2,7,3
2,3,1,7
2,3,3,3
2,3,5,5
2,3,7,6
2,5,1,3
2,5,3,9
2,5,5,7
2,5,7,1
2,6,1,2
2,6,7,7
2,7,4,5
3,1,2,7
3,1,6,1
3,2,0,8
3,2,8,2
3,3,4,6
3,5,4,7
3,6,0,2
3,6,8,4
3,7,2,4
3,7,6,6
4,0,0,6
4,0,3,7
4,0,5,9
4,0,8,5
4,2,0,7
4,2,8,4
4,6,0,5
4,6,8,3
4,8,0,4
4,8,3,9
4,8,5,8
4,8,8,1
5,1,2,8
5,1,6,5
5,2,0,5
5,2,8,8
5,3,4,8
5,5,4,3
5,6,0,3
5,6,8,6
5,7,2,6
5,7,6,3
6,1,4,4
6,2,1,1
6,2,7,8
6,3,1,6
6,3,3,8
6,3,5,9
6,3,7,2
6,5,1,8
6,5,3,4
6,5,5,6
6,5,7,3
6,6,1,7
6,6,7,6
6,7,4,9
8,0,1,4
8,0,7,5
8,1,3,5
8,1,4,1
8,1,5,6
8,2,4,7
8,3,1,5
8,3,7,9
8,4,1,3
8,4,3,9
8,4,5,7
8,4,7,1
8,5,1,7
8,5,7,6
8,6,4,5
8,7,3,4
8,7,4,3
8,7,5,2
8,8,1,2
8,8,7,7
