0,0,3,5
0,0,5,9
0,8,3,9
0,8,5,7
1,1,4,4
1,2,4,9
1,3,3,9
1,3,5,2
1,4,3,3
1,4,5,7
1,5,3,4
1,5,5,6
1,6,4,2
1,7,4,7
2,0,2,3
2,0,6,6
2,1,0,8
2,1,3,9
2,1,4,5
2,1,5,6
2,1,8,1
2,2,0,5
2,2,4,1
2,2,8,8
2,3,4,7
2,5,4,2
2,6,0,4
2,6,4,9
2,6,8,3
2,7,0,9
2,7,3,6
2,7,4,3
2,7,5,1
2,7,8,4
2,8,2,6
2,8,6,5
3,0,0,4
3,0,8,3
3,2,4,4
3,4,2,5
3,4,6,4
3,6,4,5
3,8,0,1
3,8,8,5
4,2,3,9
4,2,5,6
4,3,2,2
4,3,3,7
4,3,5,1
4,3,6,8
4,5,2,6
4,5,3,2
4,5,5,5
4,5,6,1
4,6,3,1
4,6,5,3
5,0,0,2
5,0,8,6
5,2,4,2
5,4,2,4
5,4,6,7
5,6,4,4
5,8,0,9
5,8,8,4
6,0,2,4
6,0,6,2
6,1,0,5
6,1,3,3
6,1,4,1
6,1,5,2
6,1,8,8
6,2,0,1
6,2,4,8
6,2,8,5
6,3,4,6
6,5,4,7
6,6,0,9
6,6,4,3
6,6,8,4
6,7,0,3
6,7,3,2
6,7,4,4
6,7,5,8
6,7,8,9
6,8,2,2
6,8,6,1
7,1,4,7
7,2,4,6
7,3,3,2
7,3,5,5
7,4,3,7
7,4,5,1
7,5,3,6
7,5,5,8
7,6,4,8
7,7,4,5
8,0,3,7
8,0,5,8
8,8,3,8
8,8,5,4
