0,2,4,7
0,4,2,1
0,4,6,7
0,6,4,8
1,3,0,5
1,3,8,7
1,4,2,6
1,4,6,1
1,5,0,9
1,5,8,5
2,0,0,4
2,0,3,8
2,0,5,7
2,0,8,2
2,1,0,2
2,1,1,5
2,1,3,3
2,1,4,4
2,1,5,9
2,1,7,1
2,1,8,6
2,7,0,7
2,7,1,1
2,7,3,2
2,7,4,5
2,7,5,8
2,7,7,4
2,7,8,9
2,8,0,9
2,8,3,6
2,8,5,3
2,8,8,5
3,2,2,6
3,2,6,8
3,3,2,8
3,3,6,9
3,4,4,6
3,5,2,1
3,5,6,7
3,6,2,5
3,6,6,6
4,0,1,2
4,0,7,7
4,3,1,3
4,3,2,4
4,3,3,6
4,3,5,1
4,3,6,8
4,3,7,2
4,5,1,8
4,5,2,6
4,5,3,2
4,5,5,3
4,5,6,1
4,5,7,4
4,8,1,5
4,8,7,8
5,2,2,8
5,2,6,7
5,3,2,5
5,3,6,6
5,4,4,3
5,5,2,9
5,5,6,2
5,6,2,4
5,6,6,1
6,0,0,7
6,0,3,2
6,0,5,1
6,0,8,9
6,1,0,9
6,1,1,1
6,1,3,6
6,1,4,7
6,1,5,8
6,1,7,2
6,1,8,5
6,7,0,3
6,7,1,2
6,7,3,9
6,7,4,1
6,7,5,4
6,7,7,7
6,7,8,8
6,8,0,1
6,8,3,5
6,8,5,2
6,8,8,3
7,3,0,3
7,3,8,8
7,4,2,5
7,4,6,6
7,5,0,8
7,5,8,1
8,2,4,1
8,4,2,4
8,4,6,8
8,6,4,4
