0,0,1,7
0,0,3,5
0,0,4,6
0,0,5,3
0,0,7,2
0,2,2,8
0,2,6,5
0,3,0,6
0,3,8,5
0,4,3,7
0,4,5,5
0,5,0,7
0,5,8,1
0,6,2,2
0,6,6,4
0,8,1,1
0,8,3,3
0,8,4,5
0,8,5,2
0,8,7,9
1,1,3,7
1,1,5,1
1,2,3,6
1,2,5,5
1,4,1,5
1,4,4,9
1,4,7,1
1,6,3,1
1,6,5,4
1,7,3,5
1,7,5,3
2,4,2,8
2,4,6,5
3,0,2,9
3,0,6,1
3,2,2,2
3,2,6,9
3,4,1,2
3,4,7,6
3,6,2,5
3,6,6,6
3,8,2,8
3,8,6,5
4,0,3,9
4,0,5,6
4,3,4,9
4,4,3,4
4,4,5,2
4,5,4,6
4,8,3,8
4,8,5,7
5,0,2,3
5,0,6,6
5,2,2,4
5,2,6,3
5,4,1,9
5,4,7,4
5,6,2,7
5,6,6,9
5,8,2,1
5,8,6,7
6,4,2,9
6,4,6,7
7,1,3,2
7,1,5,9
7,2,3,7
7,2,5,1
7,4,1,1
7,4,4,5
7,4,7,9
7,6,3,9
7,6,5,8
7,7,3,1
7,7,5,4
8,0,1,5
8,0,3,8
8,0,4,9
8,0,5,2
8,0,7,1
8,2,2,7
8,2,6,8
8,3,0,1
8,3,8,8
8,4,3,9
8,4,5,8
8,5,0,9
8,5,8,3
8,6,2,9
8,6,6,2
8,8,1,3
8,8,3,7
8,8,4,8
8,8,5,9
8,8,7,4
