0,0,1,1
0,0,2,7
0,0,6,5
0,0,7,9
0,8,1,3
0,8,2,9
0,8,6,6
0,8,7,5
1,0,0,9
1,0,8,3
1,8,0,8
1,8,8,2
2,0,2,4
2,0,6,7
2,1,1,3
2,1,7,5
2,3,3,5
2,3,5,7
2,4,2,2
2,4,6,8
2,5,3,8
2,5,5,2
2,7,1,6
2,7,7,2
2,8,2,5
2,8,6,9
3,0,3,9
3,0,4,8
3,0,5,7
3,1,0,1
3,1,4,5
3,1,8,7
3,2,3,1
3,2,5,2
3,3,1,9
3,3,7,4
3,5,1,1
3,5,7,9
3,6,3,8
3,6,5,4
3,7,0,8
3,7,4,6
3,7,8,4
3,8,3,3
3,8,4,2
3,8,5,9
4,2,0,2
4,2,8,3
4,3,3,3
4,3,5,4
4,5,3,5
4,5,5,9
4,6,0,4
4,6,8,6
5,0,3,5
5,0,4,6
5,0,5,4
5,1,0,5
5,1,4,2
5,1,8,4
5,2,3,8
5,2,5,9
5,3,1,8
5,3,7,3
5,5,1,3
5,5,7,5
5,6,3,6
5,6,5,5
5,7,0,7
5,7,4,9
5,7,8,8
5,8,3,7
5,8,4,4
5,8,5,8
6,0,2,3
6,0,6,9
6,1,1,6
6,1,7,2
6,3,3,6
6,3,5,1
6,4,2,4
6,4,6,6
6,5,3,7
6,5,5,4
6,7,1,1
6,7,7,9
6,8,2,7
6,8,6,5
7,0,0,5
7,0,8,7
7,8,0,2
7,8,8,9
8,0,1,8
8,0,2,9
8,0,6,2
8,0,7,3
8,8,1,6
8,8,2,8
8,8,6,1
8,8,7,2
