0,1,1,5
0,1,4,7
0,1,7,9
0,2,1,7
0,2,7,4
0,3,4,2
0,4,0,5
0,4,2,9
0,4,6,1
0,4,8,6
0,5,4,5
0,6,1,6
0,6,7,5
0,7,1,1
0,7,4,4
0,7,7,6
1,1,3,9
1,1,5,6
1,2,2,6
1,2,6,7
1,3,4,4
1,4,0,8
1,4,8,4
1,5,4,9
1,6,2,2
1,6,6,6
1,7,3,6
1,7,5,5
3,0,0,3
3,0,1,8
3,0,2,6
3,0,6,7
3,0,7,4
3,0,8,9
3,1,3,8
3,1,5,4
3,3,0,9
3,3,3,2
3,3,5,8
3,3,8,7
3,4,1,7
3,4,3,6
3,4,5,9
3,4,7,8
3,5,0,8
3,5,3,7
3,5,5,1
3,5,8,6
3,7,3,4
3,7,5,6
3,8,0,2
3,8,1,4
3,8,2,9
3,8,6,1
3,8,7,6
3,8,8,5
4,0,1,4
4,0,2,1
4,0,6,8
4,0,7,6
4,1,0,6
4,1,3,5
4,1,5,2
4,1,8,4
4,2,0,7
4,2,8,3
4,6,0,9
4,6,8,6
4,7,0,1
4,7,3,2
4,7,5,9
4,7,8,7
4,8,1,7
4,8,2,5
4,8,6,3
4,8,7,9
5,0,0,9
5,0,1,7
5,0,2,5
5,0,6,3
5,0,7,1
5,0,8,2
5,1,3,7
5,1,5,9
5,3,0,7
5,3,3,4
5,3,5,6
5,3,8,3
5,4,1,4
5,4,3,3
5,4,5,7
5,4,7,6
5,5,0,6
5,5,3,5
5,5,5,2
5,5,8,4
5,7,3,8
5,7,5,3
5,8,0,3
5,8,1,1
5,8,2,6
5,8,6,7
5,8,7,4
5,8,8,8
7,1,3,6
7,1,5,5
7,2,2,4
7,2,6,5
7,3,4,8
7,4,0,7
7,4,8,9
7,5,4,2
7,6,2,5
7,6,6,3
7,7,3,5
7,7,5,8
8,1,1,4
8,1,4,2
8,1,7,1
8,2,1,2
8,2,7,3
8,3,4,6
8,4,0,4
8,4,2,1
8,4,6,8
8,4,8,7
8,5,4,4
8,6,1,7
8,6,7,4
8,7,1,8
8,7,4,3
8,7,7,7
