0,3,0,2
0,3,8,3
0,5,0,1
0,5,8,4
1,1,1,4
1,1,2,6
1,1,6,2
1,1,7,8
1,3,3,3
1,3,5,2
1,5,3,4
1,5,5,8
1,7,1,3
1,7,2,5
1,7,6,9
1,7,7,2
2,0,2,8
2,0,6,3
2,1,3,5
2,1,5,8
2,2,0,7
2,2,8,8
2,3,3,8
2,3,5,7
2,5,3,9
2,5,5,1
2,6,0,1
2,6,8,9
2,7,3,1
2,7,5,6
2,8,2,3
2,8,6,1
3,1,1,7
3,1,3,2
3,1,5,4
3,1,7,9
3,4,3,1
3,4,4,9
3,4,5,7
3,7,1,9
3,7,3,5
3,7,5,3
3,7,7,1
4,1,0,9
4,1,8,2
4,2,0,8
4,2,3,4
4,2,5,3
4,2,8,9
4,3,3,5
4,3,5,1
4,5,3,2
4,5,5,9
4,6,0,5
4,6,3,6
4,6,5,4
4,6,8,7
4,7,0,1
4,7,8,5
5,1,1,2
5,1,3,6
5,1,5,9
5,1,7,5
5,4,3,8
5,4,4,5
5,4,5,2
5,7,1,5
5,7,3,4
5,7,5,1
5,7,7,8
6,0,2,7
6,0,6,6
6,1,3,8
6,1,5,7
6,2,0,9
6,2,8,7
6,3,3,2
6,3,5,9
6,5,3,1
6,5,5,6
6,6,0,7
6,6,8,8
6,7,3,7
6,7,5,4
6,8,2,2
6,8,6,7
7,1,1,8
7,1,2,5
7,1,6,9
7,1,7,6
7,3,3,6
7,3,5,4
7,5,3,3
7,5,5,7
7,7,1,7
7,7,2,1
7,7,6,8
7,7,7,4
8,3,0,9
8,3,8,2
8,5,0,7
8,5,8,1
