0,2,2,8
0,2,4,6
0,2,6,9
0,3,3,2
0,3,5,8
0,5,3,6
0,5,5,3
0,6,2,4
0,6,4,8
0,6,6,6
1,0,2,6
1,0,6,8
1,1,2,2
1,1,6,1
1,2,3,2
1,2,4,4
1,2,5,8
1,3,0,3
1,3,3,5
1,3,5,7
1,3,8,8
1,5,0,1
1,5,3,9
1,5,5,2
1,5,8,3
1,6,3,1
1,6,4,7
1,6,5,4
1,7,2,8
1,7,6,4
1,8,2,1
1,8,6,9
2,1,4,8
2,2,2,5
2,2,4,1
2,2,6,2
2,3,4,6
2,4,2,1
2,4,6,4
2,5,4,7
2,6,2,2
2,6,4,9
2,6,6,1
2,7,4,5
3,0,1,5
3,0,7,7
3,4,0,1
3,4,3,9
3,4,5,2
3,4,8,3
3,8,1,7
3,8,7,8
4,1,2,5
4,1,6,2
4,2,4,3
4,3,0,4
4,3,8,9
4,4,2,2
4,4,6,1
4,5,0,5
4,5,8,4
4,6,4,6
4,7,2,1
4,7,6,9
5,0,1,7
5,0,7,8
5,4,0,6
5,4,3,1
5,4,5,5
5,4,8,2
5,8,1,8
5,8,7,9
6,1,4,9
6,2,2,2
6,2,4,5
6,2,6,1
6,3,4,8
6,4,2,4
6,4,6,2
6,5,4,3
6,6,2,1
6,6,4,2
6,6,6,9
6,7,4,7
7,0,2,8
7,0,6,9
7,1,2,1
7,1,6,5
7,2,3,1
7,2,4,7
7,2,5,9
7,3,0,9
7,3,3,6
7,3,5,3
7,3,8,5
7,5,0,4
7,5,3,7
7,5,5,1
7,5,8,9
7,6,3,9
7,6,4,3
7,6,5,6
7,7,2,4
7,7,6,6
7,8,2,9
7,8,6,2
8,2,2,9
8,2,4,8
8,2,6,6
8,3,3,1
8,3,5,5
8,5,3,8
8,5,5,9
8,6,2,6
8,6,4,4
8,6,6,8
