0,0,4,9
0,1,2,9
0,1,3,8
0,1,5,2
0,1,6,4
0,4,2,2
0,4,3,9
0,4,5,8
0,4,6,7
0,7,2,3
0,7,3,7
0,7,5,4
0,7,6,1
0,8,4,3
1,0,2,1
1,0,3,7
1,0,5,4
1,0,6,8
1,1,1,2
1,1,3,6
1,1,4,1
1,1,5,9
1,1,7,5
1,3,1,1
1,3,4,5
1,3,7,6
1,5,1,3
1,5,4,9
1,5,7,7
1,7,1,9
1,7,3,5
1,7,4,2
1,7,5,1
1,7,7,3
1,8,2,6
1,8,3,4
1,8,5,8
1,8,6,2
2,1,0,1
2,1,8,9
2,2,4,6
2,3,0,4
2,3,1,2
2,3,4,8
2,3,7,5
2,3,8,7
2,4,2,1
2,4,4,3
2,4,6,8
2,5,0,5
2,5,1,6
2,5,4,1
2,5,7,9
2,5,8,2
2,6,4,4
2,7,0,2
2,7,8,8
3,0,0,1
3,0,2,9
3,0,6,4
3,0,8,7
3,2,1,8
3,2,7,9
3,6,1,6
3,6,7,3
3,8,0,9
3,8,2,2
3,8,6,7
3,8,8,1
4,0,0,7
4,0,2,8
4,0,3,4
4,0,4,1
4,0,5,2
4,0,6,3
4,0,8,9
4,1,0,9
4,1,2,2
4,1,6,7
4,1,8,8
4,2,3,7
4,2,5,8
4,4,0,5
4,4,4,2
4,4,8,1
4,6,3,5
4,6,5,6
4,7,0,4
4,7,2,6
4,7,6,2
4,7,8,3
4,8,0,1
4,8,2,5
4,8,3,2
4,8,4,4
4,8,5,3
4,8,6,9
4,8,8,6
5,0,0,4
5,0,2,6
5,0,6,2
5,0,8,1
5,2,1,9
5,2,7,7
5,6,1,1
5,6,7,9
5,8,0,6
5,8,2,8
5,8,6,3
5,8,8,5
6,1,0,3
6,1,8,4
6,2,4,7
6,3,0,5
6,3,1,6
6,3,4,1
6,3,7,9
6,3,8,2
6,4,2,3
6,4,4,8
6,4,6,1
6,5,0,9
6,5,1,7
6,5,4,3
6,5,7,4
6,5,8,6
6,6,4,5
6,7,0,6
6,7,8,1
7,0,2,5
7,0,3,3
7,0,5,7
7,0,6,9
7,1,1,8
7,1,3,1
7,1,4,9
7,1,5,6
7,1,7,7
7,3,1,9
7,3,4,2
7,3,7,8
7,5,1,4
7,5,4,6
7,5,7,1
7,7,1,7
7,7,3,2
7,7,4,1
7,7,5,5
7,7,7,4
7,8,2,3
7,8,3,7
7,8,5,4
7,8,6,1
8,0,4,8
8,1,2,1
8,1,3,7
8,1,5,4
8,1,6,8
8,4,2,9
8,4,3,3
8,4,5,2
8,4,6,4
8,7,2,2
8,7,3,9
8,7,5,3
8,7,6,7
8,8,4,2
