0,2,0,6
0,2,1,9
0,2,2,1
0,2,4,5
0,2,6,8
0,2,7,7
0,2,8,3
0,3,3,9
0,3,5,7
0,5,3,5
0,5,5,4
0,6,0,3
0,6,1,8
0,6,2,2
0,6,4,7
0,6,6,6
0,6,7,4
0,6,8,5
1,0,4,3
1,2,0,2
1,2,1,3
1,2,2,5
1,2,6,1
1,2,7,6
1,2,8,4
1,3,4,5
1,5,4,7
1,6,0,4
1,6,1,1
1,6,2,7
1,6,6,2
1,6,7,9
1,6,8,8
1,8,4,9
2,4,0,1
2,4,4,9
2,4,8,6
3,1,2,3
3,1,6,4
3,2,1,1
3,2,3,5
3,2,5,4
3,2,7,3
3,3,3,8
3,3,5,3
3,4,4,1
3,5,3,6
3,5,5,5
3,6,1,2
3,6,3,7
3,6,5,8
3,6,7,1
3,7,2,7
3,7,6,2
4,0,0,2
4,0,8,4
4,3,2,7
4,3,6,2
4,5,2,4
4,5,6,9
4,8,0,7
4,8,8,9
5,1,2,4
5,1,6,9
5,2,1,5
5,2,3,8
5,2,5,9
5,2,7,4
5,3,3,1
5,3,5,4
5,4,4,5
5,5,3,2
5,5,5,8
5,6,1,7
5,6,3,6
5,6,5,1
5,6,7,5
5,7,2,6
5,7,6,7
6,4,0,9
6,4,4,2
6,4,8,8
7,0,4,7
7,2,0,1
7,2,1,6
7,2,2,9
7,2,6,3
7,2,7,8
7,2,8,7
7,3,4,9
7,5,4,5
7,6,0,2
7,6,1,3
7,6,2,8
7,6,6,5
7,6,7,6
7,6,8,4
7,8,4,2
8,2,0,5
8,2,1,7
8,2,2,4
8,2,4,3
8,2,6,9
8,2,7,1
8,2,8,2
8,3,3,2
8,3,5,5
8,5,3,3
8,5,5,6
8,6,0,6
8,6,1,9
8,6,2,1
8,6,4,5
8,6,6,8
8,6,7,7
8,6,8,3
