0,2,0,6
0,2,4,9
0,2,8,3
0,3,3,3
0,3,5,7
0,4,1,6
0,4,7,4
0,5,3,5
0,5,5,1
0,6,0,7
0,6,4,8
0,6,8,4
1,0,3,7
1,0,5,4
1,1,0,7
1,1,8,4
1,4,0,4
1,4,8,8
1,7,0,8
1,7,8,9
1,8,3,8
1,8,5,9
2,0,2,7
2,0,6,3
2,1,0,3
2,1,4,6
2,1,8,7
2,2,0,8
2,2,8,9
2,4,2,2
2,4,6,9
2,6,0,2
2,6,8,5
2,7,0,6
2,7,4,9
2,7,8,3
2,8,2,3
2,8,6,2
3,1,0,1
3,1,8,8
3,2,1,5
3,2,7,2
3,3,0,2
3,3,8,4
3,4,2,5
3,4,6,7
3,5,0,4
3,5,8,1
3,6,1,9
3,6,7,7
3,7,0,7
3,7,8,5
4,1,1,9
4,1,7,7
4,3,2,9
4,3,6,6
4,5,2,2
4,5,6,9
4,7,1,1
4,7,7,9
5,1,0,4
5,1,8,1
5,2,1,1
5,2,7,9
5,3,0,7
5,3,8,5
5,4,2,1
5,4,6,4
5,5,0,5
5,5,8,6
5,6,1,6
5,6,7,4
5,7,0,3
5,7,8,7
6,0,2,8
6,0,6,6
6,1,0,6
6,1,4,9
6,1,8,3
6,2,0,4
6,2,8,8
6,4,2,9
6,4,6,8
6,6,0,9
6,6,8,2
6,7,0,1
6,7,4,3
6,7,8,6
6,8,2,6
6,8,6,1
7,0,3,5
7,0,5,1
7,1,0,8
7,1,8,9
7,4,0,7
7,4,8,4
7,7,0,4
7,7,8,8
7,8,3,4
7,8,5,3
8,2,0,1
8,2,4,3
8,2,8,6
8,3,3,6
8,3,5,5
8,4,1,1
8,4,7,9
8,5,3,2
8,5,5,8
8,6,0,8
8,6,4,4
8,6,8,9
