0,0,2,6
0,0,6,9
0,1,1,2
0,1,3,8
0,1,4,9
0,1,5,6
0,1,7,3
0,2,2,9
0,2,6,1
0,6,2,3
0,6,6,2
0,7,1,1
0,7,3,9
0,7,4,6
0,7,5,8
0,7,7,5
0,8,2,7
0,8,6,4
1,0,1,7
1,0,7,1
1,3,1,9
1,3,2,7
1,3,6,4
1,3,7,6
1,4,2,3
1,4,4,4
1,4,6,2
1,5,1,1
1,5,2,4
1,5,6,3
1,5,7,5
1,8,1,2
1,8,7,3
2,1,1,9
2,1,4,3
2,1,7,6
2,3,0,4
2,3,1,2
2,3,7,3
2,3,8,5
2,4,4,2
2,5,0,3
2,5,1,5
2,5,7,2
2,5,8,8
2,7,1,7
2,7,4,5
2,7,7,1
3,0,1,2
3,0,7,3
3,1,2,3
3,1,6,9
3,2,0,4
3,2,8,7
3,3,3,9
3,3,4,5
3,3,5,4
3,5,3,8
3,5,4,3
3,5,5,1
3,6,0,2
3,6,8,8
3,7,2,1
3,7,6,5
3,8,1,5
3,8,7,7
4,0,1,4
4,0,7,6
4,2,4,6
4,4,2,6
4,4,6,3
4,6,4,1
4,8,1,8
4,8,7,5
5,0,1,3
5,0,7,4
5,1,2,4
5,1,6,2
5,2,0,2
5,2,8,8
5,3,3,6
5,3,4,2
5,3,5,7
5,5,3,5
5,5,4,4
5,5,5,9
5,6,0,3
5,6,8,5
5,7,2,9
5,7,6,7
5,8,1,6
5,8,7,8
6,1,1,4
6,1,4,1
6,1,7,2
6,3,0,5
6,3,1,7
6,3,7,1
6,3,8,9
6,4,4,7
6,5,0,1
6,5,1,9
6,5,7,7
6,5,8,3
6,7,1,6
6,7,4,9
6,7,7,8
7,0,1,6
7,0,7,8
7,3,1,4
7,3,2,6
7,3,6,5
7,3,7,2
7,4,2,1
7,4,4,5
7,4,6,7
7,5,1,8
7,5,2,5
7,5,6,1
7,5,7,9
7,8,1,7
7,8,7,1
8,0,2,2
8,0,6,4
8,1,1,7
8,1,3,3
8,1,4,4
8,1,5,2
8,1,7,1
8,2,2,4
8,2,6,8
8,6,2,1
8,6,6,7
8,7,1,8
8,7,3,4
8,7,4,2
8,7,5,3
8,7,7,9
8,8,2,6
8,8,6,5
