0,0,0,3
0,0,8,5
0,1,2,9
0,1,6,2
0,2,2,1
0,2,6,9
0,4,4,5
0,6,2,3
0,6,6,4
0,7,2,6
0,7,6,1
0,8,0,5
0,8,8,7
1,0,4,4
1,1,2,4
1,1,6,5
1,2,4,5
1,3,0,5
1,3,8,4
1,4,1,2
1,4,7,5
1,5,0,3
1,5,8,2
1,6,4,2
1,7,2,2
1,7,6,3
1,8,4,1
2,0,3,8
2,0,5,5
2,1,3,2
2,1,5,4
2,2,3,9
2,2,5,3
2,3,3,5
2,3,5,9
2,4,0,9
2,4,2,3
2,4,6,4
2,4,8,8
2,5,3,3
2,5,5,6
2,6,3,4
2,6,5,8
2,7,3,1
2,7,5,2
2,8,3,6
2,8,5,7
3,0,1,8
3,0,7,1
3,1,4,6
3,2,0,3
3,2,8,6
3,3,0,7
3,3,8,1
3,4,3,8
3,4,4,7
3,4,5,5
3,5,0,2
3,5,8,7
3,6,0,8
3,6,8,5
3,7,4,8
3,8,1,6
3,8,7,2
4,0,2,7
4,0,3,2
4,0,5,4
4,0,6,6
4,2,2,2
4,2,6,1
4,4,4,4
4,6,2,6
4,6,6,3
4,8,2,8
4,8,3,4
4,8,5,3
4,8,6,9
5,0,1,3
5,0,7,8
5,1,4,2
5,2,0,1
5,2,8,2
5,3,0,9
5,3,8,8
5,4,3,3
5,4,4,9
5,4,5,6
5,5,0,5
5,5,8,9
5,6,0,3
5,6,8,6
5,7,4,3
5,8,1,2
5,8,7,5
6,0,3,9
6,0,5,8
6,1,3,1
6,1,5,5
6,2,3,2
6,2,5,4
6,3,3,8
6,3,5,6
6,4,0,6
6,4,2,4
6,4,6,2
6,4,8,7
6,5,3,7
6,5,5,3
6,6,3,6
6,6,5,7
6,7,3,4
6,7,5,1
6,8,3,3
6,8,5,2
7,0,4,2
7,1,2,2
7,1,6,1
7,2,4,8
7,3,0,3
7,3,8,6
7,4,1,8
7,4,7,1
7,5,0,4
7,5,8,3
7,6,4,1
7,7,2,8
7,7,6,4
7,8,4,4
8,0,0,9
8,0,8,1
8,1,2,5
8,1,6,3
8,2,2,4
8,2,6,5
8,4,4,8
8,6,2,7
8,6,6,2
8,7,2,1
8,7,6,7
8,8,0,3
8,8,8,5
