0,1,1,7
0,1,7,4
0,3,2,4
0,3,3,6
0,3,5,3
0,3,6,5
0,4,3,2
0,4,5,4
0,5,2,2
0,5,3,5
0,5,5,1
0,5,6,3
0,7,1,2
0,7,7,5
1,0,1,1
1,0,4,9
1,0,7,7
1,1,3,7
1,1,5,4
1,2,1,9
1,2,7,6
1,3,3,8
1,3,5,7
1,4,0,4
1,4,3,3
1,4,5,9
1,4,8,2
1,5,3,4
1,5,5,6
1,6,1,8
1,6,7,2
1,7,3,2
1,7,5,5
1,8,1,4
1,8,4,7
1,8,7,1
2,1,4,1
2,2,0,1
2,2,8,9
2,3,2,5
2,3,6,9
2,4,4,6
2,5,2,7
2,5,6,2
2,6,0,2
2,6,8,8
2,7,4,8
3,0,2,8
3,0,4,1
3,0,6,6
3,1,3,9
3,1,4,2
3,1,5,6
3,3,3,2
3,3,5,9
3,4,1,5
3,4,7,1
3,5,3,1
3,5,5,7
3,7,3,5
3,7,4,7
3,7,5,1
3,8,2,4
3,8,4,9
3,8,6,5
4,0,0,5
4,0,8,2
4,1,1,9
4,1,7,6
4,2,0,3
4,2,8,8
4,3,0,9
4,3,8,3
4,4,4,2
4,5,0,7
4,5,8,1
4,6,0,4
4,6,8,7
4,7,1,5
4,7,7,1
4,8,0,2
4,8,8,6
5,0,2,1
5,0,4,6
5,0,6,8
5,1,3,4
5,1,4,3
5,1,5,8
5,3,3,3
5,3,5,4
5,4,1,9
5,4,7,6
5,5,3,6
5,5,5,2
5,7,3,9
5,7,4,2
5,7,5,6
5,8,2,5
5,8,4,4
5,8,6,9
6,1,4,4
6,2,0,9
6,2,8,7
6,3,2,7
6,3,6,2
6,4,4,9
6,5,2,8
6,5,6,6
6,6,0,6
6,6,8,9
6,7,4,5
7,0,1,5
7,0,4,2
7,0,7,1
7,1,3,1
7,1,5,7
7,2,1,7
7,2,7,5
7,3,3,9
7,3,5,1
7,4,0,7
7,4,3,6
7,4,5,3
7,4,8,8
7,5,3,2
7,5,5,5
7,6,1,9
7,6,7,8
7,7,3,8
7,7,5,2
7,8,1,2
7,8,4,1
7,8,7,9
8,1,1,6
8,1,7,7
8,3,2,3
8,3,3,4
8,3,5,8
8,3,6,7
8,4,3,1
8,4,5,7
8,5,2,1
8,5,3,3
8,5,5,9
8,5,6,8
8,7,1,1
8,7,7,2
