0,1,1,2
0,1,7,9
0,2,4,5
0,3,0,6
0,3,8,9
0,4,4,4
0,5,0,5
0,5,8,1
0,6,4,9
0,7,1,5
0,7,7,8
1,0,2,1
1,0,6,6
1,1,0,5
1,1,1,9
1,1,2,4
1,1,3,6
1,1,5,2
1,1,6,8
1,1,7,7
1,1,8,1
1,3,4,6
1,5,4,9
1,7,0,7
1,7,1,1
1,7,2,8
1,7,3,4
1,7,5,9
1,7,6,3
1,7,7,2
1,7,8,6
1,8,2,5
1,8,6,7
2,0,2,3
2,0,6,9
2,3,4,5
2,4,1,4
2,4,7,1
2,5,4,1
2,8,2,1
2,8,6,6
3,3,1,7
3,3,7,4
3,4,1,8
3,4,7,9
3,5,1,3
3,5,7,5
4,2,1,7
4,2,7,4
4,6,1,5
4,6,7,2
5,3,1,4
5,3,7,1
5,4,1,9
5,4,7,6
5,5,1,5
5,5,7,2
6,0,2,9
6,0,6,1
6,3,4,1
6,4,1,1
6,4,7,2
6,5,4,2
6,8,2,2
6,8,6,4
7,0,2,8
7,0,6,3
7,1,0,9
7,1,1,4
7,1,2,5
7,1,3,3
7,1,5,6
7,1,6,7
7,1,7,1
7,1,8,8
7,3,4,3
7,5,4,4
7,7,0,1
7,7,1,8
7,7,2,7
7,7,3,5
7,7,5,4
7,7,6,2
7,7,7,6
7,7,8,3
7,8,2,9
7,8,6,1
8,1,1,7
8,1,7,3
8,2,4,3
8,3,0,1
8,3,8,3
8,4,4,6
8,5,0,2
8,5,8,5
8,6,4,2
8,7,1,2
8,7,7,9
