0,1,3,4
0,1,5,5
0,3,1,2
0,3,7,8
0,4,0,4
0,4,8,7
0,5,1,6
0,5,7,5
0,7,3,7
0,7,5,3
1,0,2,3
1,0,3,9
1,0,5,4
1,0,6,6
1,1,3,8
1,1,4,1
1,1,5,6
1,3,3,1
1,3,5,8
1,4,3,7
1,4,5,3
1,5,3,4
1,5,5,5
1,7,3,5
1,7,4,4
1,7,5,9
1,8,2,5
1,8,3,6
1,8,5,1
1,8,6,7
2,0,3,1
2,0,5,8
2,1,4,2
2,2,1,3
2,2,7,1
2,4,3,9
2,4,5,4
2,6,1,2
2,6,7,8
2,7,4,1
2,8,3,3
2,8,5,2
3,1,2,6
3,1,6,3
3,3,0,5
3,3,8,4
3,4,3,5
3,4,5,8
3,5,0,6
3,5,8,8
3,7,2,3
3,7,6,9
4,0,1,6
4,0,7,9
4,3,4,8
4,4,3,1
4,4,5,7
4,5,4,2
4,8,1,5
4,8,7,3
5,1,2,5
5,1,6,6
5,3,0,2
5,3,8,3
5,4,3,2
5,4,5,9
5,5,0,4
5,5,8,9
5,7,2,6
5,7,6,3
6,0,3,4
6,0,5,5
6,1,4,8
6,2,1,1
6,2,7,4
6,4,3,3
6,4,5,2
6,6,1,8
6,6,7,9
6,7,4,5
6,8,3,1
6,8,5,8
7,0,2,1
7,0,3,7
7,0,5,3
7,0,6,9
7,1,3,5
7,1,4,4
7,1,5,9
7,3,3,9
7,3,5,4
7,4,3,6
7,4,5,1
7,5,3,2
7,5,5,7
7,7,3,3
7,7,4,7
7,7,5,2
7,8,2,3
7,8,3,4
7,8,5,5
7,8,6,6
8,1,3,3
8,1,5,2
8,3,1,8
8,3,7,4
8,4,0,2
8,4,8,6
8,5,1,5
8,5,7,7
8,7,3,6
8,7,5,1
