0,0,1,9
0,0,3,8
0,0,4,6
0,0,5,3
0,0,7,4
0,3,1,7
0,3,4,1
0,3,7,8
0,5,1,6
0,5,4,3
0,5,7,5
0,8,1,4
0,8,3,1
0,8,4,9
0,8,5,6
0,8,7,7
1,4,1,5
1,4,7,3
2,1,1,7
2,1,7,9
2,2,2,1
2,2,6,4
2,3,4,5
2,4,4,8
2,5,4,9
2,6,2,7
2,6,6,6
2,7,1,5
2,7,7,3
3,0,4,3
3,1,0,1
3,1,8,5
3,2,1,7
3,2,2,6
3,2,6,1
3,2,7,3
3,3,1,6
3,3,7,1
3,4,1,9
3,4,7,7
3,5,1,1
3,5,7,9
3,6,1,4
3,6,2,1
3,6,6,8
3,6,7,5
3,7,0,6
3,7,8,1
3,8,4,4
4,0,0,3
4,0,1,4
4,0,7,5
4,0,8,9
4,1,0,7
4,1,1,6
4,1,7,4
4,1,8,1
4,3,1,8
4,3,4,3
4,3,7,6
4,4,3,2
4,4,5,6
4,5,1,2
4,5,4,8
4,5,7,3
4,7,0,5
4,7,1,9
4,7,7,2
4,7,8,7
4,8,0,4
4,8,1,1
4,8,7,9
4,8,8,8
5,0,4,9
5,1,0,5
5,1,8,2
5,2,1,1
5,2,2,3
5,2,6,5
5,2,7,9
5,3,1,4
5,3,7,5
5,4,1,7
5,4,7,4
5,5,1,5
5,5,7,2
5,6,1,8
5,6,2,5
5,6,6,2
5,6,7,7
5,7,0,1
5,7,8,5
5,8,4,8
6,1,1,8
6,1,7,1
6,2,2,2
6,2,6,7
6,3,4,4
6,4,4,3
6,5,4,1
6,6,2,9
6,6,6,5
6,7,1,4
6,7,7,7
7,4,1,8
7,4,7,1
8,0,1,7
8,0,3,2
8,0,4,4
8,0,5,5
8,0,7,9
8,3,1,1
8,3,4,8
8,3,7,2
8,5,1,3
8,5,4,5
8,5,7,7
8,8,1,9
8,8,3,8
8,8,4,2
8,8,5,3
8,8,7,4
