0,0,4,7
0,1,1,5
0,1,3,3
0,1,5,9
0,1,7,1
0,2,4,2
0,4,0,1
0,4,8,3
0,6,4,9
0,7,1,3
0,7,3,6
0,7,5,1
0,7,7,2
0,8,4,5
1,2,1,1
1,2,7,6
1,4,3,3
1,4,4,2
1,4,5,9
1,6,1,7
1,6,7,5
2,0,1,6
2,0,7,5
2,2,1,7
2,2,7,4
2,4,0,9
2,4,3,7
2,4,5,1
2,4,8,5
2,6,1,4
2,6,7,3
2,8,1,9
2,8,7,8
3,0,3,9
3,0,5,8
3,1,3,6
3,1,5,2
3,3,1,6
3,3,7,8
3,4,3,8
3,4,5,5
3,5,1,5
3,5,7,1
3,7,3,4
3,7,5,3
3,8,3,5
3,8,5,9
4,0,2,5
4,0,6,3
4,1,2,7
4,1,6,9
4,2,1,3
4,2,7,7
4,6,1,2
4,6,7,8
4,7,2,1
4,7,6,2
4,8,2,8
4,8,6,4
5,0,3,1
5,0,5,4
5,1,3,8
5,1,5,5
5,3,1,9
5,3,7,4
5,4,3,4
5,4,5,3
5,5,1,3
5,5,7,6
5,7,3,7
5,7,5,6
5,8,3,3
5,8,5,1
6,0,1,5
6,0,7,1
6,2,1,4
6,2,7,3
6,4,0,8
6,4,3,9
6,4,5,2
6,4,8,1
6,6,1,3
6,6,7,2
6,8,1,8
6,8,7,6
7,2,1,6
7,2,7,5
7,4,3,6
7,4,4,5
7,4,5,8
7,6,1,5
7,6,7,1
8,0,4,4
8,1,1,1
8,1,3,7
8,1,5,8
8,1,7,6
8,2,4,9
8,4,0,2
8,4,8,6
8,6,4,8
8,7,1,2
8,7,3,9
8,7,5,7
8,7,7,4
8,8,4,1
