0,1,1,7
0,1,3,3
0,1,4,1
0,1,5,9
0,1,7,4
0,2,4,2
0,6,4,3
0,7,1,4
0,7,3,7
0,7,4,6
0,7,5,2
0,7,7,1
1,1,0,5
1,1,1,8
1,1,7,3
1,1,8,1
1,7,0,9
1,7,1,3
1,7,7,6
1,7,8,2
2,0,1,4
2,0,7,1
2,1,1,9
2,1,7,7
2,2,2,7
2,2,6,5
2,4,4,2
2,6,2,9
2,6,6,6
2,7,1,6
2,7,7,5
2,8,1,8
2,8,7,3
3,1,4,9
3,2,2,4
3,2,6,9
3,3,2,1
3,3,6,3
3,4,1,9
3,4,7,7
3,5,2,8
3,5,6,1
3,6,2,6
3,6,6,2
3,7,4,2
4,0,1,1
4,0,7,9
4,2,2,6
4,2,6,2
4,6,2,3
4,6,6,8
4,8,1,4
4,8,7,6
5,1,4,8
5,2,2,3
5,2,6,8
5,3,2,2
5,3,6,7
5,4,1,8
5,4,7,4
5,5,2,7
5,5,6,6
5,6,2,4
5,6,6,9
5,7,4,4
6,0,1,7
6,0,7,4
6,1,1,5
6,1,7,9
6,2,2,1
6,2,6,7
6,4,4,9
6,6,2,5
6,6,6,3
6,7,1,9
6,7,7,7
6,8,1,2
6,8,7,8
7,1,0,6
7,1,1,2
7,1,7,8
7,1,8,4
7,7,0,5
7,7,1,8
7,7,7,3
7,7,8,1
8,1,1,1
8,1,3,8
8,1,4,4
8,1,5,5
8,1,7,2
8,2,4,9
8,6,4,8
8,7,1,7
8,7,3,3
8,7,4,1
8,7,5,9
8,7,7,4
