0,0,1,2
0,0,7,4
0,1,1,7
0,1,7,6
0,2,0,1
0,2,1,9
0,2,2,6
0,2,4,8
0,2,6,2
0,2,7,5
0,2,8,3
0,4,4,9
0,6,0,6
0,6,1,1
0,6,2,7
0,6,4,4
0,6,6,3
0,6,7,9
0,6,8,5
0,7,1,3
0,7,7,2
0,8,1,8
0,8,7,7
1,1,2,2
1,1,6,8
1,2,0,4
1,2,4,5
1,2,8,6
1,3,1,7
1,3,2,5
1,3,6,9
1,3,7,4
1,4,3,5
1,4,4,3
1,4,5,7
1,5,1,2
1,5,2,6
1,5,6,7
1,5,7,5
1,6,0,2
1,6,4,9
1,6,8,7
1,7,2,1
1,7,6,5
2,0,3,3
2,0,5,5
2,2,1,5
2,2,3,1
2,2,5,6
2,2,7,8
2,3,0,6
2,3,8,5
2,4,2,7
2,4,3,2
2,4,4,6
2,4,5,1
2,4,6,8
2,5,0,4
2,5,8,6
2,6,1,9
2,6,3,6
2,6,5,7
2,6,7,4
2,8,3,4
2,8,5,2
3,0,1,7
3,0,7,6
3,2,0,3
3,2,8,8
3,3,4,6
3,4,4,5
3,5,4,1
3,6,0,7
3,6,8,9
3,8,1,1
3,8,7,4
4,2,1,4
4,2,3,7
4,2,5,8
4,2,7,2
4,6,1,2
4,6,3,5
4,6,5,9
4,6,7,6
5,0,1,6
5,0,7,3
5,2,0,7
5,2,8,9
5,3,4,3
5,4,4,8
5,5,4,4
5,6,0,5
5,6,8,1
5,8,1,4
5,8,7,9
6,0,3,4
6,0,5,7
6,2,1,7
6,2,3,5
6,2,5,2
6,2,7,6
6,3,0,7
6,3,8,9
6,4,2,8
6,4,3,3
6,4,4,7
6,4,5,5
6,4,6,6
6,5,0,2
6,5,8,7
6,6,1,8
6,6,3,9
6,6,5,3
6,6,7,7
6,8,3,7
6,8,5,1
7,1,2,8
7,1,6,6
7,2,0,9
7,2,4,7
7,2,8,2
7,3,1,8
7,3,2,9
7,3,6,1
7,3,7,2
7,4,3,9
7,4,4,4
7,4,5,8
7,5,1,3
7,5,2,7
7,5,6,8
7,5,7,9
7,6,0,1
7,6,4,8
7,6,8,3
7,7,2,5
7,7,6,2
8,0,1,8
8,0,7,9
8,1,1,1
8,1,7,2
8,2,0,5
8,2,1,3
8,2,2,2
8,2,4,6
8,2,6,8
8,2,7,7
8,2,8,4
8,4,4,1
8,6,0,9
8,6,1,5
8,6,2,3
8,6,4,7
8,6,6,4
8,6,7,8
8,6,8,2
8,7,1,4
8,7,7,1
8,8,1,6
8,8,7,3
