0,0,3,6
0,0,5,5
0,3,1,5
0,3,7,4
0,4,1,9
0,4,7,5
0,5,1,4
0,5,7,9
0,8,3,9
0,8,5,3
1,0,0,1
1,0,1,5
1,0,7,4
1,0,8,6
1,2,3,3
1,2,5,6
1,4,3,5
1,4,4,6
1,4,5,8
1,6,3,6
1,6,5,5
1,8,0,6
1,8,1,1
1,8,7,3
1,8,8,5
2,1,2,8
2,1,6,9
2,3,3,6
2,3,5,5
2,5,3,2
2,5,5,4
2,7,2,6
2,7,6,3
3,0,2,5
3,0,6,8
3,2,2,4
3,2,3,8
3,2,5,5
3,2,6,3
3,3,4,4
3,4,0,6
3,4,2,3
3,4,6,7
3,4,8,8
3,5,4,9
3,6,2,6
3,6,3,5
3,6,5,2
3,6,6,9
3,8,2,2
3,8,6,5
4,1,4,5
4,4,1,8
4,4,7,1
4,7,4,7
5,0,2,6
5,0,6,9
5,2,2,2
5,2,3,4
5,2,5,7
5,2,6,5
5,3,4,6
5,4,0,1
5,4,2,9
5,4,6,3
5,4,8,5
5,5,4,2
5,6,2,3
5,6,3,7
5,6,5,1
5,6,6,6
5,8,2,1
5,8,6,2
6,1,2,4
6,1,6,2
6,3,3,8
6,3,5,6
6,5,3,3
6,5,5,2
6,7,2,1
6,7,6,5
7,0,0,8
7,0,1,4
7,0,7,9
7,0,8,2
7,2,3,1
7,2,5,2
7,4,3,4
7,4,4,2
7,4,5,3
7,6,3,2
7,6,5,4
7,8,0,2
7,8,1,8
7,8,7,1
7,8,8,4
8,0,3,9
8,0,5,8
8,3,1,8
8,3,7,1
8,4,1,1
8,4,7,3
8,5,1,3
8,5,7,8
8,8,3,8
8,8,5,2
