0,1,0,4
0,1,3,3
0,1,5,9
0,1,8,8
0,3,0,2
0,3,8,9
0,5,0,6
0,5,8,5
0,7,0,3
0,7,3,6
0,7,5,8
0,7,8,2
1,2,0,7
1,2,1,4
1,2,4,3
1,2,7,2
1,2,8,5
1,3,0,1
1,3,3,2
1,3,5,3
1,3,8,7
1,5,0,8
1,5,3,6
1,5,5,1
1,5,8,2
1,6,0,9
1,6,1,8
1,6,4,2
1,6,7,4
1,6,8,3
2,0,1,7
2,0,7,8
2,1,1,6
2,1,7,1
2,3,2,7
2,3,6,2
2,5,2,2
2,5,6,6
2,7,1,9
2,7,7,7
2,8,1,4
2,8,7,6
3,1,4,2
3,2,0,1
3,2,4,9
3,2,8,2
3,3,2,5
3,3,4,4
3,3,6,9
3,5,2,7
3,5,4,6
3,5,6,2
3,6,0,4
3,6,4,7
3,6,8,8
3,7,4,5
4,0,1,1
4,0,7,5
4,2,2,3
4,2,6,1
4,3,1,9
4,3,3,5
4,3,5,6
4,3,7,2
4,5,1,6
4,5,3,2
4,5,5,3
4,5,7,8
4,6,2,5
4,6,6,9
4,8,1,8
4,8,7,4
5,1,4,3
5,2,0,9
5,2,4,7
5,2,8,3
5,3,2,6
5,3,4,2
5,3,6,7
5,5,2,3
5,5,4,8
5,5,6,1
5,6,0,6
5,6,4,1
5,6,8,4
5,7,4,6
6,0,1,3
6,0,7,9
6,1,1,8
6,1,7,4
6,3,2,1
6,3,6,8
6,5,2,8
6,5,6,3
6,7,1,2
6,7,7,8
6,8,1,7
6,8,7,1
7,2,0,3
7,2,1,6
7,2,4,4
7,2,7,1
7,2,8,7
7,3,0,5
7,3,3,8
7,3,5,4
7,3,8,1
7,5,0,4
7,5,3,3
7,5,5,9
7,5,8,8
7,6,0,2
7,6,1,4
7,6,4,3
7,6,7,6
7,6,8,5
8,1,0,6
8,1,3,4
8,1,5,2
8,1,8,9
8,3,0,8
8,3,8,2
8,5,0,3
8,5,8,6
8,7,0,9
8,7,3,1
8,7,5,5
8,7,8,3
