0,0,4,5
0,1,0,6
0,1,8,1
0,4,2,9
0,4,6,1
0,7,0,4
0,7,8,2
0,8,4,8
1,0,0,5
1,0,8,2
1,1,4,8
1,7,4,2
1,8,0,3
1,8,8,5
2,2,0,8
2,2,8,4
2,3,0,4
2,3,3,5
2,3,5,2
2,3,8,6
2,5,0,9
2,5,3,4
2,5,5,7
2,5,8,2
2,6,0,7
2,6,8,3
3,0,1,3
3,0,7,8
3,2,3,4
3,2,5,2
3,3,0,1
3,3,1,7
3,3,7,6
3,3,8,9
3,4,0,3
3,4,3,1
3,4,5,9
3,4,8,4
3,5,0,8
3,5,1,6
3,5,7,2
3,5,8,5
3,6,3,7
3,6,5,3
3,8,1,9
3,8,7,5
4,0,4,4
4,1,1,4
4,1,7,9
4,2,3,7
4,2,5,3
4,4,0,4
4,4,8,6
4,6,3,1
4,6,5,4
4,7,1,6
4,7,7,2
4,8,4,2
5,0,1,6
5,0,7,2
5,2,3,1
5,2,5,5
5,3,0,2
5,3,1,5
5,3,7,4
5,3,8,8
5,4,0,6
5,4,3,7
5,4,5,3
5,4,8,1
5,5,0,7
5,5,1,4
5,5,7,9
5,5,8,3
5,6,3,9
5,6,5,2
5,8,1,8
5,8,7,1
6,2,0,1
6,2,8,5
6,3,0,5
6,3,3,9
6,3,5,6
6,3,8,7
6,5,0,4
6,5,3,5
6,5,5,2
6,5,8,6
6,6,0,2
6,6,8,8
7,0,0,6
7,0,8,1
7,1,4,4
7,7,4,8
7,8,0,9
7,8,8,7
8,0,4,8
8,1,0,4
8,1,8,7
8,4,2,3
8,4,6,7
8,7,0,3
8,7,8,5
8,8,4,7
