0,1,2,4
0,1,4,7
0,1,6,1
0,2,1,7
0,2,7,6
0,3,0,2
0,3,1,9
0,3,7,5
0,3,8,6
0,5,0,4
0,5,1,5
0,5,7,8
0,5,8,1
0,6,1,4
0,6,7,1
0,7,2,9
0,7,4,1
0,7,6,6
1,1,4,8
1,7,4,5
2,0,3,8
2,0,4,1
2,0,5,3
2,3,4,2
2,5,4,4
2,8,3,3
2,8,4,8
2,8,5,1
3,0,1,6
3,0,7,9
3,1,2,1
3,1,6,5
3,2,2,8
3,2,6,4
3,4,0,9
3,4,8,4
3,6,2,9
3,6,6,3
3,7,2,6
3,7,6,1
3,8,1,4
3,8,7,5
4,0,0,7
4,0,2,4
4,0,3,9
4,0,5,2
4,0,6,6
4,0,8,5
4,1,1,8
4,1,7,1
4,2,2,5
4,2,6,9
4,3,0,3
4,3,8,7
4,5,0,8
4,5,8,6
4,6,2,8
4,6,6,2
4,7,1,7
4,7,7,6
4,8,0,2
4,8,2,1
4,8,3,5
4,8,5,8
4,8,6,4
4,8,8,3
5,0,1,2
5,0,7,4
5,1,2,6
5,1,6,8
5,2,2,7
5,2,6,3
5,4,0,4
5,4,8,1
5,6,2,4
5,6,6,6
5,7,2,2
5,7,6,7
5,8,1,8
5,8,7,1
6,0,3,1
6,0,4,3
6,0,5,8
6,3,4,9
6,5,4,5
6,8,3,8
6,8,4,1
6,8,5,3
7,1,4,2
7,7,4,3
8,1,2,7
8,1,4,1
8,1,6,4
8,2,1,1
8,2,7,9
8,3,0,1
8,3,1,3
8,3,7,2
8,3,8,9
8,5,0,7
8,5,1,2
8,5,7,4
8,5,8,5
8,6,1,7
8,6,7,6
8,7,2,1
8,7,4,6
8,7,6,9
