0,1,4,7
0,2,3,9
0,2,5,6
0,4,0,1
0,4,1,2
0,4,7,8
0,4,8,6
0,6,3,3
0,6,5,4
0,7,4,8
1,0,4,9
1,1,4,6
1,2,1,9
1,2,7,7
1,3,1,4
1,3,7,6
1,4,0,3
1,4,8,2
1,5,1,8
1,5,7,4
1,6,1,3
1,6,7,5
1,7,4,1
1,8,4,5
2,0,4,5
2,1,2,6
2,1,6,7
2,2,0,2
2,2,3,4
2,2,4,1
2,2,5,7
2,2,8,9
2,6,0,9
2,6,3,1
2,6,4,6
2,6,5,5
2,6,8,3
2,7,2,1
2,7,6,8
2,8,4,4
3,1,3,6
3,1,5,8
3,2,0,5
3,2,4,2
3,2,8,1
3,3,3,1
3,3,5,4
3,5,3,7
3,5,5,3
3,6,0,3
3,6,4,9
3,6,8,6
3,7,3,8
3,7,5,5
4,2,1,3
4,2,2,6
4,2,6,2
4,2,7,5
4,3,2,7
4,3,6,6
4,4,4,3
4,5,2,5
4,5,6,4
4,6,1,6
4,6,2,9
4,6,6,5
4,6,7,3
5,1,3,7
5,1,5,1
5,2,0,4
5,2,4,6
5,2,8,3
5,3,3,3
5,3,5,9
5,5,3,2
5,5,5,8
5,6,0,8
5,6,4,5
5,6,8,7
5,7,3,1
5,7,5,4
6,0,4,2
6,1,2,8
6,1,6,3
6,2,0,1
6,2,3,6
6,2,4,4
6,2,5,3
6,2,8,2
6,6,0,6
6,6,3,5
6,6,4,3
6,6,5,2
6,6,8,4
6,7,2,4
6,7,6,5
6,8,4,6
7,0,4,7
7,1,4,3
7,2,1,6
7,2,7,1
7,3,1,2
7,3,7,8
7,4,0,9
7,4,8,1
7,5,1,4
7,5,7,7
7,6,1,5
7,6,7,6
7,7,4,5
7,8,4,2
8,1,4,8
8,2,3,7
8,2,5,1
8,4,0,5
8,4,1,8
8,4,7,9
8,4,8,3
8,6,3,9
8,6,5,6
8,7,4,4
