0,0,3,2
0,0,4,3
0,0,5,5
0,1,1,5
0,1,7,3
0,7,1,7
0,7,7,9
0,8,3,9
0,8,4,2
0,8,5,3
1,0,0,5
1,0,8,6
1,2,3,8
1,2,5,2
1,6,3,3
1,6,5,6
1,8,0,3
1,8,8,4
2,1,1,9
2,1,7,8
2,2,1,8
2,2,4,4
2,2,7,6
2,4,1,1
2,4,7,2
2,6,1,3
2,6,4,9
2,6,7,7
2,7,1,2
2,7,7,4
3,0,1,8
3,0,7,2
3,1,1,2
3,1,7,4
3,2,1,4
3,2,4,2
3,2,7,8
3,3,3,2
3,3,5,4
3,5,3,8
3,5,5,7
3,6,1,9
3,6,4,7
3,6,7,3
3,7,1,3
3,7,7,7
3,8,1,7
3,8,7,9
5,0,1,1
5,0,7,6
5,1,1,6
5,1,7,5
5,2,1,5
5,2,4,6
5,2,7,1
5,3,3,6
5,3,5,5
5,5,3,1
5,5,5,2
5,6,1,4
5,6,4,2
5,6,7,8
5,7,1,8
5,7,7,2
5,8,1,2
5,8,7,4
6,1,1,1
6,1,7,6
6,2,1,7
6,2,4,1
6,2,7,4
6,4,1,6
6,4,7,5
6,6,1,2
6,6,4,8
6,6,7,9
6,7,1,4
6,7,7,8
7,0,0,1
7,0,8,4
7,2,3,2
7,2,5,9
7,6,3,6
7,6,5,5
7,8,0,2
7,8,8,3
8,0,3,9
8,0,4,6
8,0,5,1
8,1,1,8
8,1,7,7
8,7,1,9
8,7,7,3
8,8,3,1
8,8,4,4
8,8,5,6
