0,0,2,1
0,0,6,3
0,4,0,1
0,4,1,7
0,4,7,3
0,4,8,2
0,8,2,2
0,8,6,6
1,0,1,2
1,0,2,5
1,0,3,7
1,0,4,4
1,0,5,1
1,0,6,9
1,0,7,8
1,1,0,1
1,1,8,7
1,7,0,6
1,7,8,4
1,8,1,4
1,8,2,3
1,8,3,9
1,8,4,1
1,8,5,6
1,8,6,8
1,8,7,2
2,0,4,6
2,1,1,3
2,1,7,9
2,2,3,8
2,2,5,5
2,3,2,1
2,3,6,3
2,5,2,3
2,5,6,8
2,6,3,6
2,6,5,1
2,7,1,2
2,7,7,3
2,8,4,5
3,0,4,7
3,3,0,2
3,3,8,8
3,4,2,5
3,4,4,4
3,4,6,9
3,5,0,7
3,5,8,1
3,8,4,8
4,0,2,9
4,0,3,1
4,0,5,6
4,0,6,4
4,1,1,1
4,1,3,8
4,1,5,7
4,1,7,6
4,2,2,5
4,2,6,9
4,3,0,9
4,3,8,2
4,5,0,5
4,5,8,7
4,6,2,7
4,6,6,2
4,7,1,4
4,7,3,9
4,7,5,3
4,7,7,1
4,8,2,6
4,8,3,4
4,8,5,1
4,8,6,7
5,0,4,3
5,3,0,1
5,3,8,9
5,4,2,7
5,4,4,6
5,4,6,2
5,5,0,3
5,5,8,5
5,8,4,9
6,0,4,1
6,1,1,9
6,1,7,7
6,2,3,9
6,2,5,6
6,3,2,5
6,3,6,9
6,5,2,4
6,5,6,5
6,6,3,8
6,6,5,4
6,7,1,8
6,7,7,4
6,8,4,6
7,0,1,1
7,0,2,6
7,0,3,8
7,0,4,2
7,0,5,5
7,0,6,7
7,0,7,4
7,1,0,4
7,1,8,1
7,7,0,3
7,7,8,2
7,8,1,2
7,8,2,5
7,8,3,7
7,8,4,4
7,8,5,8
7,8,6,9
7,8,7,3
8,0,2,4
8,0,6,5
8,4,0,5
8,4,1,8
8,4,7,9
8,4,8,1
8,8,2,8
8,8,6,1
