0,0,1,6
0,0,7,9
0,1,3,8
0,1,5,9
0,4,0,7
0,4,8,2
0,7,3,4
0,7,5,1
0,8,1,8
0,8,7,6
1,0,1,9
1,0,7,8
1,1,2,6
1,1,6,4
1,2,0,4
1,2,4,8
1,2,8,3
1,3,2,4
1,3,3,8
1,3,5,1
1,3,6,9
1,4,3,7
1,4,5,4
1,5,2,9
1,5,3,5
1,5,5,6
1,5,6,2
1,6,0,2
1,6,4,7
1,6,8,6
1,7,2,7
1,7,6,3
1,8,1,6
1,8,7,9
2,0,2,2
2,0,4,9
2,0,6,3
2,1,2,9
2,1,6,2
2,4,1,6
2,4,2,5
2,4,6,7
2,4,7,9
2,7,2,1
2,7,6,6
2,8,2,4
2,8,4,6
2,8,6,1
3,0,3,6
3,0,5,3
3,2,4,9
3,3,0,1
3,3,8,6
3,5,0,7
3,5,8,1
3,6,4,3
3,8,3,5
3,8,5,7
4,1,3,3
4,1,4,6
4,1,5,2
4,2,0,1
4,2,1,9
4,2,7,8
4,2,8,6
4,3,4,8
4,4,1,1
4,4,3,5
4,4,5,7
4,4,7,2
4,5,4,4
4,6,0,9
4,6,1,4
4,6,7,6
4,6,8,2
4,7,3,1
4,7,4,9
4,7,5,3
5,0,3,5
5,0,5,7
5,2,4,3
5,3,0,2
5,3,8,5
5,5,0,9
5,5,8,2
5,6,4,6
5,8,3,3
5,8,5,9
6,0,2,6
6,0,4,5
6,0,6,8
6,1,2,5
6,1,6,6
6,4,1,7
6,4,2,1
6,4,6,2
6,4,7,5
6,7,2,9
6,7,6,7
6,8,2,3
6,8,4,7
6,8,6,9
7,0,1,5
7,0,7,4
7,1,2,7
7,1,6,3
7,2,0,3
7,2,4,4
7,2,8,8
7,3,2,3
7,3,3,4
7,3,5,9
7,3,6,5
7,4,3,2
7,4,5,3
7,5,2,5
7,5,3,1
7,5,5,7
7,5,6,6
7,6,0,6
7,6,4,2
7,6,8,7
7,7,2,2
7,7,6,8
7,8,1,7
7,8,7,5
8,0,1,7
8,0,7,5
8,1,3,4
8,1,5,5
8,4,0,2
8,4,8,6
8,7,3,3
8,7,5,9
8,8,1,4
8,8,7,7
