0,0,3,7
0,0,5,1
0,1,4,8
0,3,2,7
0,3,6,3
0,4,1,2
0,4,7,6
0,5,2,1
0,5,6,7
0,7,4,9
0,8,3,3
0,8,5,7
1,2,0,6
1,2,1,3
1,2,7,9
1,2,8,1
1,3,1,6
1,3,3,4
1,3,5,5
1,3,7,7
1,4,3,6
1,4,5,1
1,5,1,4
1,5,3,3
1,5,5,7
1,5,7,1
1,6,0,2
1,6,1,9
1,6,7,5
1,6,8,8
2,0,1,6
2,0,7,7
2,1,3,6
2,1,4,9
2,1,5,4
2,3,1,9
2,3,4,3
2,3,7,5
2,5,1,7
2,5,4,6
2,5,7,2
2,7,3,4
2,7,4,7
2,7,5,3
2,8,1,3
2,8,7,9
3,0,1,8
3,0,3,2
3,0,5,3
3,0,7,4
3,8,1,2
3,8,3,9
3,8,5,8
3,8,7,6
4,0,4,6
4,2,0,5
4,2,1,2
4,2,7,6
4,2,8,8
4,3,2,9
4,3,6,7
4,4,0,2
4,4,8,3
4,5,2,3
4,5,6,2
4,6,0,4
4,6,1,5
4,6,7,3
4,6,8,6
4,8,4,3
5,0,1,5
5,0,3,4
5,0,5,7
5,0,7,3
5,8,1,8
5,8,3,6
5,8,5,5
5,8,7,4
6,0,1,2
6,0,7,6
6,1,3,2
6,1,4,3
6,1,5,8
6,3,1,3
6,3,4,5
6,3,7,9
6,5,1,6
6,5,4,2
6,5,7,7
6,7,3,8
6,7,4,6
6,7,5,5
6,8,1,5
6,8,7,3
7,2,0,2
7,2,1,5
7,2,7,3
7,2,8,4
7,3,1,2
7,3,3,8
7,3,5,9
7,3,7,6
7,4,3,2
7,4,5,4
7,5,1,8
7,5,3,5
7,5,5,6
7,5,7,4
7,6,0,7
7,6,1,3
7,6,7,9
7,6,8,1
8,0,3,6
8,0,5,4
8,1,4,1
8,3,2,6
8,3,6,5
8,4,1,7
8,4,7,2
8,5,2,4
8,5,6,6
8,7,4,3
8,8,3,5
8,8,5,6
