0,0,2,3
0,0,6,1
0,1,3,5
0,1,5,7
0,4,4,7
0,7,3,7
0,7,5,3
0,8,2,4
0,8,6,9
1,2,0,5
1,2,1,3
1,2,7,4
1,2,8,1
1,6,0,2
1,6,1,5
1,6,7,6
1,6,8,4
2,0,1,7
2,0,2,9
2,0,6,5
2,0,7,3
2,1,0,3
2,1,4,9
2,1,8,7
2,2,4,5
2,3,0,7
2,3,8,4
2,4,3,5
2,4,4,8
2,4,5,2
2,5,0,2
2,5,8,5
2,6,4,6
2,7,0,9
2,7,4,2
2,7,8,1
2,8,1,1
2,8,2,2
2,8,6,6
2,8,7,4
3,1,1,9
3,1,7,8
3,2,0,4
3,2,8,2
3,3,0,8
3,3,2,2
3,3,6,6
3,3,8,9
3,4,3,2
3,4,5,9
3,5,0,7
3,5,2,9
3,5,6,5
3,5,8,1
3,6,0,9
3,6,8,6
3,7,1,1
3,7,7,7
4,0,0,9
4,0,8,7
4,1,0,7
4,1,3,8
4,1,5,6
4,1,8,1
4,2,1,5
4,2,4,7
4,2,7,3
4,4,2,7
4,4,6,2
4,6,1,4
4,6,4,2
4,6,7,8
4,7,0,5
4,7,3,6
4,7,5,9
4,7,8,2
4,8,0,2
4,8,8,3
5,1,1,2
5,1,7,4
5,2,0,6
5,2,8,8
5,3,0,9
5,3,2,3
5,3,6,1
5,3,8,2
5,4,3,1
5,4,5,7
5,5,0,1
5,5,2,6
5,5,6,7
5,5,8,4
5,6,0,7
5,6,8,1
5,7,1,9
5,7,7,3
6,0,1,9
6,0,2,8
6,0,6,3
6,0,7,2
6,1,0,6
6,1,4,8
6,1,8,4
6,2,4,3
6,3,0,5
6,3,8,3
6,4,3,8
6,4,4,2
6,4,5,5
6,5,0,9
6,5,8,8
6,6,4,5
6,7,0,3
6,7,4,4
6,7,8,7
6,8,1,2
6,8,2,5
6,8,6,4
6,8,7,8
7,2,0,9
7,2,1,8
7,2,7,5
7,2,8,3
7,6,0,6
7,6,1,9
7,6,7,7
7,6,8,5
8,0,2,4
8,0,6,9
8,1,3,6
8,1,5,1
8,4,4,1
8,7,3,1
8,7,5,5
8,8,2,6
8,8,6,7
