0,1,1,1
0,1,7,7
0,3,1,8
0,3,4,9
0,3,7,2
0,4,3,3
0,4,5,6
0,5,1,2
0,5,4,8
0,5,7,9
0,7,1,5
0,7,7,6
1,0,2,4
1,0,6,7
1,1,0,9
1,1,8,4
1,2,0,7
1,2,8,5
1,4,3,8
1,4,4,5
1,4,5,9
1,6,0,5
1,6,8,2
1,7,0,3
1,7,8,1
1,8,2,2
1,8,6,3
2,0,1,5
2,0,7,9
2,1,0,4
2,1,8,6
2,3,3,5
2,3,5,8
2,5,3,9
2,5,5,2
2,7,0,8
2,7,8,3
2,8,1,1
2,8,7,2
3,1,1,2
3,1,3,9
3,1,5,7
3,1,7,4
3,2,1,3
3,2,7,7
3,3,2,4
3,3,3,6
3,3,5,5
3,3,6,2
3,4,2,2
3,4,4,4
3,4,6,8
3,5,2,8
3,5,3,1
3,5,5,9
3,5,6,4
3,6,1,8
3,6,7,2
3,7,1,4
3,7,3,8
3,7,5,6
3,7,7,1
4,0,0,5
4,0,1,6
4,0,3,1
4,0,5,9
4,0,7,3
4,0,8,7
4,1,4,8
4,2,0,9
4,2,8,6
4,3,1,5
4,3,4,3
4,3,7,6
4,4,1,8
4,4,3,5
4,4,4,9
4,4,5,1
4,4,7,2
4,5,1,4
4,5,4,7
4,5,7,1
4,6,0,4
4,6,8,9
4,7,4,5
4,8,0,8
4,8,1,2
4,8,3,9
4,8,5,7
4,8,7,4
4,8,8,3
5,1,1,5
5,1,3,4
5,1,5,2
5,1,7,6
5,2,1,8
5,2,7,2
5,3,2,6
5,3,3,9
5,3,5,7
5,3,6,5
5,4,2,5
5,4,4,6
5,4,6,1
5,5,2,1
5,5,3,3
5,5,5,4
5,5,6,6
5,6,1,1
5,6,7,5
5,7,1,6
5,7,3,1
5,7,5,9
5,7,7,3
6,0,1,1
6,0,7,5
6,1,0,2
6,1,8,7
6,3,3,3
6,3,5,9
6,5,3,5
6,5,5,1
6,7,0,4
6,7,8,6
6,8,1,9
6,8,7,3
7,0,2,2
7,0,6,3
7,1,0,5
7,1,8,2
7,2,0,3
7,2,8,1
7,4,3,4
7,4,4,3
7,4,5,5
7,6,0,8
7,6,8,3
7,7,0,9
7,7,8,4
7,8,2,3
7,8,6,9
8,1,1,9
8,1,7,3
8,3,1,6
8,3,4,5
8,3,7,1
8,4,3,9
8,4,5,7
8,5,1,1
8,5,4,6
8,5,7,5
8,7,1,8
8,7,7,7
