0,0,3,6
0,0,5,1
0,2,4,2
0,3,0,6
0,3,8,4
0,4,0,4
0,4,2,3
0,4,3,8
0,4,5,5
0,4,6,2
0,4,8,7
0,5,0,8
0,5,8,6
0,6,4,3
0,8,3,5
0,8,5,6
1,0,1,1
1,0,7,5
1,1,1,6
1,1,7,1
1,7,1,8
1,7,7,9
1,8,1,2
1,8,7,8
2,1,2,3
2,1,4,6
2,1,6,2
2,3,1,8
2,3,4,3
2,3,7,5
2,4,4,9
2,5,1,4
2,5,4,8
2,5,7,2
2,7,2,7
2,7,4,1
2,7,6,8
3,2,2,3
3,2,6,2
3,3,0,7
3,3,1,2
3,3,7,8
3,3,8,6
3,4,4,4
3,5,0,1
3,5,1,6
3,5,7,7
3,5,8,3
3,6,2,7
3,6,6,8
4,0,1,9
4,0,7,2
4,1,2,7
4,1,6,8
4,2,4,7
4,3,4,2
4,4,2,2
4,4,3,1
4,4,4,3
4,4,5,9
4,4,6,6
4,5,4,6
4,6,4,9
4,7,2,9
4,7,6,5
4,8,1,6
4,8,7,1
5,2,2,4
5,2,6,9
5,3,0,3
5,3,1,9
5,3,7,2
5,3,8,5
5,4,4,8
5,5,0,2
5,5,1,5
5,5,7,6
5,5,8,4
5,6,2,6
5,6,6,3
6,1,2,6
6,1,4,2
6,1,6,3
6,3,1,7
6,3,4,6
6,3,7,4
6,4,4,5
6,5,1,9
6,5,4,7
6,5,7,3
6,7,2,1
6,7,4,8
6,7,6,7
7,0,1,8
7,0,7,4
7,1,1,2
7,1,7,8
7,7,1,7
7,7,7,5
7,8,1,3
7,8,7,7
8,0,3,2
8,0,5,8
8,2,4,3
8,3,0,2
8,3,8,9
8,4,0,9
8,4,2,6
8,4,3,7
8,4,5,4
8,4,6,3
8,4,8,1
8,5,0,7
8,5,8,2
8,6,4,6
8,8,3,4
8,8,5,2
