0,0,4,5
0,1,4,2
0,2,0,7
0,2,1,8
0,2,7,3
0,2,8,5
0,4,1,7
0,4,7,2
0,6,0,3
0,6,1,5
0,6,7,4
0,6,8,2
0,7,4,7
0,8,4,3
1,3,0,7
1,3,8,9
1,4,3,8
1,4,5,7
1,5,0,9
1,5,8,3
2,0,2,8
2,0,6,5
2,1,0,2
2,1,8,9
2,2,1,5
2,2,7,4
2,6,1,6
2,6,7,7
2,7,0,7
2,7,8,4
2,8,2,2
2,8,6,3
3,0,3,1
3,0,5,5
3,1,2,9
3,1,4,6
3,1,6,1
3,2,2,5
3,2,6,6
3,3,2,7
3,3,3,5
3,3,5,4
3,3,6,9
3,5,2,4
3,5,3,9
3,5,5,8
3,5,6,7
3,6,2,2
3,6,6,8
3,7,2,3
3,7,4,2
3,7,6,4
3,8,3,8
3,8,5,3
4,1,3,5
4,1,4,1
4,1,5,4
4,4,1,2
4,4,4,5
4,4,7,9
4,7,3,1
4,7,4,4
4,7,5,5
5,0,3,6
5,0,5,2
5,1,2,1
5,1,4,9
5,1,6,7
5,2,2,7
5,2,6,8
5,3,2,9
5,3,3,7
5,3,5,6
5,3,6,1
5,5,2,2
5,5,3,1
5,5,5,5
5,5,6,3
5,6,2,8
5,6,6,5
5,7,2,4
5,7,4,3
5,7,6,6
5,8,3,5
5,8,5,4
6,0,2,1
6,0,6,9
6,1,0,7
6,1,8,4
6,2,1,9
6,2,7,5
6,6,1,2
6,6,7,6
6,7,0,6
6,7,8,5
6,8,2,7
6,8,6,8
7,3,0,6
7,3,8,4
7,4,3,1
7,4,5,6
7,5,0,4
7,5,8,8
8,0,4,9
8,1,4,7
8,2,0,6
8,2,1,1
8,2,7,8
8,2,8,9
8,4,1,6
8,4,7,7
8,6,0,8
8,6,1,9
8,6,7,5
8,6,8,7
8,7,4,6
8,8,4,8
