0,0,4,9
0,1,0,9
0,1,8,3
0,2,2,6
0,2,6,5
0,3,0,2
0,3,8,7
0,5,0,1
0,5,8,5
0,6,2,3
0,6,6,6
0,7,0,4
0,7,8,8
0,8,4,8
1,0,0,5
1,0,4,6
1,0,8,8
1,1,2,7
1,1,3,3
1,1,5,2
1,1,6,4
1,3,0,4
1,3,8,3
1,5,0,3
1,5,8,1
1,7,2,6
1,7,3,8
1,7,5,3
1,7,6,5
1,8,0,2
1,8,4,9
1,8,8,6
2,0,4,2
2,2,1,9
2,2,2,5
2,2,3,6
2,2,5,1
2,2,6,3
2,2,7,8
2,3,0,7
2,3,1,1
2,3,2,6
2,3,6,5
2,3,7,4
2,3,8,9
2,5,0,9
2,5,1,5
2,5,2,4
2,5,6,2
2,5,7,3
2,5,8,8
2,6,1,6
2,6,2,7
2,6,3,2
2,6,5,8
2,6,6,4
2,6,7,9
2,8,4,6
3,0,2,6
3,0,6,5
3,3,2,2
3,3,6,6
3,4,1,9
3,4,7,4
3,5,2,3
3,5,6,7
3,8,2,5
3,8,6,2
4,0,0,7
4,0,8,2
4,2,1,5
4,2,7,9
4,3,1,6
4,3,7,7
4,5,1,7
4,5,7,1
4,6,1,3
4,6,7,2
4,8,0,4
4,8,8,7
5,0,2,5
5,0,6,3
5,3,2,7
5,3,6,4
5,4,1,3
5,4,7,2
5,5,2,1
5,5,6,9
5,8,2,2
5,8,6,1
6,0,4,4
6,2,1,7
6,2,2,1
6,2,3,8
6,2,5,3
6,2,6,9
6,2,7,5
6,3,0,8
6,3,1,2
6,3,2,3
6,3,6,7
6,3,7,1
6,3,8,6
6,5,0,7
6,5,1,1
6,5,2,6
6,5,6,5
6,5,7,4
6,5,8,9
6,6,1,8
6,6,2,2
6,6,3,9
6,6,5,4
6,6,6,1
6,6,7,6
6,8,4,3
7,0,0,9
7,0,4,1
7,0,8,3
7,1,2,6
7,1,3,2
7,1,5,8
7,1,6,5
7,3,0,5
7,3,8,2
7,5,0,2
7,5,8,7
7,7,2,1
7,7,3,3
7,7,5,2
7,7,6,9
7,8,0,8
7,8,4,4
7,8,8,1
8,0,4,8
8,1,0,8
8,1,8,7
8,2,2,9
8,2,6,2
8,3,0,6
8,3,8,4
8,5,0,4
8,5,8,3
8,6,2,6
8,6,6,5
8,7,0,2
8,7,8,6
8,8,4,1
