0,2,1,3
0,2,7,7
0,3,0,1
0,3,1,6
0,3,7,9
0,3,8,7
0,5,0,4
0,5,1,2
0,5,7,1
0,5,8,6
0,6,1,1
0,6,7,8
1,0,0,8
1,0,8,4
1,1,3,9
1,1,4,2
1,1,5,8
1,2,0,5
1,2,1,1
1,2,7,8
1,2,8,9
1,3,3,5
1,3,4,1
1,3,5,6
1,4,1,3
1,4,2,4
1,4,4,9
1,4,6,1
1,4,7,6
1,5,3,3
1,5,4,4
1,5,5,2
1,6,0,9
1,6,1,6
1,6,7,4
1,6,8,7
1,7,3,6
1,7,4,8
1,7,5,9
1,8,0,1
1,8,8,6
2,0,3,2
2,0,5,9
2,8,3,5
2,8,5,2
3,0,4,6
3,1,0,4
3,1,8,8
3,2,0,3
3,2,1,8
3,2,2,6
3,2,6,7
3,2,7,9
3,2,8,1
3,3,1,2
3,3,3,7
3,3,4,4
3,3,5,5
3,3,7,1
3,4,1,6
3,4,7,5
3,5,1,7
3,5,3,6
3,5,4,9
3,5,5,1
3,5,7,8
3,6,0,6
3,6,1,4
3,6,2,5
3,6,6,8
3,6,7,7
3,6,8,3
3,7,0,7
3,7,8,9
3,8,4,8
4,0,1,2
4,0,2,4
4,0,3,7
4,0,5,1
4,0,6,3
4,0,7,8
4,2,3,6
4,2,5,8
4,3,2,1
4,3,6,5
4,5,2,8
4,5,6,1
4,6,3,5
4,6,5,4
4,8,1,5
4,8,2,6
4,8,3,1
4,8,5,9
4,8,6,7
4,8,7,3
5,0,4,5
5,1,0,7
5,1,8,4
5,2,0,2
5,2,1,4
5,2,2,5
5,2,6,8
5,2,7,6
5,2,8,3
5,3,1,5
5,3,3,1
5,3,4,6
5,3,5,9
5,3,7,3
5,4,1,8
5,4,7,9
5,5,1,1
5,5,3,8
5,5,4,2
5,5,5,3
5,5,7,4
5,6,0,1
5,6,1,2
5,6,2,9
5,6,6,4
5,6,7,5
5,6,8,6
5,7,0,5
5,7,8,7
5,8,4,4
6,0,3,6
6,0,5,4
6,8,3,8
6,8,5,6
7,0,0,2
7,0,8,3
7,1,3,8
7,1,4,9
7,1,5,2
7,2,0,7
7,2,1,5
7,2,7,2
7,2,8,8
7,3,3,6
7,3,4,5
7,3,5,1
7,4,1,2
7,4,2,3
7,4,4,8
7,4,6,5
7,4,7,1
7,5,3,2
7,5,4,3
7,5,5,4
7,6,0,8
7,6,1,9
7,6,7,3
7,6,8,4
7,7,3,9
7,7,4,6
7,7,5,8
7,8,0,5
7,8,8,9
8,2,1,9
8,2,7,3
8,3,0,2
8,3,1,3
8,3,7,6
8,3,8,5
8,5,0,7
8,5,1,8
8,5,7,2
8,5,8,3
8,6,1,7
8,6,7,1
