0,0,0,6
0,0,8,7
0,8,0,3
0,8,8,9
1,3,3,9
1,3,4,2
1,3,5,8
1,5,3,5
1,5,4,6
1,5,5,1
2,0,1,5
2,0,7,6
2,1,1,9
2,1,4,4
2,1,7,2
2,2,2,6
2,2,6,9
2,4,0,5
2,4,3,8
2,4,5,2
2,4,8,3
2,6,2,9
2,6,6,1
2,7,1,4
2,7,4,7
2,7,7,9
2,8,1,1
2,8,7,3
3,0,0,7
3,0,1,8
3,0,7,5
3,0,8,3
3,1,4,8
3,2,4,5
3,6,4,6
3,7,4,2
3,8,0,1
3,8,1,6
3,8,7,2
3,8,8,5
4,0,0,4
4,0,3,3
4,0,5,5
4,0,8,8
4,2,1,6
4,2,7,2
4,3,0,7
4,3,8,4
4,5,0,2
4,5,8,3
4,6,1,1
4,6,7,3
4,8,0,9
4,8,3,5
4,8,5,2
4,8,8,6
5,0,0,5
5,0,1,3
5,0,7,4
5,0,8,2
5,1,4,3
5,2,4,4
5,6,4,5
5,7,4,9
5,8,0,2
5,8,1,5
5,8,7,9
5,8,8,4
6,0,1,6
6,0,7,8
6,1,1,2
6,1,4,9
6,1,7,4
6,2,2,8
6,2,6,2
6,4,0,7
6,4,3,5
6,4,5,1
6,4,8,2
6,6,2,7
6,6,6,3
6,7,1,9
6,7,4,4
6,7,7,7
6,8,1,3
6,8,7,6
7,3,3,6
7,3,4,1
7,3,5,5
7,5,3,7
7,5,4,4
7,5,5,3
8,0,0,8
8,0,8,1
8,8,0,6
8,8,8,7
