0,1,1,9
0,1,4,7
0,1,7,1
0,2,3,6
0,2,5,1
0,3,0,4
0,3,1,3
0,3,7,8
0,3,8,1
0,5,0,8
0,5,1,1
0,5,7,5
0,5,8,7
0,6,3,8
0,6,5,6
0,7,1,8
0,7,4,3
0,7,7,7
1,0,2,3
1,0,6,1
1,1,1,7
1,1,7,9
1,2,0,6
1,2,1,8
1,2,3,4
1,2,5,9
1,2,7,5
1,2,8,7
1,3,1,2
1,3,7,3
1,5,1,9
1,5,7,1
1,6,0,8
1,6,1,1
1,6,3,3
1,6,5,4
1,6,7,2
1,6,8,5
1,7,1,3
1,7,7,8
1,8,2,7
1,8,6,9
2,1,2,6
2,1,6,5
2,2,0,4
2,2,8,1
2,4,2,3
2,4,6,1
2,6,0,3
2,6,8,6
2,7,2,2
2,7,6,4
3,1,2,5
3,1,6,7
3,3,1,9
3,3,4,5
3,3,7,1
3,5,1,6
3,5,4,4
3,5,7,7
3,7,2,4
3,7,6,8
4,0,2,7
4,0,3,4
4,0,5,1
4,0,6,2
4,3,2,6
4,3,4,1
4,3,6,3
4,4,3,6
4,4,4,8
4,4,5,5
4,5,2,2
4,5,4,7
4,5,6,5
4,8,2,1
4,8,3,5
4,8,5,9
4,8,6,6
5,1,2,8
5,1,6,9
5,3,1,1
5,3,4,9
5,3,7,5
5,5,1,7
5,5,4,6
5,5,7,4
5,7,2,6
5,7,6,3
6,1,2,7
6,1,6,4
6,2,0,1
6,2,8,5
6,4,2,6
6,4,6,2
6,6,0,6
6,6,8,2
6,7,2,3
6,7,6,1
7,0,2,6
7,0,6,5
7,1,1,3
7,1,7,8
7,2,0,7
7,2,1,2
7,2,3,1
7,2,5,8
7,2,7,4
7,2,8,3
7,3,1,4
7,3,7,6
7,5,1,8
7,5,7,2
7,6,0,5
7,6,1,7
7,6,3,6
7,6,5,1
7,6,7,3
7,6,8,9
7,7,1,6
7,7,7,5
7,8,2,4
7,8,6,8
8,1,1,8
8,1,4,3
8,1,7,5
8,2,3,7
8,2,5,5
8,3,0,1
8,3,1,6
8,3,7,7
8,3,8,2
8,5,0,7
8,5,1,2
8,5,7,3
8,5,8,9
8,6,3,5
8,6,5,2
8,7,1,5
8,7,4,6
8,7,7,4
