0,0,0,6
0,0,1,4
0,0,7,9
0,0,8,8
0,1,4,8
0,2,0,8
0,2,8,5
0,3,3,1
0,3,5,7
0,4,0,9
0,4,8,1
0,5,3,8
0,5,5,5
0,6,0,1
0,6,8,7
0,7,4,7
0,8,0,7
0,8,1,6
0,8,7,1
0,8,8,4
1,0,0,9
1,0,8,6
1,3,0,4
1,3,8,3
1,4,1,3
1,4,7,6
1,5,0,6
1,5,8,8
1,8,0,3
1,8,8,2
2,0,3,8
2,0,4,6
2,0,5,9
2,1,2,8
2,1,4,4
2,1,6,6
2,3,0,7
2,3,3,2
2,3,4,3
2,3,5,4
2,3,8,5
2,5,0,5
2,5,3,9
2,5,4,7
2,5,5,1
2,5,8,6
2,7,2,7
2,7,4,9
2,7,6,1
2,8,3,4
2,8,4,8
2,8,5,6
3,0,3,9
3,0,5,8
3,1,2,7
3,1,4,1
3,1,6,9
3,4,1,9
3,4,7,5
3,7,2,5
3,7,4,2
3,7,6,6
3,8,3,6
3,8,5,5
4,0,2,1
4,0,3,7
4,0,5,6
4,0,6,2
4,1,3,8
4,1,5,3
4,2,0,7
4,2,8,6
4,6,0,4
4,6,8,2
4,7,3,4
4,7,5,8
4,8,2,7
4,8,3,9
4,8,5,2
4,8,6,4
5,0,3,1
5,0,5,5
5,1,2,9
5,1,4,7
5,1,6,3
5,4,1,1
5,4,7,3
5,7,2,1
5,7,4,5
5,7,6,2
5,8,3,8
5,8,5,3
6,0,3,5
6,0,4,8
6,0,5,3
6,1,2,5
6,1,4,6
6,1,6,2
6,3,0,5
6,3,3,9
6,3,4,2
6,3,5,1
6,3,8,6
6,5,0,1
6,5,3,6
6,5,4,5
6,5,5,7
6,5,8,2
6,7,2,4
6,7,4,1
6,7,6,8
6,8,3,3
6,8,4,9
6,8,5,8
7,0,0,7
7,0,8,5
7,3,0,8
7,3,8,9
7,4,1,5
7,4,7,4
7,5,0,9
7,5,8,1
7,8,0,4
7,8,8,6
8,0,0,1
8,0,1,5
8,0,7,4
8,0,8,2
8,1,4,2
8,2,0,2
8,2,8,9
8,3,3,3
8,3,5,8
8,4,0,4
8,4,8,3
8,5,3,2
8,5,5,9
8,6,0,3
8,6,8,8
8,7,4,8
8,8,0,8
8,8,1,1
8,8,7,3
8,8,8,5
