0,0,1,3
0,0,2,4
0,0,3,8
0,0,4,7
0,0,5,2
0,0,6,9
0,0,7,1
0,1,0,8
0,1,8,4
0,2,1,1
0,2,3,5
0,2,5,4
0,2,7,7
0,3,4,6
0,5,4,2
0,6,1,9
0,6,3,3
0,6,5,5
0,6,7,8
0,7,0,3
0,7,8,1
0,8,1,8
0,8,2,7
0,8,3,6
0,8,4,9
0,8,5,1
0,8,6,3
0,8,7,4
1,0,0,6
1,0,8,7
1,3,2,5
1,3,3,8
1,3,5,2
1,3,6,9
1,4,3,9
1,4,4,1
1,4,5,6
1,5,2,6
1,5,3,3
1,5,5,5
1,5,6,8
1,8,0,5
1,8,8,9
2,1,3,3
2,1,5,5
2,3,2,1
2,3,6,2
2,4,1,3
2,4,3,2
2,4,5,7
2,4,7,9
2,5,2,7
2,5,6,5
2,7,3,9
2,7,5,6
3,0,0,4
3,0,8,1
3,1,0,9
3,1,4,3
3,1,8,2
3,2,1,3
3,2,2,1
3,2,6,9
3,2,7,8
3,3,3,2
3,3,5,7
3,5,3,1
3,5,5,4
3,6,1,4
3,6,2,9
3,6,6,7
3,6,7,2
3,7,0,5
3,7,4,2
3,7,8,9
3,8,0,7
3,8,8,6
4,1,2,6
4,1,4,2
4,1,6,8
4,2,0,7
4,2,8,6
4,4,1,8
4,4,4,4
4,4,7,7
4,6,0,1
4,6,8,8
4,7,2,7
4,7,4,9
4,7,6,1
5,0,0,1
5,0,8,8
5,1,0,2
5,1,4,9
5,1,8,3
5,2,1,9
5,2,2,8
5,2,6,2
5,2,7,4
5,3,3,4
5,3,5,6
5,5,3,8
5,5,5,9
5,6,1,7
5,6,2,2
5,6,6,6
5,6,7,5
5,7,0,9
5,7,4,5
5,7,8,2
5,8,0,6
5,8,8,4
6,1,3,1
6,1,5,9
6,3,2,7
6,3,6,5
6,4,1,9
6,4,3,5
6,4,5,4
6,4,7,8
6,5,2,4
6,5,6,6
6,7,3,8
6,7,5,2
7,0,0,9
7,0,8,2
7,3,2,3
7,3,3,7
7,3,5,8
7,3,6,1
7,4,3,1
7,4,4,6
7,4,5,9
7,5,2,9
7,5,3,4
7,5,5,3
7,5,6,7
7,8,0,3
7,8,8,1
8,0,1,8
8,0,2,7
8,0,3,6
8,0,4,9
8,0,5,1
8,0,6,4
8,0,7,5
8,1,0,6
8,1,8,7
8,2,1,5
8,2,3,2
8,2,5,7
8,2,7,9
8,3,4,4
8,5,4,1
8,6,1,3
8,6,3,7
8,6,5,8
8,6,7,6
8,7,0,7
8,7,8,4
8,8,1,6
8,8,2,9
8,8,3,5
8,8,4,3
8,8,5,4
8,8,6,7
8,8,7,2
