0,0,3,2
0,0,5,1
0,2,0,5
0,2,8,4
0,3,3,4
0,3,5,2
0,4,1,2
0,4,7,4
0,5,3,5
0,5,5,7
0,6,0,7
0,6,8,6
0,8,3,3
0,8,5,4
1,0,4,7
1,2,0,2
1,2,1,9
1,2,3,8
1,2,4,6
1,2,5,4
1,2,7,1
1,2,8,7
1,3,3,7
1,3,4,5
1,3,5,3
1,5,3,6
1,5,4,9
1,5,5,8
1,6,0,1
1,6,1,6
1,6,3,4
1,6,4,3
1,6,5,7
1,6,7,5
1,6,8,8
1,8,4,8
2,1,0,1
2,1,8,8
2,2,3,5
2,2,5,2
2,3,3,8
2,3,5,9
2,4,1,4
2,4,7,8
2,5,3,1
2,5,5,4
2,6,3,6
2,6,5,8
2,7,0,9
2,7,8,5
3,0,1,3
3,0,7,4
3,2,0,4
3,2,4,5
3,2,8,9
3,3,0,3
3,3,8,1
3,5,0,2
3,5,8,7
3,6,0,9
3,6,4,4
3,6,8,5
3,8,1,5
3,8,7,7
4,1,4,6
4,3,4,7
4,4,1,9
4,4,3,6
4,4,5,4
4,4,7,7
4,5,4,5
4,7,4,9
5,0,1,4
5,0,7,7
5,2,0,6
5,2,4,7
5,2,8,2
5,3,0,9
5,3,8,5
5,5,0,8
5,5,8,3
5,6,0,2
5,6,4,6
5,6,8,7
5,8,1,6
5,8,7,3
6,1,0,4
6,1,8,9
6,2,3,6
6,2,5,8
6,3,3,5
6,3,5,7
6,4,1,7
6,4,7,5
6,5,3,9
6,5,5,6
6,6,3,3
6,6,5,4
6,7,0,7
6,7,8,6
7,0,4,1
7,2,0,1
7,2,1,6
7,2,3,9
7,2,4,3
7,2,5,7
7,2,7,4
7,2,8,8
7,3,3,1
7,3,4,2
7,3,5,4
7,5,3,3
7,5,4,7
7,5,5,5
7,6,0,5
7,6,1,8
7,6,3,2
7,6,4,9
7,6,5,1
7,6,7,6
7,6,8,4
7,8,4,4
8,0,3,8
8,0,5,4
8,2,0,7
8,2,8,6
8,3,3,6
8,3,5,8
8,4,1,1
8,4,7,2
8,5,3,2
8,5,5,1
8,6,0,3
8,6,8,1
8,8,3,9
8,8,5,2
