0,0,0,1
0,0,1,6
0,0,7,8
0,0,8,2
0,1,3,6
0,1,5,1
0,2,4,9
0,3,1,4
0,3,7,6
0,4,0,6
0,4,8,4
0,5,1,5
0,5,7,7
0,6,4,6
0,7,3,1
0,7,5,9
0,8,0,9
0,8,1,3
0,8,7,4
0,8,8,1
1,0,1,5
1,0,7,7
1,1,4,8
1,3,4,7
1,4,0,5
1,4,1,3
1,4,2,2
1,4,4,6
1,4,6,7
1,4,7,9
1,4,8,1
1,5,4,2
1,7,4,5
1,8,1,2
1,8,7,8
2,0,2,7
2,0,3,8
2,0,5,9
2,0,6,6
2,1,2,6
2,1,6,2
2,2,1,8
2,2,3,1
2,2,4,6
2,2,5,4
2,2,7,9
2,3,4,4
2,4,0,1
2,4,2,4
2,4,6,5
2,4,8,6
2,5,4,5
2,6,1,9
2,6,3,5
2,6,4,8
2,6,5,7
2,6,7,2
2,7,2,1
2,7,6,8
2,8,2,8
2,8,3,9
2,8,5,2
2,8,6,3
3,1,1,5
3,1,3,4
3,1,5,6
3,1,7,7
3,4,1,2
3,4,2,5
3,4,6,9
3,4,7,1
3,7,1,1
3,7,3,3
3,7,5,4
3,7,7,9
4,0,2,2
4,0,6,7
4,2,2,6
4,2,6,2
4,3,0,2
4,3,2,3
4,3,3,4
4,3,5,6
4,3,6,1
4,3,8,9
4,5,0,6
4,5,2,8
4,5,3,5
4,5,5,7
4,5,6,3
4,5,8,4
4,6,2,5
4,6,6,9
4,8,2,9
4,8,6,4
5,1,1,6
5,1,3,7
5,1,5,3
5,1,7,8
5,4,1,8
5,4,2,6
5,4,6,2
5,4,7,4
5,7,1,9
5,7,3,5
5,7,5,7
5,7,7,2
6,0,2,6
6,0,3,3
6,0,5,5
6,0,6,2
6,1,2,2
6,1,6,7
6,2,1,3
6,2,3,8
6,2,4,2
6,2,5,9
6,2,7,5
6,3,4,9
6,4,0,8
6,4,2,9
6,4,6,4
6,4,8,2
6,5,4,4
6,6,1,5
6,6,3,4
6,6,4,3
6,6,5,6
6,6,7,7
6,7,2,8
6,7,6,3
6,8,2,3
6,8,3,5
6,8,5,7
6,8,6,1
7,0,1,2
7,0,7,3
7,1,4,9
7,3,4,1
7,4,0,2
7,4,1,5
7,4,2,3
7,4,4,8
7,4,6,1
7,4,7,7
7,4,8,9
7,5,4,3
7,7,4,7
7,8,1,1
7,8,7,9
8,0,0,7
8,0,1,4
8,0,7,6
8,0,8,5
8,1,3,5
8,1,5,7
8,2,4,1
8,3,1,3
8,3,7,9
8,4,0,4
8,4,8,8
8,5,1,8
8,5,7,4
8,6,4,5
8,7,3,6
8,7,5,3
8,8,0,8
8,8,1,7
8,8,7,3
8,8,8,6
