0,0,3,3
0,0,4,6
0,0,5,5
0,2,4,7
0,3,1,2
0,3,3,9
0,3,5,6
0,3,7,4
0,4,0,3
0,4,8,8
0,5,1,6
0,5,3,5
0,5,5,7
0,5,7,9
0,6,4,4
0,8,3,7
0,8,4,9
0,8,5,8
1,2,2,5
1,2,6,6
1,3,3,7
1,3,5,3
1,4,3,6
1,4,4,9
1,4,5,8
1,5,3,2
1,5,5,1
1,6,2,1
1,6,6,4
2,1,3,7
2,1,5,1
2,3,3,1
2,3,5,4
2,5,3,8
2,5,5,9
2,7,3,9
2,7,5,7
3,0,2,1
3,0,6,4
3,1,4,7
3,2,0,2
3,2,2,8
3,2,6,9
3,2,8,7
3,4,0,9
3,4,1,3
3,4,7,6
3,4,8,5
3,6,0,1
3,6,2,5
3,6,6,2
3,6,8,3
3,7,4,1
3,8,2,4
3,8,6,6
4,0,2,4
4,0,4,3
4,0,6,7
4,2,3,4
4,2,5,7
4,3,2,8
4,3,6,9
4,4,0,2
4,4,8,7
4,5,2,3
4,5,6,5
4,6,3,2
4,6,5,3
4,8,2,2
4,8,4,4
4,8,6,8
5,0,2,6
5,0,6,8
5,1,4,5
5,2,0,5
5,2,2,7
5,2,6,3
5,2,8,4
5,4,0,8
5,4,1,6
5,4,7,9
5,4,8,1
5,6,0,2
5,6,2,3
5,6,6,5
5,6,8,7
5,7,4,2
5,8,2,1
5,8,6,4
6,1,3,3
6,1,5,5
6,3,3,5
6,3,5,7
6,5,3,4
6,5,5,2
6,7,3,6
6,7,5,1
7,2,2,6
7,2,6,8
7,3,3,8
7,3,5,9
7,4,3,1
7,4,4,2
7,4,5,4
7,5,3,3
7,5,5,5
7,6,2,9
7,6,6,7
8,0,3,9
8,0,4,8
8,0,5,2
8,2,4,3
8,3,1,3
8,3,3,2
8,3,5,1
8,3,7,6
8,4,0,4
8,4,8,9
8,5,1,1
8,5,3,6
8,5,5,8
8,5,7,7
8,6,4,2
8,8,3,1
8,8,4,6
8,8,5,4
