0,0,2,4
0,0,3,2
0,0,5,8
0,0,6,5
0,2,0,1
0,2,8,2
0,3,2,2
0,3,6,6
0,5,2,6
0,5,6,7
0,6,0,7
0,6,8,9
0,8,2,8
0,8,3,9
0,8,5,7
0,8,6,3
1,2,1,4
1,2,7,7
1,4,3,2
1,4,4,4
1,4,5,8
1,6,1,3
1,6,7,4
2,1,0,4
2,1,4,2
2,1,8,1
2,3,2,3
2,3,6,1
2,4,0,2
2,4,2,8
2,4,6,3
2,4,8,4
2,5,2,1
2,5,6,8
2,7,0,1
2,7,4,4
2,7,8,2
3,0,2,5
3,0,3,7
3,0,5,6
3,0,6,8
3,1,0,6
3,1,2,3
3,1,6,4
3,1,8,5
3,2,3,4
3,2,4,9
3,2,5,5
3,3,2,7
3,3,6,9
3,4,4,5
3,5,2,4
3,5,6,1
3,6,3,5
3,6,4,4
3,6,5,9
3,7,0,5
3,7,2,9
3,7,6,2
3,7,8,8
3,8,2,6
3,8,3,8
3,8,5,1
3,8,6,5
4,0,1,2
4,0,7,3
4,1,2,9
4,1,6,1
4,3,1,9
4,3,7,1
4,5,1,8
4,5,7,7
4,7,2,8
4,7,6,3
4,8,1,5
4,8,7,2
5,0,2,6
5,0,3,8
5,0,5,1
5,0,6,9
5,1,0,1
5,1,2,2
5,1,6,6
5,1,8,3
5,2,3,3
5,2,4,6
5,2,5,7
5,3,2,8
5,3,6,3
5,4,4,3
5,5,2,3
5,5,6,5
5,6,3,6
5,6,4,7
5,6,5,3
5,7,0,3
5,7,2,7
5,7,6,4
5,7,8,5
5,8,2,1
5,8,3,4
5,8,5,5
5,8,6,7
6,1,0,3
6,1,4,9
6,1,8,7
6,3,2,6
6,3,6,7
6,4,0,9
6,4,2,2
6,4,6,6
6,4,8,3
6,5,2,7
6,5,6,2
6,7,0,7
6,7,4,3
6,7,8,9
7,2,1,9
7,2,7,2
7,4,3,6
7,4,4,9
7,4,5,3
7,6,1,1
7,6,7,9
8,0,2,2
8,0,3,1
8,0,5,4
8,0,6,6
8,2,0,4
8,2,8,1
8,3,2,1
8,3,6,8
8,5,2,8
8,5,6,3
8,6,0,3
8,6,8,7
8,8,2,5
8,8,3,6
8,8,5,3
8,8,6,9
