0,1,3,3
0,1,5,4
0,4,2,8
0,4,6,6
0,7,3,5
0,7,5,3
1,0,4,4
1,4,2,3
1,4,4,7
1,4,6,8
1,8,4,1
2,0,0,3
2,0,8,1
2,1,0,2
2,1,8,3
2,2,4,3
2,3,0,4
2,3,8,8
2,5,0,8
2,5,8,7
2,6,4,6
2,7,0,7
2,7,8,5
2,8,0,9
2,8,8,2
3,2,1,5
3,2,7,7
3,3,0,5
3,3,2,3
3,3,4,8
3,3,6,6
3,3,8,4
3,4,2,4
3,4,4,6
3,4,6,9
3,5,0,9
3,5,2,6
3,5,4,1
3,5,6,5
3,5,8,3
3,6,1,2
3,6,7,3
4,0,1,3
4,0,4,6
4,0,7,4
4,1,1,4
4,1,4,3
4,1,7,2
4,2,1,7
4,2,7,3
4,3,1,9
4,3,7,5
4,4,0,3
4,4,1,5
4,4,7,6
4,4,8,1
4,5,1,2
4,5,7,9
4,6,1,1
4,6,7,8
4,7,1,8
4,7,4,1
4,7,7,7
4,8,1,6
4,8,4,8
4,8,7,1
5,2,1,1
5,2,7,8
5,3,0,1
5,3,2,2
5,3,4,3
5,3,6,8
5,3,8,9
5,4,2,9
5,4,4,4
5,4,6,2
5,5,0,7
5,5,2,5
5,5,4,2
5,5,6,1
5,5,8,6
5,6,1,5
5,6,7,2
6,0,0,7
6,0,8,4
6,1,0,8
6,1,8,2
6,2,4,6
6,3,0,2
6,3,8,5
6,5,0,5
6,5,8,9
6,6,4,1
6,7,0,1
6,7,8,7
6,8,0,3
6,8,8,1
7,0,4,2
7,4,2,6
7,4,4,1
7,4,6,5
7,8,4,4
8,1,3,6
8,1,5,2
8,4,2,5
8,4,6,1
8,7,3,2
8,7,5,7
