0,2,0,1
0,2,2,4
0,2,6,8
0,2,8,5
0,4,2,2
0,4,6,9
0,6,0,3
0,6,2,1
0,6,6,7
0,6,8,8
1,0,4,6
1,1,4,7
1,2,0,3
1,2,3,2
1,2,5,1
1,2,8,6
1,3,3,5
1,3,5,2
1,5,3,7
1,5,5,6
1,6,0,5
1,6,3,4
1,6,5,7
1,6,8,3
1,7,4,2
1,8,4,9
2,1,2,1
2,1,6,2
2,2,0,5
2,2,8,3
2,4,0,3
2,4,2,6
2,4,3,2
2,4,5,8
2,4,6,7
2,4,8,1
2,6,0,6
2,6,8,5
2,7,2,8
2,7,6,3
3,0,3,4
3,0,4,1
3,0,5,9
3,2,2,3
3,2,6,4
3,4,1,2
3,4,2,5
3,4,6,1
3,4,7,3
3,6,2,8
3,6,6,2
3,8,3,9
3,8,4,4
3,8,5,6
4,3,3,7
4,3,5,3
4,5,3,4
4,5,5,9
5,0,3,8
5,0,4,3
5,0,5,7
5,2,2,5
5,2,6,6
5,4,1,4
5,4,2,1
5,4,6,2
5,4,7,5
5,6,2,3
5,6,6,4
5,8,3,7
5,8,4,1
5,8,5,3
6,1,2,4
6,1,6,6
6,2,0,2
6,2,8,8
6,4,0,1
6,4,2,9
6,4,3,6
6,4,5,5
6,4,6,8
6,4,8,4
6,6,0,4
6,6,8,2
6,7,2,5
6,7,6,1
7,0,4,7
7,1,4,5
7,2,0,4
7,2,3,9
7,2,5,3
7,2,8,2
7,3,3,8
7,3,5,9
7,5,3,5
7,5,5,2
7,6,0,8
7,6,3,1
7,6,5,5
7,6,8,4
7,7,4,9
7,8,4,8
8,2,0,6
8,2,2,9
8,2,6,1
8,2,8,4
8,4,2,7
8,4,6,5
8,6,0,2
8,6,2,6
8,6,6,3
8,6,8,1
