0,0,2,1
0,0,3,3
0,0,5,6
0,0,6,5
0,2,2,5
0,2,3,2
0,2,5,1
0,2,6,3
0,4,0,5
0,4,1,4
0,4,7,6
0,4,8,3
0,6,2,4
0,6,3,1
0,6,5,7
0,6,6,6
0,8,2,8
0,8,3,5
0,8,5,9
0,8,6,1
1,0,1,4
1,0,2,9
1,0,6,6
1,0,7,3
1,4,0,3
1,4,2,6
1,4,6,2
1,4,8,1
1,8,1,1
1,8,2,2
1,8,6,5
1,8,7,4
2,0,1,6
2,0,3,5
2,0,5,9
2,0,7,1
2,1,0,9
2,1,4,1
2,1,8,3
2,2,4,6
2,3,1,9
2,3,7,3
2,5,1,3
2,5,7,2
2,6,4,8
2,7,0,3
2,7,4,9
2,7,8,1
2,8,1,4
2,8,3,2
2,8,5,1
2,8,7,8
3,0,0,4
3,0,8,7
3,1,1,7
3,1,7,4
3,2,1,8
3,2,7,5
3,4,2,1
3,4,6,7
3,6,1,3
3,6,7,8
3,7,1,6
3,7,7,1
3,8,0,1
3,8,8,3
4,0,0,7
4,0,1,3
4,0,7,8
4,0,8,6
4,2,3,6
4,2,5,8
4,3,0,9
4,3,4,6
4,3,8,7
4,4,3,1
4,4,4,2
4,4,5,5
4,5,0,5
4,5,4,3
4,5,8,1
4,6,3,5
4,6,5,3
4,8,0,3
4,8,1,9
4,8,7,6
4,8,8,5
5,0,0,6
5,0,8,5
5,1,1,4
5,1,7,3
5,2,1,5
5,2,7,6
5,4,2,5
5,4,6,4
5,6,1,1
5,6,7,4
5,7,1,7
5,7,7,5
5,8,0,4
5,8,8,1
6,0,1,8
6,0,3,9
6,0,5,4
6,0,7,7
6,1,0,4
6,1,4,7
6,1,8,6
6,2,4,8
6,3,1,4
6,3,7,6
6,5,1,6
6,5,7,1
6,6,4,3
6,7,0,6
6,7,4,4
6,7,8,7
6,8,1,5
6,8,3,1
6,8,5,7
6,8,7,3
7,0,1,2
7,0,2,7
7,0,6,9
7,0,7,5
7,4,0,9
7,4,2,4
7,4,6,3
7,4,8,6
7,8,1,6
7,8,2,3
7,8,6,7
7,8,7,1
8,0,2,4
8,0,3,7
8,0,5,2
8,0,6,8
8,2,2,3
8,2,3,5
8,2,5,9
8,2,6,7
8,4,0,6
8,4,1,3
8,4,7,2
8,4,8,7
8,6,2,6
8,6,3,4
8,6,5,5
8,6,6,2
8,8,2,1
8,8,3,3
8,8,5,6
8,8,6,9
