0,0,1,1
0,0,3,6
0,0,5,8
0,0,7,5
0,1,0,2
0,1,8,6
0,4,0,6
0,4,8,8
0,7,0,7
0,7,8,5
0,8,1,2
0,8,3,3
0,8,5,7
0,8,7,1
1,1,2,8
1,1,3,9
1,1,5,7
1,1,6,3
1,2,2,3
1,2,6,5
1,3,0,5
1,3,2,6
1,3,6,2
1,3,8,3
1,5,0,9
1,5,2,4
1,5,6,6
1,5,8,7
1,6,2,7
1,6,6,9
1,7,2,9
1,7,3,5
1,7,5,3
1,7,6,1
2,3,3,6
2,3,5,7
2,4,3,5
2,4,5,3
2,5,3,4
2,5,5,1
3,0,1,2
3,0,7,9
3,4,0,5
3,4,2,2
3,4,6,6
3,4,8,9
3,8,1,5
3,8,7,6
4,2,0,3
4,2,8,4
4,6,0,1
4,6,8,6
5,0,1,3
5,0,7,7
5,4,0,9
5,4,2,3
5,4,6,7
5,4,8,4
5,8,1,9
5,8,7,4
6,3,3,3
6,3,5,4
6,4,3,2
6,4,5,9
6,5,3,8
6,5,5,5
7,1,2,7
7,1,3,6
7,1,5,4
7,1,6,9
7,2,2,9
7,2,6,2
7,3,0,2
7,3,2,3
7,3,6,1
7,3,8,9
7,5,0,6
7,5,2,8
7,5,6,3
7,5,8,4
7,6,2,4
7,6,6,6
7,7,2,6
7,7,3,2
7,7,5,9
7,7,6,5
8,0,1,5
8,0,3,3
8,0,5,7
8,0,7,2
8,1,0,1
8,1,8,3
8,4,0,3
8,4,8,7
8,7,0,4
8,7,8,2
8,8,1,1
8,8,3,9
8,8,5,4
8,8,7,5
