0,1,1,4
0,1,7,5
0,3,4,3
0,5,4,9
0,7,1,6
0,7,7,9
1,2,0,3
1,2,8,5
1,3,0,2
1,3,8,8
1,4,3,2
1,4,5,3
1,5,0,1
1,5,8,3
1,6,0,9
1,6,8,2
2,0,1,3
2,0,3,1
2,0,5,7
2,0,7,8
2,1,1,8
2,1,4,3
2,1,7,1
2,4,2,4
2,4,3,9
2,4,5,1
2,4,6,8
2,7,1,9
2,7,4,5
2,7,7,4
2,8,1,4
2,8,3,7
2,8,5,9
2,8,7,5
3,0,0,5
3,0,3,7
3,0,5,2
3,0,8,4
3,2,0,1
3,2,1,3
3,2,7,8
3,2,8,7
3,3,2,8
3,3,6,4
3,4,1,6
3,4,7,9
3,5,2,3
3,5,6,7
3,6,0,8
3,6,1,9
3,6,7,4
3,6,8,6
3,8,0,3
3,8,3,9
3,8,5,6
3,8,8,5
4,0,1,4
4,0,7,2
4,2,1,9
4,2,3,3
4,2,4,2
4,2,5,7
4,2,7,4
4,3,0,6
4,3,8,2
4,4,2,2
4,4,6,5
4,5,0,5
4,5,8,4
4,6,1,6
4,6,3,1
4,6,4,5
4,6,5,8
4,6,7,9
4,8,1,5
4,8,7,6
5,0,0,2
5,0,3,4
5,0,5,9
5,0,8,8
5,2,0,4
5,2,1,6
5,2,7,9
5,2,8,3
5,3,2,1
5,3,6,8
5,4,1,9
5,4,7,4
5,5,2,6
5,5,6,3
5,6,0,1
5,6,1,3
5,6,7,8
5,6,8,7
5,8,0,6
5,8,3,5
5,8,5,1
5,8,8,2
6,0,1,7
6,0,3,5
6,0,5,6
6,0,7,3
6,1,1,3
6,1,4,9
6,1,7,8
6,4,2,9
6,4,3,8
6,4,5,5
6,4,6,3
6,7,1,5
6,7,4,4
6,7,7,7
6,8,1,9
6,8,3,6
6,8,5,8
6,8,7,4
7,2,0,2
7,2,8,8
7,3,0,4
7,3,8,6
7,4,3,4
7,4,5,2
7,5,0,9
7,5,8,2
7,6,0,7
7,6,8,4
8,1,1,6
8,1,7,9
8,3,4,5
8,5,4,4
8,7,1,7
8,7,7,3
