0,2,2,3
0,2,6,7
0,4,2,2
0,4,4,6
0,4,6,1
0,6,2,4
0,6,6,5
1,0,2,2
1,0,6,1
1,1,0,9
1,1,8,7
1,2,2,1
1,2,6,6
1,3,3,6
1,3,5,3
1,5,3,2
1,5,5,7
1,6,2,7
1,6,6,8
1,7,0,6
1,7,8,4
1,8,2,8
1,8,6,3
2,0,0,3
2,0,8,2
2,3,1,9
2,3,7,2
2,4,4,7
2,5,1,5
2,5,7,1
2,8,0,5
2,8,8,8
3,2,4,6
3,3,1,6
3,3,2,8
3,3,6,4
3,3,7,9
3,5,1,2
3,5,2,3
3,5,6,6
3,5,7,8
3,6,4,8
4,1,0,4
4,1,8,3
4,2,4,5
4,3,2,9
4,3,6,3
4,4,2,7
4,4,6,8
4,5,2,1
4,5,6,9
4,6,4,4
4,7,0,1
4,7,8,5
5,2,4,7
5,3,1,7
5,3,2,2
5,3,6,1
5,3,7,6
5,5,1,9
5,5,2,5
5,5,6,7
5,5,7,2
5,6,4,2
6,0,0,4
6,0,8,3
6,3,1,1
6,3,7,3
6,4,4,4
6,5,1,6
6,5,7,7
6,8,0,6
6,8,8,4
7,0,2,3
7,0,6,7
7,1,0,1
7,1,8,5
7,2,2,7
7,2,6,8
7,3,3,8
7,3,5,5
7,5,3,3
7,5,5,4
7,6,2,9
7,6,6,4
7,7,0,8
7,7,8,6
7,8,2,5
7,8,6,9
8,2,2,4
8,2,6,5
8,4,2,3
8,4,4,8
8,4,6,7
8,6,2,2
8,6,6,1
