0,1,1,3
0,1,3,1
0,1,5,7
0,1,7,2
0,4,0,3
0,4,1,6
0,4,7,8
0,4,8,9
0,7,1,5
0,7,3,7
0,7,5,4
0,7,7,9
1,1,1,2
1,1,7,4
1,2,0,6
1,2,2,4
1,2,6,8
1,2,8,3
1,3,0,8
1,3,4,1
1,3,8,2
1,5,0,1
1,5,4,2
1,5,8,8
1,6,0,5
1,6,2,8
1,6,6,9
1,6,8,7
1,7,1,9
1,7,7,1
2,0,3,3
2,0,5,5
2,1,1,4
2,1,7,3
2,2,3,8
2,2,5,4
2,6,3,5
2,6,5,7
2,7,1,1
2,7,7,5
2,8,3,4
2,8,5,1
3,0,3,7
3,0,5,6
3,1,3,8
3,1,5,4
3,2,1,8
3,2,4,2
3,2,7,6
3,3,4,6
3,5,4,7
3,6,1,9
3,6,4,1
3,6,7,7
3,7,3,5
3,7,5,7
3,8,3,9
3,8,5,2
4,0,3,9
4,0,5,2
4,1,1,9
4,1,2,4
4,1,6,8
4,1,7,7
4,3,2,9
4,3,6,3
4,5,2,5
4,5,6,2
4,7,1,2
4,7,2,7
4,7,6,4
4,7,7,8
4,8,3,1
4,8,5,8
5,0,3,1
5,0,5,8
5,1,3,2
5,1,5,3
5,2,1,2
5,2,4,6
5,2,7,8
5,3,4,8
5,5,4,1
5,6,1,7
5,6,4,9
5,6,7,1
5,7,3,4
5,7,5,1
5,8,3,7
5,8,5,6
6,0,3,8
6,0,5,3
6,1,1,6
6,1,7,8
6,2,3,2
6,2,5,6
6,6,3,3
6,6,5,9
6,7,1,4
6,7,7,3
6,8,3,6
6,8,5,4
7,1,1,5
7,1,7,6
7,2,0,2
7,2,2,6
7,2,6,9
7,2,8,8
7,3,0,9
7,3,4,7
7,3,8,5
7,5,0,7
7,5,4,5
7,5,8,9
7,6,0,4
7,6,2,9
7,6,6,3
7,6,8,1
7,7,1,3
7,7,7,7
8,1,1,8
8,1,3,3
8,1,5,2
8,1,7,5
8,4,0,8
8,4,1,9
8,4,7,1
8,4,8,4
8,7,1,7
8,7,3,2
8,7,5,6
8,7,7,4
