0,2,0,8
0,2,1,4
0,2,4,9
0,2,7,5
0,2,8,2
0,3,0,9
0,3,8,1
0,5,0,5
0,5,8,8
0,6,0,2
0,6,1,8
0,6,4,1
0,6,7,3
0,6,8,5
1,0,0,9
1,0,4,2
1,0,8,1
1,1,0,4
1,1,8,3
1,3,2,4
1,3,6,6
1,4,1,1
1,4,3,7
1,4,5,4
1,4,7,8
1,5,2,9
1,5,6,7
1,7,0,3
1,7,8,2
1,8,0,8
1,8,4,9
1,8,8,7
2,0,3,7
2,0,5,9
2,2,0,7
2,2,8,4
2,3,3,3
2,3,5,7
2,5,3,1
2,5,5,2
2,6,0,9
2,6,8,1
2,8,3,4
2,8,5,3
3,1,0,7
3,1,3,2
3,1,5,5
3,1,8,4
3,4,0,8
3,4,4,9
3,4,8,6
3,7,0,5
3,7,3,4
3,7,5,3
3,7,8,8
4,0,1,9
4,0,2,7
4,0,6,1
4,0,7,4
4,1,2,1
4,1,6,9
4,2,2,4
4,2,6,2
4,6,2,5
4,6,6,6
4,7,2,2
4,7,6,3
4,8,1,6
4,8,2,3
4,8,6,4
4,8,7,2
5,1,0,8
5,1,3,1
5,1,5,7
5,1,8,2
5,4,0,5
5,4,4,7
5,4,8,8
5,7,0,6
5,7,3,7
5,7,5,5
5,7,8,4
6,0,3,1
6,0,5,7
6,2,0,3
6,2,8,6
6,3,3,4
6,3,5,3
6,5,3,9
6,5,5,1
6,6,0,6
6,6,8,4
6,8,3,2
6,8,5,4
7,0,0,5
7,0,4,6
7,0,8,8
7,1,0,9
7,1,8,1
7,3,2,9
7,3,6,7
7,4,1,8
7,4,3,2
7,4,5,9
7,4,7,3
7,5,2,5
7,5,6,2
7,7,0,1
7,7,8,6
7,8,0,3
7,8,4,5
7,8,8,2
8,2,0,2
8,2,1,1
8,2,4,3
8,2,7,8
8,2,8,9
8,3,0,8
8,3,8,6
8,5,0,3
8,5,8,7
8,6,0,5
8,6,1,7
8,6,4,2
8,6,7,6
8,6,8,8
