0,2,0,8
0,2,8,6
0,6,0,6
0,6,8,4
1,0,2,4
1,0,6,6
1,2,0,3
1,2,8,2
1,4,0,9
1,4,8,8
1,6,0,2
1,6,8,5
1,8,2,7
1,8,6,8
2,0,0,6
2,0,4,1
2,0,8,4
2,1,0,9
2,1,2,3
2,1,6,5
2,1,8,1
2,2,0,1
2,2,4,5
2,2,8,7
2,3,3,6
2,3,5,4
2,4,2,8
2,4,4,7
2,4,6,9
2,5,3,8
2,5,5,2
2,6,0,7
2,6,4,8
2,6,8,9
2,7,0,5
2,7,2,1
2,7,6,4
2,7,8,8
2,8,0,8
2,8,4,4
2,8,8,2
3,1,2,2
3,1,3,3
3,1,5,6
3,1,6,8
3,2,4,1
3,3,2,8
3,3,6,4
3,5,2,4
3,5,6,7
3,6,4,6
3,7,2,6
3,7,3,1
3,7,5,7
3,7,6,3
4,0,0,4
4,0,1,2
4,0,7,7
4,0,8,8
4,1,0,8
4,1,8,2
4,3,1,7
4,3,7,6
4,5,1,8
4,5,7,3
4,7,0,3
4,7,8,6
4,8,0,2
4,8,1,1
4,8,7,8
4,8,8,9
5,1,2,7
5,1,3,8
5,1,5,2
5,1,6,1
5,2,4,3
5,3,2,1
5,3,6,9
5,5,2,9
5,5,6,6
5,6,4,2
5,7,2,2
5,7,3,3
5,7,5,6
5,7,6,8
6,0,0,3
6,0,4,9
6,0,8,6
6,1,0,2
6,1,2,9
6,1,6,7
6,1,8,5
6,2,0,4
6,2,4,7
6,2,8,3
6,3,3,1
6,3,5,7
6,4,2,4
6,4,4,8
6,4,6,6
6,5,3,9
6,5,5,3
6,6,0,1
6,6,4,5
6,6,8,7
6,7,0,6
6,7,2,5
6,7,6,2
6,7,8,4
6,8,0,9
6,8,4,2
6,8,8,1
7,0,2,2
7,0,6,3
7,2,0,5
7,2,8,8
7,4,0,2
7,4,8,4
7,6,0,3
7,6,8,2
7,8,2,8
7,8,6,9
8,2,0,9
8,2,8,1
8,6,0,8
8,6,8,6
