0,0,1,4
0,0,4,1
0,0,7,2
0,2,4,3
0,3,4,2
0,4,3,8
0,4,5,4
0,5,4,5
0,6,4,4
0,8,1,5
0,8,4,6
0,8,7,1
1,0,2,5
1,0,6,7
1,1,1,8
1,1,7,9
1,2,0,4
1,2,8,8
1,4,0,8
1,4,8,2
1,6,0,7
1,6,8,6
1,7,1,9
1,7,7,7
1,8,2,3
1,8,6,8
2,1,1,7
2,1,7,8
2,3,4,3
2,5,4,8
2,7,1,3
2,7,7,9
3,2,3,6
3,2,5,2
3,3,0,2
3,3,1,6
3,3,2,1
3,3,4,5
3,3,6,4
3,3,7,8
3,3,8,7
3,4,1,4
3,4,4,2
3,4,7,3
3,5,0,5
3,5,1,9
3,5,2,3
3,5,4,7
3,5,6,6
3,5,7,1
3,5,8,2
3,6,3,2
3,6,5,3
4,0,1,3
4,0,2,7
4,0,6,1
4,0,7,5
4,8,1,9
4,8,2,8
4,8,6,6
4,8,7,3
5,2,3,3
5,2,5,4
5,3,0,4
5,3,1,8
5,3,2,7
5,3,4,6
5,3,6,3
5,3,7,5
5,3,8,9
5,4,1,3
5,4,4,4
5,4,7,2
5,5,0,6
5,5,1,1
5,5,2,2
5,5,4,9
5,5,6,8
5,5,7,7
5,5,8,4
5,6,3,4
5,6,5,7
6,1,1,6
6,1,7,5
6,3,4,7
6,5,4,2
6,7,1,5
6,7,7,1
7,0,2,4
7,0,6,6
7,1,1,5
7,1,7,3
7,2,0,8
7,2,8,5
7,4,0,2
7,4,8,9
7,6,0,6
7,6,8,8
7,7,1,1
7,7,7,6
7,8,2,5
7,8,6,7
8,0,1,8
8,0,4,7
8,0,7,9
8,2,4,2
8,3,4,9
8,4,3,2
8,4,5,1
8,5,4,4
8,6,4,3
8,8,1,4
8,8,4,8
8,8,7,2
