0,0,3,9
0,0,5,2
0,1,1,5
0,1,7,4
0,3,4,2
0,4,0,5
0,4,8,4
0,5,4,6
0,7,1,9
0,7,7,6
0,8,3,8
0,8,5,6
1,0,1,1
1,0,4,6
1,0,7,9
1,1,4,9
1,7,4,2
1,8,1,2
1,8,4,7
1,8,7,4
2,0,4,7
2,3,0,2
2,3,8,6
2,5,0,4
2,5,8,3
2,8,4,5
3,0,1,4
3,0,4,3
3,0,7,1
3,1,0,2
3,1,1,3
3,1,4,1
3,1,7,8
3,1,8,4
3,2,2,9
3,2,6,2
3,6,2,8
3,6,6,9
3,7,0,5
3,7,1,2
3,7,4,7
3,7,7,4
3,7,8,6
3,8,1,7
3,8,4,8
3,8,7,2
4,2,2,3
4,2,6,4
4,3,2,9
4,3,3,6
4,3,5,4
4,3,6,2
4,5,2,5
4,5,3,7
4,5,5,9
4,5,6,8
4,6,2,7
4,6,6,3
5,0,1,5
5,0,4,9
5,0,7,4
5,1,0,1
5,1,1,9
5,1,4,8
5,1,7,5
5,1,8,2
5,2,2,8
5,2,6,1
5,6,2,5
5,6,6,4
5,7,0,7
5,7,1,1
5,7,4,4
5,7,7,3
5,7,8,5
5,8,1,8
5,8,4,3
5,8,7,1
6,0,4,2
6,3,0,4
6,3,8,3
6,5,0,7
6,5,8,5
6,8,4,6
7,0,1,3
7,0,4,8
7,0,7,5
7,1,4,5
7,7,4,9
7,8,1,9
7,8,4,1
7,8,7,6
8,0,3,7
8,0,5,3
8,1,1,1
8,1,7,9
8,3,4,3
8,4,0,1
8,4,8,2
8,5,4,5
8,7,1,7
8,7,7,2
8,8,3,5
8,8,5,9
