0,2,1,4
0,2,2,5
0,2,6,7
0,2,7,1
0,3,2,4
0,3,6,1
0,4,1,8
0,4,3,7
0,4,5,3
0,4,7,5
0,5,2,1
0,5,6,2
0,6,1,1
0,6,2,3
0,6,6,6
0,6,7,8
1,0,2,4
1,0,6,3
1,1,3,1
1,1,5,7
1,2,1,1
1,2,7,8
1,3,0,1
1,3,1,3
1,3,2,7
1,3,3,5
1,3,5,4
1,3,6,8
1,3,7,2
1,3,8,6
1,4,1,5
1,4,2,9
1,4,6,7
1,4,7,1
1,5,0,2
1,5,1,6
1,5,2,8
1,5,3,3
1,5,5,1
1,5,6,9
1,5,7,4
1,5,8,5
1,6,1,8
1,6,7,9
1,7,3,4
1,7,5,9
1,8,2,5
1,8,6,1
2,0,0,3
2,0,8,8
2,2,1,8
2,2,2,2
2,2,6,9
2,2,7,4
2,3,0,8
2,3,3,1
2,3,5,7
2,3,8,4
2,4,1,1
2,4,7,8
2,5,0,9
2,5,3,2
2,5,5,8
2,5,8,1
2,6,1,9
2,6,2,4
2,6,6,7
2,6,7,1
2,8,0,1
2,8,8,6
3,0,1,5
3,0,4,3
3,0,7,2
3,4,3,3
3,4,5,8
3,8,1,1
3,8,4,8
3,8,7,9
4,2,3,5
4,2,4,7
4,2,5,1
4,3,1,5
4,3,7,8
4,4,2,8
4,4,6,9
4,5,1,9
4,5,7,2
4,6,3,3
4,6,4,5
4,6,5,8
5,0,1,2
5,0,4,5
5,0,7,3
5,4,3,9
5,4,5,1
5,8,1,9
5,8,4,1
5,8,7,8
6,0,0,9
6,0,8,3
6,2,1,3
6,2,2,7
6,2,6,8
6,2,7,2
6,3,0,3
6,3,3,9
6,3,5,5
6,3,8,8
6,4,1,9
6,4,7,3
6,5,0,6
6,5,3,7
6,5,5,3
6,5,8,9
6,6,1,2
6,6,2,6
6,6,6,9
6,6,7,4
6,8,0,4
6,8,8,1
7,0,2,2
7,0,6,9
7,1,3,5
7,1,5,4
7,2,1,5
7,2,7,3
7,3,0,9
7,3,1,4
7,3,2,5
7,3,3,2
7,3,5,8
7,3,6,3
7,3,7,7
7,3,8,1
7,4,1,2
7,4,2,6
7,4,6,5
7,4,7,9
7,5,0,7
7,5,1,1
7,5,2,3
7,5,3,4
7,5,5,9
7,5,6,6
7,5,7,8
7,5,8,2
7,6,1,3
7,6,7,2
7,7,3,6
7,7,5,2
7,8,2,8
7,8,6,4
8,2,1,2
8,2,2,6
8,2,6,4
8,2,7,5
8,3,2,8
8,3,6,9
8,4,1,3
8,4,3,5
8,4,5,4
8,4,7,2
8,5,2,9
8,5,6,7
8,6,1,4
8,6,2,5
8,6,6,1
8,6,7,3
