0,2,0,4
0,2,3,2
0,2,5,1
0,2,8,5
0,3,3,1
0,3,5,7
0,4,0,5
0,4,8,7
0,5,3,5
0,5,5,9
0,6,0,7
0,6,3,9
0,6,5,8
0,6,8,4
1,0,4,5
1,1,3,7
1,1,5,2
1,3,1,9
1,3,7,7
1,4,3,8
1,4,5,5
1,5,1,8
1,5,7,9
1,7,3,6
1,7,5,3
1,8,4,8
2,0,2,8
2,0,6,5
2,1,2,9
2,1,4,4
2,1,6,8
2,2,0,3
2,2,8,1
2,3,1,3
2,3,7,6
2,4,4,1
2,5,1,5
2,5,7,8
2,6,0,1
2,6,8,8
2,7,2,3
2,7,4,9
2,7,6,4
2,8,2,6
2,8,6,3
3,0,1,5
3,0,7,1
3,2,2,8
3,2,6,4
3,3,4,1
3,4,2,5
3,4,6,2
3,5,4,3
3,6,2,7
3,6,6,8
3,8,1,3
3,8,7,2
4,0,4,6
4,1,0,6
4,1,8,4
4,2,3,7
4,2,5,8
4,3,3,8
4,3,4,7
4,3,5,4
4,4,0,7
4,4,3,3
4,4,5,6
4,4,8,9
4,5,3,1
4,5,4,9
4,5,5,5
4,6,3,5
4,6,5,9
4,7,0,3
4,7,8,1
4,8,4,3
5,0,1,2
5,0,7,4
5,2,2,4
5,2,6,9
5,3,4,6
5,4,2,2
5,4,6,3
5,5,4,4
5,6,2,3
5,6,6,6
5,8,1,6
5,8,7,3
6,0,2,1
6,0,6,4
6,1,2,6
6,1,4,7
6,1,6,1
6,2,0,8
6,2,8,3
6,3,1,8
6,3,7,2
6,4,4,3
6,5,1,4
6,5,7,1
6,6,0,3
6,6,8,1
6,7,2,8
6,7,4,6
6,7,6,7
6,8,2,2
6,8,6,8
7,0,4,4
7,1,3,5
7,1,5,9
7,3,1,6
7,3,7,5
7,4,3,1
7,4,5,4
7,5,1,1
7,5,7,6
7,7,3,2
7,7,5,8
7,8,4,1
8,2,0,7
8,2,3,9
8,2,5,3
8,2,8,4
8,3,3,3
8,3,5,5
8,4,0,4
8,4,8,5
8,5,3,4
8,5,5,6
8,6,0,5
8,6,3,6
8,6,5,1
8,6,8,7
