0,0,4,7
0,1,0,9
0,1,8,1
0,7,0,6
0,7,8,4
0,8,4,1
1,2,1,6
1,2,3,7
1,2,4,4
1,2,5,8
1,2,7,3
1,3,2,8
1,3,3,5
1,3,5,2
1,3,6,1
1,5,2,1
1,5,3,4
1,5,5,6
1,5,6,3
1,6,1,8
1,6,3,3
1,6,4,7
1,6,5,5
1,6,7,4
2,0,2,3
2,0,3,9
2,0,5,2
2,0,6,8
2,3,2,6
2,3,6,2
2,5,2,7
2,5,6,6
2,8,2,9
2,8,3,7
2,8,5,3
2,8,6,4
3,0,1,3
3,0,7,7
3,1,1,2
3,1,2,6
3,1,6,4
3,1,7,9
3,2,1,5
3,2,7,8
3,3,0,2
3,3,8,9
3,4,0,4
3,4,4,7
3,4,8,8
3,5,0,8
3,5,8,6
3,6,1,4
3,6,7,1
3,7,1,8
3,7,2,1
3,7,6,2
3,7,7,6
3,8,1,7
3,8,7,5
4,0,3,7
4,0,5,6
4,1,0,8
4,1,4,5
4,1,8,7
4,2,0,6
4,2,3,3
4,2,5,1
4,2,8,9
4,3,1,8
4,3,2,1
4,3,4,9
4,3,6,6
4,3,7,7
4,4,1,2
4,4,3,1
4,4,5,8
4,4,7,5
4,5,1,4
4,5,2,9
4,5,4,6
4,5,6,8
4,5,7,1
4,6,0,2
4,6,3,8
4,6,5,3
4,6,8,5
4,7,0,9
4,7,4,7
4,7,8,1
4,8,3,5
4,8,5,9
5,0,1,6
5,0,7,5
5,1,1,4
5,1,2,9
5,1,6,8
5,1,7,1
5,2,1,8
5,2,7,2
5,3,0,9
5,3,8,1
5,4,0,1
5,4,4,4
5,4,8,7
5,5,0,6
5,5,8,5
5,6,1,1
5,6,7,7
5,7,1,2
5,7,2,6
5,7,6,5
5,7,7,4
5,8,1,9
5,8,7,3
6,0,2,1
6,0,3,4
6,0,5,7
6,0,6,3
6,3,2,2
6,3,6,7
6,5,2,6
6,5,6,2
6,8,2,4
6,8,3,6
6,8,5,1
6,8,6,5
7,2,1,1
7,2,3,8
7,2,4,7
7,2,5,4
7,2,7,9
7,3,2,9
7,3,3,2
7,3,5,3
7,3,6,4
7,5,2,5
7,5,3,6
7,5,5,8
7,5,6,9
7,6,1,9
7,6,3,5
7,6,4,3
7,6,5,7
7,6,7,2
8,0,4,9
8,1,0,1
8,1,8,2
8,7,0,5
8,7,8,3
8,8,4,7
