0,1,3,8
0,1,5,3
0,2,0,8
0,2,2,3
0,2,3,5
0,2,5,2
0,2,6,9
0,2,8,6
0,4,3,9
0,4,5,6
0,6,0,9
0,6,2,6
0,6,3,1
0,6,5,8
0,6,6,5
0,6,8,2
0,7,3,7
0,7,5,5
1,0,0,9
1,0,3,1
1,0,5,8
1,0,8,2
1,1,2,8
1,1,6,4
1,7,2,2
1,7,6,3
1,8,0,4
1,8,3,3
1,8,5,1
1,8,8,5
2,3,3,1
2,3,4,3
2,3,5,8
2,4,2,8
2,4,6,4
2,5,3,6
2,5,4,9
2,5,5,4
3,0,0,1
3,0,1,3
3,0,7,5
3,0,8,7
3,4,1,1
3,4,7,2
3,8,0,3
3,8,1,8
3,8,7,7
3,8,8,2
4,2,1,8
4,2,7,7
4,4,4,8
4,6,1,9
4,6,7,8
5,0,0,6
5,0,1,9
5,0,7,8
5,0,8,1
5,4,1,6
5,4,7,3
5,8,0,9
5,8,1,4
5,8,7,1
5,8,8,3
6,3,3,5
6,3,4,7
6,3,5,2
6,4,2,5
6,4,6,8
6,5,3,8
6,5,4,1
6,5,5,3
7,0,0,8
7,0,3,5
7,0,5,2
7,0,8,6
7,1,2,5
7,1,6,8
7,7,2,6
7,7,6,5
7,8,0,1
7,8,3,7
7,8,5,5
7,8,8,9
8,1,3,2
8,1,5,7
8,2,0,5
8,2,2,2
8,2,3,9
8,2,5,6
8,2,6,3
8,2,8,1
8,4,3,1
8,4,5,8
8,6,0,8
8,6,2,3
8,6,3,5
8,6,5,2
8,6,6,9
8,6,8,6
8,7,3,4
8,7,5,9
