0,0,1,5
0,0,7,9
0,2,2,1
0,2,6,7
0,3,4,6
0,5,4,7
0,6,2,6
0,6,6,4
0,8,1,8
0,8,7,1
1,1,3,3
1,1,5,4
1,2,2,4
1,2,6,8
1,4,1,1
1,4,2,2
1,4,6,5
1,4,7,3
1,6,2,8
1,6,6,6
1,7,3,7
1,7,5,1
2,2,0,5
2,2,1,8
2,2,7,1
2,2,8,6
2,3,1,9
2,3,3,2
2,3,5,3
2,3,7,4
2,5,1,4
2,5,3,6
2,5,5,8
2,5,7,5
2,6,0,1
2,6,1,2
2,6,7,7
2,6,8,9
3,0,2,1
3,0,6,9
3,2,0,9
3,2,3,5
3,2,5,1
3,2,8,8
3,4,3,8
3,4,5,7
3,6,0,2
3,6,3,6
3,6,5,5
3,6,8,4
3,8,2,4
3,8,6,2
4,0,0,2
4,0,8,5
4,3,1,6
4,3,2,1
4,3,6,4
4,3,7,2
4,5,1,7
4,5,2,3
4,5,6,5
4,5,7,6
4,8,0,8
4,8,8,7
5,0,2,7
5,0,6,8
5,2,0,8
5,2,3,3
5,2,5,6
5,2,8,7
5,4,3,2
5,4,5,9
5,6,0,4
5,6,3,9
5,6,5,8
5,6,8,3
5,8,2,3
5,8,6,9
6,2,0,7
6,2,1,5
6,2,7,9
6,2,8,1
6,3,1,7
6,3,3,3
6,3,5,5
6,3,7,6
6,5,1,2
6,5,3,8
6,5,5,9
6,5,7,7
6,6,0,5
6,6,1,1
6,6,7,3
6,6,8,7
7,1,3,1
7,1,5,9
7,2,2,9
7,2,6,3
7,4,1,8
7,4,2,7
7,4,6,4
7,4,7,1
7,6,2,3
7,6,6,2
7,7,3,6
7,7,5,8
8,0,1,1
8,0,7,3
8,2,2,6
8,2,6,5
8,3,4,4
8,5,4,5
8,6,2,4
8,6,6,1
8,8,1,2
8,8,7,7
