0,0,1,7
0,0,3,9
0,0,5,8
0,0,7,4
0,2,0,2
0,2,1,8
0,2,7,5
0,2,8,1
0,4,3,3
0,4,5,5
0,6,0,5
0,6,1,2
0,6,7,7
0,6,8,4
0,8,1,3
0,8,3,7
0,8,5,1
0,8,7,8
1,1,0,5
1,1,8,4
1,4,4,1
1,7,0,8
1,7,8,7
2,1,0,8
2,1,4,6
2,1,8,7
2,2,2,1
2,2,6,4
2,4,2,7
2,4,6,3
2,6,2,4
2,6,6,6
2,7,0,3
2,7,4,1
2,7,8,2
3,1,1,4
3,1,2,5
3,1,6,1
3,1,7,2
3,3,0,5
3,3,8,1
3,4,0,1
3,4,8,8
3,5,0,8
3,5,8,5
3,7,1,7
3,7,2,8
3,7,6,5
3,7,7,9
4,0,0,2
4,0,2,1
4,0,4,5
4,0,6,7
4,0,8,6
4,1,0,6
4,1,2,8
4,1,4,2
4,1,6,9
4,1,8,5
4,2,2,4
4,2,6,3
4,4,0,4
4,4,1,5
4,4,7,2
4,4,8,3
4,6,2,5
4,6,6,2
4,7,0,1
4,7,2,3
4,7,4,9
4,7,6,6
4,7,8,8
4,8,0,8
4,8,2,7
4,8,4,1
4,8,6,4
4,8,8,9
5,1,1,2
5,1,2,3
5,1,6,6
5,1,7,7
5,3,0,2
5,3,8,6
5,4,0,6
5,4,8,9
5,5,0,9
5,5,8,2
5,7,1,9
5,7,2,4
5,7,6,1
5,7,7,2
6,1,0,4
6,1,4,5
6,1,8,9
6,2,2,8
6,2,6,1
6,4,2,4
6,4,6,7
6,6,2,2
6,6,6,4
6,7,0,7
6,7,4,8
6,7,8,6
7,1,0,2
7,1,8,1
7,4,4,8
7,7,0,9
7,7,8,5
8,0,1,9
8,0,3,3
8,0,5,4
8,0,7,1
8,2,0,6
8,2,1,4
8,2,7,2
8,2,8,8
8,4,3,7
8,4,5,1
8,6,0,3
8,6,1,6
8,6,7,5
8,6,8,2
8,8,1,7
8,8,3,5
8,8,5,8
8,8,7,9
