0,0,0,2
0,0,1,1
0,0,3,6
0,0,5,5
0,0,7,7
0,0,8,4
0,1,3,9
0,1,5,7
0,3,4,7
0,4,2,7
0,4,6,4
0,5,4,9
0,7,3,4
0,7,5,8
0,8,0,8
0,8,1,9
0,8,3,7
0,8,5,3
0,8,7,4
0,8,8,2
1,0,2,5
1,0,4,7
1,0,6,6
1,1,3,5
1,1,4,6
1,1,5,1
1,3,1,7
1,3,7,8
1,4,2,1
1,4,6,9
1,5,1,9
1,5,7,4
1,7,3,9
1,7,4,2
1,7,5,7
1,8,2,2
1,8,4,4
1,8,6,8
2,0,2,4
2,0,4,1
2,0,6,2
2,1,1,3
2,1,7,6
2,3,2,9
2,3,3,2
2,3,4,8
2,3,5,5
2,3,6,6
2,4,0,4
2,4,1,2
2,4,7,3
2,4,8,1
2,5,2,6
2,5,3,1
2,5,4,4
2,5,5,3
2,5,6,8
2,7,1,6
2,7,7,2
2,8,2,3
2,8,4,9
2,8,6,7
3,0,4,6
3,1,3,1
3,1,5,3
3,2,3,2
3,2,5,9
3,4,0,1
3,4,8,3
3,6,3,9
3,6,5,1
3,7,3,7
3,7,5,2
3,8,4,8
4,0,0,5
4,0,8,1
4,1,0,1
4,1,1,9
4,1,7,5
4,1,8,6
4,3,0,9
4,3,8,8
4,5,0,3
4,5,8,4
4,7,0,7
4,7,1,5
4,7,7,4
4,7,8,3
4,8,0,6
4,8,8,5
5,0,4,2
5,1,3,7
5,1,5,6
5,2,3,3
5,2,5,4
5,4,0,7
5,4,8,6
5,6,3,4
5,6,5,7
5,7,3,8
5,7,5,3
5,8,4,1
6,0,2,3
6,0,4,4
6,0,6,7
6,1,1,8
6,1,7,1
6,3,2,2
6,3,3,7
6,3,4,9
6,3,5,6
6,3,6,1
6,4,0,6
6,4,1,7
6,4,7,8
6,4,8,9
6,5,2,1
6,5,3,5
6,5,4,2
6,5,5,8
6,5,6,4
6,7,1,1
6,7,7,7
6,8,2,8
6,8,4,6
6,8,6,9
7,0,2,2
7,0,4,5
7,0,6,8
7,1,3,3
7,1,4,8
7,1,5,9
7,3,1,5
7,3,7,9
7,4,2,9
7,4,6,6
7,5,1,2
7,5,7,3
7,7,3,6
7,7,4,1
7,7,5,4
7,8,2,1
7,8,4,3
7,8,6,4
8,0,0,8
8,0,1,4
8,0,3,7
8,0,5,3
8,0,7,5
8,0,8,2
8,1,3,2
8,1,5,4
8,3,4,5
8,4,2,4
8,4,6,3
8,5,4,3
8,7,3,3
8,7,5,5
8,8,0,4
8,8,1,3
8,8,3,9
8,8,5,1
8,8,7,6
8,8,8,8
