0,0,0,7
0,0,1,6
0,0,2,8
0,0,6,3
0,0,7,9
0,0,8,1
0,1,3,7
0,1,5,9
0,3,1,3
0,3,7,2
0,4,4,3
0,5,1,7
0,5,7,3
0,7,3,4
0,7,5,8
0,8,0,8
0,8,1,1
0,8,2,3
0,8,6,4
0,8,7,5
0,8,8,9
1,0,2,4
1,0,3,1
1,0,5,8
1,0,6,2
1,3,1,2
1,3,2,7
1,3,6,8
1,3,7,1
1,5,1,5
1,5,2,8
1,5,6,6
1,5,7,9
1,8,2,9
1,8,3,8
1,8,5,5
1,8,6,3
3,0,2,5
3,0,4,7
3,0,6,8
3,2,2,1
3,2,6,2
3,4,3,2
3,4,5,6
3,6,2,3
3,6,6,4
3,8,2,7
3,8,4,8
3,8,6,5
4,2,4,9
4,4,2,5
4,4,6,2
4,6,4,4
5,0,2,9
5,0,4,5
5,0,6,7
5,2,2,8
5,2,6,6
5,4,3,3
5,4,5,1
5,6,2,4
5,6,6,2
5,8,2,5
5,8,4,7
5,8,6,9
7,0,2,1
7,0,3,7
7,0,5,2
7,0,6,9
7,3,1,9
7,3,2,4
7,3,6,2
7,3,7,7
7,5,1,3
7,5,2,2
7,5,6,5
7,5,7,8
7,8,2,8
7,8,3,2
7,8,5,3
7,8,6,6
8,0,0,4
8,0,1,5
8,0,2,2
8,0,6,6
8,0,7,8
8,0,8,7
8,1,3,4
8,1,5,8
8,3,1,6
8,3,7,9
8,4,4,6
8,5,1,4
8,5,7,6
8,7,3,1
8,7,5,2
8,8,0,2
8,8,1,7
8,8,2,6
8,8,6,1
8,8,7,3
8,8,8,8
