0,0,2,2
0,0,6,4
0,1,3,2
0,1,5,1
0,2,4,3
0,3,0,6
0,3,4,4
0,3,8,8
0,4,4,6
0,5,0,4
0,5,4,1
0,5,8,6
0,6,4,2
0,7,3,4
0,7,5,3
0,8,2,3
0,8,6,1
1,0,2,8
1,0,3,9
1,0,5,2
1,0,6,3
1,1,3,3
1,1,5,6
1,2,2,9
1,2,6,6
1,3,0,2
1,3,3,6
1,3,5,5
1,3,8,9
1,5,0,1
1,5,3,4
1,5,5,3
1,5,8,2
1,6,2,1
1,6,6,8
1,7,3,8
1,7,5,9
1,8,2,7
1,8,3,2
1,8,5,1
1,8,6,9
2,0,4,6
2,1,2,3
2,1,3,7
2,1,5,5
2,1,6,1
2,2,0,6
2,2,1,8
2,2,3,1
2,2,4,2
2,2,5,9
2,2,7,7
2,2,8,3
2,4,1,6
2,4,7,2
2,6,0,3
2,6,1,2
2,6,3,5
2,6,4,9
2,6,5,8
2,6,7,1
2,6,8,4
2,7,2,8
2,7,3,6
2,7,5,2
2,7,6,3
2,8,4,4
3,1,0,5
3,1,8,7
3,4,0,6
3,4,2,2
3,4,6,4
3,4,8,1
3,7,0,8
3,7,8,5
4,0,1,4
4,0,2,9
4,0,3,2
4,0,5,1
4,0,6,6
4,0,7,3
4,1,1,2
4,1,3,5
4,1,4,6
4,1,5,8
4,1,7,1
4,2,4,9
4,3,3,7
4,3,5,4
4,4,1,7
4,4,2,8
4,4,4,1
4,4,6,3
4,4,7,5
4,5,3,9
4,5,5,5
4,6,4,5
4,7,1,1
4,7,3,3
4,7,4,4
4,7,5,6
4,7,7,9
4,8,1,8
4,8,2,4
4,8,3,1
4,8,5,9
4,8,6,5
4,8,7,7
5,1,0,9
5,1,8,3
5,4,0,1
5,4,2,9
5,4,6,6
5,4,8,2
5,7,0,2
5,7,8,6
6,0,4,3
6,1,2,2
6,1,3,8
6,1,5,9
6,1,6,4
6,2,0,8
6,2,1,4
6,2,3,2
6,2,4,6
6,2,5,1
6,2,7,3
6,2,8,5
6,4,1,1
6,4,7,9
6,6,0,2
6,6,1,7
6,6,3,6
6,6,4,8
6,6,5,5
6,6,7,4
6,6,8,9
6,7,2,4
6,7,3,1
6,7,5,7
6,7,6,5
6,8,4,9
7,0,2,6
7,0,3,5
7,0,5,8
7,0,6,7
7,1,3,6
7,1,5,2
7,2,2,5
7,2,6,2
7,3,0,1
7,3,3,4
7,3,5,3
7,3,8,2
7,5,0,6
7,5,3,1
7,5,5,9
7,5,8,3
7,6,2,9
7,6,6,6
7,7,3,9
7,7,5,4
7,8,2,2
7,8,3,8
7,8,5,6
7,8,6,4
8,0,2,4
8,0,6,5
8,1,3,4
8,1,5,3
8,2,4,8
8,3,0,9
8,3,4,5
8,3,8,1
8,4,4,9
8,5,0,5
8,5,4,3
8,5,8,9
8,6,4,4
8,7,3,5
8,7,5,8
8,8,2,8
8,8,6,3
