0,0,3,6
0,0,4,1
0,0,5,8
0,1,1,2
0,1,7,3
0,2,1,6
0,2,7,8
0,3,0,2
0,3,8,5
0,5,0,7
0,5,8,4
0,6,1,3
0,6,7,5
0,7,1,8
0,7,7,1
0,8,3,3
0,8,4,7
0,8,5,5
1,0,0,1
1,0,8,8
1,1,0,4
1,1,8,9
1,3,1,7
1,3,7,8
1,4,4,1
1,5,1,6
1,5,7,3
1,7,0,6
1,7,8,5
1,8,0,7
1,8,8,1
2,2,3,1
2,2,5,6
2,3,1,8
2,3,7,1
2,5,1,3
2,5,7,5
2,6,3,6
2,6,5,9
3,2,4,1
3,3,3,7
3,3,5,5
3,5,3,6
3,5,5,4
3,6,4,6
4,0,0,8
4,0,8,4
4,1,0,9
4,1,8,5
4,3,1,9
4,3,7,7
4,4,4,4
4,5,1,8
4,5,7,6
4,7,0,1
4,7,8,7
4,8,0,4
4,8,8,2
5,2,4,9
5,3,3,4
5,3,5,8
5,5,3,1
5,5,5,3
5,6,4,5
6,2,3,5
6,2,5,2
6,3,1,3
6,3,7,5
6,5,1,9
6,5,7,4
6,6,3,2
6,6,5,8
7,0,0,9
7,0,8,7
7,1,0,3
7,1,8,2
7,3,1,1
7,3,7,2
7,4,4,8
7,5,1,5
7,5,7,7
7,7,0,4
7,7,8,9
7,8,0,5
7,8,8,3
8,0,3,9
8,0,4,7
8,0,5,4
8,1,1,9
8,1,7,4
8,2,1,3
8,2,7,5
8,3,0,8
8,3,8,7
8,5,0,3
8,5,8,6
8,6,1,5
8,6,7,2
8,7,1,1
8,7,7,6
8,8,3,1
8,8,4,8
8,8,5,2
