0,0,2,2
0,0,6,9
0,2,1,3
0,2,7,6
0,4,4,5
0,6,1,7
0,6,7,9
0,8,2,8
0,8,6,3
1,3,3,3
1,3,5,7
1,4,3,1
1,4,5,6
1,5,3,8
1,5,5,5
2,0,1,4
2,0,3,9
2,0,5,1
2,0,7,3
2,1,0,3
2,1,1,9
2,1,4,7
2,1,7,1
2,1,8,4
2,2,1,2
2,2,7,8
2,3,2,3
2,3,6,1
2,5,2,8
2,5,6,3
2,6,1,1
2,6,7,7
2,7,0,5
2,7,1,8
2,7,4,2
2,7,7,6
2,7,8,3
2,8,1,3
2,8,3,8
2,8,5,6
2,8,7,5
3,1,1,4
3,1,7,5
3,2,0,6
3,2,8,3
3,3,3,6
3,3,5,5
3,4,1,1
3,4,7,6
3,5,3,7
3,5,5,8
3,6,0,9
3,6,8,1
3,7,1,7
3,7,7,3
4,0,1,3
4,0,4,2
4,0,7,6
4,1,2,6
4,1,3,7
4,1,5,1
4,1,6,9
4,2,1,9
4,2,7,7
4,3,1,7
4,3,2,4
4,3,6,6
4,3,7,8
4,4,0,5
4,4,8,9
4,5,1,8
4,5,2,2
4,5,6,7
4,5,7,4
4,6,1,4
4,6,7,5
4,7,2,5
4,7,3,3
4,7,5,4
4,7,6,2
4,8,1,2
4,8,4,6
4,8,7,1
5,1,1,1
5,1,7,4
5,2,0,3
5,2,8,5
5,3,3,8
5,3,5,4
5,4,1,2
5,4,7,3
5,5,3,9
5,5,5,2
5,6,0,1
5,6,8,2
5,7,1,9
5,7,7,7
6,0,1,7
6,0,3,6
6,0,5,4
6,0,7,9
6,1,0,4
6,1,1,6
6,1,4,1
6,1,7,2
6,1,8,7
6,2,1,5
6,2,7,4
6,3,2,2
6,3,6,9
6,5,2,9
6,5,6,4
6,6,1,2
6,6,7,1
6,7,0,1
6,7,1,4
6,7,4,5
6,7,7,8
6,7,8,2
6,8,1,9
6,8,3,2
6,8,5,1
6,8,7,3
7,3,3,9
7,3,5,8
7,4,3,2
7,4,5,3
7,5,3,4
7,5,5,1
8,0,2,5
8,0,6,6
8,2,1,4
8,2,7,3
8,4,4,1
8,6,1,8
8,6,7,6
8,8,2,4
8,8,6,2
