0,0,0,4
0,0,2,2
0,0,6,8
0,0,8,9
0,1,1,8
0,1,7,7
0,2,1,3
0,2,3,6
0,2,5,8
0,2,7,2
0,3,2,3
0,3,6,5
0,4,1,5
0,4,7,8
0,5,2,8
0,5,6,9
0,6,1,7
0,6,3,9
0,6,5,6
0,6,7,4
0,7,1,2
0,7,7,9
0,8,0,1
0,8,2,9
0,8,6,7
0,8,8,8
1,1,2,1
1,1,6,9
1,3,2,4
1,3,6,6
1,4,3,4
1,4,5,2
1,5,2,5
1,5,6,2
1,7,2,7
1,7,6,3
2,2,0,1
2,2,8,8
2,6,0,2
2,6,8,6
3,0,2,4
3,0,6,5
3,3,1,7
3,3,7,3
3,5,1,6
3,5,7,5
3,8,2,7
3,8,6,3
4,0,0,5
4,0,2,7
4,0,4,9
4,0,6,1
4,0,8,8
4,2,1,4
4,2,7,7
4,3,3,2
4,3,5,5
4,4,0,6
4,4,8,7
4,5,3,4
4,5,5,9
4,6,1,6
4,6,7,5
4,8,0,3
4,8,2,1
4,8,4,2
4,8,6,6
4,8,8,4
5,0,2,8
5,0,6,6
5,3,1,4
5,3,7,7
5,5,1,8
5,5,7,6
5,8,2,4
5,8,6,5
6,2,0,7
6,2,8,2
6,6,0,5
6,6,8,4
7,1,2,7
7,1,6,1
7,3,2,1
7,3,6,4
7,4,3,1
7,4,5,5
7,5,2,3
7,5,6,5
7,7,2,9
7,7,6,7
8,0,0,3
8,0,2,5
8,0,6,2
8,0,8,1
8,1,1,2
8,1,7,9
8,2,1,6
8,2,3,4
8,2,5,2
8,2,7,5
8,3,2,2
8,3,6,3
8,4,1,3
8,4,7,7
8,5,2,7
8,5,6,8
8,6,1,9
8,6,3,3
8,6,5,4
8,6,7,8
8,7,1,5
8,7,7,3
8,8,0,2
8,8,2,3
8,8,6,9
8,8,8,6
