0,0,1,3
0,0,7,9
0,1,4,8
0,2,1,7
0,2,4,9
0,2,7,1
0,3,1,1
0,3,2,3
0,3,6,9
0,3,7,4
0,4,1,4
0,4,7,6
0,5,1,6
0,5,2,7
0,5,6,3
0,5,7,8
0,6,1,8
0,6,4,2
0,6,7,5
0,7,4,1
0,8,1,2
0,8,7,3
1,0,1,6
1,0,7,8
1,1,3,2
1,1,5,7
1,2,1,5
1,2,7,6
1,3,1,2
1,3,7,3
1,4,1,8
1,4,7,9
1,5,1,9
1,5,7,2
1,6,1,7
1,6,7,1
1,7,3,6
1,7,5,2
1,8,1,4
1,8,7,7
2,1,1,2
2,1,7,3
2,2,1,8
2,2,3,7
2,2,5,6
2,2,7,4
2,3,1,5
2,3,7,7
2,5,1,3
2,5,7,5
2,6,1,9
2,6,3,1
2,6,5,8
2,6,7,6
2,7,1,6
2,7,7,8
3,2,1,6
3,2,7,8
3,6,1,3
3,6,7,4
4,0,0,7
4,0,4,4
4,0,8,8
4,1,2,1
4,1,6,9
4,2,1,4
4,2,7,2
4,3,2,2
4,3,3,4
4,3,5,9
4,3,6,8
4,4,0,1
4,4,8,9
4,5,2,9
4,5,3,3
4,5,5,1
4,5,6,6
4,6,1,6
4,6,7,8
4,7,2,3
4,7,6,5
4,8,0,5
4,8,4,3
4,8,8,7
5,2,1,3
5,2,7,9
5,6,1,5
5,6,7,2
6,1,1,3
6,1,7,9
6,2,1,9
6,2,3,3
6,2,5,1
6,2,7,7
6,3,1,6
6,3,7,8
6,5,1,4
6,5,7,6
6,6,1,2
6,6,3,4
6,6,5,9
6,6,7,3
6,7,1,8
6,7,7,5
7,0,1,8
7,0,7,4
7,1,3,8
7,1,5,3
7,2,1,2
7,2,7,3
7,3,1,3
7,3,7,5
7,4,1,5
7,4,7,7
7,5,1,7
7,5,7,1
7,6,1,1
7,6,7,9
7,7,3,1
7,7,5,8
7,8,1,6
7,8,7,8
8,0,1,5
8,0,7,6
8,1,4,5
8,2,1,1
8,2,4,6
8,2,7,5
8,3,1,9
8,3,2,4
8,3,6,7
8,3,7,2
8,4,1,2
8,4,7,3
8,5,1,8
8,5,2,1
8,5,6,5
8,5,7,9
8,6,1,4
8,6,4,8
8,6,7,7
8,7,4,4
8,8,1,3
8,8,7,4
