0,0,2,2
0,0,6,7
0,1,3,1
0,1,5,5
0,2,3,8
0,2,5,4
0,4,0,8
0,4,8,6
0,6,3,5
0,6,5,6
0,7,3,4
0,7,5,2
0,8,2,8
0,8,6,1
1,0,1,9
1,0,3,4
1,0,5,7
1,0,7,2
1,2,3,5
1,2,5,2
1,3,3,1
1,3,5,5
1,5,3,3
1,5,5,9
1,6,3,7
1,6,5,3
1,8,1,7
1,8,3,2
1,8,5,8
1,8,7,3
2,0,1,7
2,0,7,8
2,1,0,1
2,1,2,9
2,1,6,5
2,1,8,2
2,3,1,5
2,3,7,6
2,4,1,4
2,4,7,2
2,5,1,9
2,5,7,7
2,7,0,5
2,7,2,6
2,7,6,2
2,7,8,1
2,8,1,3
2,8,7,9
3,0,1,6
3,0,7,9
3,1,2,3
3,1,4,1
3,1,6,8
3,3,3,5
3,3,5,3
3,4,0,3
3,4,2,7
3,4,6,6
3,4,8,5
3,5,3,9
3,5,5,8
3,7,2,9
3,7,4,4
3,7,6,5
3,8,1,1
3,8,7,7
4,2,2,2
4,2,3,4
4,2,5,1
4,2,6,7
4,3,0,6
4,3,8,3
4,5,0,7
4,5,8,8
4,6,2,1
4,6,3,6
4,6,5,9
4,6,6,3
5,0,1,3
5,0,7,7
5,1,2,5
5,1,4,9
5,1,6,4
5,3,3,2
5,3,5,4
5,4,0,5
5,4,2,1
5,4,6,3
5,4,8,2
5,5,3,6
5,5,5,5
5,7,2,2
5,7,4,6
5,7,6,7
5,8,1,4
5,8,7,1
6,0,1,2
6,0,7,1
6,1,0,3
6,1,2,4
6,1,6,9
6,1,8,6
6,3,1,9
6,3,7,7
6,4,1,5
6,4,7,6
6,5,1,4
6,5,7,2
6,7,0,9
6,7,2,7
6,7,6,6
6,7,8,3
6,8,1,8
6,8,7,4
7,0,1,1
7,0,3,8
7,0,5,4
7,0,7,5
7,2,3,1
7,2,5,5
7,3,3,7
7,3,5,1
7,5,3,2
7,5,5,3
7,6,3,9
7,6,5,7
7,8,1,9
7,8,3,4
7,8,5,2
7,8,7,6
8,0,2,3
8,0,6,8
8,1,3,4
8,1,5,7
8,2,3,9
8,2,5,6
8,4,0,4
8,4,8,8
8,6,3,2
8,6,5,8
8,7,3,7
8,7,5,3
8,8,2,4
8,8,6,9
