0,0,4,3
0,1,0,3
0,1,8,1
0,3,0,4
0,3,8,9
0,4,3,8
0,4,5,6
0,5,0,5
0,5,8,4
0,7,0,6
0,7,8,7
0,8,4,7
1,0,0,4
1,0,3,8
1,0,5,7
1,0,8,9
1,2,1,6
1,2,7,8
1,4,3,9
1,4,5,1
1,6,1,5
1,6,7,7
1,8,0,1
1,8,3,6
1,8,5,4
1,8,8,8
2,1,1,1
2,1,7,4
2,2,3,5
2,2,5,8
2,4,2,2
2,4,4,3
2,4,6,9
2,6,3,1
2,6,5,7
2,7,1,7
2,7,7,8
3,1,0,2
3,1,8,3
3,2,0,1
3,2,8,9
3,3,1,7
3,3,7,1
3,5,1,5
3,5,7,7
3,6,0,8
3,6,8,5
3,7,0,5
3,7,8,6
4,0,0,3
4,0,8,5
4,1,1,9
4,1,7,2
4,2,2,6
4,2,6,3
4,4,4,9
4,6,2,2
4,6,6,1
4,7,1,8
4,7,7,9
4,8,0,4
4,8,8,2
5,1,0,8
5,1,8,4
5,2,0,4
5,2,8,2
5,3,1,8
5,3,7,4
5,5,1,2
5,5,7,8
5,6,0,9
5,6,8,7
5,7,0,2
5,7,8,8
6,1,1,5
6,1,7,7
6,2,3,7
6,2,5,5
6,4,2,1
6,4,4,5
6,4,6,6
6,6,3,5
6,6,5,1
6,7,1,1
6,7,7,5
7,0,0,5
7,0,3,3
7,0,5,2
7,0,8,4
7,2,1,7
7,2,7,3
7,4,3,4
7,4,5,8
7,6,1,9
7,6,7,2
7,8,0,8
7,8,3,7
7,8,5,5
7,8,8,3
8,0,4,7
8,1,0,7
8,1,8,2
8,3,0,3
8,3,8,1
8,4,3,2
8,4,5,9
8,5,0,1
8,5,8,8
8,7,0,4
8,7,8,9
8,8,4,4
