0,2,4,8
0,4,0,2
0,4,3,4
0,4,5,8
0,4,8,6
0,6,4,4
1,0,1,9
1,0,7,4
1,2,1,4
1,2,7,8
1,3,0,1
1,3,1,7
1,3,7,6
1,3,8,3
1,5,0,8
1,5,1,6
1,5,7,2
1,5,8,4
1,6,1,3
1,6,7,1
1,8,1,1
1,8,7,5
2,1,0,4
2,1,2,5
2,1,6,8
2,1,8,9
2,2,4,1
2,3,0,5
2,3,3,6
2,3,5,2
2,3,8,1
2,5,0,7
2,5,3,8
2,5,5,9
2,5,8,5
2,6,4,3
2,7,0,1
2,7,2,2
2,7,6,5
2,7,8,3
3,1,4,5
3,2,3,3
3,2,5,6
3,3,1,6
3,3,7,9
3,5,1,1
3,5,7,5
3,6,3,9
3,6,5,3
3,7,4,4
4,0,4,1
4,3,1,2
4,3,7,1
4,4,0,1
4,4,8,2
4,5,1,7
4,5,7,4
4,8,4,3
5,1,4,7
5,2,3,1
5,2,5,5
5,3,1,9
5,3,7,2
5,5,1,5
5,5,7,7
5,6,3,2
5,6,5,1
5,7,4,9
6,1,0,1
6,1,2,2
6,1,6,5
6,1,8,7
6,2,4,6
6,3,0,2
6,3,3,4
6,3,5,8
6,3,8,6
6,5,0,3
6,5,3,5
6,5,5,7
6,5,8,2
6,6,4,9
6,7,0,6
6,7,2,8
6,7,6,2
6,7,8,9
7,0,1,7
7,0,7,1
7,2,1,1
7,2,7,5
7,3,0,6
7,3,1,3
7,3,7,4
7,3,8,9
7,5,0,5
7,5,1,4
7,5,7,8
7,5,8,1
7,6,1,9
7,6,7,6
7,8,1,6
7,8,7,2
8,2,4,5
8,4,0,8
8,4,3,1
8,4,5,5
8,4,8,4
8,6,4,1
