0,0,1,5
0,0,2,2
0,0,6,9
0,0,7,8
0,1,0,9
0,1,4,5
0,1,8,7
0,3,1,6
0,3,7,4
0,4,1,4
0,4,4,6
0,4,7,9
0,5,1,9
0,5,7,6
0,7,0,1
0,7,4,2
0,7,8,4
0,8,1,7
0,8,2,4
0,8,6,8
0,8,7,2
1,0,4,9
1,2,0,3
1,2,8,1
1,3,4,3
1,5,4,2
1,6,0,4
1,6,8,2
1,8,4,8
2,0,4,2
2,1,0,1
2,1,8,4
2,2,1,2
2,2,4,7
2,2,7,3
2,6,1,6
2,6,4,9
2,6,7,4
2,7,0,7
2,7,8,8
2,8,4,4
3,0,0,6
3,0,4,4
3,0,8,2
3,2,0,2
3,2,1,8
3,2,7,1
3,2,8,4
3,3,1,1
3,3,7,6
3,5,1,2
3,5,7,3
3,6,0,5
3,6,1,7
3,6,7,2
3,6,8,1
3,8,0,1
3,8,4,5
3,8,8,3
4,1,4,9
4,3,3,9
4,3,5,6
4,4,1,6
4,4,7,8
4,5,3,8
4,5,5,3
4,7,4,7
5,0,0,5
5,0,4,7
5,0,8,1
5,2,0,1
5,2,1,4
5,2,7,9
5,2,8,7
5,3,1,9
5,3,7,5
5,5,1,8
5,5,7,1
5,6,0,2
5,6,1,1
5,6,7,6
5,6,8,9
5,8,0,9
5,8,4,2
5,8,8,8
6,0,4,6
6,1,0,3
6,1,8,1
6,2,1,6
6,2,4,9
6,2,7,4
6,6,1,8
6,6,4,5
6,6,7,1
6,7,0,6
6,7,8,7
6,8,4,1
7,0,4,5
7,2,0,4
7,2,8,3
7,3,4,6
7,5,4,9
7,6,0,1
7,6,8,4
7,8,4,7
8,0,1,7
8,0,2,6
8,0,6,5
8,0,7,2
8,1,0,5
8,1,4,7
8,1,8,9
8,3,1,8
8,3,7,1
8,4,1,1
8,4,4,8
8,4,7,5
8,5,1,5
8,5,7,8
8,7,0,2
8,7,4,4
8,7,8,1
8,8,1,6
8,8,2,1
8,8,6,7
8,8,7,4
