0,0,3,6
0,0,5,9
0,1,3,2
0,1,5,3
0,2,0,2
0,2,2,3
0,2,6,6
0,2,8,9
0,3,3,3
0,3,5,5
0,5,3,9
0,5,5,1
0,6,0,5
0,6,2,7
0,6,6,1
0,6,8,2
0,7,3,1
0,7,5,2
0,8,3,5
0,8,5,7
1,1,3,8
1,1,5,7
1,2,3,1
1,2,5,6
1,4,3,7
1,4,4,1
1,4,5,9
1,6,3,9
1,6,5,1
1,7,3,3
1,7,5,5
2,2,1,6
2,2,7,7
2,3,4,9
2,5,4,4
2,6,1,1
2,6,7,8
3,0,4,6
3,2,0,1
3,2,2,4
3,2,6,9
3,2,8,3
3,6,0,7
3,6,2,1
3,6,6,2
3,6,8,9
3,8,4,4
4,0,4,5
4,1,1,5
4,1,2,7
4,1,6,4
4,1,7,1
4,3,4,3
4,4,0,7
4,4,3,6
4,4,5,1
4,4,8,5
4,5,4,8
4,7,1,7
4,7,2,4
4,7,6,9
4,7,7,2
4,8,4,2
5,0,4,4
5,2,0,7
5,2,2,5
5,2,6,2
5,2,8,1
5,6,0,8
5,6,2,6
5,6,6,4
5,6,8,7
5,8,4,5
6,2,1,3
6,2,7,9
6,3,4,5
6,5,4,1
6,6,1,7
6,6,7,2
7,1,3,6
7,1,5,9
7,2,3,2
7,2,5,3
7,4,3,3
7,4,4,6
7,4,5,5
7,6,3,5
7,6,5,7
7,7,3,8
7,7,5,6
8,0,3,3
8,0,5,5
8,1,3,4
8,1,5,8
8,2,0,4
8,2,2,8
8,2,6,3
8,2,8,5
8,3,3,8
8,3,5,2
8,5,3,5
8,5,5,6
8,6,0,6
8,6,2,4
8,6,6,7
8,6,8,3
8,7,3,7
8,7,5,3
8,8,3,6
8,8,5,4
