0,0,2,2
0,0,4,7
0,0,6,6
0,1,4,2
0,2,3,9
0,2,5,1
0,3,0,4
0,3,8,6
0,5,0,5
0,5,8,2
0,6,3,8
0,6,5,7
0,7,4,9
0,8,2,9
0,8,4,5
0,8,6,4
1,1,0,2
1,1,8,8
1,2,2,5
1,2,6,9
1,3,1,5
1,3,7,1
1,5,1,9
1,5,7,8
1,6,2,1
1,6,6,8
1,7,0,5
1,7,8,6
2,0,2,3
2,0,6,1
2,1,2,8
2,1,6,3
2,2,1,2
2,2,7,4
2,6,1,4
2,6,7,3
2,7,2,7
2,7,6,2
2,8,2,2
2,8,6,6
3,1,0,6
3,1,1,3
3,1,7,7
3,1,8,5
3,7,0,3
3,7,1,1
3,7,7,5
3,7,8,8
4,1,1,2
4,1,7,4
4,2,4,9
4,3,0,9
4,3,8,1
4,4,2,6
4,4,4,2
4,4,6,7
4,5,0,3
4,5,8,8
4,6,4,8
4,7,1,5
4,7,7,2
5,1,0,9
5,1,1,4
5,1,7,3
5,1,8,1
5,7,0,4
5,7,1,6
5,7,7,1
5,7,8,7
6,0,2,1
6,0,6,8
6,1,2,3
6,1,6,1
6,2,1,7
6,2,7,5
6,6,1,5
6,6,7,1
6,7,2,6
6,7,6,7
6,8,2,7
6,8,6,2
7,1,0,1
7,1,8,4
7,2,2,6
7,2,6,7
7,3,1,7
7,3,7,9
7,5,1,6
7,5,7,4
7,6,2,9
7,6,6,4
7,7,0,2
7,7,8,1
8,0,2,5
8,0,4,4
8,0,6,9
8,1,4,9
8,2,3,3
8,2,5,7
8,3,0,1
8,3,8,4
8,5,0,8
8,5,8,5
8,6,3,2
8,6,5,9
8,7,4,3
8,8,2,3
8,8,4,8
8,8,6,1
