0,1,0,4
0,1,4,2
0,1,8,8
0,2,4,7
0,4,0,3
0,4,1,4
0,4,2,5
0,4,6,8
0,4,7,7
0,4,8,1
0,6,4,4
0,7,0,5
0,7,4,9
0,7,8,7
1,0,0,2
1,0,1,8
1,0,7,9
1,0,8,7
1,3,1,2
1,3,2,8
1,3,6,7
1,3,7,5
1,4,2,1
1,4,6,3
1,5,1,3
1,5,2,7
1,5,6,1
1,5,7,8
1,8,0,7
1,8,1,5
1,8,7,1
1,8,8,8
2,0,3,2
2,0,5,7
2,1,4,1
2,4,0,8
2,4,8,5
2,7,4,3
2,8,3,6
2,8,5,8
3,0,1,5
3,0,2,3
3,0,6,7
3,0,7,2
3,1,0,8
3,1,3,9
3,1,5,5
3,1,8,1
3,2,0,1
3,2,1,9
3,2,7,8
3,2,8,6
3,6,0,5
3,6,1,3
3,6,7,9
3,6,8,4
3,7,0,4
3,7,3,7
3,7,5,9
3,7,8,3
3,8,1,6
3,8,2,1
3,8,6,8
3,8,7,7
4,0,2,9
4,0,6,6
4,1,2,1
4,1,3,8
4,1,5,2
4,1,6,9
4,2,0,5
4,2,1,8
4,2,2,7
4,2,4,9
4,2,6,2
4,2,7,3
4,2,8,4
4,3,0,9
4,3,8,1
4,4,2,4
4,4,6,5
4,5,0,6
4,5,8,3
4,6,0,2
4,6,1,9
4,6,2,6
4,6,4,3
4,6,6,1
4,6,7,8
4,6,8,7
4,7,2,3
4,7,3,6
4,7,5,8
4,7,6,4
4,8,2,5
4,8,6,3
5,0,1,1
5,0,2,8
5,0,6,4
5,0,7,5
5,1,0,9
5,1,3,3
5,1,5,1
5,1,8,2
5,2,0,2
5,2,1,3
5,2,7,9
5,2,8,7
5,6,0,1
5,6,1,8
5,6,7,3
5,6,8,6
5,7,0,6
5,7,3,4
5,7,5,3
5,7,8,8
5,8,1,7
5,8,2,2
5,8,6,9
5,8,7,4
6,0,3,8
6,0,5,5
6,1,4,9
6,4,0,7
6,4,8,8
6,7,4,4
6,8,3,1
6,8,5,6
7,0,0,8
7,0,1,7
7,0,7,6
7,0,8,5
7,3,1,8
7,3,2,7
7,3,6,5
7,3,7,9
7,4,2,9
7,4,6,7
7,5,1,6
7,5,2,5
7,5,6,8
7,5,7,4
7,8,0,5
7,8,1,3
7,8,7,8
7,8,8,4
8,1,0,2
8,1,4,3
8,1,8,4
8,2,4,5
8,4,0,6
8,4,1,2
8,4,2,8
8,4,6,4
8,4,7,5
8,4,8,9
8,6,4,2
8,7,0,8
8,7,4,7
8,7,8,5
