0,0,4,3
0,1,0,6
0,1,3,8
0,1,5,2
0,1,8,3
0,3,3,3
0,3,4,4
0,3,5,6
0,4,0,1
0,4,4,2
0,4,8,7
0,5,3,5
0,5,4,1
0,5,5,7
0,7,0,4
0,7,3,2
0,7,5,9
0,7,8,5
0,8,4,7
1,0,3,9
1,0,5,8
1,3,4,8
1,4,2,9
1,4,6,4
1,5,4,6
1,8,3,6
1,8,5,4
2,0,0,2
2,0,8,8
2,1,4,6
2,2,1,6
2,2,7,7
2,3,2,2
2,3,3,7
2,3,5,1
2,3,6,6
2,5,2,4
2,5,3,8
2,5,5,2
2,5,6,7
2,6,1,2
2,6,7,4
2,7,4,4
2,8,0,1
2,8,8,7
3,0,1,7
3,0,3,2
3,0,5,6
3,0,7,8
3,3,0,7
3,3,3,5
3,3,5,2
3,3,8,3
3,4,1,8
3,4,7,2
3,5,0,2
3,5,3,1
3,5,5,8
3,5,8,4
3,8,1,6
3,8,3,3
3,8,5,1
3,8,7,4
4,0,0,3
4,0,8,5
4,1,3,1
4,1,5,8
4,2,0,7
4,2,8,3
4,6,0,1
4,6,8,2
4,7,3,8
4,7,5,3
4,8,0,9
4,8,8,1
5,0,1,6
5,0,3,3
5,0,5,1
5,0,7,4
5,3,0,6
5,3,3,8
5,3,5,3
5,3,8,7
5,4,1,7
5,4,7,8
5,5,0,1
5,5,3,7
5,5,5,9
5,5,8,2
5,8,1,8
5,8,3,4
5,8,5,7
5,8,7,2
6,0,0,6
6,0,8,3
6,1,4,5
6,2,1,5
6,2,7,4
6,3,2,6
6,3,3,4
6,3,5,8
6,3,6,5
6,5,2,9
6,5,3,3
6,5,5,6
6,5,6,4
6,6,1,6
6,6,7,9
6,7,4,9
6,8,0,8
6,8,8,4
7,0,3,7
7,0,5,3
7,3,4,3
7,4,2,7
7,4,6,9
7,5,4,5
7,8,3,5
7,8,5,9
8,0,4,1
8,1,0,5
8,1,3,3
8,1,5,6
8,1,8,1
8,3,3,1
8,3,4,9
8,3,5,5
8,4,0,8
8,4,4,6
8,4,8,4
8,5,3,2
8,5,4,8
8,5,5,4
8,7,0,9
8,7,3,6
8,7,5,7
8,7,8,2
8,8,4,4
