0,0,0,6
0,0,8,1
0,1,2,4
0,1,3,6
0,1,5,1
0,1,6,8
0,4,3,4
0,4,4,8
0,4,5,9
0,7,2,8
0,7,3,7
0,7,5,2
0,7,6,9
0,8,0,7
0,8,8,2
1,0,0,9
1,0,1,4
1,0,7,3
1,0,8,8
1,3,0,6
1,3,1,7
1,3,2,3
1,3,3,8
1,3,5,4
1,3,6,2
1,3,7,5
1,3,8,1
1,5,0,8
1,5,1,5
1,5,2,1
1,5,3,2
1,5,5,3
1,5,6,6
1,5,7,9
1,5,8,4
1,8,0,4
1,8,1,2
1,8,7,8
1,8,8,7
2,0,0,1
2,0,8,9
2,2,3,1
2,2,5,5
2,4,3,7
2,4,5,2
2,6,3,8
2,6,5,4
2,8,0,8
2,8,8,4
3,0,2,6
3,0,4,7
3,0,6,3
3,4,1,7
3,4,7,5
3,8,2,8
3,8,4,5
3,8,6,9
4,0,2,9
4,0,4,6
4,0,6,5
4,3,4,7
4,4,0,1
4,4,3,5
4,4,5,4
4,4,8,9
4,5,4,3
4,8,2,4
4,8,4,8
4,8,6,1
5,0,2,1
5,0,4,4
5,0,6,6
5,4,1,4
5,4,7,3
5,8,2,7
5,8,4,3
5,8,6,8
6,0,0,3
6,0,8,5
6,2,3,3
6,2,5,7
6,4,3,9
6,4,5,8
6,6,3,6
6,6,5,1
6,8,0,6
6,8,8,1
7,0,0,2
7,0,1,9
7,0,7,7
7,0,8,3
7,3,0,3
7,3,1,6
7,3,2,7
7,3,3,4
7,3,5,9
7,3,6,1
7,3,7,2
7,3,8,5
7,5,0,1
7,5,1,8
7,5,2,5
7,5,3,3
7,5,5,7
7,5,6,4
7,5,7,6
7,5,8,9
7,8,0,9
7,8,1,4
7,8,7,3
7,8,8,8
8,0,0,5
8,0,8,6
8,1,2,6
8,1,3,9
8,1,5,8
8,1,6,5
8,4,3,2
8,4,4,7
8,4,5,3
8,7,2,9
8,7,3,1
8,7,5,5
8,7,6,3
8,8,0,1
8,8,8,9
