0,1,1,2
0,1,3,1
0,1,5,5
0,1,7,7
0,2,2,5
0,2,4,7
0,2,6,3
0,4,1,5
0,4,7,8
0,6,2,2
0,6,4,9
0,6,6,8
0,7,1,9
0,7,3,8
0,7,5,7
0,7,7,1
1,0,4,9
1,1,0,4
1,1,3,8
1,1,5,2
1,1,8,6
1,2,2,2
1,2,3,5
1,2,5,6
1,2,6,4
1,3,0,9
1,3,3,3
1,3,4,6
1,3,5,8
1,3,8,5
1,4,3,1
1,4,5,5
1,5,0,1
1,5,3,9
1,5,4,2
1,5,5,4
1,5,8,8
1,6,2,3
1,6,3,2
1,6,5,1
1,6,6,6
1,7,0,2
1,7,3,6
1,7,5,9
1,7,8,3
1,8,4,8
2,0,4,5
2,1,1,5
2,1,7,8
2,2,0,7
2,2,2,9
2,2,4,8
2,2,6,6
2,2,8,1
2,4,0,4
2,4,8,7
2,6,0,9
2,6,2,4
2,6,4,7
2,6,6,1
2,6,8,5
2,7,1,7
2,7,7,6
2,8,4,6
3,3,1,4
3,3,2,5
3,3,6,7
3,3,7,9
3,5,1,6
3,5,2,1
3,5,6,5
3,5,7,2
4,1,0,9
4,1,2,6
4,1,6,1
4,1,8,2
4,2,0,3
4,2,8,4
4,6,0,1
4,6,8,6
4,7,0,5
4,7,2,4
4,7,6,8
4,7,8,9
5,3,1,3
5,3,2,6
5,3,6,4
5,3,7,5
5,5,1,9
5,5,2,8
5,5,6,6
5,5,7,1
6,0,4,3
6,1,1,3
6,1,7,9
6,2,0,5
6,2,2,6
6,2,4,9
6,2,6,8
6,2,8,2
6,4,0,1
6,4,8,8
6,6,0,2
6,6,2,1
6,6,4,4
6,6,6,7
6,6,8,3
6,7,1,4
6,7,7,5
6,8,4,5
7,0,4,6
7,1,0,1
7,1,3,9
7,1,5,4
7,1,8,8
7,2,2,4
7,2,3,3
7,2,5,8
7,2,6,1
7,3,0,7
7,3,3,2
7,3,4,4
7,3,5,9
7,3,8,3
7,4,3,6
7,4,5,3
7,5,0,6
7,5,3,7
7,5,4,5
7,5,5,1
7,5,8,9
7,6,2,6
7,6,3,8
7,6,5,7
7,6,6,5
7,7,0,8
7,7,3,5
7,7,5,2
7,7,8,6
7,8,4,9
8,1,1,4
8,1,3,2
8,1,5,3
8,1,7,5
8,2,2,3
8,2,4,5
8,2,6,7
8,4,1,3
8,4,7,9
8,6,2,8
8,6,4,2
8,6,6,9
8,7,1,2
8,7,3,9
8,7,5,4
8,7,7,7
