0,0,0,7
0,0,8,2
0,3,2,1
0,3,6,6
0,4,3,3
0,4,5,2
0,5,2,3
0,5,6,2
0,8,0,1
0,8,8,3
1,0,2,2
1,0,6,5
1,4,2,9
1,4,6,8
1,8,2,8
1,8,6,7
2,0,0,9
2,0,2,8
2,0,6,7
2,0,8,4
2,1,2,3
2,1,6,2
2,2,4,9
2,4,0,1
2,4,2,2
2,4,3,7
2,4,5,4
2,4,6,9
2,4,8,3
2,6,4,7
2,7,2,5
2,7,6,1
2,8,0,7
2,8,2,4
2,8,6,8
2,8,8,2
3,1,4,2
3,3,0,1
3,3,3,5
3,3,5,2
3,3,8,3
3,4,1,4
3,4,4,7
3,4,7,8
3,5,0,5
3,5,3,6
3,5,5,3
3,5,8,9
3,7,4,6
4,0,2,6
4,0,6,3
4,2,0,7
4,2,8,2
4,3,0,4
4,3,4,9
4,3,8,5
4,4,3,4
4,4,5,6
4,5,0,6
4,5,4,2
4,5,8,7
4,6,0,9
4,6,8,4
4,8,2,3
4,8,6,9
5,1,4,9
5,3,0,7
5,3,3,3
5,3,5,4
5,3,8,2
5,4,1,1
5,4,4,5
5,4,7,7
5,5,0,3
5,5,3,9
5,5,5,7
5,5,8,8
5,7,4,4
6,0,0,6
6,0,2,9
6,0,6,1
6,0,8,7
6,1,2,5
6,1,6,8
6,2,4,7
6,4,0,5
6,4,2,1
6,4,3,8
6,4,5,7
6,4,6,6
6,4,8,9
6,6,4,8
6,7,2,6
6,7,6,9
6,8,0,3
6,8,2,7
6,8,6,5
6,8,8,8
7,0,2,7
7,0,6,9
7,4,2,4
7,4,6,1
7,8,2,1
7,8,6,6
8,0,0,4
8,0,8,5
8,3,2,6
8,3,6,5
8,4,3,6
8,4,5,5
8,5,2,2
8,5,6,9
8,8,0,6
8,8,8,7
