0,0,0,2
0,0,8,8
0,1,1,9
0,1,7,5
0,3,0,5
0,3,8,2
0,4,1,3
0,4,2,6
0,4,6,9
0,4,7,1
0,5,0,9
0,5,8,6
0,7,1,2
0,7,7,6
0,8,0,8
0,8,8,9
1,1,3,3
1,1,5,5
1,3,4,4
1,5,4,5
1,7,3,4
1,7,5,2
2,0,3,4
2,0,5,6
2,1,0,5
2,1,8,7
2,3,0,3
2,3,2,4
2,3,6,1
2,3,8,9
2,4,3,3
2,4,5,4
2,5,0,8
2,5,2,5
2,5,6,3
2,5,8,4
2,7,0,7
2,7,8,3
2,8,3,2
2,8,5,8
3,0,0,4
3,0,8,1
3,1,1,6
3,1,7,7
3,2,3,9
3,2,5,1
3,6,3,1
3,6,5,7
3,7,1,5
3,7,7,4
3,8,0,1
3,8,8,7
4,1,1,8
4,1,2,5
4,1,4,1
4,1,6,6
4,1,7,3
4,2,3,6
4,2,5,5
4,3,3,1
4,3,5,7
4,4,1,9
4,4,7,5
4,5,3,3
4,5,5,2
4,6,3,9
4,6,5,8
4,7,1,6
4,7,2,1
4,7,4,2
4,7,6,9
4,7,7,7
5,0,0,8
5,0,8,6
5,1,1,4
5,1,7,9
5,2,3,3
5,2,5,2
5,6,3,2
5,6,5,5
5,7,1,8
5,7,7,3
5,8,0,7
5,8,8,4
6,0,3,6
6,0,5,1
6,1,0,6
6,1,8,1
6,3,0,4
6,3,2,6
6,3,6,9
6,3,8,7
6,4,3,4
6,4,5,7
6,5,0,5
6,5,2,7
6,5,6,4
6,5,8,2
6,7,0,8
6,7,8,9
6,8,3,8
6,8,5,4
7,1,3,1
7,1,5,4
7,3,4,9
7,5,4,4
7,7,3,9
7,7,5,7
8,0,0,5
8,0,8,7
8,1,1,1
8,1,7,8
8,3,0,1
8,3,8,5
8,4,1,7
8,4,2,5
8,4,6,3
8,4,7,2
8,5,0,3
8,5,8,9
8,7,1,9
8,7,7,5
8,8,0,2
8,8,8,8
