0,0,1,8
0,0,3,9
0,0,5,4
0,0,7,2
0,2,3,6
0,2,5,2
0,4,4,9
0,6,3,3
0,6,5,8
0,8,1,1
0,8,3,5
0,8,5,9
0,8,7,7
1,2,3,3
1,2,5,8
1,3,1,6
1,3,4,8
1,3,7,9
1,4,1,5
1,4,3,6
1,4,5,2
1,4,7,8
1,5,1,8
1,5,4,4
1,5,7,2
1,6,3,9
1,6,5,4
2,1,1,5
2,1,7,3
2,3,4,5
2,5,4,6
2,7,1,8
2,7,7,2
3,0,0,2
3,0,2,4
3,0,6,6
3,0,8,9
3,1,4,1
3,3,1,2
3,3,7,6
3,5,1,6
3,5,7,7
3,7,4,4
3,8,0,8
3,8,2,6
3,8,6,1
3,8,8,7
4,0,4,2
4,3,0,8
4,3,8,7
4,4,0,1
4,4,8,6
4,5,0,3
4,5,8,2
4,8,4,1
5,0,0,3
5,0,2,7
5,0,6,8
5,0,8,2
5,1,4,4
5,3,1,3
5,3,7,8
5,5,1,1
5,5,7,3
5,7,4,2
5,8,0,5
5,8,2,1
5,8,6,4
5,8,8,3
6,1,1,8
6,1,7,2
6,3,4,3
6,5,4,9
6,7,1,2
6,7,7,9
7,2,3,7
7,2,5,6
7,3,1,9
7,3,4,6
7,3,7,1
7,4,1,1
7,4,3,9
7,4,5,4
7,4,7,7
7,5,1,2
7,5,4,1
7,5,7,4
7,6,3,1
7,6,5,3
8,0,1,2
8,0,3,3
8,0,5,8
8,0,7,5
8,2,3,4
8,2,5,5
8,4,4,8
8,6,3,7
8,6,5,6
8,8,1,7
8,8,3,8
8,8,5,1
8,8,7,4
