0,3,1,7
0,3,7,9
0,5,1,3
0,5,7,2
1,0,1,6
1,0,7,5
1,1,0,3
1,1,8,9
1,2,0,2
1,2,1,1
1,2,7,7
1,2,8,8
1,3,2,3
1,3,6,1
1,4,2,6
1,4,4,7
1,4,6,2
1,5,2,5
1,5,6,9
1,6,0,5
1,6,1,7
1,6,7,9
1,6,8,6
1,7,0,8
1,7,8,4
1,8,1,3
1,8,7,2
2,0,0,5
2,0,4,3
2,0,8,6
2,1,4,6
2,2,0,6
2,2,8,1
2,4,2,7
2,4,3,4
2,4,5,8
2,4,6,6
2,6,0,9
2,6,8,7
2,7,4,7
2,8,0,7
2,8,4,4
2,8,8,3
3,2,0,1
3,2,8,5
3,3,0,6
3,3,4,9
3,3,8,3
3,4,2,3
3,4,6,8
3,5,0,8
3,5,4,6
3,5,8,4
3,6,0,7
3,6,8,1
4,0,2,9
4,0,6,4
4,8,2,2
4,8,6,7
5,2,0,8
5,2,8,4
5,3,0,7
5,3,4,5
5,3,8,1
5,4,2,1
5,4,6,3
5,5,0,3
5,5,4,7
5,5,8,9
5,6,0,2
5,6,8,8
6,0,0,3
6,0,4,6
6,0,8,5
6,1,4,4
6,2,0,9
6,2,8,6
6,4,2,4
6,4,3,1
6,4,5,6
6,4,6,5
6,6,0,8
6,6,8,9
6,7,4,5
6,8,0,4
6,8,4,3
6,8,8,7
7,0,1,9
7,0,7,8
7,1,0,7
7,1,8,3
7,2,0,5
7,2,1,2
7,2,7,9
7,2,8,7
7,3,2,2
7,3,6,7
7,4,2,9
7,4,4,5
7,4,6,4
7,5,2,1
7,5,6,8
7,6,0,3
7,6,1,4
7,6,7,1
7,6,8,5
7,7,0,2
7,7,8,8
7,8,1,6
7,8,7,4
8,3,1,4
8,3,7,1
8,5,1,2
8,5,7,4
