1,0,1,1
1,0,4,4
1,0,7,7
1,1,0,4
1,1,8,8
1,2,3,3
1,2,5,1
1,3,3,7
1,3,5,6
1,4,2,6
1,4,6,5
1,5,3,4
1,5,5,5
1,6,3,8
1,6,5,3
1,7,0,1
1,7,8,7
1,8,1,4
1,8,4,6
1,8,7,8
2,0,0,9
2,0,2,4
2,0,6,3
2,0,8,1
2,3,4,8
2,5,4,6
2,8,0,6
2,8,2,2
2,8,6,9
2,8,8,4
3,0,1,4
3,0,7,1
3,1,2,3
3,1,6,6
3,4,1,6
3,4,3,3
3,4,5,1
3,4,7,9
3,7,2,4
3,7,6,1
3,8,1,3
3,8,7,6
4,0,1,7
4,0,2,2
4,0,6,9
4,0,7,5
4,2,1,8
4,2,7,6
4,3,2,9
4,3,6,1
4,5,2,6
4,5,6,5
4,6,1,1
4,6,7,2
4,8,1,9
4,8,2,5
4,8,6,8
4,8,7,1
5,0,1,3
5,0,7,2
5,1,2,7
5,1,6,4
5,4,1,5
5,4,3,7
5,4,5,6
5,4,7,1
5,7,2,1
5,7,6,6
5,8,1,2
5,8,7,4
6,0,0,3
6,0,2,1
6,0,6,2
6,0,8,7
6,3,4,7
6,5,4,4
6,8,0,9
6,8,2,4
6,8,6,1
6,8,8,8
7,0,1,2
7,0,4,1
7,0,7,4
7,1,0,1
7,1,8,6
7,2,3,7
7,2,5,6
7,3,3,9
7,3,5,4
7,4,2,9
7,4,6,1
7,5,3,3
7,5,5,1
7,6,3,6
7,6,5,2
7,7,0,6
7,7,8,4
7,8,1,8
7,8,4,4
7,8,7,7
